{
  "ALL": [
    [
      10.0,
      10.0
    ],
    [
      10.0,
      10.0
    ],
    [
      0.0,
      10.0
    ],
    [
      0.0,
      10.0
    ],
    [
      0.0,
      10.0
    ],
    [
      0.0,
      10.0
    ],
    [
      0.0,
      10.0
    ],
    [
      0.0,
      10.0
    ],
    [
      20.0,
      10.0
    ],
    [
      20.0,
      10.0
    ],
    [
      10.0,
      10.0
    ],
    [
      10.0,
      10.0
    ],
    [
      0.0,
      10.0
    ],
    [
      0.0,
      10.0
    ],
    [
      10.0,
      10.0
    ],
    [
      10.0,
      10.0
    ],
    [
      10.0,
      10.0
    ],
    [
      10.0,
      10.0
    ],
    [
      10.0,
      10.0
    ],
    [
      10.0,
      10.0
    ],
    [
      10.0,
      10.0
    ],
    [
      10.0,
      10.0
    ],
    [
      11.11111111111111,
      11.11111111111111
    ],
    [
      11.11111111111111,
      11.11111111111111
    ],
    [
      0.0,
      10.0
    ],
    [
      0.0,
      10.0
    ],
    [
      0.0,
      10.0
    ],
    [
      0.0,
      10.0
    ],
    [
      0.0,
      10.0
    ],
    [
      0.0,
      10.0
    ],
    [
      0.0,
      10.0
    ],
    [
      0.0,
      10.0
    ],
    [
      10.0,
      10.0
    ],
    [
      10.0,
      10.0
    ],
    [
      0.0,
      10.0
    ],
    [
      0.0,
      10.0
    ],
    [
      0.0,
      10.0
    ],
    [
      0.0,
      10.0
    ],
    [
      0.0,
      11.11111111111111
    ],
    [
      0.0,
      11.11111111111111
    ],
    [
      0.0,
      11.11111111111111
    ],
    [
      0.0,
      11.11111111111111
    ],
    [
      0.0,
      10.0
    ],
    [
      0.0,
      10.0
    ],
    [
      0.0,
      10.0
    ],
    [
      0.0,
      10.0
    ],
    [
      0.0,
      10.0
    ],
    [
      0.0,
      10.0
    ],
    [
      0.0,
      10.0
    ],
    [
      0.0,
      10.0
    ],
    [
      11.11111111111111,
      11.11111111111111
    ],
    [
      11.11111111111111,
      11.11111111111111
    ],
    [
      0.0,
      10.0
    ],
    [
      0.0,
      10.0
    ],
    [
      0.0,
      10.0
    ],
    [
      0.0,
      10.0
    ],
    [
      0.0,
      10.0
    ],
    [
      0.0,
      10.0
    ],
    [
      0.0,
      10.0
    ],
    [
      0.0,
      10.0
    ],
    [
      0.0,
      10.0
    ],
    [
      0.0,
      10.0
    ],
    [
      0.0,
      10.0
    ],
    [
      0.0,
      10.0
    ],
    [
      10.0,
      10.0
    ],
    [
      10.0,
      10.0
    ],
    [
      0.0,
      10.0
    ],
    [
      0.0,
      10.0
    ],
    [
      11.11111111111111,
      11.11111111111111
    ],
    [
      11.11111111111111,
      11.11111111111111
    ],
    [
      0.0,
      10.0
    ],
    [
      0.0,
      10.0
    ],
    [
      0.0,
      10.0
    ],
    [
      0.0,
      10.0
    ],
    [
      10.0,
      10.0
    ],
    [
      10.0,
      10.0
    ],
    [
      0.0,
      10.0
    ],
    [
      0.0,
      10.0
    ],
    [
      0.0,
      10.0
    ],
    [
      0.0,
      10.0
    ],
    [
      10.0,
      10.0
    ],
    [
      10.0,
      10.0
    ],
    [
      0.0,
      10.0
    ],
    [
      0.0,
      10.0
    ],
    [
      10.0,
      10.0
    ],
    [
      10.0,
      10.0
    ],
    [
      0.0,
      10.0
    ],
    [
      0.0,
      10.0
    ],
    [
      0.0,
      10.0
    ],
    [
      0.0,
      10.0
    ],
    [
      0.0,
      10.0
    ],
    [
      0.0,
      10.0
    ],
    [
      0.0,
      10.0
    ],
    [
      0.0,
      10.0
    ],
    [
      0.0,
      10.0
    ],
    [
      0.0,
      10.0
    ],
    [
      10.0,
      10.0
    ],
    [
      10.0,
      10.0
    ],
    [
      10.0,
      10.0
    ],
    [
      10.0,
      10.0
    ],
    [
      0.0,
      10.0
    ],
    [
      0.0,
      10.0
    ],
    [
      0.0,
      10.0
    ],
    [
      0.0,
      10.0
    ],
    [
      10.0,
      10.0
    ],
    [
      10.0,
      10.0
    ],
    [
      10.0,
      10.0
    ],
    [
      10.0,
      10.0
    ],
    [
      10.0,
      10.0
    ],
    [
      10.0,
      10.0
    ],
    [
      0.0,
      10.0
    ],
    [
      0.0,
      10.0
    ],
    [
      0.0,
      10.0
    ],
    [
      0.0,
      10.0
    ],
    [
      9.090909090909092,
      9.090909090909092
    ],
    [
      9.090909090909092,
      9.090909090909092
    ],
    [
      10.0,
      10.0
    ],
    [
      10.0,
      10.0
    ],
    [
      0.0,
      10.0
    ],
    [
      0.0,
      10.0
    ],
    [
      0.0,
      11.11111111111111
    ],
    [
      0.0,
      11.11111111111111
    ],
    [
      0.0,
      10.0
    ],
    [
      0.0,
      10.0
    ],
    [
      0.0,
      11.11111111111111
    ],
    [
      0.0,
      11.11111111111111
    ],
    [
      10.0,
      10.0
    ],
    [
      10.0,
      10.0
    ],
    [
      0.0,
      10.0
    ],
    [
      0.0,
      10.0
    ],
    [
      11.11111111111111,
      11.11111111111111
    ],
    [
      11.11111111111111,
      11.11111111111111
    ],
    [
      0.0,
      10.0
    ],
    [
      0.0,
      10.0
    ],
    [
      0.0,
      10.0
    ],
    [
      0.0,
      10.0
    ],
    [
      0.0,
      10.0
    ],
    [
      0.0,
      10.0
    ],
    [
      0.0,
      10.0
    ],
    [
      0.0,
      10.0
    ],
    [
      0.0,
      10.0
    ],
    [
      0.0,
      10.0
    ],
    [
      0.0,
      10.0
    ],
    [
      0.0,
      10.0
    ],
    [
      10.0,
      10.0
    ],
    [
      10.0,
      10.0
    ],
    [
      10.0,
      10.0
    ],
    [
      10.0,
      10.0
    ],
    [
      10.0,
      10.0
    ],
    [
      10.0,
      10.0
    ],
    [
      10.0,
      10.0
    ],
    [
      10.0,
      10.0
    ],
    [
      0.0,
      10.0
    ],
    [
      0.0,
      10.0
    ],
    [
      0.0,
      10.0
    ],
    [
      0.0,
      10.0
    ],
    [
      10.0,
      10.0
    ],
    [
      10.0,
      10.0
    ]
  ],
  "TIMEOUT": [
    [
      10.0,
      10.0
    ],
    [
      20.0,
      10.0
    ],
    [
      10.0,
      10.0
    ],
    [
      10.0,
      10.0
    ],
    [
      10.0,
      10.0
    ],
    [
      10.0,
      10.0
    ],
    [
      10.0,
      10.0
    ],
    [
      11.11111111111111,
      11.11111111111111
    ],
    [
      10.0,
      10.0
    ],
    [
      11.11111111111111,
      11.11111111111111
    ],
    [
      10.0,
      10.0
    ],
    [
      11.11111111111111,
      11.11111111111111
    ],
    [
      10.0,
      10.0
    ],
    [
      10.0,
      10.0
    ],
    [
      10.0,
      10.0
    ],
    [
      10.0,
      10.0
    ],
    [
      10.0,
      10.0
    ],
    [
      10.0,
      10.0
    ],
    [
      10.0,
      10.0
    ],
    [
      10.0,
      10.0
    ],
    [
      9.090909090909092,
      9.090909090909092
    ],
    [
      10.0,
      10.0
    ],
    [
      10.0,
      10.0
    ],
    [
      11.11111111111111,
      11.11111111111111
    ],
    [
      10.0,
      10.0
    ],
    [
      10.0,
      10.0
    ],
    [
      10.0,
      10.0
    ],
    [
      10.0,
      10.0
    ],
    [
      10.0,
      10.0
    ]
  ]
}