{
  "1200": 3717289907,
  "1201": 3693031414,
  "1202": 3697589254,
  "1203": 3669888777,
  "1204": 3643160889,
  "1205": 3669739406,
  "1206": 3713869139,
  "1207": 3649481546,
  "1208": 3718843710,
  "1209": 3772792370,
  "1210": 3752341330,
  "1211": 3688210110,
  "1212": 3655195032,
  "1213": 3695044748,
  "1214": 3668497907,
  "1215": 3641135447,
  "1216": 3716098648,
  "1217": 3705416086,
  "1218": 3725435659,
  "1219": 3747596966,
  "1220": 3703195974,
  "1221": 3705042141,
  "1222": 3712350097,
  "1223": 3704094177,
  "1224": 3668217248,
  "1225": 3702999476,
  "1226": 3671381050,
  "1227": 3689004416,
  "1228": 3657232004,
  "1229": 3632018345,
  "1230": 3655255439,
  "1231": 3654255955,
  "1232": 3643462947,
  "1233": 3684992610,
  "1234": 3714596252,
  "1235": 3722862501,
  "1236": 3696952066,
  "1237": 3665845381,
  "1238": 3717596125,
  "1239": 3748326263,
  "1240": 3768947939,
  "1241": 3735032517,
  "1242": 3704780104,
  "1243": 3674970050,
  "1244": 3729364150,
  "1245": 3715207962,
  "1246": 3693674677,
  "1247": 3717299899,
  "1248": 3687524308,
  "1249": 3687646175,
  "1250": 3725987993,
  "1251": 3633458269,
  "1252": 3657313416,
  "1253": 3677338067,
  "1254": 3664893442,
  "1255": 3637371384,
  "1256": 3669547244,
  "1257": 3749533806,
  "1258": 3686572019,
  "1259": 3679195230,
  "1260": 3653641191,
  "1261": 3634575796,
  "1262": 3695127526,
  "1263": 3757837376,
  "1264": 3738062188,
  "1265": 3720973270,
  "1266": 3717937472,
  "1267": 3728548305,
  "1268": 3767986124,
  "1269": 3731953202,
  "1270": 3736339895,
  "1271": 3708972096,
  "1272": 3622542221,
  "1273": 3656997773,
  "1274": 3711617247,
  "1275": 3654649046,
  "1276": 3695065856,
  "1277": 3683713291,
  "1278": 3700716599,
  "1279": 3692383554,
  "1280": 3677155465,
  "1281": 3627977588,
  "1282": 3719818687,
  "1283": 3706879451,
  "1284": 3702519810,
  "1285": 3719377947,
  "1286": 3741872551,
  "1287": 3751564441,
  "1288": 3767932502,
  "1289": 3707498613,
  "1290": 3721977589,
  "1291": 3709667399,
  "1292": 3714630368,
  "1293": 3727872313,
  "1294": 3687632165,
  "1295": 3747577404,
  "1296": 3770332882,
  "1297": 3703006414,
  "1298": 3725946386,
  "1299": 3657683629,
  "1300": 3721661330,
  "1301": 3677153552,
  "1302": 3698028862,
  "1303": 3680966700,
  "1304": 3669686040,
  "1305": 3645635958,
  "1306": 3646623035,
  "1307": 3691587607,
  "1308": 3690804924,
  "1309": 3682669350,
  "1310": 3657592748,
  "1311": 3694846808,
  "1312": 3660641191,
  "1313": 3728945269,
  "1314": 3768543650,
  "1315": 3706923821,
  "1316": 3712802424,
  "1317": 3753347524,
  "1318": 3722743918,
  "1319": 3663900403,
  "1320": 3717220446,
  "1321": 3678476101,
  "1322": 3638585410,
  "1323": 3686243364,
  "1324": 3680894537,
  "1325": 3752893635,
  "1326": 3799784282,
  "1327": 3746569814,
  "1328": 3755193357,
  "1329": 3754355740,
  "1330": 3692046994,
  "1331": 3722925061,
  "1332": 3741519934,
  "1333": 3675216375,
  "1334": 3690543018,
  "1335": 3692812635,
  "1336": 3674552113,
  "1337": 3717696139,
  "1338": 3728662704,
  "1339": 3725564728,
  "1340": 3735813010,
  "1341": 3752313934,
  "1342": 3725164559,
  "1343": 3739558915,
  "1344": 3726193895,
  "1345": 3746249928,
  "1346": 3742418009,
  "1347": 3655597408,
  "1348": 3724313420,
  "1349": 3703398998,
  "1350": 3712102232,
  "1351": 3725997875,
  "1352": 3716175781,
  "1353": 3704025039,
  "1354": 3702331474,
  "1355": 3693853332,
  "1356": 3656571399,
  "1357": 3673278425,
  "1358": 3686231974,
  "1359": 3735191924,
  "1360": 3674884474,
  "1361": 3682672512,
  "1362": 3677076336,
  "1363": 3737212729,
  "1364": 3733447449,
  "1365": 3741678201,
  "1366": 3714951670,
  "1367": 3670777214,
  "1368": 3699099708,
  "1369": 3744669988,
  "1370": 3753431344,
  "1371": 3705716849,
  "1372": 3762626520,
  "1373": 3696860000,
  "1374": 3714071091,
  "1375": 3678367886,
  "1376": 3688762393,
  "1377": 3707174896,
  "1378": 3724643498,
  "1379": 3730347428,
  "1380": 3677882847,
  "1381": 3686647001,
  "1382": 3636809295,
  "1383": 3691776748,
  "1384": 3698464277,
  "1385": 3700856496,
  "1386": 3647481833,
  "1387": 3673828023,
  "1388": 3722798642,
  "1389": 3722212754,
  "1390": 3753842307,
  "1391": 3722244918,
  "1392": 3712230362,
  "1393": 3720242929,
  "1394": 3724928905,
  "1395": 3680313823,
  "1396": 3729705155,
  "1397": 3728262528,
  "1398": 3698084564,
  "1399": 3727526856,
  "1400": 3730368378,
  "1401": 3668354778,
  "1402": 3702397181,
  "1403": 3669987327,
  "1404": 3734646148,
  "1405": 3724821279,
  "1406": 3712715080,
  "1407": 3732596187,
  "1408": 3727810361,
  "1409": 3703992775,
  "1410": 3671727786,
  "1411": 3698973358,
  "1412": 3714571814,
  "1413": 3738467923,
  "1414": 3755494474,
  "1415": 3733978648,
  "1416": 3704219280,
  "1417": 3668898943,
  "1418": 3682318501,
  "1419": 3669936472,
  "1420": 3708230083,
  "1421": 3686814257,
  "1422": 3703254809,
  "1423": 3679908526,
  "1424": 3706984327,
  "1425": 3702147206,
  "1426": 3750213506,
  "1427": 3718592061,
  "1428": 3753609270,
  "1429": 3736179322,
  "1430": 3700017262,
  "1431": 3653770630,
  "1432": 3691656617,
  "1433": 3710393347,
  "1434": 3704270726,
  "1435": 3640189842,
  "1436": 3654662086,
  "1437": 3695531137,
  "1438": 3708460526,
  "1439": 3712484926,
  "1440": 3670527948,
  "1441": 3664679200,
  "1442": 3729459919,
  "1443": 3722184715,
  "1444": 3703664531,
  "1445": 3740649299,
  "1446": 3763368964,
  "1447": 3688366325,
  "1448": 3707828608,
  "1449": 3758031556,
  "1450": 3742377190,
  "1451": 3709198594,
  "1452": 3719118585,
  "1453": 3706090902,
  "1454": 3714255220,
  "1455": 3703398185,
  "1456": 3718137317,
  "1457": 3692074248,
  "1458": 3720743929,
  "1459": 3733789424,
  "1460": 3733336996,
  "1461": 3800004523,
  "1462": 3797229997,
  "1463": 3744004036,
  "1464": 3719127622,
  "1465": 3727080509,
  "1466": 3621710754,
  "1467": 3679869768,
  "1468": 3705724687,
  "1469": 3714247609,
  "1470": 3704140985,
  "1471": 3705601424,
  "1472": 3692105710,
  "1473": 3703599803,
  "1474": 3801546406,
  "1475": 3765350324,
  "1476": 3771638374,
  "1477": 3738937961,
  "1478": 3735177996,
  "1479": 3770781637,
  "1480": 3716904557,
  "1481": 3689528677,
  "1482": 3701277876,
  "1483": 3694786989,
  "1484": 3764551596,
  "1485": 3751892961,
  "1486": 3768999615,
  "1487": 3743860687,
  "1488": 3748859574,
  "1489": 3785869233,
  "1490": 3762196311,
  "1491": 3772255563,
  "1492": 3720686817,
  "1493": 3677862247,
  "1494": 3735447244,
  "1495": 3757400699,
  "1496": 3726030036,
  "1497": 3711165521,
  "1498": 3714929226,
  "1499": 3679522737,
  "1500": 3707323109,
  "1501": 3791525639,
  "1502": 3789414114,
  "1503": 3737558827,
  "1504": 3760968909,
  "1505": 3746915052,
  "1506": 3722286778,
  "1507": 3676970627,
  "1508": 3673635297,
  "1509": 3680887896,
  "1510": 3733770779,
  "1511": 3717177547,
  "1512": 3688751757,
  "1513": 3748437267,
  "1514": 3724502278,
  "1515": 3765203264,
  "1516": 3774690674,
  "1517": 3746897191,
  "1518": 3795589978,
  "1519": 3789906583,
  "1520": 3776200777,
  "1521": 3799906956,
  "1522": 3773396104,
  "1523": 3801829552,
  "1524": 3778898787,
  "1525": 3792356080,
  "1526": 3757766716,
  "1527": 3734782355,
  "1528": 3755631845,
  "1529": 3704010444,
  "1530": 3700610275,
  "1531": 3725449427,
  "1532": 3748137882,
  "1533": 3788053167,
  "1534": 3776498196,
  "1535": 3763837406,
  "1536": 3779579303,
  "1537": 3754522751,
  "1538": 3732746941,
  "1539": 3730866954,
  "1540": 3665976297,
  "1541": 3697495886,
  "1542": 3767602948,
  "1543": 3811116642,
  "1544": 3791125168,
  "1545": 3784752825,
  "1546": 3770781878,
  "1547": 3773683971,
  "1548": 3767559655,
  "1549": 3785369354,
  "1550": 3741184891,
  "1551": 3719128947,
  "1552": 3759441599,
  "1553": 3739602875,
  "1554": 3704256643,
  "1555": 3715334041,
  "1556": 3767035199,
  "1557": 3800733995,
  "1558": 3763196671,
  "1559": 3758986308,
  "1560": 3787687080,
  "1561": 3762892080,
  "1562": 3781872154,
  "1563": 3793679081,
  "1564": 3780097683,
  "1565": 3754183588,
  "1566": 3814071340,
  "1567": 3756033232,
  "1568": 3753485609,
  "1569": 3768327808,
  "1570": 3786895119,
  "1571": 3749805555,
  "1572": 3794361222,
  "1573": 3795942623,
  "1574": 3798341835,
  "1575": 3750432676,
  "1576": 3674935092,
  "1577": 3704787247,
  "1578": 3746096600,
  "1579": 3783259849,
  "1580": 3807970442,
  "1581": 3800664085,
  "1582": 3756496399,
  "1583": 3792220399,
  "1584": 3775143658,
  "1585": 3779896455,
  "1586": 3722011888,
  "1587": 3702883505,
  "1588": 3729538217,
  "1589": 3773819259,
  "1590": 3753990078,
  "1591": 3771732285,
  "1592": 3732909041,
  "1593": 3698818632,
  "1594": 3748105950,
  "1595": 3774598352,
  "1596": 3789316520,
  "1597": 3795148902,
  "1598": 3783299435,
  "1599": 3820172744,
  "1600": 3753568400,
  "1601": 3779316276,
  "1602": 3772210570,
  "1603": 3776122026,
  "1604": 3761372701,
  "1605": 3775509232,
  "1606": 3773875983,
  "1607": 3788134294,
  "1608": 3833436659,
  "1609": 3818190039,
  "1610": 3832062731,
  "1611": 3745946240,
  "1612": 3734065629,
  "1613": 3735668606,
  "1614": 3737665317,
  "1615": 3768902508,
  "1616": 3775789134,
  "1617": 3751203582,
  "1618": 3781032179,
  "1619": 3743611480,
  "1620": 3745252234,
  "1621": 3744029480,
  "1622": 3807183797,
  "1623": 3832910984,
  "1624": 3797260731,
  "1625": 3760202376,
  "1626": 3785097268,
  "1627": 3757631933,
  "1628": 3704177677,
  "1629": 3721714465,
  "1630": 3702559541,
  "1631": 3688922106,
  "1632": 3716981703,
  "1633": 3728923771,
  "1634": 3701929136,
  "1635": 3682445991,
  "1636": 3669324847,
  "1637": 3678843988,
  "1638": 3700218816,
  "1639": 3740598525,
  "1640": 3780249412,
  "1641": 3741993838,
  "1642": 3781052910,
  "1643": 3811387321,
  "1644": 3809225923,
  "1645": 3729436550,
  "1646": 3729828540,
  "1647": 3695978703,
  "1648": 3693671354,
  "1649": 3736996990,
  "1650": 3720151133,
  "1651": 3749887588,
  "1652": 3757253867,
  "1653": 3780771495,
  "1654": 3739476820,
  "1655": 3811046552,
  "1656": 3848311988,
  "1657": 3798756085,
  "1658": 3801761479,
  "1659": 3749741037,
  "1660": 3685687792,
  "1661": 3645972822,
  "1662": 3636271648,
  "1663": 3659237498,
  "1664": 3686860849,
  "1665": 3715659253,
  "1666": 3769451863,
  "1667": 3722177971,
  "1668": 3732953284,
  "1669": 3773545683,
  "1670": 3768403693,
  "1671": 3742707912,
  "1672": 3738090097,
  "1673": 3772567611,
  "1674": 3762303145,
  "1675": 3738519049,
  "1676": 3745541568,
  "1677": 3773054486,
  "1678": 3770113580,
  "1679": 3725025013,
  "1680": 3721346277,
  "1681": 3676226866,
  "1682": 3761490167,
  "1683": 3761336828,
  "1684": 3789906647,
  "1685": 3739040973,
  "1686": 3729242282,
  "1687": 3808739555,
  "1688": 3799154849,
  "1689": 3745561328,
  "1690": 3663812633,
  "1691": 3765696623,
  "1692": 3767586370,
  "1693": 3754314776,
  "1694": 3746535764,
  "1695": 3772080408,
  "1696": 3803531304,
  "1697": 3825608039,
  "1698": 3748986344,
  "1699": 3785135955,
  "1700": 3785979033,
  "1701": 3825916352,
  "1702": 3788874522,
  "1703": 3775213000,
  "1704": 3772631047,
  "1705": 3772229517,
  "1706": 3828004381,
  "1707": 3832341367,
  "1708": 3798369010,
  "1709": 3812204663,
  "1710": 3822409684,
  "1711": 3773970217,
  "1712": 3783562183,
  "1713": 3702451171,
  "1714": 3736932822,
  "1715": 3735071240,
  "1716": 3770858005,
  "1717": 3740464194,
  "1718": 3714505816,
  "1719": 3716941576,
  "1720": 3732331603,
  "1721": 3744694788,
  "1722": 3766872205,
  "1723": 3708295574,
  "1724": 3730604492,
  "1725": 3738832013,
  "1726": 3725916940,
  "1727": 3714467281,
  "1728": 3763564416,
  "1729": 3766530391,
  "1730": 3793111739,
  "1731": 3813338705,
  "1732": 3776837949,
  "1733": 3744066946,
  "1734": 3762109298,
  "1735": 3730222856,
  "1736": 3731515015,
  "1737": 3735597350,
  "1738": 3748848343,
  "1739": 3743274933,
  "1740": 3713426538,
  "1741": 3745290775,
  "1742": 3749536009,
  "1743": 3729897246,
  "1744": 3760925472,
  "1745": 3729054599,
  "1746": 3703635329,
  "1747": 3725181924,
  "1748": 3662526877,
  "1749": 3731519671,
  "1750": 3743456551,
  "1751": 3778201920,
  "1752": 3743734921,
  "1753": 3748497010,
  "1754": 3753498469,
  "1755": 3754430467,
  "1756": 3760755380,
  "1757": 3755173067,
  "1758": 3756588462,
  "1759": 3772156948,
  "1760": 3769761393,
  "1761": 3768418825,
  "1762": 3768862467,
  "1763": 3722875336,
  "1764": 3702077665,
  "1765": 3684405790,
  "1766": 3689569437,
  "1767": 3724700911,
  "1768": 3733277840,
  "1769": 3730550383,
  "1770": 3722566193,
  "1771": 3765437651,
  "1772": 3732787045,
  "1773": 3792842367,
  "1774": 3766646756,
  "1775": 3803298731,
  "1776": 3822619419,
  "1777": 3746780109,
  "1778": 3746029738,
  "1779": 3802032138,
  "1780": 3778034349,
  "1781": 3776605179,
  "1782": 3746339211,
  "1783": 3721056538,
  "1784": 3668733772,
  "1785": 3680139541,
  "1786": 3710848379,
  "1787": 3736968092,
  "1788": 3767394805,
  "1789": 3747207215,
  "1790": 3732181054,
  "1791": 3770940206,
  "1792": 3749072072,
  "1793": 3711596040,
  "1794": 3735213631,
  "1795": 3708473951,
  "1796": 3748664672,
  "1797": 3805191136,
  "1798": 3802331366,
  "1799": 3757206983
}