[
  3.3326332259563998,
  2.553805364940735,
  2.2585434318936404,
  2.0650453338929236,
  3.271330875290273,
  2.907492897727273,
  2.995724209695939,
  6.3077812018489965,
  5.429376657824932,
  5.309662775616084,
  3.6068281938325986,
  2.767917511832319,
  5.686577385375964,
  2.6467298541429596,
  2.436755952380953,
  2.5730672532998127,
  3.2645534290271145,
  6.416536050156741,
  6.25,
  10.014335023691933,
  8.546450939457205,
  4.378342245989304,
  4.6197136369996885,
  5.944774407156239,
  2.340623213264723,
  4.440075921908895,
  2.899256373937677,
  6.259556574923548,
  3.776522140221402,
  4.9144657863145245,
  5.487600536193028,
  7.284252669039148,
  6.7923510867761765,
  1.6342315369261478,
  10.196799792763668,
  4.021365422396857,
  4.464285714285715,
  4.604893138357704,
  6.100968703427718,
  3.2726515452511276,
  5.580326715775816,
  4.544082175875821,
  7.68206614036108,
  5.607876712328768,
  1.9596696984202973,
  1.267807370703004,
  2.4549945158046182,
  2.214034613304489,
  3.559714509809378,
  3.9999511456348626,
  3.1154870624048714,
  3.29609500805153,
  4.6257062146892665,
  2.222448425624322,
  6.915118243243242,
  4.14347165991903,
  3.955314009661837,
  3.0234490398818314,
  3.6473962379808533,
  5.453265431991871,
  5.6934500464516,
  5.950218023255813,
  1.8952546296296295,
  11.277548209366392,
  6.70491024633124,
  6.1043165253074685,
  6.962159863945577,
  5.091728855721391,
  9.396662535004358,
  11.004704301075272,
  4.873511904761906,
  5.898775216138329,
  8.399089872056857,
  1.8787287746672792,
  2.7660472972972965,
  2.3814717859220473,
  2.6962028901319135,
  2.6543648943668128,
  5.202826016227098,
  5.55461329715061,
  2.6779955281154364,
  2.8572116545619752,
  2.8946151496467416,
  3.632431233362911,
  2.597557106598984,
  3.3527846027846024,
  3.1924210073194668,
  9.721377888807616,
  6.997863247863245,
  2.898246503343028,
  3.5199914015477205,
  0.5274091728935842,
  0.7779836564044089,
  1.31252003847387,
  0.6150465745192308,
  0.33094179466451096,
  6.975244378485493,
  5.509757738896363,
  4.721741637831603,
  1.746480375426621,
  5.993777452415814,
  6.250000000000002,
  2.6565541855937695,
  5.733543417366947,
  5.214968152866241,
  8.047568872445908,
  3.391673570836786,
  2.9095593461265103,
  2.6462508080155143,
  2.1568756585879867,
  3.0459449404761916,
  1.9228511038046034,
  1.4132231775850632,
  3.2907958199356906,
  2.99250730994152,
  6.611823191570462,
  7.310267857142857,
  4.50357535753575,
  0.14339883704637804,
  4.17983367452688,
  3.886170217815392,
  3.2897697502708163,
  3.814480443304358,
  2.6074840764331206,
  3.4143035863219353,
  3.249007936507936,
  2.2185689410645115,
  2.78486394557823,
  2.7021951560820923,
  1.8354940040155552,
  2.1924598127137234,
  2.3050536912109254,
  2.294567864559542,
  2.07808577018237,
  2.2730225605991277,
  2.5222326140773084,
  2.4901155717761556,
  3.00414177127501,
  2.449880311190903,
  2.53169449598021,
  2.9579887916159673,
  2.5617959949937426,
  1.8752863032524043,
  3.1154870624048705,
  3.5536024305555554,
  3.2259653270291566,
  4.9741798298906446,
  2.5223351817621693,
  5.06500528307116,
  3.249807492319539,
  3.0980891931837866,
  8.304898038674704,
  4.734574683397906,
  2.23824494259158,
  5.888279824002462,
  3.1273873185637897,
  1.4516843971631208,
  6.288402457757298,
  7.933624031007752,
  7.389440433212993,
  2.1786854709952097,
  2.195176750940005,
  3.1154870624048705,
  2.5909810126582276,
  4.992378048780491,
  2.581179066834804,
  3.2107843137254917,
  3.3255483346872463,
  3.5847197898423806,
  1.5793788580246912,
  3.776522140221402,
  3.0107345787876616,
  3.3469979421328064,
  7.249565690140945,
  7.107204861111111,
  11.004704301075272,
  3.5321397756686803,
  6.7110655737704885,
  6.880252100840339,
  9.79834849210148,
  2.3567933218192283,
  2.3940058479532165,
  3.259355095541401,
  2.2579977937120788,
  2.4961890243902443,
  2.3968091334894623,
  2.473564954682779,
  3.0989780469341413,
  3.5233845147519536,
  1.7881674095978994,
  2.36821994898818,
  3.408617818484596,
  4.365474601068933,
  2.670417482061318,
  3.8330992509363293,
  2.8667717086834728,
  3.380470685383982,
  1.9998778700537374,
  3.18332037325039,
  3.6847434743474357,
  4.620485327313769,
  6.971573859940127,
  0.5458333333333333,
  2.316266000977712,
  3.7091215169366967,
  2.4961890243902443,
  2.37104415716801,
  3.243129121497222,
  2.534829721362229,
  2.700362796833773,
  2.2870111731843576,
  2.870792426367461,
  2.737448360439784,
  3.6684155581144218,
  1.768358531317495,
  2.8045011772910584,
  2.1674800949217308,
  2.8580474587725564,
  4.114321608040201,
  2.415191740412979,
  2.0571608040201004,
  2.5909810126582276,
  5.6621715076071935,
  3.7975417439703176,
  5.168876262626262,
  5.443816489361702,
  2.9261972837741244,
  2.0571608040201013,
  2.081215048296899,
  3.698057813911472,
  3.4689357072222498,
  3.3516783567749533,
  3.1477454645553293,
  2.4674269506008315,
  2.8805937171920175,
  3.9075326252128564,
  3.4286013400334996,
  5.994865832156938,
  8.546450939457209,
  5.414404465106439,
  10.262674324449675,
  5.890287769784174,
  3.13457120980092,
  6.037979351032445,
  5.814985795454546,
  2.938801148600144,
  3.054729560827827,
  2.5084252450980395,
  10.260025062656641,
  7.182017543859651,
  3.4260733914088526,
  2.0195694117681877,
  3.277622097678142,
  2.8931095406360425,
  1.6627741673436238,
  1.908482356182597,
  1.9271498518772028,
  2.4524633965157805,
  2.2560341853587995,
  2.3433028048082427,
  2.8951248749129253,
  3.010110294117647,
  4.313751317175975,
  7.006894356144498,
  6.755363036303629,
  3.0482129560685025,
  5.393610013175231,
  4.4352654387865655,
  2.91141545107293,
  4.563823857302117,
  3.059695357110825,
  1.742021276595745,
  3.4854396954013063,
  4.716519194432923,
  4.239833461930826,
  4.959416076079714,
  1.328277092796885,
  5.684926941311419,
  1.8650341685649208,
  1.757728638900816,
  2.240695128626163,
  3.050532087312841,
  3.5722076788830717,
  3.660939132052254,
  2.5779282115869018,
  2.5802631222334065,
  2.280640668523677,
  2.904526485024528,
  3.2828789093825184,
  6.012289670831272,
  5.546470446373164,
  5.228288633461048,
  5.790311173974541,
  5.507919294771059,
  2.8547768479776843,
  2.6582792207792205,
  3.3339631384819364,
  3.0939424857348006,
  2.4266449318316536,
  3.3860628618693145,
  2.0561275740833755,
  4.667901938426455,
  3.358285479901559,
  2.519531562537313,
  2.4194739952718685,
  2.5538053649407364,
  2.4525588988572196,
  3.0346553002223864,
  1.215483966745843,
  1.123730441943453,
  1.888261070110701,
  2.457232893157263,
  4.5385254988913495,
  2.4977120195240996,
  2.715758063852737,
  6.6707023567235,
  3.964130849483586,
  5.035362853628535,
  5.790311173974541,
  2.985959153902261,
  5.717527932960892,
  4.478938730853391,
  5.358311518324609,
  5.358311518324607,
  6.55,
  8.61842105263158,
  2.985959153902261,
  4.420896328293738,
  2.441115086463923,
  2.6367842922049736,
  5.98501461988304,
  4.336599576271187,
  3.191109559024711,
  6.996380254441794,
  3.528416519927635,
  3.0648356387136184,
  3.058449538851182,
  2.2730427540255413,
  2.8060909738977853,
  2.66672789962485,
  1.7091695826056539,
  2.9986998003918917,
  3.045217622874299
]