{
  "ram": {
    "bytes_used_max": 144311451648,
    "gib_used_max": 134.4005126953125,
    "gib_used_per_minute": {
      "0": 2.151053237915039,
      "1": 3.5216088788262727,
      "2": 3.6484277369612355,
      "3": 4.998191251593121,
      "4": 5.958449282888639,
      "5": 6.43030767925715,
      "6": 6.806302539372848,
      "7": 7.140674267785024,
      "8": 7.520124303883519,
      "9": 7.921150272175417,
      "10": 10.640036566782806,
      "11": 11.549630827822927,
      "12": 12.737181712005098,
      "13": 13.564424777853079,
      "14": 14.193945739228846,
      "15": 14.881467011015294,
      "16": 15.649649733203953,
      "17": 16.51700184263032,
      "18": 17.269233186366193,
      "19": 18.09414763369803,
      "20": 19.01956700470488,
      "21": 19.928467831369172,
      "22": 21.114336240089546,
      "23": 22.172274573374605,
      "24": 22.97027665477688,
      "25": 23.82661922907425,
      "26": 24.665137468758275,
      "27": 25.510246664790785,
      "28": 26.37891187506207,
      "29": 27.10217724816274,
      "30": 27.779704336392676,
      "31": 28.42862837193376,
      "32": 29.054076830546062,
      "33": 29.690056429070943,
      "34": 30.39326561103433,
      "35": 30.876303204035356,
      "36": 31.289456577624303,
      "37": 31.723471819344212,
      "38": 32.159147553524726,
      "39": 32.584014300642345,
      "40": 33.0497155270334,
      "41": 33.454098523673366,
      "42": 33.802867113533665,
      "43": 34.1435423382258,
      "44": 34.470951080322266,
      "45": 34.73879106165999,
      "46": 35.15937643536066,
      "47": 35.495393462100274,
      "48": 35.75165834098026,
      "49": 36.07300341331353,
      "50": 36.407516673459845,
      "51": 36.71980906341035,
      "52": 37.11407548290188,
      "53": 37.398497500662074,
      "54": 37.67228802179886,
      "55": 37.987791610976394,
      "56": 38.290137468758275,
      "57": 38.58406603538384,
      "58": 38.93983776286497,
      "59": 39.2308468576205,
      "60": 39.44601233530853,
      "61": 39.71515162237759,
      "62": 39.97536804716466,
      "63": 40.220577692581436,
      "64": 40.59052703340175,
      "65": 40.9102394621251,
      "66": 41.191313727427335,
      "67": 41.59542555728201,
      "68": 41.795304767156054,
      "69": 41.96803277114342,
      "70": 42.25880632562152,
      "71": 42.534051668846004,
      "72": 42.719091900324415,
      "73": 42.96279486963304,
      "74": 43.22850767232604,
      "75": 43.49179439221398,
      "76": 43.80947682008905,
      "77": 44.09026233220504,
      "78": 44.3056494502698,
      "79": 44.58025929079218,
      "80": 45.01630796012232,
      "81": 45.60187517586401,
      "82": 45.87139937837245,
      "83": 46.198929414910786,
      "84": 46.43256895420915,
      "85": 46.6605391666807,
      "86": 46.90714451418085,
      "87": 47.166184312206205,
      "88": 47.45491486888821,
      "89": 47.753871982380495,
      "90": 47.980260816671084,
      "91": 48.17210950689801,
      "92": 48.36204696913897,
      "93": 48.57434347120382,
      "94": 48.85734836125778,
      "95": 49.13300646765757,
      "96": 49.326446209923695,
      "97": 49.52802845583124,
      "98": 49.78022416971498,
      "99": 50.01810972569353,
      "100": 50.27019513663599,
      "101": 50.5747765363273,
      "102": 50.77837384757349,
      "103": 50.96733073864953,
      "104": 51.17544575060828,
      "105": 51.34455658217608,
      "106": 51.55125427246094,
      "107": 51.806456291069416,
      "108": 51.97242807937881,
      "109": 52.18075141260179,
      "110": 52.38760563478632,
      "111": 52.605386924743655,
      "112": 52.89191585476116,
      "113": 53.204225831112616,
      "114": 53.37177813255181,
      "115": 53.60031722763837,
      "116": 53.845892696057334,
      "117": 54.03258495007531,
      "118": 54.25352788375596,
      "119": 54.565735121904794,
      "120": 54.77047477334233,
      "121": 55.00267526658915,
      "122": 55.247916593389995,
      "123": 55.48232230493578,
      "124": 55.69652848324533,
      "125": 55.964854113260905,
      "126": 56.16677209886454,
      "127": 56.384908967098944,
      "128": 56.642931598727984,
      "129": 56.91416207006422,
      "130": 57.17009993730965,
      "131": 57.45633581129171,
      "132": 57.66665494239936,
      "133": 57.8708089408228,
      "134": 58.162814706058825,
      "135": 58.34073386758061,
      "136": 58.521996449616,
      "137": 58.82021900758905,
      "138": 59.07443250235865,
      "139": 59.26902893842277,
      "140": 59.47309571605618,
      "141": 59.6839599609375,
      "142": 59.90055676164298,
      "143": 60.17808513641357,
      "144": 60.421192945060085,
      "145": 60.58653482897528,
      "146": 60.75288080765029,
      "147": 60.95563953205691,
      "148": 61.15595038462494,
      "149": 61.45779153856181,
      "150": 61.79310168250132,
      "151": 62.02697986667439,
      "152": 62.305419210660254,
      "153": 62.529193942829714,
      "154": 62.774882235769496,
      "155": 63.092992233017746,
      "156": 63.46967794127384,
      "157": 63.71512758933892,
      "158": 63.99646746102026,
      "159": 64.25996635700095,
      "160": 64.51505609286033,
      "161": 64.78802257473185,
      "162": 65.14405337834762,
      "163": 65.40148945178015,
      "164": 65.64377387095305,
      "165": 65.92989620919955,
      "166": 66.21513334371276,
      "167": 66.53866331456071,
      "168": 66.94083844201039,
      "169": 67.16034103652179,
      "170": 67.40429247839977,
      "171": 67.65812017149844,
      "172": 67.93962950625662,
      "173": 68.24935525150623,
      "174": 68.65026739088155,
      "175": 68.92467065584862,
      "176": 69.16320154222392,
      "177": 69.42148312067582,
      "178": 69.66077371370994,
      "179": 69.92465500912424,
      "180": 70.29593516204316,
      "181": 70.55281454829846,
      "182": 70.83551898245084,
      "183": 71.17272709991973,
      "184": 71.51913296974311,
      "185": 71.88951977228714,
      "186": 72.30051363928844,
      "187": 72.615080300024,
      "188": 72.92443356271518,
      "189": 73.20340838674771,
      "190": 73.5283097735906,
      "191": 73.82012221772791,
      "192": 74.20300435211699,
      "193": 74.47327136993408,
      "194": 74.73017876723716,
      "195": 74.95996294183246,
      "196": 75.30310769808494,
      "197": 75.55119692269018,
      "198": 75.89649600982666,
      "199": 76.16946365873693,
      "200": 76.41659196756653,
      "201": 76.62638273077496,
      "202": 76.94440854605982,
      "203": 77.33222470041049,
      "204": 77.76204280529993,
      "205": 78.15330046314304,
      "206": 78.49675362797107,
      "207": 78.87698254342807,
      "208": 79.28655469215522,
      "209": 79.64014758093883,
      "210": 80.04558918839794,
      "211": 80.41028252294508,
      "212": 80.77191175040552,
      "213": 81.21009737650553,
      "214": 81.6303198862884,
      "215": 82.01242046032922,
      "216": 82.48045581882283,
      "217": 82.91296360856396,
      "218": 83.11192861096612,
      "219": 83.35813574063576,
      "220": 83.67180025779595,
      "221": 84.02870766591218,
      "222": 84.40806973990748,
      "223": 84.79624080657959,
      "224": 85.082044864523,
      "225": 85.34206442105568,
      "226": 85.62897698353913,
      "227": 85.9301588414079,
      "228": 86.24049927016436,
      "229": 86.64276704949847,
      "230": 86.88329418634964,
      "231": 87.17786355745994,
      "232": 87.47504431514416,
      "233": 87.7927502131058,
      "234": 88.12080732442566,
      "235": 88.56955259937351,
      "236": 88.92365652827893,
      "237": 89.2415707475048,
      "238": 89.54637514534643,
      "239": 89.80294256695247,
      "240": 90.08963361837097,
      "241": 90.4493499367924,
      "242": 90.72266420267395,
      "243": 91.0557591713081,
      "244": 91.3528126026022,
      "245": 91.64216497388936,
      "246": 91.87825393676758,
      "247": 92.23059250136554,
      "248": 92.4943925243313,
      "249": 92.7607503987975,
      "250": 93.06013883170435,
      "251": 93.39454870708919,
      "252": 93.70489631264897,
      "253": 94.12700969890012,
      "254": 94.47293000302072,
      "255": 94.74442187810348,
      "256": 95.07094166642528,
      "257": 95.38611408815545,
      "258": 95.68782909845902,
      "259": 96.03840501429671,
      "260": 96.36946267596745,
      "261": 96.67251787347308,
      "262": 97.00639007051112,
      "263": 97.31258301815744,
      "264": 97.64287405498958,
      "265": 98.02423645278155,
      "266": 98.42064317606263,
      "267": 98.67789866560597,
      "268": 99.00247910063146,
      "269": 99.3760617574056,
      "270": 99.75273067668333,
      "271": 100.1768986330194,
      "272": 100.5934821306649,
      "273": 100.91961262589794,
      "274": 101.27446727429407,
      "275": 101.66290063373113,
      "276": 102.02376200789112,
      "277": 102.4133506386967,
      "278": 102.8427189972441,
      "279": 103.19433173486742,
      "280": 103.57325776956849,
      "281": 103.97005151112874,
      "282": 104.38975563695875,
      "283": 104.78251072511834,
      "284": 105.22565557188906,
      "285": 105.51851253186243,
      "286": 105.90547089657541,
      "287": 106.25161212985799,
      "288": 106.59270419104625,
      "289": 107.0041325456005,
      "290": 107.52341487043995,
      "291": 107.88907384064238,
      "292": 108.20513980671511,
      "293": 108.57348846176923,
      "294": 108.97686024035437,
      "295": 109.33326663970948,
      "296": 109.71702743788897,
      "297": 110.06067795589053,
      "298": 110.30397725509386,
      "299": 110.62610154232736,
      "300": 110.99153984199135,
      "301": 111.3909441414526,
      "302": 111.80157845815023,
      "303": 112.17439845456916,
      "304": 112.44525818905588,
      "305": 112.72194329623518,
      "306": 112.99778178586799,
      "307": 113.23950318158683,
      "308": 113.57244879512463,
      "309": 114.00262890831898,
      "310": 114.2167246543755,
      "311": 114.51652940653138,
      "312": 114.8235279665155,
      "313": 115.08789010775291,
      "314": 115.44834686537921,
      "315": 115.86888335923017,
      "316": 116.13513468079648,
      "317": 116.42965704707775,
      "318": 116.77504827208438,
      "319": 117.09033713906499,
      "320": 117.41598853418382,
      "321": 117.838983309471,
      "322": 118.15818818949036,
      "323": 118.43868501307601,
      "324": 118.70182438554436,
      "325": 118.95291351059736,
      "326": 119.24377337956832,
      "327": 119.630231178413,
      "328": 119.9353242001291,
      "329": 120.20919890322928,
      "330": 120.49866744219247,
      "331": 120.79224395751953,
      "332": 121.06928725161795,
      "333": 121.47920220585193,
      "334": 121.84672539921131,
      "335": 122.14456131498693,
      "336": 122.45709364292985,
      "337": 122.76723687123445,
      "338": 123.11945983110849,
      "339": 123.51075311434471,
      "340": 123.88703659833487,
      "341": 124.18185444201453,
      "342": 124.52189468125165,
      "343": 124.80150888733945,
      "344": 125.11399518029164,
      "345": 125.44718415858382,
      "346": 125.80994951927056,
      "347": 126.15371768757448,
      "348": 126.54344345351397,
      "349": 126.95258609319137,
      "350": 127.39158934253757,
      "351": 127.81987102961136,
      "352": 128.27721637790486,
      "353": 128.65178408865202,
      "354": 129.08043269787805,
      "355": 129.46418988502631,
      "356": 129.8729685465495,
      "357": 130.2763077687409,
      "358": 130.7051613371251,
      "359": 131.04269428576453,
      "360": 131.4008212978557,
      "361": 131.76605276334084,
      "362": 132.1938795962576,
      "363": 132.59038201024975,
      "364": 132.88178731627383,
      "365": 132.90302845583125,
      "366": 132.93307320546296,
      "367": 132.98704742173018,
      "368": 133.02937870025636,
      "369": 133.0663977655871,
      "370": 133.16357466379802,
      "371": 133.2012669838081,
      "372": 133.22481084274034,
      "373": 133.25704193115234,
      "374": 133.302431332863,
      "375": 133.3470477734582,
      "376": 133.41824159783832,
      "377": 133.47412671881207,
      "378": 133.52356997991012,
      "379": 133.62277312197926,
      "380": 133.6670396449202,
      "381": 133.6935925241244,
      "382": 133.76305867857852,
      "383": 133.8357774120266,
      "384": 133.849725496971,
      "385": 133.8848562078961,
      "386": 133.93083223245912,
      "387": 133.97518494169591,
      "388": 134.0239802215059,
      "389": 134.10263216697564,
      "390": 134.10367532503807,
      "391": 134.12730705131918,
      "392": 134.16348887298068,
      "393": 134.21947518041577,
      "394": 134.27754382429453,
      "395": 134.3816348393758,
      "396": 99.40762547084263
    }
  },
  "run_time": {
    "hours": 6.601202080277778,
    "human": "6:36:04.327489",
    "minutes": 396.07212481666664,
    "real_seconds_per_sim_second": {
      "2.0": 33.070062,
      "3.002": 34.230353,
      "4.002868": 37.421858,
      "5.004092": 40.1399,
      "6.005046": 44.184668,
      "7.005362": 48.923678,
      "8.00662": 50.38468,
      "9.008058": 51.273443,
      "10.008071": 52.042473,
      "11.010232": 52.799898,
      "12.012174": 53.554251,
      "13.014188": 54.443939,
      "14.015321": 55.204024,
      "15.016625": 55.877085,
      "16.018495": 56.598098,
      "17.018839": 57.365036,
      "18.01986": 58.10207,
      "19.020442": 58.87703,
      "20.021199": 59.631246,
      "21.022057": 60.371412,
      "22.02207": 61.136491,
      "23.022404": 61.958675,
      "24.024466": 62.757404,
      "25.024612": 63.533548,
      "26.026679": 64.312938,
      "27.028582": 65.072731,
      "28.03022": 65.76358,
      "29.031067": 66.524628,
      "30.033037": 67.257345,
      "31.033469": 67.995663,
      "32.035466": 68.772893,
      "33.036318": 69.540684,
      "34.03716": 70.301744,
      "35.038391": 71.018686,
      "36.039124": 71.772633,
      "37.040408": 72.586529,
      "38.04189": 73.398509,
      "39.042673": 74.149028,
      "40.043991": 74.901374,
      "41.045856": 75.662003,
      "42.046708": 76.41633,
      "43.048606": 77.345823,
      "44.048674": 78.098566,
      "45.048735": 78.839589,
      "46.048976": 79.480861,
      "47.049787": 80.1457,
      "48.051285": 80.870883,
      "49.052051": 81.499065,
      "50.05372": 82.184722,
      "51.05542": 82.811627,
      "52.05591": 83.547912,
      "53.05603": 84.378282,
      "54.05644": 85.081348,
      "55.056707": 85.706222,
      "56.057986": 86.403918,
      "57.058856": 87.070173,
      "58.059959": 87.74827,
      "59.06147": 88.475536,
      "60.062029": 89.181527,
      "61.062121": 89.90323,
      "62.062132": 90.667654,
      "63.062377": 91.46249,
      "64.062829": 92.57888,
      "65.064128": 93.572863,
      "66.064362": 95.242416,
      "67.064746": 97.109187,
      "68.065931": 97.948168,
      "69.066203": 98.634399,
      "70.066845": 99.303497,
      "71.067189": 100.095253,
      "72.067378": 100.914144,
      "73.069094": 101.776863,
      "74.069527": 102.482102,
      "75.069939": 103.183493,
      "76.069953": 103.913328,
      "77.07121": 104.637899,
      "78.073019": 105.358081,
      "79.073664": 106.051035,
      "80.073883": 106.664293,
      "81.074985": 107.42515,
      "82.075054": 108.212517,
      "83.075582": 109.153671,
      "84.077548": 109.937196,
      "85.077987": 110.751023,
      "86.079619": 111.435698,
      "87.080143": 112.16184,
      "88.082013": 112.755119,
      "89.082313": 113.427654,
      "90.084166": 114.134241,
      "91.085542": 114.899782,
      "92.085926": 115.691556,
      "93.086968": 116.569676,
      "94.08838": 117.256117,
      "95.089862": 117.970398,
      "96.090461": 118.717628,
      "97.091347": 119.421631,
      "98.092815": 120.09736,
      "99.094172": 120.852733,
      "100.094702": 121.614094,
      "101.095694": 122.344151,
      "102.097071": 123.067739,
      "103.098378": 123.954549,
      "104.100222": 124.723826,
      "105.100699": 125.450004,
      "106.100982": 126.155647,
      "107.102369": 126.852512,
      "108.102439": 127.538497,
      "109.103424": 128.219032,
      "110.105356": 129.004863,
      "111.105854": 129.906418,
      "112.10759": 130.746671,
      "113.108324": 131.53004,
      "114.110047": 132.253667,
      "115.111006": 132.950351,
      "116.112593": 133.639588,
      "117.113181": 134.368862,
      "118.114674": 135.125825,
      "119.115284": 135.843094,
      "120.117228": 136.557759,
      "121.119036": 137.332133,
      "122.119118": 138.112382,
      "123.119558": 139.114353,
      "124.121142": 140.179941,
      "125.123105": 141.440148,
      "126.125091": 143.068633,
      "127.126112": 144.673785,
      "128.12679": 145.339373,
      "129.128036": 145.953991,
      "130.12985": 146.879442,
      "131.131806": 147.780226,
      "132.133564": 148.566878,
      "133.134722": 149.377484,
      "134.135932": 150.05341,
      "135.136527": 150.76801,
      "136.136638": 151.513757,
      "137.136714": 152.230242,
      "138.1382": 152.903159,
      "139.139385": 153.517401,
      "140.141292": 154.150659,
      "141.141824": 154.801094,
      "142.141993": 155.481797,
      "143.143895": 156.328803,
      "144.14443": 157.112832,
      "145.144527": 157.814192,
      "146.144908": 158.510781,
      "147.145384": 159.142247,
      "148.145448": 159.802964,
      "149.146328": 160.492799,
      "150.14684": 162.197396,
      "151.147024": 198.458175,
      "152.147556": 241.097932,
      "153.149144": 278.165661,
      "154.151082": 308.648263,
      "155.152962": 333.246681,
      "156.153222": 354.757629,
      "157.153364": 371.679564,
      "158.154856": 385.604532,
      "159.156571": 397.009112,
      "160.157604": 407.466159,
      "161.159353": 416.026804,
      "162.159782": 425.624424,
      "163.159786": 433.030874,
      "164.160974": 440.439086,
      "165.16237": 447.679555,
      "166.163049": 454.579163,
      "167.163124": 460.834214,
      "168.163913": 466.800424,
      "169.164352": 471.461225,
      "170.164688": 476.349635,
      "171.165608": 480.430442,
      "172.165699": 484.492872,
      "173.166292": 487.923711,
      "174.168267": 491.515247,
      "175.169472": 494.224255,
      "176.169623": 496.673769,
      "177.171383": 499.194668,
      "178.172659": 501.559679,
      "179.174665": 503.809739,
      "180.175582": 505.934396,
      "181.17594": 508.102758,
      "182.176383": 510.286134,
      "183.178042": 512.081032,
      "184.18007": 514.361026,
      "185.180802": 517.013895,
      "186.182207": 520.289656,
      "187.184034": 523.72604,
      "188.186041": 527.697598,
      "189.187458": 531.439462,
      "190.188665": 534.426509,
      "191.189062": 537.339373,
      "192.190108": 539.720577,
      "193.191185": 542.131634,
      "194.192025": 544.402999,
      "195.19282": 546.346325,
      "196.194434": 548.053457,
      "197.195503": 549.561198,
      "198.195591": 551.083872,
      "199.196989": 552.63713,
      "200.198137": 554.126092,
      "201.198983": 555.598546,
      "202.199327": 557.023947,
      "203.200274": 558.421567,
      "204.201194": 559.68519,
      "205.203305": 560.924203,
      "206.205273": 562.132063,
      "207.206047": 563.254618,
      "208.207797": 564.441369,
      "209.208738": 565.712576,
      "210.21066": 567.115007,
      "211.212351": 568.535997,
      "212.214073": 569.957318,
      "213.215979": 571.401552,
      "214.216564": 573.331429,
      "215.218098": 575.331092,
      "216.218419": 577.205359,
      "217.219976": 579.014009,
      "218.22185": 580.422587,
      "219.222781": 581.683514,
      "220.224119": 583.019078,
      "221.224243": 584.448607,
      "222.224613": 585.832842,
      "223.225184": 587.230033,
      "224.226102": 588.424955,
      "225.228106": 589.744515,
      "226.228482": 591.011324,
      "227.229455": 592.196279,
      "228.229481": 593.214268,
      "229.23034": 594.225831,
      "230.230627": 595.195771,
      "231.23272": 596.146217,
      "232.232744": 597.082376,
      "233.233896": 598.051951,
      "234.234205": 599.046351,
      "235.235436": 599.86283,
      "236.236677": 600.708768,
      "237.238114": 601.442799,
      "238.239188": 602.247032,
      "239.240932": 602.853751,
      "240.242938": 604.527476,
      "241.244689": 608.291619,
      "242.246247": 623.79151,
      "243.24684": 638.261593,
      "244.247455": 649.242964,
      "245.248775": 655.971411,
      "246.250308": 663.667016,
      "247.251605": 669.908244,
      "248.251847": 672.902908,
      "249.253718": 675.045189,
      "250.254857": 676.917691,
      "251.255835": 678.443056,
      "252.257708": 679.867702,
      "253.259076": 680.916685,
      "254.25959": 681.786054,
      "255.260079": 682.493779,
      "256.260685": 683.153079,
      "257.261763": 684.009012,
      "258.263228": 685.350429,
      "259.264384": 687.043432,
      "260.265755": 688.843203,
      "261.266485": 690.487048,
      "262.267666": 691.879923,
      "263.268188": 693.20071,
      "264.268784": 694.266785,
      "265.269993": 695.146289,
      "266.271177": 695.876258,
      "267.271274": 696.553879,
      "268.272857": 697.315639,
      "269.274685": 698.600722,
      "270.275022": 700.235271,
      "271.275894": 701.958488,
      "272.276511": 703.507502,
      "273.278011": 704.950989,
      "274.27868": 706.906114,
      "275.280531": 708.680736,
      "276.280658": 710.168127,
      "277.28212": 711.527742,
      "278.283239": 712.615801,
      "279.284865": 713.741296,
      "280.28599": 715.430864,
      "281.287684": 717.144897,
      "282.28791": 718.780123,
      "283.288993": 720.273392,
      "284.290188": 721.487817,
      "285.290235": 722.818785,
      "286.291324": 723.907831,
      "287.291663": 724.845594,
      "288.292776": 725.835485,
      "289.294728": 726.759119,
      "290.294822": 727.774982,
      "291.295666": 729.169964,
      "292.296652": 730.958849,
      "293.297284": 732.639806,
      "294.298065": 734.079306,
      "295.299883": 735.303105,
      "296.30067": 736.643949,
      "297.300883": 737.690283,
      "298.301916": 738.569469,
      "299.30268": 739.296215,
      "300.304": 742.750562,
      "301.306": 758.488801,
      "302.308": 771.547073,
      "303.31": 782.147879,
      "304.312": 789.782621,
      "305.314": 795.757492,
      "306.316": 799.565419,
      "307.318": 803.056119,
      "308.32": 806.444952,
      "309.322": 810.310089,
      "310.324": 813.612095,
      "311.326": 817.170594,
      "312.328": 820.846572,
      "313.33": 824.747688,
      "314.332": 827.738284,
      "315.334": 831.995439,
      "316.336": 836.323645,
      "317.338": 840.635266,
      "318.34": 845.053779,
      "319.342": 850.158776,
      "320.344": 855.076498,
      "321.346": 860.284365,
      "322.348": 865.739551,
      "323.35": 871.113784,
      "324.352": 876.904899,
      "325.354": 882.492955,
      "326.356": 888.679066,
      "327.358": 894.713124,
      "328.36": 900.767059,
      "329.362": 907.235446,
      "330.364": 913.63429,
      "331.366": 920.256114,
      "332.368": 927.244579,
      "333.37": 935.209428,
      "334.372": 943.829572,
      "335.374": 953.87334,
      "336.376": 964.358177,
      "337.378": 973.271459,
      "338.38": 981.081912,
      "339.382": 987.049021,
      "340.384": 992.747591,
      "341.386": 997.704812,
      "342.388": 1003.667614,
      "343.39": 1009.810937,
      "344.392": 1016.306865,
      "345.394": 1024.574447,
      "346.396": 1033.510268,
      "347.398": 1042.607411,
      "348.4": 1051.62425,
      "349.402": 1060.921717,
      "350.404": 1070.129609,
      "351.406": 1079.58829,
      "352.408": 1089.231573,
      "353.41": 1098.463794,
      "354.412": 1108.249885,
      "355.414": 1117.52729,
      "356.416": 1126.943051,
      "357.418": 1136.888143,
      "358.42": 1146.427044,
      "359.422": 1155.917099,
      "360.424": 1165.43995,
      "361.426": 1175.374225,
      "362.428": 1185.0823,
      "363.43": 1194.249343,
      "364.432": 1203.887874,
      "365.434": 1213.871422,
      "366.436": 1222.797498,
      "367.438": 1231.956976,
      "368.44": 1238.870092,
      "369.442": 1247.799861,
      "370.444": 1257.494141,
      "371.446": 1266.143625,
      "372.448": 1275.494164,
      "373.45": 1284.631866,
      "374.452": 1293.169106,
      "375.454": 1300.857279,
      "376.456": 1307.77893,
      "377.458": 1315.03728,
      "378.46": 1322.078077,
      "379.462": 1328.396458,
      "380.464": 1334.355332,
      "381.466": 1340.46872,
      "382.468": 1346.794284,
      "383.47": 1353.187889,
      "384.472": 1359.570072,
      "385.474": 1365.946858,
      "386.476": 1372.329331,
      "387.478": 1379.209472,
      "388.48": 1385.913771,
      "389.482": 1392.946248,
      "390.484": 1399.555415,
      "391.486": 1408.1221,
      "392.488": 1415.05281,
      "393.49": 1423.857186,
      "394.492": 1434.845673,
      "395.494": 1444.853179,
      "396.496": 1454.665832,
      "397.498": 1465.062189,
      "398.5": 1473.416768,
      "399.502": 1481.218576,
      "400.504": 1490.234983,
      "401.506": 1498.689031,
      "402.508": 1506.123561,
      "403.51": 1513.717517,
      "404.512": 1521.565237,
      "405.514": 1529.077742,
      "406.516": 1537.190681,
      "407.518": 1544.924347,
      "408.52": 1552.957864,
      "409.522": 1560.200678,
      "410.524": 1568.016314,
      "411.526": 1575.583883,
      "412.528": 1583.61851,
      "413.53": 1591.550792,
      "414.532": 1599.924625,
      "415.534": 1607.925221,
      "416.536": 1616.384316,
      "417.538": 1624.711253,
      "418.54": 1632.45365,
      "419.542": 1640.102133,
      "420.544": 1647.597921,
      "421.546": 1656.025964,
      "422.548": 1663.75618,
      "423.55": 1671.721597,
      "424.552": 1680.183539,
      "425.554": 1687.965598,
      "426.556": 1695.520002,
      "427.558": 1703.571863,
      "428.56": 1711.789498,
      "429.562": 1719.850194,
      "430.564": 1727.959679,
      "431.566": 1735.995775,
      "432.568": 1744.506716,
      "433.57": 1753.160297,
      "434.572": 1761.791925,
      "435.574": 1770.532706,
      "436.576": 1779.109382,
      "437.578": 1787.401753,
      "438.58": 1796.136781,
      "439.582": 1804.660123,
      "440.584": 1813.363916,
      "441.586": 1822.351648,
      "442.588": 1830.535886,
      "443.59": 1838.761099,
      "444.592": 1847.494846,
      "445.594": 1856.105264,
      "446.596": 1864.598258,
      "447.598": 1873.039716,
      "448.6": 1881.84785,
      "449.602": 1890.586321,
      "450.604": 1899.404294,
      "451.606": 1908.842254,
      "452.608": 1918.068345,
      "453.61": 1927.388723,
      "454.612": 1936.520056,
      "455.614": 1945.353289,
      "456.616": 1954.25564,
      "457.618": 1963.228822,
      "458.62": 1971.975021,
      "459.622": 1980.533163,
      "460.624": 1989.645515,
      "461.626": 1998.728862,
      "462.628": 2007.708727,
      "463.63": 2016.459948,
      "464.632": 2024.974188,
      "465.634": 2034.288064,
      "466.636": 2043.8828,
      "467.638": 2052.582893,
      "468.64": 2061.646297,
      "469.642": 2071.377905,
      "470.644": 2080.790037,
      "471.646": 2090.513393,
      "472.648": 2101.767069,
      "473.65": 2115.421374,
      "474.652": 2129.288178,
      "475.654": 2144.373047,
      "476.656": 2156.993076,
      "477.658": 2172.790222,
      "478.66": 2186.218787,
      "479.662": 2200.601223,
      "480.664": 2214.67475,
      "481.666": 2229.470141,
      "482.668": 2243.03413,
      "483.67": 2258.327794,
      "484.672": 2270.725091,
      "485.674": 2284.147503,
      "486.676": 2296.401902,
      "487.678": 2309.668128,
      "488.68": 2322.119032,
      "489.682": 2335.552638,
      "490.684": 2350.927778,
      "491.686": 2366.60713,
      "492.688": 2381.242102,
      "493.69": 2396.682536,
      "494.692": 2408.366503,
      "495.694": 2419.464164,
      "496.696": 2429.203403,
      "497.698": 2439.716225,
      "498.7": 2449.69179,
      "499.702": 2461.742198,
      "500.704": 2475.433401,
      "501.706": 2487.771068,
      "502.708": 2499.893629,
      "503.71": 2512.151118,
      "504.712": 2527.050775,
      "505.714": 2542.405882,
      "506.716": 2555.612729,
      "507.718": 2572.150951,
      "508.72": 2586.502726,
      "509.722": 2603.478734,
      "510.724": 2618.005072,
      "511.726": 2635.136287,
      "512.728": 2651.967628,
      "513.73": 2666.792315,
      "514.732": 2683.127765,
      "515.734": 2702.818278,
      "516.736": 2723.641317,
      "517.738": 2742.857023,
      "518.74": 2758.955892,
      "519.742": 2771.162137,
      "520.744": 2782.630539,
      "521.746": 2794.344896,
      "522.748": 2806.628315,
      "523.75": 2818.915692,
      "524.752": 2835.231831,
      "525.754": 2852.627315,
      "526.756": 2870.991393,
      "527.758": 2890.355487,
      "528.76": 2908.138574,
      "529.762": 2925.716179,
      "530.764": 2940.698925,
      "531.766": 2955.281231,
      "532.768": 2967.931187,
      "533.77": 2982.798424,
      "534.772": 2997.230227,
      "535.774": 3012.807527,
      "536.776": 3028.63239,
      "537.778": 3047.068861,
      "538.78": 3064.065597,
      "539.782": 3077.872041,
      "540.784": 3093.186732,
      "541.786": 3107.936163,
      "542.788": 3122.416125,
      "543.79": 3135.04787,
      "544.792": 3146.518596,
      "545.794": 3157.92778,
      "546.796": 3170.119477,
      "547.798": 3185.495434,
      "548.8": 3203.192099,
      "549.802": 3218.350631,
      "550.804": 3234.380914,
      "551.806": 3249.130804,
      "552.808": 3263.599878,
      "553.81": 3280.816531,
      "554.812": 3295.667045,
      "555.814": 3310.622496,
      "556.816": 3324.8361,
      "557.818": 3340.304081,
      "558.82": 3356.784426,
      "559.822": 3372.587139,
      "560.824": 3387.578482,
      "561.826": 3401.656026,
      "562.828": 3415.523166,
      "563.83": 3431.037713,
      "564.832": 3445.013838,
      "565.834": 3457.605336,
      "566.836": 3471.89964,
      "567.838": 3487.748276,
      "568.84": 3499.731605,
      "569.842": 3511.769246,
      "570.844": 3523.01174,
      "571.846": 3535.430091,
      "572.848": 3547.582795,
      "573.85": 3563.539136,
      "574.852": 3578.626156,
      "575.854": 3597.410466,
      "576.856": 3618.186101,
      "577.858": 3638.073523,
      "578.86": 3655.006659,
      "579.862": 3671.004825,
      "580.864": 3686.190952,
      "581.866": 3702.031004,
      "582.868": 3717.845046,
      "583.87": 3735.910904,
      "584.872": 3754.270782,
      "585.874": 3773.676,
      "586.876": 3794.35957,
      "587.878": 3813.157094,
      "588.88": 3831.456717,
      "589.882": 3847.976345,
      "590.884": 3861.136238,
      "591.886": 3871.864758,
      "592.888": 3882.275964,
      "593.89": 3893.130227,
      "594.892": 3903.681983,
      "595.894": 3918.0254,
      "596.896": 3933.505959,
      "597.898": 3949.281217,
      "598.9": 3964.429731,
      "599.902": 3978.476512,
      "600.904": 4004.433795,
      "601.906": 4042.579085,
      "602.908": 4076.559619,
      "603.91": 4107.991778,
      "604.912": 4135.332738,
      "605.914": 4159.712265,
      "606.916": 4180.500231,
      "607.918": 4200.999349,
      "608.92": 4216.730716,
      "609.922": 4230.02007,
      "610.924": 4242.025318,
      "611.926": 4254.446045,
      "612.928": 4267.114892,
      "613.93": 4282.12872,
      "614.932": 4298.055241,
      "615.934": 4315.777238,
      "616.936": 4332.69866,
      "617.938": 4349.544132,
      "618.94": 4367.433379,
      "619.942": 4383.746029,
      "620.944": 4399.273797,
      "621.946": 4412.062571,
      "622.948": 4427.238138,
      "623.95": 4443.077744,
      "624.952": 4458.871404,
      "625.954": 4472.992347,
      "626.956": 4486.753405,
      "627.958": 4500.164974,
      "628.96": 4514.331645,
      "629.962": 4530.362348,
      "630.964": 4546.588279,
      "631.966": 4561.766943,
      "632.968": 4574.273724,
      "633.97": 4588.250188,
      "634.972": 4600.322112,
      "635.974": 4614.606176,
      "636.976": 4630.917931,
      "637.978": 4650.541242,
      "638.98": 4666.950141,
      "639.982": 4683.894462,
      "640.984": 4699.244468,
      "641.986": 4715.047201,
      "642.988": 4728.197225,
      "643.99": 4741.56647,
      "644.992": 4756.873323,
      "645.994": 4774.476958,
      "646.996": 4793.736731,
      "647.998": 4810.608009,
      "649.0": 4826.808416,
      "650.002": 4842.879403,
      "651.004": 4857.733636,
      "652.006": 4870.065718,
      "653.008": 4883.516721,
      "654.01": 4897.332392,
      "655.012": 4911.602483,
      "656.014": 4929.06957,
      "657.016": 4946.15766,
      "658.018": 4959.333484,
      "659.02": 4970.643982,
      "660.022": 4982.526674,
      "661.024": 4994.222694,
      "662.026": 5006.243242,
      "663.028": 5018.63593,
      "664.03": 5032.191293,
      "665.032": 5047.746254,
      "666.034": 5064.232843,
      "667.036": 5079.895957,
      "668.038": 5095.443381,
      "669.04": 5110.871112,
      "670.042": 5125.207586,
      "671.044": 5138.976316,
      "672.046": 5155.510714,
      "673.048": 5171.218206,
      "674.05": 5185.064777,
      "675.052": 5198.503295,
      "676.054": 5212.976568,
      "677.056": 5227.735855,
      "678.058": 5242.080403,
      "679.06": 5256.273703,
      "680.062": 5269.046629,
      "681.064": 5282.877597,
      "682.066": 5298.454118,
      "683.068": 5312.029591,
      "684.07": 5323.62452,
      "685.072": 5335.682554,
      "686.074": 5347.923031,
      "687.076": 5359.376815,
      "688.078": 5372.342609,
      "689.08": 5385.880171,
      "690.082": 5399.414401,
      "691.084": 5413.577726,
      "692.086": 5428.367846,
      "693.088": 5442.61225,
      "694.09": 5459.571085,
      "695.092": 5476.698521,
      "696.094": 5497.380969,
      "697.096": 5517.626671,
      "698.098": 5537.971523,
      "699.1": 5555.438786,
      "700.102": 5569.785229,
      "701.104": 5584.397648,
      "702.106": 5598.94354,
      "703.108": 5614.592311,
      "704.11": 5630.249002,
      "705.112": 5647.678849,
      "706.114": 5663.975946,
      "707.116": 5678.496499,
      "708.118": 5690.420804,
      "709.12": 5703.036116,
      "710.122": 5715.458396,
      "711.124": 5727.486501,
      "712.126": 5740.532684,
      "713.128": 5753.376665,
      "714.13": 5767.258349,
      "715.132": 5782.81748,
      "716.134": 5798.403373,
      "717.136": 5815.507123,
      "718.138": 5830.589382,
      "719.14": 5844.942075,
      "720.142": 5856.999181,
      "721.144": 5868.387199,
      "722.146": 5881.165589,
      "723.148": 5894.216781,
      "724.15": 5907.867077,
      "725.152": 5922.970747,
      "726.154": 5935.78361,
      "727.156": 5951.499554,
      "728.158": 5964.729978,
      "729.16": 5978.298459,
      "730.162": 5992.514208,
      "731.164": 6006.565308,
      "732.166": 6020.09462,
      "733.168": 6033.006451,
      "734.17": 6043.707461,
      "735.172": 6055.572054,
      "736.174": 6065.953784,
      "737.176": 6077.049197,
      "738.178": 6088.391663,
      "739.18": 6100.51716,
      "740.182": 6113.072745,
      "741.184": 6125.171704,
      "742.186": 6136.382735,
      "743.188": 6150.952705,
      "744.19": 6164.764368,
      "745.192": 6178.460957,
      "746.194": 6193.138378,
      "747.196": 6206.342746,
      "748.198": 6219.079344,
      "749.2": 6230.749874,
      "750.202": 6242.928197,
      "751.204": 6254.946034,
      "752.206": 6268.192821,
      "753.208": 6281.715286,
      "754.21": 6297.312128,
      "755.212": 6312.353825,
      "756.214": 6330.460369,
      "757.216": 6350.611182,
      "758.218": 6365.228712,
      "759.22": 6379.815471,
      "760.222": 6392.555718,
      "761.224": 6405.326256,
      "762.226": 6416.201885,
      "763.228": 6427.617756,
      "764.23": 6439.341312,
      "765.232": 6451.407351,
      "766.234": 6463.642166,
      "767.236": 6476.821641,
      "768.238": 6489.414455,
      "769.24": 6501.90282,
      "770.242": 6513.572226,
      "771.244": 6525.030424,
      "772.246": 6536.664891,
      "773.248": 6547.014543,
      "774.25": 6557.945657,
      "775.252": 6569.626837,
      "776.254": 6582.139448,
      "777.256": 6595.07932,
      "778.258": 6607.511654,
      "779.26": 6619.087475,
      "780.262": 6630.980226,
      "781.264": 6642.755996,
      "782.266": 6655.025917,
      "783.268": 6667.071896,
      "784.27": 6678.170849,
      "785.272": 6689.634828,
      "786.274": 6699.847874,
      "787.276": 6710.634454,
      "788.278": 6721.788451,
      "789.28": 6733.425298,
      "790.282": 6744.45278,
      "791.284": 6756.046773,
      "792.286": 6767.950591,
      "793.288": 6778.577858,
      "794.29": 6789.336573,
      "795.292": 6800.06129,
      "796.294": 6810.686437,
      "797.296": 6821.474855,
      "798.298": 6833.146907,
      "799.3": 6846.392748,
      "800.302": 6858.246429,
      "801.304": 6870.286879,
      "802.306": 6882.155135,
      "803.308": 6892.801835,
      "804.31": 6904.314139,
      "805.312": 6915.747092,
      "806.314": 6927.02624,
      "807.316": 6938.929187,
      "808.318": 6950.418958,
      "809.32": 6962.344471,
      "810.322": 6973.675269,
      "811.324": 6985.253189,
      "812.326": 6996.526474,
      "813.328": 7009.448998,
      "814.33": 7023.111174,
      "815.332": 7037.221351,
      "816.334": 7054.167165,
      "817.336": 7068.991276,
      "818.338": 7082.601843,
      "819.34": 7096.344904,
      "820.342": 7109.660635,
      "821.344": 7122.703007,
      "822.346": 7135.239682,
      "823.348": 7145.633812,
      "824.35": 7156.076983,
      "825.352": 7167.305116,
      "826.354": 7177.876764,
      "827.356": 7189.731265,
      "828.358": 7201.69183,
      "829.36": 7213.376273,
      "830.362": 7225.945157,
      "831.364": 7237.580855,
      "832.366": 7249.885224,
      "833.368": 7260.916893,
      "834.37": 7272.768755,
      "835.372": 7284.321922,
      "836.374": 7296.36566,
      "837.376": 7308.332604,
      "838.378": 7320.796068,
      "839.38": 7332.757198,
      "840.382": 7343.929303,
      "841.384": 7355.12509,
      "842.386": 7367.086947,
      "843.388": 7378.921638,
      "844.39": 7390.276933,
      "845.392": 7400.889206,
      "846.394": 7412.014857,
      "847.396": 7423.152781,
      "848.398": 7434.027405,
      "849.4": 7445.495868,
      "850.402": 7456.404337,
      "851.404": 7467.882601,
      "852.406": 7479.014955,
      "853.408": 7491.191181,
      "854.41": 7503.386652,
      "855.412": 7514.063245,
      "856.414": 7525.238881,
      "857.416": 7535.948477,
      "858.418": 7546.830756,
      "859.42": 7557.806411,
      "860.422": 7569.627325,
      "861.424": 7580.967892,
      "862.426": 7595.204329,
      "863.428": 7607.669333,
      "864.43": 7618.670173,
      "865.432": 7629.666944,
      "866.434": 7640.64774,
      "867.436": 7652.092775,
      "868.438": 7664.21294,
      "869.44": 7675.587714,
      "870.442": 7687.222878,
      "871.444": 7699.0069,
      "872.446": 7710.020118,
      "873.448": 7722.224645,
      "874.45": 7733.470151,
      "875.452": 7744.744344,
      "876.454": 7756.816771,
      "877.456": 7767.781143,
      "878.458": 7778.293872,
      "879.46": 7789.824295,
      "880.462": 7800.96838,
      "881.464": 7812.404188,
      "882.466": 7823.338208,
      "883.468": 7834.429401,
      "884.47": 7846.412478,
      "885.472": 7860.26821,
      "886.474": 7871.799505,
      "887.476": 7883.055584,
      "888.478": 7893.677147,
      "889.48": 7904.376362,
      "890.482": 7915.390702,
      "891.484": 7926.176272,
      "892.486": 7937.686841,
      "893.488": 7948.493894,
      "894.49": 7959.671526,
      "895.492": 7971.353779,
      "896.494": 7983.012392,
      "897.496": 7994.450537,
      "898.498": 8006.142541,
      "899.5": 8017.765281,
      "900.502": 8032.296834,
      "901.504": 8065.431852,
      "902.506": 8093.769691,
      "903.508": 8118.676784,
      "904.51": 8140.839292,
      "905.512": 8160.53589,
      "906.514": 8176.408067,
      "907.516": 8192.631773,
      "908.518": 8206.139872,
      "909.52": 8218.342628,
      "910.522": 8232.254508,
      "911.524": 8242.674525,
      "912.526": 8252.968348,
      "913.528": 8263.66935,
      "914.53": 8274.465074,
      "915.532": 8285.003009,
      "916.534": 8296.992107,
      "917.536": 8308.626543,
      "918.538": 8322.544203,
      "919.54": 8339.253379,
      "920.542": 8352.86007,
      "921.544": 8369.417427,
      "922.546": 8383.276522,
      "923.548": 8398.491829,
      "924.55": 8412.87966,
      "925.552": 8429.587389,
      "926.554": 8445.14226,
      "927.556": 8462.392814,
      "928.558": 8478.816886,
      "929.56": 8496.647394,
      "930.562": 8511.670123,
      "931.564": 8528.308046,
      "932.566": 8543.135839,
      "933.568": 8562.582579,
      "934.57": 8580.24229,
      "935.572": 8600.081436,
      "936.574": 8616.310677,
      "937.576": 8634.262943,
      "938.578": 8649.659467,
      "939.58": 8668.551901,
      "940.582": 8686.757894,
      "941.584": 8705.39289,
      "942.586": 8722.707557,
      "943.588": 8741.227783,
      "944.59": 8759.458445,
      "945.592": 8777.051114,
      "946.594": 8794.370336,
      "947.596": 8815.099947,
      "948.598": 8833.436327,
      "949.6": 8853.145912,
      "950.602": 8868.715802,
      "951.604": 8887.608207,
      "952.606": 8902.035473,
      "953.608": 8917.826111,
      "954.61": 8932.73898,
      "955.612": 8951.406669,
      "956.614": 8968.594459,
      "957.616": 8982.801383,
      "958.618": 8996.003009,
      "959.62": 9010.462417,
      "960.622": 9026.21854,
      "961.624": 9046.360308,
      "962.626": 9061.918683,
      "963.628": 9079.182631,
      "964.63": 9095.549585,
      "965.632": 9112.26676,
      "966.634": 9127.957633,
      "967.636": 9145.984784,
      "968.638": 9163.454557,
      "969.64": 9183.706106,
      "970.642": 9201.286752,
      "971.644": 9220.468024,
      "972.646": 9239.028053,
      "973.648": 9257.677012,
      "974.65": 9273.549208,
      "975.652": 9294.423429,
      "976.654": 9312.390786,
      "977.656": 9332.046914,
      "978.658": 9345.934604,
      "979.66": 9359.853792,
      "980.662": 9374.119901,
      "981.664": 9391.143234,
      "982.666": 9408.110452,
      "983.668": 9428.891468,
      "984.67": 9446.041196,
      "985.672": 9462.240618,
      "986.674": 9478.614999,
      "987.676": 9497.34854,
      "988.678": 9516.376877,
      "989.68": 9535.918189,
      "990.682": 9553.747776,
      "991.684": 9572.37262,
      "992.686": 9589.843161,
      "993.688": 9608.214221,
      "994.69": 9626.704334,
      "995.692": 9648.594152,
      "996.694": 9671.124402,
      "997.696": 9694.278462,
      "998.698": 9709.274575,
      "999.7": 9723.0433,
      "1000.702": 9736.795028,
      "1001.704": 9749.894762,
      "1002.706": 9764.121617,
      "1003.708": 9782.379193,
      "1004.71": 9798.939926,
      "1005.712": 9818.318078,
      "1006.714": 9836.088753,
      "1007.716": 9855.795374,
      "1008.718": 9872.998468,
      "1009.72": 9889.833734,
      "1010.722": 9904.656286,
      "1011.724": 9920.619695,
      "1012.726": 9937.470941,
      "1013.728": 9956.972789,
      "1014.73": 9974.741519,
      "1015.732": 9993.144438,
      "1016.734": 10009.178662,
      "1017.736": 10027.991777,
      "1018.738": 10044.905644,
      "1019.74": 10063.362088,
      "1020.742": 10076.448721,
      "1021.744": 10089.971872,
      "1022.746": 10103.100659,
      "1023.748": 10116.391695,
      "1024.75": 10132.413879,
      "1025.752": 10151.603186,
      "1026.754": 10170.031204,
      "1027.756": 10188.157919,
      "1028.758": 10205.482877,
      "1029.76": 10223.150395,
      "1030.762": 10239.01443,
      "1031.764": 10257.70941,
      "1032.766": 10275.542563,
      "1033.768": 10294.338962,
      "1034.77": 10312.757154,
      "1035.772": 10330.650235,
      "1036.774": 10347.902176,
      "1037.776": 10366.586084,
      "1038.778": 10383.715106,
      "1039.78": 10401.310915,
      "1040.782": 10418.538826,
      "1041.784": 10437.104905,
      "1042.786": 10450.320451,
      "1043.788": 10464.973452,
      "1044.79": 10479.689896,
      "1045.792": 10495.452248,
      "1046.794": 10513.924143,
      "1047.796": 10529.710989,
      "1048.798": 10546.897078,
      "1049.8": 10566.664628,
      "1050.802": 10585.800537,
      "1051.804": 10604.427187,
      "1052.806": 10622.727121,
      "1053.808": 10640.790842,
      "1054.81": 10659.018257,
      "1055.812": 10679.279676,
      "1056.814": 10699.966581,
      "1057.816": 10719.783483,
      "1058.818": 10738.694198,
      "1059.82": 10758.057699,
      "1060.822": 10774.116042,
      "1061.824": 10793.892855,
      "1062.826": 10809.970166,
      "1063.828": 10824.8124,
      "1064.83": 10838.310876,
      "1065.832": 10856.755326,
      "1066.834": 10875.892137,
      "1067.836": 10893.45566,
      "1068.838": 10909.137009,
      "1069.84": 10926.536476,
      "1070.842": 10940.916961,
      "1071.844": 10954.979554,
      "1072.846": 10972.225846,
      "1073.848": 10989.586557,
      "1074.85": 11004.067667,
      "1075.852": 11020.207759,
      "1076.854": 11036.952865,
      "1077.856": 11051.530685,
      "1078.858": 11068.759628,
      "1079.86": 11085.21397,
      "1080.862": 11102.317318,
      "1081.864": 11118.606336,
      "1082.866": 11134.421284,
      "1083.868": 11152.699936,
      "1084.87": 11168.781959,
      "1085.872": 11182.066996,
      "1086.874": 11197.522607,
      "1087.876": 11212.684995,
      "1088.878": 11228.093429,
      "1089.88": 11244.686347,
      "1090.882": 11261.836836,
      "1091.884": 11277.590968,
      "1092.886": 11292.692993,
      "1093.888": 11310.784408,
      "1094.89": 11328.634828,
      "1095.892": 11345.560326,
      "1096.894": 11362.982009,
      "1097.896": 11381.246034,
      "1098.898": 11397.78489,
      "1099.9": 11414.010367,
      "1100.902": 11430.909807,
      "1101.904": 11448.607973,
      "1102.906": 11464.187865,
      "1103.908": 11480.05321,
      "1104.91": 11498.28694,
      "1105.912": 11514.803711,
      "1106.914": 11531.186964,
      "1107.916": 11547.449004,
      "1108.918": 11564.381911,
      "1109.92": 11580.918416,
      "1110.922": 11598.126094,
      "1111.924": 11616.911225,
      "1112.926": 11634.040896,
      "1113.928": 11651.318959,
      "1114.93": 11671.84254,
      "1115.932": 11694.925137,
      "1116.934": 11717.560754,
      "1117.936": 11738.069142,
      "1118.938": 11757.34397,
      "1119.94": 11776.692316,
      "1120.942": 11791.500856,
      "1121.944": 11812.360849,
      "1122.946": 11833.268945,
      "1123.948": 11852.69405,
      "1124.95": 11870.322203,
      "1125.952": 11890.221121,
      "1126.954": 11907.37626,
      "1127.956": 11921.037325,
      "1128.958": 11940.823355,
      "1129.96": 11962.335957,
      "1130.962": 11982.474542,
      "1131.964": 12000.025665,
      "1132.966": 12020.429467,
      "1133.968": 12039.774733,
      "1134.97": 12059.179468,
      "1135.972": 12083.858205,
      "1136.974": 12108.412682,
      "1137.976": 12130.033275,
      "1138.978": 12146.944302,
      "1139.98": 12161.61936,
      "1140.982": 12175.893304,
      "1141.984": 12189.779361,
      "1142.986": 12202.736622,
      "1143.988": 12217.336282,
      "1144.99": 12231.424027,
      "1145.992": 12248.04131,
      "1146.994": 12260.524293,
      "1147.996": 12273.240409,
      "1148.998": 12286.028522,
      "1150.0": 12299.025402,
      "1151.002": 12313.555741,
      "1152.004": 12326.933981,
      "1153.006": 12340.036208,
      "1154.008": 12355.356364,
      "1155.01": 12369.048809,
      "1156.012": 12383.200523,
      "1157.014": 12397.677449,
      "1158.016": 12412.867705,
      "1159.018": 12426.324243,
      "1160.02": 12440.24446,
      "1161.022": 12453.884772,
      "1162.024": 12468.215002,
      "1163.026": 12483.325587,
      "1164.028": 12498.588493,
      "1165.03": 12513.158075,
      "1166.032": 12527.345471,
      "1167.034": 12541.334465,
      "1168.036": 12555.919928,
      "1169.038": 12570.140265,
      "1170.04": 12584.651495,
      "1171.042": 12598.11376,
      "1172.044": 12615.195711,
      "1173.046": 12628.435894,
      "1174.048": 12642.205029,
      "1175.05": 12654.364693,
      "1176.052": 12667.399627,
      "1177.054": 12682.064003,
      "1178.056": 12696.252714,
      "1179.058": 12709.600768,
      "1180.06": 12723.441159,
      "1181.062": 12736.249513,
      "1182.064": 12750.454721,
      "1183.066": 12764.068645,
      "1184.068": 12777.807195,
      "1185.07": 12790.184281,
      "1186.072": 12803.553727,
      "1187.074": 12817.321482,
      "1188.076": 12831.052496,
      "1189.078": 12845.894595,
      "1190.08": 12858.924074,
      "1191.082": 12873.434607,
      "1192.084": 12886.790471,
      "1193.086": 12900.476136,
      "1194.088": 12913.962754,
      "1195.09": 12927.568952,
      "1196.092": 12941.336299,
      "1197.094": 12955.270834,
      "1198.096": 12969.116916,
      "1199.098": 12984.129131,
      "1200.1": 12996.917532,
      "1201.102": 13019.682179,
      "1202.104": 13055.940166,
      "1203.106": 13089.865141,
      "1204.108": 13117.709041,
      "1205.11": 13141.927705,
      "1206.112": 13163.75281,
      "1207.114": 13182.869041,
      "1208.116": 13199.643985,
      "1209.118": 13216.098266,
      "1210.12": 13230.233259,
      "1211.122": 13243.875956,
      "1212.124": 13257.662712,
      "1213.126": 13271.309175,
      "1214.128": 13284.952464,
      "1215.13": 13298.320878,
      "1216.132": 13312.21165,
      "1217.134": 13326.872622,
      "1218.136": 13345.548594,
      "1219.138": 13359.045709,
      "1220.14": 13372.24025,
      "1221.142": 13385.873099,
      "1222.144": 13400.289028,
      "1223.146": 13417.223262,
      "1224.148": 13433.801104,
      "1225.15": 13452.377693,
      "1226.152": 13471.202468,
      "1227.154": 13491.553803,
      "1228.156": 13510.483919,
      "1229.158": 13527.636178,
      "1230.16": 13546.54354,
      "1231.162": 13563.619015,
      "1232.164": 13578.542693,
      "1233.166": 13597.279977,
      "1234.168": 13615.301079,
      "1235.17": 13634.215852,
      "1236.172": 13656.643711,
      "1237.174": 13681.014584,
      "1238.176": 13704.572201,
      "1239.178": 13723.570783,
      "1240.18": 13739.374953,
      "1241.182": 13754.097148,
      "1242.184": 13768.335266,
      "1243.186": 13786.701319,
      "1244.188": 13804.502828,
      "1245.19": 13821.075804,
      "1246.192": 13840.029965,
      "1247.194": 13860.639141,
      "1248.196": 13881.155955,
      "1249.198": 13899.541246,
      "1250.2": 13918.685874,
      "1251.202": 13935.613791,
      "1252.204": 13954.142449,
      "1253.206": 13970.716643,
      "1254.208": 13988.376938,
      "1255.21": 14007.191551,
      "1256.212": 14026.645561,
      "1257.214": 14046.614805,
      "1258.216": 14066.004858,
      "1259.218": 14085.71673,
      "1260.22": 14099.96028,
      "1261.222": 14112.94555,
      "1262.224": 14125.700075,
      "1263.226": 14140.78319,
      "1264.228": 14156.670091,
      "1265.23": 14172.832778,
      "1266.232": 14189.509749,
      "1267.234": 14205.757234,
      "1268.236": 14223.504224,
      "1269.238": 14241.070351,
      "1270.24": 14258.869849,
      "1271.242": 14277.150157,
      "1272.244": 14293.982485,
      "1273.246": 14312.572964,
      "1274.248": 14331.707913,
      "1275.25": 14352.519493,
      "1276.252": 14373.16868,
      "1277.254": 14394.269892,
      "1278.256": 14415.757102,
      "1279.258": 14436.058313,
      "1280.26": 14455.888832,
      "1281.262": 14471.414094,
      "1282.264": 14485.5526,
      "1283.266": 14500.385543,
      "1284.268": 14516.712525,
      "1285.27": 14536.723181,
      "1286.272": 14552.318323,
      "1287.274": 14568.233785,
      "1288.276": 14585.007358,
      "1289.278": 14603.603193,
      "1290.28": 14622.980686,
      "1291.282": 14643.289878,
      "1292.284": 14661.673795,
      "1293.286": 14681.600397,
      "1294.288": 14702.267552,
      "1295.29": 14720.930441,
      "1296.292": 14742.804524,
      "1297.294": 14766.219599,
      "1298.296": 14787.024046,
      "1299.298": 14807.50844,
      "1300.3": 14824.953036,
      "1301.302": 14839.617167,
      "1302.304": 14854.008082,
      "1303.306": 14869.194172,
      "1304.308": 14885.430927,
      "1305.31": 14902.671589,
      "1306.312": 14918.577235,
      "1307.314": 14937.003359,
      "1308.316": 14953.512153,
      "1309.318": 14973.556059,
      "1310.32": 14992.508027,
      "1311.322": 15010.480672,
      "1312.324": 15026.799994,
      "1313.326": 15044.405043,
      "1314.328": 15060.016666,
      "1315.33": 15079.424776,
      "1316.332": 15098.137261,
      "1317.334": 15116.362577,
      "1318.336": 15132.753716,
      "1319.338": 15151.287799,
      "1320.34": 15168.729977,
      "1321.342": 15188.126546,
      "1322.344": 15202.64311,
      "1323.346": 15216.831099,
      "1324.348": 15231.249506,
      "1325.35": 15248.39955,
      "1326.352": 15265.637366,
      "1327.354": 15284.682308,
      "1328.356": 15302.236352,
      "1329.358": 15319.979123,
      "1330.36": 15337.914985,
      "1331.362": 15353.400885,
      "1332.364": 15371.036116,
      "1333.366": 15388.03468,
      "1334.368": 15402.633089,
      "1335.37": 15419.227964,
      "1336.372": 15435.53038,
      "1337.374": 15451.338914,
      "1338.376": 15467.484816,
      "1339.378": 15484.651665,
      "1340.38": 15499.500317,
      "1341.382": 15517.976763,
      "1342.384": 15533.097193,
      "1343.386": 15553.597648,
      "1344.388": 15567.764899,
      "1345.39": 15582.331291,
      "1346.392": 15596.387005,
      "1347.394": 15611.262759,
      "1348.396": 15627.565078,
      "1349.398": 15642.367078,
      "1350.4": 15656.131337,
      "1351.402": 15671.456039,
      "1352.404": 15686.518053,
      "1353.406": 15703.747976,
      "1354.408": 15719.044835,
      "1355.41": 15735.284085,
      "1356.412": 15749.394039,
      "1357.414": 15764.940636,
      "1358.416": 15781.660383,
      "1359.418": 15798.816619,
      "1360.42": 15814.245198,
      "1361.422": 15830.615803,
      "1362.424": 15845.116477,
      "1363.426": 15862.468446,
      "1364.428": 15877.148227,
      "1365.43": 15894.71735,
      "1366.432": 15910.523558,
      "1367.434": 15929.151672,
      "1368.436": 15942.428903,
      "1369.438": 15955.080087,
      "1370.44": 15967.829862,
      "1371.442": 15980.921766,
      "1372.444": 15994.197448,
      "1373.446": 16007.844209,
      "1374.448": 16020.770585,
      "1375.45": 16035.18105,
      "1376.452": 16051.150121,
      "1377.454": 16066.030568,
      "1378.456": 16080.73695,
      "1379.458": 16095.302725,
      "1380.46": 16109.269677,
      "1381.462": 16122.128917,
      "1382.464": 16135.003226,
      "1383.466": 16148.446336,
      "1384.468": 16161.948329,
      "1385.47": 16174.959438,
      "1386.472": 16188.778515,
      "1387.474": 16201.736359,
      "1388.476": 16215.592832,
      "1389.478": 16228.749584,
      "1390.48": 16241.515356,
      "1391.482": 16254.631589,
      "1392.484": 16267.959604,
      "1393.486": 16283.341519,
      "1394.488": 16297.897494,
      "1395.49": 16310.131765,
      "1396.492": 16322.739376,
      "1397.494": 16335.303663,
      "1398.496": 16348.476335,
      "1399.498": 16362.907069,
      "1400.5": 16376.06062,
      "1401.502": 16388.252458,
      "1402.504": 16403.45694,
      "1403.506": 16417.936969,
      "1404.508": 16431.776789,
      "1405.51": 16445.306641,
      "1406.512": 16458.636822,
      "1407.514": 16471.699078,
      "1408.516": 16484.967135,
      "1409.518": 16497.961596,
      "1410.52": 16510.632342,
      "1411.522": 16523.537499,
      "1412.524": 16537.068445,
      "1413.526": 16550.724212,
      "1414.528": 16565.072554,
      "1415.53": 16579.01974,
      "1416.532": 16593.119297,
      "1417.534": 16607.897245,
      "1418.536": 16621.923461,
      "1419.538": 16634.904449,
      "1420.54": 16650.36047,
      "1421.542": 16666.74498,
      "1422.544": 16680.504388,
      "1423.546": 16693.291791,
      "1424.548": 16706.881673,
      "1425.55": 16720.525685,
      "1426.552": 16736.173707,
      "1427.554": 16751.134462,
      "1428.556": 16763.798243,
      "1429.558": 16777.400489,
      "1430.56": 16790.558831,
      "1431.562": 16803.593461,
      "1432.564": 16817.0572,
      "1433.566": 16830.838348,
      "1434.568": 16844.523429,
      "1435.57": 16857.857159,
      "1436.572": 16871.160204,
      "1437.574": 16884.666317,
      "1438.576": 16898.643319,
      "1439.578": 16912.311498,
      "1440.58": 16925.707268,
      "1441.582": 16939.573134,
      "1442.584": 16953.572134,
      "1443.586": 16967.008269,
      "1444.588": 16981.342179,
      "1445.59": 16994.606488,
      "1446.592": 17007.220431,
      "1447.594": 17022.862757,
      "1448.596": 17037.342365,
      "1449.598": 17049.691645,
      "1450.6": 17062.053926,
      "1451.602": 17074.728795,
      "1452.604": 17087.615323,
      "1453.606": 17102.246116,
      "1454.608": 17117.060856,
      "1455.61": 17131.430483,
      "1456.612": 17145.385366,
      "1457.614": 17158.987864,
      "1458.616": 17172.502477,
      "1459.618": 17186.712363,
      "1460.62": 17201.142609,
      "1461.622": 17215.768696,
      "1462.624": 17230.802046,
      "1463.626": 17245.343854,
      "1464.628": 17260.142398,
      "1465.63": 17276.061856,
      "1466.632": 17290.597554,
      "1467.634": 17303.957863,
      "1468.636": 17316.698524,
      "1469.638": 17329.75488,
      "1470.64": 17342.836739,
      "1471.642": 17355.365753,
      "1472.644": 17368.002663,
      "1473.646": 17380.403325,
      "1474.648": 17398.129679,
      "1475.65": 17410.705806,
      "1476.652": 17423.269779,
      "1477.654": 17436.244183,
      "1478.656": 17448.814946,
      "1479.658": 17463.964507,
      "1480.66": 17478.703398,
      "1481.662": 17492.923895,
      "1482.664": 17506.303308,
      "1483.666": 17521.340566,
      "1484.668": 17537.149561,
      "1485.67": 17551.861731,
      "1486.672": 17565.580723,
      "1487.674": 17580.776911,
      "1488.676": 17594.57863,
      "1489.678": 17608.879023,
      "1490.68": 17622.327444,
      "1491.682": 17637.072184,
      "1492.684": 17650.070447,
      "1493.686": 17663.099426,
      "1494.688": 17676.953328,
      "1495.69": 17691.283691,
      "1496.692": 17704.809648,
      "1497.694": 17718.51496,
      "1498.696": 17731.711938,
      "1499.698": 17745.537767,
      "1500.7": 17765.287547,
      "1501.702": 17793.583091,
      "1502.704": 17818.165587,
      "1503.706": 17843.605292,
      "1504.708": 17869.028644,
      "1505.71": 17890.876047,
      "1506.712": 17910.437152,
      "1507.714": 17927.557525,
      "1508.716": 17943.02031,
      "1509.718": 17958.441282,
      "1510.72": 17971.946723,
      "1511.722": 17987.237246,
      "1512.724": 18000.633633,
      "1513.726": 18014.85602,
      "1514.728": 18030.3282,
      "1515.73": 18044.382589,
      "1516.732": 18057.287559,
      "1517.734": 18070.851208,
      "1518.736": 18084.043708,
      "1519.738": 18101.999959,
      "1520.74": 18118.243061,
      "1521.742": 18140.320365,
      "1522.744": 18153.382402,
      "1523.746": 18168.356553,
      "1524.748": 18181.352516,
      "1525.75": 18196.995346,
      "1526.752": 18213.528364,
      "1527.754": 18234.460037,
      "1528.756": 18253.924185,
      "1529.758": 18274.034919,
      "1530.76": 18291.941554,
      "1531.762": 18310.334409,
      "1532.764": 18329.308982,
      "1533.766": 18350.940042,
      "1534.768": 18370.151334,
      "1535.77": 18393.80552,
      "1536.772": 18418.012987,
      "1537.774": 18441.560982,
      "1538.776": 18461.502885,
      "1539.778": 18482.574221,
      "1540.78": 18505.644184,
      "1541.782": 18521.59188,
      "1542.784": 18535.36558,
      "1543.786": 18550.058364,
      "1544.788": 18563.401043,
      "1545.79": 18582.193737,
      "1546.792": 18604.364068,
      "1547.794": 18627.744838,
      "1548.796": 18646.167765,
      "1549.798": 18666.242917,
      "1550.8": 18683.713932,
      "1551.802": 18702.354122,
      "1552.804": 18718.815619,
      "1553.806": 18737.095671,
      "1554.808": 18755.21487,
      "1555.81": 18776.659134,
      "1556.812": 18797.176776,
      "1557.814": 18816.17051,
      "1558.816": 18832.948311,
      "1559.818": 18851.454106,
      "1560.82": 18868.345397,
      "1561.822": 18887.041332,
      "1562.824": 18900.399506,
      "1563.826": 18914.695469,
      "1564.828": 18928.328216,
      "1565.83": 18945.55206,
      "1566.832": 18962.976767,
      "1567.834": 18979.049232,
      "1568.836": 18996.515664,
      "1569.838": 19013.30727,
      "1570.84": 19031.056646,
      "1571.842": 19049.88109,
      "1572.844": 19067.157629,
      "1573.846": 19087.041159,
      "1574.848": 19104.441262,
      "1575.85": 19122.119734,
      "1576.852": 19139.285049,
      "1577.854": 19158.735817,
      "1578.856": 19177.280428,
      "1579.858": 19198.048877,
      "1580.86": 19214.827726,
      "1581.862": 19236.478054,
      "1582.864": 19254.216553,
      "1583.866": 19269.012063,
      "1584.868": 19283.505741,
      "1585.87": 19298.575952,
      "1586.872": 19315.271463,
      "1587.874": 19332.411707,
      "1588.876": 19351.13029,
      "1589.878": 19371.111876,
      "1590.88": 19389.752104,
      "1591.882": 19408.619034,
      "1592.884": 19425.383458,
      "1593.886": 19445.010547,
      "1594.888": 19465.294718,
      "1595.89": 19490.478084,
      "1596.892": 19516.011288,
      "1597.894": 19540.092553,
      "1598.896": 19558.071011,
      "1599.898": 19577.45879,
      "1600.9": 19596.017471,
      "1601.902": 19618.527487,
      "1602.904": 19634.099841,
      "1603.906": 19650.244565,
      "1604.908": 19666.126169,
      "1605.91": 19685.761265,
      "1606.912": 19705.244136,
      "1607.914": 19724.535288,
      "1608.916": 19743.78321,
      "1609.918": 19766.306443,
      "1610.92": 19786.564797,
      "1611.922": 19807.537508,
      "1612.924": 19825.406447,
      "1613.926": 19847.11694,
      "1614.928": 19865.87343,
      "1615.93": 19888.399069,
      "1616.932": 19909.770554,
      "1617.934": 19932.469366,
      "1618.936": 19952.069309,
      "1619.938": 19972.771543,
      "1620.94": 19992.747666,
      "1621.942": 20007.840593,
      "1622.944": 20023.94167,
      "1623.946": 20039.642266,
      "1624.948": 20057.465108,
      "1625.95": 20074.421957,
      "1626.952": 20091.915718,
      "1627.954": 20110.273171,
      "1628.956": 20129.652249,
      "1629.958": 20148.224219,
      "1630.96": 20165.924621,
      "1631.962": 20184.000694,
      "1632.964": 20201.671043,
      "1633.966": 20218.967589,
      "1634.968": 20235.304827,
      "1635.97": 20253.85306,
      "1636.972": 20270.918088,
      "1637.974": 20289.552406,
      "1638.976": 20305.707713,
      "1639.978": 20323.800127,
      "1640.98": 20340.339155,
      "1641.982": 20362.02028,
      "1642.984": 20376.37925,
      "1643.986": 20391.161084,
      "1644.988": 20405.593218,
      "1645.99": 20421.354871,
      "1646.992": 20438.782696,
      "1647.994": 20454.38625,
      "1648.996": 20471.302824,
      "1649.998": 20487.736511,
      "1651.0": 20502.515072,
      "1652.002": 20519.724077,
      "1653.004": 20536.761841,
      "1654.006": 20553.948144,
      "1655.008": 20572.305366,
      "1656.01": 20593.575476,
      "1657.012": 20615.800199,
      "1658.014": 20636.19921,
      "1659.016": 20652.960076,
      "1660.018": 20669.915144,
      "1661.02": 20683.981346,
      "1662.022": 20700.045796,
      "1663.024": 20717.720868,
      "1664.026": 20736.210574,
      "1665.028": 20750.594807,
      "1666.03": 20765.106224,
      "1667.032": 20781.223772,
      "1668.034": 20798.974363,
      "1669.036": 20814.680416,
      "1670.038": 20830.419503,
      "1671.04": 20844.417716,
      "1672.042": 20859.095944,
      "1673.044": 20871.99792,
      "1674.046": 20885.844561,
      "1675.048": 20899.964051,
      "1676.05": 20913.694928,
      "1677.052": 20928.248753,
      "1678.054": 20943.588983,
      "1679.056": 20957.086857,
      "1680.058": 20970.732487,
      "1681.06": 20984.445588,
      "1682.062": 20998.450449,
      "1683.064": 21012.828781,
      "1684.066": 21026.316747,
      "1685.068": 21040.971604,
      "1686.07": 21054.760562,
      "1687.072": 21067.996688,
      "1688.074": 21082.46625,
      "1689.076": 21101.71273,
      "1690.078": 21114.851913,
      "1691.08": 21127.905325,
      "1692.082": 21140.905081,
      "1693.084": 21154.173288,
      "1694.086": 21168.435866,
      "1695.088": 21182.132774,
      "1696.09": 21196.624022,
      "1697.092": 21209.7708,
      "1698.094": 21222.127989,
      "1699.096": 21235.587704,
      "1700.098": 21249.042777,
      "1701.1": 21262.379768,
      "1702.102": 21277.840858,
      "1703.104": 21292.630756,
      "1704.106": 21308.660087,
      "1705.108": 21324.533097,
      "1706.11": 21339.466513,
      "1707.112": 21354.608741,
      "1708.114": 21370.332657,
      "1709.116": 21385.975193,
      "1710.118": 21401.248912,
      "1711.12": 21416.703062,
      "1712.122": 21431.061478,
      "1713.124": 21444.949387,
      "1714.126": 21466.179358,
      "1715.128": 21480.144422,
      "1716.13": 21494.649664,
      "1717.132": 21509.372277,
      "1718.134": 21523.544619,
      "1719.136": 21537.900034,
      "1720.138": 21552.024072,
      "1721.14": 21567.282405,
      "1722.142": 21582.050358,
      "1723.144": 21596.093815,
      "1724.146": 21612.192755,
      "1725.148": 21625.75366,
      "1726.15": 21639.844997,
      "1727.152": 21654.665064,
      "1728.154": 21669.013139,
      "1729.156": 21682.256537,
      "1730.158": 21696.044722,
      "1731.16": 21709.731536,
      "1732.162": 21723.262316,
      "1733.164": 21737.107527,
      "1734.166": 21750.141461,
      "1735.168": 21763.718363,
      "1736.17": 21777.523805,
      "1737.172": 21791.169489,
      "1738.174": 21805.396342,
      "1739.176": 21819.683912,
      "1740.178": 21839.158915,
      "1741.18": 21852.178724,
      "1742.182": 21865.364702,
      "1743.184": 21878.464599,
      "1744.186": 21891.708101,
      "1745.188": 21905.687176,
      "1746.19": 21919.449877,
      "1747.192": 21933.430981,
      "1748.194": 21948.038932,
      "1749.196": 21962.587424,
      "1750.198": 21975.778853,
      "1751.2": 21988.623997,
      "1752.202": 22002.278462,
      "1753.204": 22016.581646,
      "1754.206": 22029.912686,
      "1755.208": 22044.019506,
      "1756.21": 22057.347614,
      "1757.212": 22069.856582,
      "1758.214": 22083.318806,
      "1759.216": 22096.94909,
      "1760.218": 22110.208085,
      "1761.22": 22124.687394,
      "1762.222": 22139.637292,
      "1763.224": 22154.775027,
      "1764.226": 22169.234631,
      "1765.228": 22184.667285,
      "1766.23": 22198.706653,
      "1767.232": 22215.058335,
      "1768.234": 22227.834033,
      "1769.236": 22241.022133,
      "1770.238": 22254.268554,
      "1771.24": 22267.624866,
      "1772.242": 22282.404824,
      "1773.244": 22297.290528,
      "1774.246": 22311.647158,
      "1775.248": 22325.484985,
      "1776.25": 22339.299673,
      "1777.252": 22354.883087,
      "1778.254": 22368.400411,
      "1779.256": 22382.047524,
      "1780.258": 22396.744895,
      "1781.26": 22411.188173,
      "1782.262": 22425.8089,
      "1783.264": 22441.152547,
      "1784.266": 22456.769212,
      "1785.268": 22470.461837,
      "1786.27": 22485.334607,
      "1787.272": 22499.760627,
      "1788.274": 22513.833983,
      "1789.276": 22528.05006,
      "1790.278": 22542.92804,
      "1791.28": 22557.856441,
      "1792.282": 22572.498107,
      "1793.284": 22589.327709,
      "1794.286": 22602.453138,
      "1795.288": 22615.473064,
      "1796.29": 22628.664128,
      "1797.292": 22642.280746,
      "1798.294": 22656.768861,
      "1799.296": 22671.073377,
      "1800.298": 22685.376999,
      "1801.3": 22713.238512,
      "1802.302": 22749.160945,
      "1803.304": 22780.926619,
      "1804.306": 22808.400732,
      "1805.308": 22832.022048,
      "1806.31": 22853.787865,
      "1807.312": 22870.501058,
      "1808.314": 22886.837825,
      "1809.316": 22902.59221,
      "1810.318": 22918.423895,
      "1811.32": 22932.735959,
      "1812.322": 22949.164047,
      "1813.324": 22961.98797,
      "1814.326": 22974.680373,
      "1815.328": 22987.308181,
      "1816.33": 23000.656904,
      "1817.332": 23014.624464,
      "1818.334": 23028.420264,
      "1819.336": 23044.301818,
      "1820.338": 23060.262381,
      "1821.34": 23077.665588,
      "1822.342": 23095.685945,
      "1823.344": 23112.145502,
      "1824.346": 23128.652144,
      "1825.348": 23148.354079,
      "1826.35": 23167.80428,
      "1827.352": 23187.618392,
      "1828.354": 23206.952314,
      "1829.356": 23226.570455,
      "1830.358": 23244.952139,
      "1831.36": 23262.832436,
      "1832.362": 23279.325433,
      "1833.364": 23295.517436,
      "1834.366": 23313.330861,
      "1835.368": 23331.540028,
      "1836.37": 23348.887713,
      "1837.372": 23365.375379,
      "1838.374": 23382.120764,
      "1839.376": 23398.058845,
      "1840.378": 23415.117238,
      "1841.38": 23433.044858,
      "1842.382": 23449.261216,
      "1843.384": 23468.763932,
      "1844.386": 23489.072471,
      "1845.388": 23509.34596,
      "1846.39": 23531.422011,
      "1847.392": 23551.552964,
      "1848.394": 23570.64018,
      "1849.396": 23590.542304,
      "1850.398": 23608.982257,
      "1851.4": 23626.892115,
      "1852.402": 23645.643543,
      "1853.404": 23663.993256,
      "1854.406": 23682.438747,
      "1855.408": 23701.729683,
      "1856.41": 23717.047919,
      "1857.412": 23732.221208,
      "1858.414": 23747.333571,
      "1859.416": 23764.327489
    },
    "seconds": 23764.327489
  }
}