[
  0.627,
  0.624,
  0.471,
  0.544,
  0.461,
  0.661,
  0.578,
  0.627,
  0.595,
  0.483,
  0.567,
  0.675,
  0.561,
  0.513,
  0.178,
  0.154,
  0.198,
  0.215,
  0.24,
  0.376,
  0.205,
  0.192,
  0.293,
  0.265,
  0.43,
  0.322,
  0.262,
  0.511,
  0.557,
  0.365,
  0.574,
  0.46,
  0.582,
  0.489,
  0.443,
  0.456,
  0.539,
  0.584,
  0.599,
  0.762,
  0.488,
  0.623551,
  0.626337,
  0.637,
  0.442,
  0.171,
  0.457,
  0.533,
  0.435,
  0.359,
  0.239,
  0.219,
  0.27,
  0.254,
  0.357,
  0.256,
  0.244,
  0.452,
  0.353,
  0.309,
  0.256,
  0.261394,
  0.320982,
  0.313,
  0.261649,
  0.376,
  0.249,
  0.461,
  0.293,
  0.557,
  0.368,
  0.513881,
  0.31,
  0.61,
  0.352765,
  0.31,
  0.194,
  0.205,
  0.429,
  0.348,
  0.64,
  0.422,
  0.262,
  0.285,
  0.257,
  0.377,
  0.472,
  0.717,
  0.31,
  0.443,
  0.401,
  0.777,
  0.176499,
  0.386641,
  0.259122,
  0.326636,
  0.257551,
  0.504915,
  0.231,
  0.448,
  0.316103,
  0.294,
  0.339,
  0.546,
  0.334132,
  0.659315,
  0.302584,
  0.272274,
  0.214,
  0.176,
  0.232,
  0.343,
  0.286,
  0.398,
  0.224,
  0.26,
  0.317,
  0.257,
  0.386,
  0.304,
  0.388,
  0.541,
  0.356,
  0.278,
  0.459,
  0.445,
  0.196,
  0.563,
  0.251,
  0.372,
  0.226,
  0.448,
  0.444,
  0.306,
  0.357,
  0.554,
  0.281,
  0.607,
  0.383,
  0.349,
  0.408,
  0.585,
  0.447,
  0.928,
  0.523,
  0.584,
  0.688,
  0.462,
  0.511,
  0.51,
  0.436,
  0.643,
  0.683,
  0.452,
  0.261,
  0.327,
  0.456,
  0.444,
  0.164,
  0.396,
  0.308,
  0.505,
  0.277,
  0.382,
  0.381,
  0.585,
  0.243,
  0.681,
  0.399,
  0.341,
  0.28,
  0.276,
  0.418,
  0.3,
  0.237,
  0.333,
  0.411,
  0.472,
  0.388,
  0.508,
  0.389,
  0.509,
  0.305,
  0.417,
  0.333,
  0.294,
  0.225,
  0.257,
  0.311,
  0.265,
  0.344,
  0.206,
  0.427,
  0.412,
  0.478,
  0.338,
  0.28,
  0.411,
  0.535,
  0.295,
  0.523,
  0.206,
  0.299,
  0.526,
  0.277,
  0.409,
  0.352,
  0.263,
  0.343177,
  0.393342,
  0.448,
  0.379,
  0.497,
  0.582918,
  0.428653,
  0.406,
  0.222,
  0.406,
  0.156,
  0.238,
  0.205,
  0.338,
  0.223,
  0.224546,
  0.272,
  0.274897,
  0.343,
  0.295,
  0.207,
  0.459,
  0.282103,
  0.268,
  0.203,
  0.449,
  0.396,
  0.283,
  0.37,
  0.212,
  0.457,
  0.339,
  0.278,
  0.387,
  0.32,
  5.835,
  0.449,
  0.421,
  0.283,
  0.456,
  0.42,
  0.576377,
  0.798,
  0.437889,
  0.778567,
  0.404308,
  0.623,
  0.483189,
  0.722,
  0.436,
  0.545796,
  0.776733,
  0.596601,
  0.418,
  0.426,
  0.280602,
  0.206,
  0.285,
  0.246,
  0.301,
  0.386,
  0.307,
  0.236,
  0.551,
  0.467,
  0.5,
  0.438213,
  1.329766,
  0.675,
  0.436,
  0.444,
  0.54351,
  0.464,
  0.596,
  0.670008,
  0.516414,
  0.537,
  0.588358,
  0.664842,
  0.518483,
  0.664,
  0.598,
  0.628,
  0.209,
  0.258,
  0.455648,
  0.47,
  0.421,
  0.339,
  0.392,
  0.479,
  0.308,
  0.453309,
  0.458,
  0.343,
  0.326,
  1.431302,
  0.352302,
  0.253896,
  0.415,
  0.877,
  0.508,
  0.501,
  0.598,
  0.504,
  2.048,
  0.514,
  0.604,
  0.566,
  0.563,
  0.541,
  0.807,
  0.585827,
  0.586,
  0.254,
  0.203,
  0.239,
  0.322,
  0.218,
  0.364,
  0.204,
  0.245,
  0.591,
  0.531,
  0.367,
  0.339,
  0.371,
  0.562,
  0.368,
  0.3,
  0.256,
  0.162,
  0.283,
  0.348,
  0.201,
  0.357,
  0.193,
  0.265,
  0.317,
  0.616,
  0.346,
  0.656,
  0.334,
  0.535,
  0.73,
  0.32,
  0.484,
  0.418897,
  0.526,
  0.534,
  0.447,
  0.568,
  0.485,
  0.492,
  0.621,
  0.689,
  0.72,
  0.582,
  0.581,
  0.586,
  0.56,
  0.781,
  0.505,
  0.602,
  0.697,
  0.643,
  0.465,
  0.814,
  0.532,
  0.755,
  0.662,
  0.703,
  0.604,
  0.797,
  0.641,
  0.68,
  0.347,
  0.301,
  0.313,
  0.342,
  0.172,
  0.366,
  0.262,
  0.177,
  0.3,
  0.401,
  0.339,
  0.601,
  0.288,
  0.445,
  0.309,
  0.358,
  0.453,
  0.452,
  0.716,
  0.458,
  0.712,
  0.547,
  0.461,
  0.418,
  0.513,
  0.525,
  0.625,
  0.755,
  0.486,
  0.847,
  0.552972,
  0.448,
  0.399,
  0.36,
  0.421,
  0.467,
  0.361,
  0.69,
  0.522,
  0.395,
  0.472,
  0.442,
  0.504,
  0.501,
  0.42,
  0.898,
  0.524,
  0.513,
  0.394,
  0.691,
  0.674,
  0.493,
  0.472,
  0.49,
  0.476,
  0.522,
  0.61,
  0.537,
  0.535,
  0.779,
  0.576,
  0.712,
  0.501304,
  0.497154,
  0.562,
  0.542,
  0.764,
  0.554099,
  0.650245,
  0.552,
  0.668,
  0.59131,
  0.607,
  0.590606,
  0.554949,
  0.692,
  0.649195,
  0.551,
  0.491621,
  0.467,
  0.684,
  0.619011,
  0.507095,
  0.56,
  0.464,
  0.702805,
  0.562,
  0.556,
  0.638432,
  0.591195,
  0.638701,
  0.691805,
  0.541934,
  0.679761,
  0.413,
  0.512,
  0.492,
  0.528,
  0.678,
  0.544,
  0.485,
  0.72,
  0.584,
  0.618,
  0.549,
  0.549,
  0.658,
  0.609,
  0.563,
  0.21318,
  0.266,
  0.478,
  0.285,
  0.224,
  0.267,
  0.212,
  0.463,
  0.59,
  0.213,
  0.385312,
  0.24346,
  0.273782,
  0.532,
  0.367,
  0.281242,
  0.617,
  0.475,
  0.514311,
  0.613,
  0.390469,
  0.564,
  0.650645,
  0.521,
  0.953946,
  0.531,
  0.611,
  0.478772,
  0.609,
  0.667,
  0.569,
  0.512695,
  0.462731,
  0.219,
  0.215,
  0.469,
  0.186,
  0.411897,
  0.197,
  0.428897,
  0.2798,
  0.43,
  0.451,
  0.29734,
  0.255893,
  0.533,
  0.365,
  0.33774,
  0.549,
  0.431,
  0.239,
  0.328,
  0.325,
  0.414,
  0.292,
  0.25,
  0.399,
  0.319,
  0.411,
  0.795,
  0.272,
  0.478,
  0.346,
  0.29,
  0.429,
  0.459,
  0.558,
  0.708,
  0.689,
  0.459,
  0.719,
  0.544,
  0.718,
  0.623,
  0.839,
  0.496,
  0.668,
  0.668,
  0.548,
  0.421,
  0.46,
  0.622,
  0.695,
  0.559,
  0.699,
  0.631,
  0.501,
  0.5,
  0.688,
  0.59,
  0.487,
  0.448,
  1.148,
  0.589,
  0.588,
  0.424,
  0.211,
  0.459,
  0.401,
  0.447,
  0.326,
  0.21,
  0.266,
  0.261,
  0.301,
  0.407,
  0.345,
  0.267,
  0.455,
  0.404,
  0.305,
  0.2598,
  0.496,
  0.253795,
  0.374,
  0.231801,
  0.3,
  0.24,
  0.267,
  0.295,
  0.285,
  0.41631,
  0.325,
  0.575,
  0.510685,
  0.376689,
  0.554,
  0.19,
  0.424,
  0.503,
  0.268,
  0.161,
  0.313,
  0.236,
  0.419,
  0.259,
  0.442,
  0.297,
  0.539,
  0.277,
  0.426,
  0.443,
  0.32,
  0.61,
  0.614,
  0.668,
  0.503,
  0.46,
  0.576,
  0.556,
  0.731,
  0.53,
  0.533478,
  0.569,
  0.493838,
  0.594,
  0.683,
  0.578,
  0.544,
  0.432883,
  0.453,
  0.504,
  0.673184,
  0.548,
  0.4628,
  0.53,
  0.637883,
  0.527,
  0.518716,
  0.666111,
  0.575,
  0.553,
  0.430716,
  0.355483,
  0.390284,
  0.454,
  0.418059,
  0.486215,
  0.447429,
  0.500716,
  0.454284,
  0.799127,
  0.499086,
  0.513994,
  0.938162,
  0.623374,
  0.478381,
  0.458,
  0.401,
  0.441,
  0.671,
  0.441,
  0.504,
  0.432,
  0.504,
  0.497,
  0.611,
  0.753,
  0.478,
  0.783,
  0.573,
  0.611,
  0.486736,
  0.679,
  0.464,
  0.536,
  0.527948,
  0.408,
  0.522764,
  0.524,
  0.693578,
  0.525,
  0.526,
  0.704,
  0.599,
  0.227,
  0.203103,
  0.246306,
  0.325905,
  0.186,
  0.437,
  0.276652,
  0.273,
  0.269,
  0.315,
  0.37466,
  0.302,
  0.444,
  0.364184,
  0.319903,
  0.452,
  0.828,
  0.441,
  0.716,
  0.473,
  0.555,
  0.553,
  0.475,
  0.71,
  0.72,
  0.603,
  0.505,
  0.736,
  0.644,
  0.541,
  0.52,
  0.558,
  0.472,
  0.583,
  0.739,
  0.575,
  0.453,
  0.462,
  0.563,
  0.501,
  0.609,
  0.711,
  0.557,
  0.659,
  0.617,
  0.609,
  0.617,
  0.418,
  0.689,
  0.483,
  0.722,
  0.731,
  0.777,
  0.453,
  0.469,
  0.511,
  0.635,
  0.477,
  0.519,
  0.644,
  0.59,
  0.71,
  0.181,
  0.237,
  0.316,
  1.319,
  0.371,
  0.529,
  0.259,
  0.583,
  0.314,
  0.299,
  0.414,
  0.375,
  0.282,
  0.51,
  0.646,
  0.278,
  0.366,
  0.428,
  0.442,
  0.423,
  0.444,
  0.557,
  0.721,
  0.641,
  0.501,
  0.483,
  0.71,
  0.572,
  0.483,
  0.696,
  0.811,
  0.557,
  0.594319,
  0.601701,
  0.665,
  0.549567,
  0.4606,
  0.565,
  0.622963,
  0.570956,
  0.683889,
  0.672,
  0.461,
  0.78,
  0.584388,
  0.531,
  0.248,
  0.363,
  0.257,
  0.335,
  0.183,
  0.29,
  0.347,
  0.237,
  0.36,
  0.26,
  0.378,
  0.276,
  0.496,
  0.512,
  0.305,
  0.306,
  0.424,
  0.193,
  0.235,
  0.326,
  0.734,
  0.355,
  0.408,
  0.268,
  0.398,
  0.407,
  0.317,
  0.832,
  0.595,
  0.422,
  0.405,
  0.177,
  0.197,
  0.196,
  0.277,
  0.195569,
  0.382,
  0.179,
  0.263,
  0.246,
  0.263,
  0.359,
  0.489,
  0.255,
  0.474,
  0.488,
  0.38,
  0.428,
  0.634,
  0.627,
  0.56,
  0.397841,
  0.584031,
  0.413167,
  0.826,
  0.537,
  0.500128,
  0.607,
  0.644679,
  0.611709,
  0.637,
  0.752,
  0.41,
  0.692,
  0.453,
  0.837,
  0.515,
  0.823,
  0.44,
  0.505,
  0.646,
  0.645,
  0.499,
  0.64,
  0.724,
  0.636,
  0.612,
  0.462,
  0.464865,
  0.491111,
  0.626842,
  0.522777,
  0.599,
  0.439,
  0.485,
  0.57,
  0.516636,
  0.619689,
  0.582947,
  0.556339,
  0.723199,
  0.627631,
  0.598835,
  0.278,
  0.232,
  0.442,
  0.284,
  0.244,
  0.656,
  0.492,
  0.49,
  0.27,
  0.292,
  0.375,
  0.325,
  0.424,
  0.516,
  0.421,
  0.371,
  0.477,
  0.4,
  0.531,
  0.624,
  0.695,
  0.609,
  0.449,
  0.481,
  0.485,
  0.537,
  0.616,
  0.92,
  0.685,
  0.572,
  0.552,
  0.658,
  0.683,
  0.578,
  0.544,
  0.666,
  0.467,
  0.545,
  0.503,
  0.611,
  0.65,
  0.521,
  0.676,
  0.576,
  0.551,
  0.719,
  0.212,
  0.199,
  0.358121,
  0.307,
  0.384,
  0.447,
  0.29,
  0.347,
  0.345,
  0.453,
  0.277733,
  0.425,
  0.51,
  0.559,
  0.472,
  0.746284,
  0.786955,
  0.525,
  0.723,
  0.573,
  0.634313,
  0.561256,
  0.509,
  0.812,
  1.141218,
  0.64596,
  0.756,
  0.693329,
  0.581,
  0.529,
  0.697,
  0.551,
  0.531,
  0.89,
  0.606,
  0.757,
  0.536,
  0.577,
  0.693,
  0.587,
  0.583,
  0.655,
  0.696,
  0.553,
  0.411,
  0.668,
  0.479,
  0.558333,
  0.392,
  0.537778,
  0.479,
  0.415119,
  0.608,
  0.607,
  0.537,
  0.858,
  0.694,
  0.771,
  0.604,
  0.543,
  0.614,
  0.372,
  0.656,
  0.49,
  0.52,
  0.607,
  0.513,
  0.503,
  0.556,
  0.479,
  0.637,
  0.87,
  0.586,
  0.712,
  0.568,
  0.537,
  0.198,
  0.247,
  0.175,
  0.296,
  0.211,
  0.292,
  0.446,
  0.244,
  0.385,
  0.27,
  0.378,
  0.355,
  0.324,
  0.487,
  0.371,
  1.304,
  0.481,
  0.477,
  0.783,
  0.621,
  0.484,
  0.587,
  0.476,
  0.536,
  0.61,
  0.577,
  0.67,
  0.827,
  0.567,
  0.889,
  0.735,
  0.544,
  0.426,
  0.458,
  0.612,
  0.527,
  0.482,
  0.677,
  0.475,
  0.49,
  0.857,
  0.671,
  0.49,
  0.724,
  0.591,
  0.566,
  0.437,
  0.411,
  0.788,
  0.634,
  0.558,
  0.693,
  0.477,
  0.562,
  0.587,
  0.479,
  0.618,
  0.494,
  0.554,
  0.682,
  0.556,
  0.531,
  0.465,
  0.507,
  0.56,
  0.683,
  0.623,
  0.530561,
  0.626,
  0.486,
  0.505,
  0.582,
  0.517,
  0.507,
  0.682,
  0.599,
  0.539,
  0.511,
  0.543,
  0.754,
  0.503,
  0.479,
  0.536,
  0.469,
  0.528,
  0.542,
  0.579,
  0.677,
  2.441,
  0.63,
  0.841,
  0.73,
  2.022,
  0.485,
  0.411,
  0.409,
  0.514,
  0.442,
  0.704,
  0.439,
  1.048,
  0.638,
  0.574,
  0.778,
  0.463,
  0.694,
  0.76,
  0.57,
  0.232247,
  0.584528,
  0.237289,
  0.244489,
  0.4012,
  0.244,
  0.223652,
  0.342596,
  0.252,
  0.452905,
  0.295777,
  0.275,
  0.486,
  0.325,
  0.492444,
  0.235,
  0.229,
  0.325,
  0.3,
  0.499,
  0.357,
  0.289,
  0.446,
  0.367,
  0.365,
  0.389,
  0.319,
  0.278,
  0.523,
  0.65,
  0.429,
  0.232554,
  0.217,
  0.219,
  0.443706,
  0.231,
  0.276,
  0.223103,
  0.23214,
  0.248091,
  0.29559,
  0.975,
  0.331897,
  0.317091,
  0.582517,
  0.319897,
  0.287388,
  0.503103,
  0.248136,
  0.36,
  0.325,
  0.242591,
  0.281972,
  0.242,
  0.352,
  0.525,
  0.508889,
  0.537,
  0.518439,
  0.42,
  0.345906,
  0.275,
  0.48245,
  0.545,
  0.724807,
  0.629,
  0.59931,
  0.782,
  0.570805,
  0.506876,
  0.592117,
  0.601819,
  0.591612,
  0.733336,
  0.604795,
  0.559805
]