[
  5.436586985391768,
  3.3527846027846024,
  3.0618922961854906,
  3.3527846027846024,
  3.940086621751684,
  3.2515885623510736,
  5.394917872053301,
  5.094516899795905,
  1.445714927441444,
  12.44104275312109,
  1.4823275774666647,
  1.0499487047961014,
  3.680913468973778,
  1.7316790995057183,
  3.993649183222525,
  3.9232532598341274,
  7.706244999764698,
  5.091728855721394,
  9.825275107703016,
  4.821849234393403,
  6.725707770359073,
  6.013181628564206,
  8.478270774481624,
  4.968143203883494,
  6.110074626865672,
  10.374114319888905,
  5.9415820029027575,
  5.924384949348771,
  4.90857314148681,
  4.920372596153847,
  6.560496794871789,
  3.8620283018867925,
  4.194415983606557,
  1.645345004983762,
  5.302784974093263,
  11.447974809561627,
  8.23871183275239,
  8.030550912957167,
  7.0703799654576835,
  5.65435082872928,
  7.811068964464524,
  4.194613680562813,
  6.061447344068112,
  6.539536741214056,
  11.531690140845072,
  8.253528225806456,
  7.53913443830571,
  3.2107843137254894,
  3.619584438549955,
  2.5601938711694805,
  4.732658959537576,
  2.582807570977917,
  2.9411299830375377,
  3.769567219152855,
  5.790311173974538,
  7.857485604606524,
  9.67789598108747,
  5.86497134670487,
  9.282879818594107,
  8.058562992125983,
  12.873427672955973,
  7.980019493177383,
  6.957497867075465,
  10.744750656167978,
  5.365334207077327,
  9.303977272727273,
  6.277419384517717,
  9.936286407766993,
  9.476273148148149,
  4.873511904761906,
  3.6068281938325986,
  8.88015184381779,
  8.582285115303977,
  5.085403726708076,
  3.6324022257142587,
  4.409054730976311,
  1.9570484339310013,
  4.040855205361815,
  2.8748244382022463,
  3.0227882235493557,
  3.045886017085979,
  3.551395139826289,
  4.41854867608139,
  3.151462663587376,
  8.977521929824562,
  7.058189655172413,
  4.867717003567181,
  8.76605995717345,
  7.0218696397941684,
  8.53116963768448,
  5.40785997357992,
  0.8851024102676417,
  7.033934707903777,
  5.07280049566295,
  1.8970111214087118,
  9.041865909818776,
  3.9041824224766466,
  11.067270077886542,
  3.487010221465078,
  4.009549461312439,
  2.9944839320106773,
  3.0545335433484464,
  3.3500409165302796,
  3.6748204667863558,
  4.400481137186447,
  2.6704174820613185,
  2.594264892268694,
  3.46927966101695,
  7.235624636561752,
  10.635934715171286,
  9.137834821428573,
  4.304679284963196,
  3.4057820299500845,
  2.0608890455094646,
  3.902526215443278,
  2.363596997690532,
  3.405782029950083,
  3.3888658940397347,
  3.773417077460245,
  4.101953907815631,
  3.833210514537408,
  5.592554644808741,
  3.7870027752081405,
  2.6158146964856224,
  5.029176904176906,
  3.724977252047317,
  2.730987324883256,
  2.2844587053571432,
  1.816215616681455,
  4.908573141486813,
  3.7385844748858457,
  2.9178545972915173,
  2.34196224256293,
  3.862028301886794,
  9.432603686635941,
  5.784404045656349,
  5.967565597667639,
  3.671524663677131,
  6.8127543081569994,
  5.462302606560766,
  4.297656615792908,
  3.3040758676351887,
  4.9984737484737485,
  7.47158743513978,
  8.337576374745415,
  3.858388312912347,
  4.211676954732511,
  3.7870027752081405,
  3.6518733273862622,
  3.645729898502879,
  3.0101102941176485,
  1.6239652242351346,
  7.1096364555238445,
  5.309662775616084,
  9.410919540229884,
  5.358311518324609,
  9.793660287081341,
  4.291142557651991,
  10.416666666666671,
  2.0096956308296514,
  6.845735785953174,
  5.565699384934986,
  8.72867803837953,
  3.664639086201263,
  5.898775216138329,
  5.898775216138329,
  5.903981609142357,
  6.266781579986715,
  4.483844468784227,
  1.7007685916078106,
  3.4430193439865433,
  3.8380369501587253,
  3.265235639344105,
  1.3807104921181041,
  3.380470685383979,
  2.882922535211268,
  11.756690005341657,
  7.5670055452865075,
  6.529106858054224,
  8.940739414164534,
  6.6673452768729655,
  3.12269969068587,
  2.6792171286645963,
  5.7782724253429585,
  3.71483666061706,
  7.831960328908852,
  4.362766934729277,
  8.440721649484534,
  5.1050820741317136,
  10.240724249034399,
  3.9476856316297013,
  5.017520722743604,
  5.019729452676289,
  4.947907224095625,
  4.392435622317596,
  3.0573188946975347,
  2.99250730994152,
  3.4933422762895607,
  2.649676375404531,
  3.5230206540447506,
  0.6930336888437447,
  3.523020654044752,
  3.0324074074074083,
  4.37366452991453,
  5.296431999958599,
  6.112446621076838,
  8.717933974760319,
  3.217208637797514,
  1.495957306703131,
  3.5109348198970856,
  3.210225356839829,
  2.2236556219445953,
  1.9183458294283033,
  2.1136919738307505,
  3.987638928122655,
  6.800249169435218,
  8.61842105263158,
  1.5721006144393244,
  5.110799001248439,
  7.7630328877629005,
  8.406057494866532,
  4.776837806301049,
  6.128368263473052,
  5.188529784537391,
  1.2893700787401574,
  2.0377053260328526,
  6.156015037593985,
  3.2934432823813347,
  3.1882788161993774,
  2.9713861412009956,
  4.126764112903226,
  4.801050337876666,
  4.4136514576505075,
  3.9287428023032636,
  3.4430193439865433,
  10.496794871794869,
  8.058562992125983,
  9.8644578313253,
  1.536692942942943,
  2.4786390508182308,
  3.0806735754024714,
  2.900351194891556,
  3.6584003574620203,
  3.264553429027112,
  8.054218787504375,
  7.070379965457686,
  7.902992277992281,
  7.310267857142859,
  9.749414737423697,
  4.563823857302117,
  3.36657072368421,
  2.4019688663763086,
  3.787290062705959,
  3.5576758458686637,
  3.457559121621621,
  3.547443674176778,
  3.840290806754222,
  5.733543417366951,
  4.574022346368717,
  2.630944730077121,
  3.974117151391657,
  2.9751090116279064,
  2.6208386683738807,
  3.474792212730705,
  2.3027794231224648,
  4.216014418125646,
  2.6240658325636073,
  3.267899507949127,
  3.3693415637860076,
  3.2438589540412055,
  3.8113659004366487,
  12.176966459243046,
  8.192415449269564,
  4.502064763748136,
  2.8232758620689653,
  3.075694966190834,
  3.0269767868313275,
  2.9151285469325905,
  3.827941565624597,
  3.1090607238007273,
  3.0573188946975347,
  2.6600064977257967,
  1.2386535552193647,
  3.9904414610157617,
  2.8088210876166935,
  3.631754508920255,
  2.9816096139839763,
  3.277622097678141,
  3.7729545402179676,
  3.526055124892333,
  4.590980762458874,
  3.0872926093514317,
  5.166886489420108,
  3.5889120917078254,
  6.366640746500775,
  10.916666666666666,
  9.864909477783325,
  7.079232062198673,
  8.053204757464519,
  9.609741784037565,
  5.26018564680849,
  5.623282967032969,
  3.6453695458593045,
  4.3046792849631945,
  3.681078961897516,
  2.866771708683472,
  3.6227876106194694,
  3.606049795418612
]