[
  0.5,
  0.38,
  0.439,
  0.526,
  0.479,
  0.486,
  0.496,
  0.518,
  0.51,
  0.78,
  0.593,
  0.506,
  0.614,
  0.79,
  0.75,
  0.571,
  0.235,
  0.513535,
  0.267,
  0.426,
  0.289,
  0.536251,
  0.244,
  0.252,
  0.323,
  0.241,
  0.408,
  0.322,
  0.369,
  0.614,
  0.429,
  0.619,
  0.506653,
  0.701251,
  0.700179,
  0.583,
  0.627,
  0.476055,
  0.865,
  0.698,
  0.72,
  0.709527,
  0.565002,
  0.534922,
  0.738,
  0.61262,
  0.516434,
  0.414846,
  0.458084,
  0.247225,
  0.307,
  0.509,
  0.320839,
  0.464,
  0.253,
  0.333,
  0.281062,
  0.430154,
  0.335,
  0.430478,
  0.417,
  0.395,
  0.364,
  0.436,
  0.443,
  0.288,
  0.259,
  0.218,
  0.37,
  0.199,
  0.427,
  0.275,
  0.482,
  0.568,
  0.23,
  0.4,
  0.395,
  0.244,
  0.265196,
  0.241319,
  0.27734,
  0.348952,
  0.514267,
  0.310188,
  0.401,
  0.433,
  0.264805,
  0.334,
  0.435549,
  0.317493,
  0.293129,
  0.813924,
  0.410804,
  0.326805,
  0.205,
  0.213,
  0.222,
  0.565,
  0.288,
  0.359,
  0.384,
  0.447,
  0.271,
  0.243,
  0.353,
  0.555,
  0.352,
  0.491,
  0.358,
  0.26,
  0.178,
  0.434,
  0.214,
  0.276,
  0.233,
  0.416,
  0.49,
  0.227,
  0.295,
  0.253,
  0.345,
  0.286,
  0.278,
  0.44,
  0.351,
  0.389,
  0.233,
  0.229,
  0.475,
  0.288,
  0.392,
  0.384,
  0.235,
  0.342,
  0.577,
  0.34,
  0.358,
  0.305,
  0.233,
  0.756,
  0.35,
  0.254,
  0.482,
  0.394,
  0.479,
  0.587,
  0.591,
  0.453,
  0.635,
  0.515,
  0.65,
  0.807,
  0.482,
  0.686,
  0.859,
  0.556,
  0.196,
  0.588,
  0.292,
  0.378,
  0.441,
  0.536,
  0.424,
  0.246,
  0.359,
  0.235,
  0.342,
  0.271,
  0.323,
  0.438,
  0.355,
  0.265,
  0.883,
  0.272,
  0.177,
  0.298,
  0.248,
  0.595,
  0.15,
  0.227,
  0.257,
  0.465,
  0.668,
  0.268,
  0.278,
  0.45,
  0.37,
  0.326,
  0.592,
  0.294887,
  0.33,
  0.265,
  0.340478,
  0.209,
  0.303,
  0.379522,
  0.382,
  0.44,
  0.605,
  0.611,
  0.396,
  0.381,
  0.449,
  0.257601,
  0.517,
  0.334,
  0.25,
  0.347,
  0.247,
  0.324,
  0.273,
  0.326,
  0.5,
  0.332,
  0.355,
  0.424,
  0.341,
  0.455,
  0.44,
  0.143,
  0.212,
  0.259,
  0.191,
  0.335,
  0.211,
  0.255,
  0.284,
  0.263,
  0.362,
  0.311,
  0.296,
  0.43,
  0.335,
  0.325,
  0.218305,
  0.17318,
  0.252897,
  0.356,
  0.231,
  0.37601,
  0.222262,
  0.194,
  0.274063,
  0.24301,
  0.702,
  0.225,
  0.271145,
  0.475,
  0.352,
  0.297248,
  0.469,
  1.037,
  0.418,
  0.486,
  0.593,
  0.48,
  0.603,
  0.558,
  0.472,
  0.449,
  0.596,
  0.533,
  0.557,
  0.62,
  0.546,
  0.515,
  0.536,
  0.516,
  0.551,
  0.586,
  0.595,
  0.603,
  0.482,
  0.562,
  0.647,
  0.778,
  0.756,
  0.553,
  0.545,
  0.913,
  0.662,
  0.392453,
  0.425829,
  0.465568,
  0.48,
  0.720716,
  0.477126,
  0.636284,
  0.415525,
  0.486031,
  0.646,
  0.572,
  0.641106,
  0.528,
  0.674816,
  0.531406,
  0.369303,
  0.43,
  0.191,
  0.201,
  0.569,
  0.237,
  0.361,
  0.393,
  0.224,
  0.343,
  0.29,
  0.406,
  0.301,
  0.388,
  0.498,
  0.642,
  0.35,
  0.195,
  0.18,
  0.269,
  0.511,
  0.486,
  0.362,
  0.332,
  0.24,
  0.251,
  0.263,
  0.336,
  0.304,
  0.296,
  0.459,
  0.627,
  0.286,
  0.529,
  0.877,
  0.56,
  0.526,
  1.199,
  0.62,
  0.286,
  0.89,
  0.54134,
  0.434,
  1.165,
  0.393,
  0.508,
  0.661,
  0.484,
  0.369,
  0.216,
  0.371,
  0.444,
  0.257,
  0.328,
  0.332,
  0.203,
  0.303,
  0.216,
  0.45,
  0.368,
  0.271,
  0.533,
  0.543,
  0.338,
  0.246,
  0.753,
  0.533,
  0.537,
  0.618,
  0.49,
  0.54,
  0.784,
  0.754,
  0.65,
  0.621,
  0.623,
  0.629,
  0.592,
  0.453589,
  0.647,
  0.435,
  0.562897,
  0.456055,
  0.618,
  0.498903,
  0.468,
  0.625,
  0.484603,
  0.634111,
  0.526463,
  0.652024,
  0.691,
  0.546705,
  0.594,
  0.257,
  0.227,
  0.222,
  0.307,
  0.328,
  0.643,
  0.407,
  0.228,
  0.243,
  0.228,
  0.387,
  0.298,
  0.367,
  0.47,
  0.336,
  0.322,
  0.513,
  0.532268,
  0.499,
  0.491,
  0.517,
  0.441,
  0.586,
  0.561,
  0.491,
  0.626208,
  0.485,
  0.462,
  0.633921,
  0.679,
  0.571,
  0.669302,
  0.611,
  0.498,
  0.496,
  0.487,
  0.529,
  0.66,
  0.5,
  0.751,
  0.762,
  0.539,
  0.826,
  0.537,
  0.719,
  0.589,
  0.491,
  0.616,
  0.386,
  0.525,
  0.383,
  0.473,
  0.419,
  0.431,
  0.577,
  0.845,
  0.625,
  0.46,
  0.547,
  0.794,
  0.624,
  0.502,
  0.481,
  0.49,
  0.469,
  0.649,
  0.511,
  0.575,
  0.442,
  0.47,
  0.534,
  0.926,
  0.604,
  0.571,
  0.527,
  0.663,
  0.6,
  0.612,
  0.638,
  0.841,
  0.375,
  0.507,
  0.732,
  0.468,
  0.652,
  0.448,
  0.66,
  0.468,
  0.571,
  0.562,
  0.594,
  0.826,
  0.531,
  0.779783,
  0.524092,
  0.498,
  0.701,
  0.654,
  0.539,
  0.639,
  0.605,
  0.569,
  0.765,
  0.668754,
  0.739,
  0.212,
  0.467,
  0.528,
  0.311,
  0.538,
  0.423,
  0.256,
  0.499,
  0.377,
  0.447,
  0.364,
  0.404,
  0.385,
  0.486,
  0.379,
  0.347,
  0.526,
  0.603,
  0.766,
  0.573,
  0.446,
  0.726,
  0.526361,
  0.503,
  0.544428,
  0.571631,
  0.720374,
  0.694,
  0.447,
  0.726,
  0.698,
  0.639222,
  0.207,
  0.18,
  0.233,
  0.254,
  0.218,
  0.32,
  0.312,
  0.395,
  0.266,
  0.505,
  0.435,
  0.596,
  0.359,
  0.44,
  0.358,
  0.353,
  0.187,
  0.336,
  0.427,
  0.262,
  0.213,
  0.371,
  0.251,
  0.234,
  0.42,
  0.325,
  0.326,
  0.362,
  0.401,
  0.366,
  0.348,
  0.637,
  0.549,
  0.426,
  0.536,
  0.447,
  0.576,
  0.402,
  0.435159,
  0.725,
  0.497,
  0.787,
  0.867,
  0.491,
  0.682,
  0.548,
  0.682,
  0.433,
  0.474,
  0.473,
  0.789,
  0.678,
  0.461,
  0.469,
  0.459,
  0.627,
  0.797,
  0.466,
  0.648,
  0.597,
  0.555,
  0.431,
  0.127,
  0.454,
  0.286,
  0.267,
  0.292,
  0.177,
  0.39,
  0.361,
  0.303,
  0.379,
  0.325,
  0.316,
  0.429,
  0.352,
  0.426,
  0.263,
  0.245448,
  0.378132,
  0.303132,
  0.1975,
  0.531542,
  0.196,
  0.448284,
  0.332,
  0.467075,
  0.387606,
  0.544103,
  0.255007,
  0.449,
  0.34745,
  0.292357,
  0.465,
  0.459151,
  0.32,
  0.270388,
  0.391,
  0.295,
  0.279,
  0.279,
  0.437281,
  0.47,
  0.599,
  0.407,
  0.521,
  0.482,
  0.349,
  0.46,
  0.418,
  0.494,
  0.538,
  0.552,
  0.498,
  0.588,
  0.517,
  0.753,
  0.522,
  0.777,
  0.706,
  0.649,
  0.626,
  0.580806,
  0.425,
  0.549,
  0.51,
  0.506,
  0.535,
  0.528,
  0.581,
  0.512,
  0.595,
  0.98,
  0.449,
  0.665,
  0.55,
  0.489,
  0.295111,
  0.220103,
  0.266,
  0.292103,
  0.254745,
  0.589935,
  0.226,
  0.212075,
  0.276,
  0.256103,
  0.394248,
  0.552,
  0.258223,
  0.435,
  0.436,
  0.25,
  0.573,
  0.336,
  0.367,
  0.407,
  0.525,
  0.413,
  0.646,
  0.453,
  0.433,
  0.862,
  0.462,
  0.455,
  0.648,
  0.592,
  0.428,
  0.435,
  0.458,
  0.598,
  0.625,
  0.485,
  0.437,
  0.508,
  0.664,
  0.656,
  0.514,
  0.501,
  0.673,
  0.625,
  0.531,
  0.206,
  0.427,
  0.255,
  0.26,
  0.232,
  0.328,
  0.181,
  0.434,
  0.298,
  0.268,
  0.365,
  0.486,
  0.273,
  0.48,
  0.408,
  0.376,
  0.461,
  0.376,
  0.412,
  0.436,
  0.422,
  0.53,
  0.469,
  0.462,
  0.46,
  0.428,
  0.584,
  0.76,
  0.552,
  0.689,
  0.587,
  0.526,
  0.595,
  0.518,
  0.459,
  0.688244,
  0.529,
  0.651,
  0.824,
  0.681,
  0.616222,
  0.792,
  0.656,
  0.729,
  0.528,
  0.764,
  0.654,
  0.609,
  0.49,
  0.496,
  0.499,
  0.645,
  0.603,
  0.632,
  0.502,
  0.516,
  1.031,
  0.672,
  0.639,
  0.905,
  0.62,
  0.858,
  0.658,
  0.552,
  0.396217,
  0.431195,
  0.255,
  0.249,
  0.328824,
  0.445261,
  0.474355,
  0.367319,
  0.261451,
  0.36678,
  0.295134,
  0.361372,
  0.417228,
  0.417446,
  0.258,
  0.672193,
  0.496775,
  0.728179,
  0.504699,
  0.505,
  0.596648,
  0.699,
  0.526618,
  0.629,
  0.69,
  0.690065,
  0.575,
  0.544922,
  0.75,
  0.699061,
  0.567,
  0.495,
  0.471,
  0.449,
  0.601,
  0.453,
  0.511,
  0.477,
  0.66,
  0.55,
  0.714,
  0.575,
  0.475,
  0.612,
  0.759,
  0.542,
  0.81,
  0.234,
  0.505,
  0.222,
  0.466,
  0.21,
  0.324,
  0.404,
  0.219,
  0.879,
  0.475,
  0.391,
  0.335,
  0.324,
  0.691,
  0.418,
  0.323,
  0.26,
  0.603,
  0.321,
  0.241,
  0.459,
  0.273,
  0.252,
  0.337,
  0.449,
  0.382,
  0.267,
  0.28,
  0.461,
  0.435,
  0.328,
  0.527,
  0.267,
  0.272,
  0.445,
  0.481,
  0.571,
  0.277,
  0.325,
  0.242103,
  0.344,
  0.406,
  0.652,
  0.32627,
  0.76,
  0.36,
  0.396,
  0.755251,
  0.766,
  0.509,
  0.704,
  0.562,
  0.57,
  0.47582,
  0.517,
  0.632,
  0.52,
  0.584,
  0.709,
  0.589,
  0.751,
  0.869749,
  0.572,
  0.602,
  0.426,
  0.426,
  0.391,
  0.444,
  0.507,
  0.53,
  0.541,
  0.454,
  0.722,
  0.512,
  0.473,
  0.745,
  0.552,
  0.405,
  0.513,
  0.401,
  0.573,
  0.435,
  0.552,
  0.48433,
  0.477,
  0.48,
  0.593,
  0.638,
  0.464979,
  0.687743,
  0.572,
  0.464,
  0.268,
  0.211454,
  0.520394,
  0.290763,
  0.306,
  0.265,
  0.399149,
  0.194905,
  0.260816,
  0.253,
  0.417,
  0.557949,
  0.233902,
  0.461,
  0.381103,
  0.370666,
  0.712,
  0.401,
  0.507,
  0.539,
  0.558,
  0.744,
  0.675,
  0.487,
  0.508,
  0.606,
  0.495,
  0.829858,
  0.601,
  0.5,
  0.466,
  0.388,
  0.537,
  0.525,
  0.453237,
  0.514,
  0.455,
  0.442897,
  0.495,
  0.467,
  0.583,
  0.558,
  0.511,
  0.676,
  0.629,
  0.567,
  0.313,
  0.246,
  0.265,
  0.221,
  0.463,
  0.206,
  0.196,
  0.32,
  0.267,
  0.813,
  0.309,
  0.775,
  0.679,
  0.359,
  0.33,
  0.456,
  0.674,
  0.465,
  0.824,
  0.718,
  0.559,
  0.436,
  0.47,
  0.68,
  0.497,
  0.609,
  0.472,
  0.681,
  0.637,
  0.801,
  0.65,
  0.587,
  0.466746,
  0.644,
  0.382,
  0.567,
  0.37256,
  0.409568,
  0.46,
  0.461616,
  0.553,
  0.493,
  0.537,
  0.669423,
  0.545316,
  0.488804,
  0.528,
  0.675388,
  0.573,
  0.602487,
  0.492,
  0.489628,
  0.68263,
  0.517,
  0.734,
  0.677,
  1.433,
  0.675388,
  0.478,
  0.53,
  0.66,
  0.931,
  0.66,
  0.51,
  0.541018,
  0.694,
  0.563,
  0.647973,
  0.535,
  0.692047,
  0.715,
  0.734893,
  0.479397,
  0.208,
  0.365627,
  0.319,
  0.603408,
  0.643,
  0.240899,
  0.271,
  0.347,
  0.608478,
  0.368946,
  0.30471,
  0.280171,
  0.489359,
  0.377,
  0.319217,
  0.43,
  0.467,
  0.513,
  0.482992,
  0.546551,
  0.642,
  0.48,
  0.511601,
  0.523443,
  0.661,
  0.493613,
  0.804843,
  0.832921,
  0.600014,
  1.819,
  0.46,
  0.469,
  0.608403,
  0.611181,
  0.534,
  0.642,
  0.500798,
  0.491,
  0.605,
  0.99,
  0.577,
  0.555,
  0.855153,
  0.685271,
  0.580195,
  0.567,
  0.748,
  0.682,
  0.762,
  0.42,
  0.585,
  3.799,
  0.584,
  0.549,
  0.7,
  0.676,
  0.565,
  1.062,
  0.674,
  0.507,
  0.584,
  0.71,
  0.462,
  0.531,
  0.551,
  0.534,
  0.732,
  0.736,
  0.555,
  0.749,
  0.633,
  0.555,
  0.403,
  0.632575,
  0.718,
  0.539,
  0.445,
  0.57312,
  0.409889,
  0.772,
  0.587,
  0.641,
  0.583,
  0.453,
  0.486,
  0.706,
  0.612,
  0.508,
  0.704,
  0.493,
  0.428,
  0.583,
  0.463,
  0.756,
  0.472,
  0.452,
  0.576,
  0.517,
  0.618,
  0.55,
  0.534,
  0.837,
  0.597,
  0.815,
  0.273,
  0.264,
  0.236,
  0.327,
  0.33,
  0.188,
  0.18,
  0.251,
  0.269,
  0.381,
  0.295,
  0.261,
  0.53,
  0.44,
  0.317,
  0.445,
  0.323,
  0.222,
  0.24,
  0.275,
  0.347,
  0.407,
  0.248,
  0.357,
  0.711,
  0.909,
  0.246,
  0.452,
  0.473,
  0.935,
  0.359,
  0.264,
  0.239,
  0.437,
  0.346,
  0.473,
  0.359,
  0.24,
  0.254,
  0.332,
  0.492,
  0.577,
  0.58,
  0.281,
  0.621,
  0.391,
  0.553,
  0.197,
  0.380985,
  0.389,
  0.271923,
  0.219,
  0.408095,
  0.248662,
  0.254,
  0.258,
  0.532207,
  0.394,
  0.273296,
  0.332944,
  0.422,
  0.714877,
  0.475747,
  0.482,
  0.476,
  0.706,
  0.565,
  0.708,
  0.576,
  0.901,
  0.777,
  0.574,
  0.527,
  0.624,
  0.86,
  0.542,
  0.691,
  0.559,
  0.592
]