{
  "ALL": [
    [
      6.25,
      6.25
    ],
    [
      6.25,
      6.25
    ],
    [
      6.25,
      6.25
    ],
    [
      6.25,
      6.25
    ],
    [
      0.0,
      6.25
    ],
    [
      0.0,
      6.25
    ],
    [
      5.882352941176471,
      5.882352941176471
    ],
    [
      5.882352941176471,
      5.882352941176471
    ],
    [
      0.0,
      6.25
    ],
    [
      0.0,
      6.25
    ],
    [
      0.0,
      6.25
    ],
    [
      0.0,
      6.25
    ],
    [
      0.0,
      6.25
    ],
    [
      0.0,
      6.25
    ],
    [
      0.0,
      6.25
    ],
    [
      0.0,
      6.25
    ],
    [
      0.0,
      6.25
    ],
    [
      0.0,
      6.25
    ],
    [
      0.0,
      6.25
    ],
    [
      0.0,
      6.25
    ],
    [
      0.0,
      6.25
    ],
    [
      0.0,
      6.25
    ],
    [
      6.25,
      6.25
    ],
    [
      6.25,
      6.25
    ],
    [
      6.25,
      6.25
    ],
    [
      6.25,
      6.25
    ],
    [
      6.25,
      6.25
    ],
    [
      6.25,
      6.25
    ],
    [
      0.0,
      6.25
    ],
    [
      0.0,
      6.25
    ],
    [
      0.0,
      6.25
    ],
    [
      0.0,
      6.25
    ],
    [
      0.0,
      6.25
    ],
    [
      0.0,
      6.25
    ],
    [
      17.647058823529413,
      5.882352941176471
    ],
    [
      17.647058823529413,
      5.882352941176471
    ],
    [
      6.25,
      6.25
    ],
    [
      6.25,
      6.25
    ],
    [
      6.25,
      6.25
    ],
    [
      6.25,
      6.25
    ],
    [
      0.0,
      6.25
    ],
    [
      0.0,
      6.25
    ],
    [
      6.25,
      6.25
    ],
    [
      6.25,
      6.25
    ],
    [
      6.25,
      6.25
    ],
    [
      6.25,
      6.25
    ],
    [
      6.25,
      6.25
    ],
    [
      6.25,
      6.25
    ],
    [
      0.0,
      6.25
    ],
    [
      0.0,
      6.25
    ],
    [
      0.0,
      6.25
    ],
    [
      0.0,
      6.25
    ],
    [
      0.0,
      6.25
    ],
    [
      0.0,
      6.25
    ],
    [
      0.0,
      6.25
    ],
    [
      0.0,
      6.25
    ],
    [
      0.0,
      6.25
    ],
    [
      0.0,
      6.25
    ],
    [
      6.25,
      6.25
    ],
    [
      6.25,
      6.25
    ],
    [
      0.0,
      6.666666666666667
    ],
    [
      0.0,
      6.666666666666667
    ],
    [
      6.25,
      6.25
    ],
    [
      6.25,
      6.25
    ],
    [
      6.25,
      6.25
    ],
    [
      6.25,
      6.25
    ],
    [
      0.0,
      6.25
    ],
    [
      0.0,
      6.25
    ],
    [
      0.0,
      6.25
    ],
    [
      0.0,
      6.25
    ],
    [
      0.0,
      6.25
    ],
    [
      0.0,
      6.25
    ],
    [
      0.0,
      6.25
    ],
    [
      0.0,
      6.25
    ],
    [
      0.0,
      6.25
    ],
    [
      0.0,
      6.25
    ],
    [
      0.0,
      6.666666666666667
    ],
    [
      0.0,
      6.666666666666667
    ],
    [
      0.0,
      6.25
    ],
    [
      0.0,
      6.25
    ],
    [
      0.0,
      6.25
    ],
    [
      0.0,
      6.25
    ],
    [
      0.0,
      6.25
    ],
    [
      0.0,
      6.25
    ],
    [
      0.0,
      6.25
    ],
    [
      0.0,
      6.25
    ],
    [
      6.25,
      6.25
    ],
    [
      6.25,
      6.25
    ],
    [
      0.0,
      6.25
    ],
    [
      0.0,
      6.25
    ],
    [
      0.0,
      6.25
    ],
    [
      0.0,
      6.25
    ],
    [
      5.882352941176471,
      5.882352941176471
    ],
    [
      5.882352941176471,
      5.882352941176471
    ],
    [
      0.0,
      6.25
    ],
    [
      0.0,
      6.25
    ],
    [
      6.25,
      6.25
    ],
    [
      6.25,
      6.25
    ],
    [
      0.0,
      6.25
    ],
    [
      0.0,
      6.25
    ],
    [
      0.0,
      6.25
    ],
    [
      0.0,
      6.25
    ],
    [
      6.25,
      6.25
    ],
    [
      6.25,
      6.25
    ],
    [
      0.0,
      6.25
    ],
    [
      0.0,
      6.25
    ],
    [
      0.0,
      6.25
    ],
    [
      0.0,
      6.25
    ],
    [
      0.0,
      6.25
    ],
    [
      0.0,
      6.25
    ],
    [
      0.0,
      6.25
    ],
    [
      0.0,
      6.25
    ],
    [
      6.25,
      6.25
    ],
    [
      6.25,
      6.25
    ],
    [
      6.666666666666667,
      6.666666666666667
    ],
    [
      6.666666666666667,
      6.666666666666667
    ],
    [
      0.0,
      6.666666666666667
    ],
    [
      0.0,
      6.666666666666667
    ],
    [
      12.5,
      6.25
    ],
    [
      12.5,
      6.25
    ],
    [
      6.25,
      6.25
    ],
    [
      6.25,
      6.25
    ],
    [
      5.882352941176471,
      5.882352941176471
    ],
    [
      5.882352941176471,
      5.882352941176471
    ],
    [
      6.25,
      6.25
    ],
    [
      6.25,
      6.25
    ],
    [
      0.0,
      6.25
    ],
    [
      0.0,
      6.25
    ],
    [
      0.0,
      6.25
    ],
    [
      0.0,
      6.25
    ],
    [
      6.25,
      6.25
    ],
    [
      6.25,
      6.25
    ],
    [
      0.0,
      6.25
    ],
    [
      0.0,
      6.25
    ],
    [
      0.0,
      6.25
    ],
    [
      0.0,
      6.25
    ],
    [
      5.882352941176471,
      5.882352941176471
    ],
    [
      5.882352941176471,
      5.882352941176471
    ],
    [
      0.0,
      6.25
    ],
    [
      0.0,
      6.25
    ],
    [
      6.25,
      6.25
    ],
    [
      6.25,
      6.25
    ],
    [
      0.0,
      6.25
    ],
    [
      0.0,
      6.25
    ],
    [
      6.25,
      6.25
    ],
    [
      6.25,
      6.25
    ],
    [
      5.882352941176471,
      5.882352941176471
    ],
    [
      5.882352941176471,
      5.882352941176471
    ],
    [
      6.25,
      6.25
    ],
    [
      6.25,
      6.25
    ],
    [
      0.0,
      6.25
    ],
    [
      0.0,
      6.25
    ],
    [
      12.5,
      6.25
    ],
    [
      12.5,
      6.25
    ],
    [
      0.0,
      6.25
    ],
    [
      0.0,
      6.25
    ],
    [
      0.0,
      6.25
    ],
    [
      0.0,
      6.25
    ]
  ],
  "TIMEOUT": [
    [
      6.25,
      6.25
    ],
    [
      6.25,
      6.25
    ],
    [
      5.882352941176471,
      5.882352941176471
    ],
    [
      6.25,
      6.25
    ],
    [
      6.25,
      6.25
    ],
    [
      6.25,
      6.25
    ],
    [
      17.647058823529413,
      5.882352941176471
    ],
    [
      6.25,
      6.25
    ],
    [
      6.25,
      6.25
    ],
    [
      6.25,
      6.25
    ],
    [
      6.25,
      6.25
    ],
    [
      6.25,
      6.25
    ],
    [
      6.25,
      6.25
    ],
    [
      6.25,
      6.25
    ],
    [
      6.25,
      6.25
    ],
    [
      6.25,
      6.25
    ],
    [
      5.882352941176471,
      5.882352941176471
    ],
    [
      6.25,
      6.25
    ],
    [
      6.25,
      6.25
    ],
    [
      6.25,
      6.25
    ],
    [
      6.666666666666667,
      6.666666666666667
    ],
    [
      12.5,
      6.25
    ],
    [
      6.25,
      6.25
    ],
    [
      5.882352941176471,
      5.882352941176471
    ],
    [
      6.25,
      6.25
    ],
    [
      6.25,
      6.25
    ],
    [
      5.882352941176471,
      5.882352941176471
    ],
    [
      6.25,
      6.25
    ],
    [
      6.25,
      6.25
    ],
    [
      5.882352941176471,
      5.882352941176471
    ],
    [
      6.25,
      6.25
    ],
    [
      12.5,
      6.25
    ]
  ]
}