[
  0.738,
  1.258,
  0.495,
  0.609,
  0.743,
  0.449,
  0.603,
  0.549,
  0.707,
  0.454,
  1.061,
  0.743,
  0.668,
  0.593,
  0.574,
  0.488,
  0.548175,
  0.397875,
  0.474413,
  0.416,
  0.523821,
  0.515757,
  0.514778,
  0.431506,
  0.480284,
  0.487821,
  0.659017,
  0.634,
  0.523492,
  0.566,
  0.453716,
  0.490975,
  0.48431,
  0.485798,
  0.483007,
  0.428,
  0.407238,
  0.572918,
  0.651807,
  0.417,
  0.431103,
  0.397403,
  0.53,
  0.729,
  0.558814,
  0.525993,
  0.446572,
  0.695,
  0.557,
  0.511,
  0.51,
  0.45,
  0.55,
  0.603,
  0.714,
  0.532,
  0.686,
  0.658587,
  0.788,
  0.652,
  0.612526,
  0.815,
  0.507,
  0.242,
  0.298,
  0.397,
  0.256,
  0.197,
  0.387,
  0.533,
  0.383,
  0.196,
  0.374,
  0.439,
  0.29,
  0.314,
  0.387,
  0.54,
  0.58,
  0.486,
  0.874,
  0.764,
  0.671,
  0.483,
  0.68,
  0.422,
  0.613,
  0.421,
  0.556,
  0.72,
  0.625,
  0.59,
  0.315,
  0.26,
  0.258,
  0.266,
  0.297,
  0.306,
  0.362,
  0.274,
  0.394,
  0.469,
  0.249,
  0.418,
  0.43,
  0.44,
  0.32,
  0.425,
  0.545,
  0.497,
  0.311,
  0.235,
  0.253,
  0.191,
  0.317,
  0.291,
  0.262,
  0.245,
  0.328,
  0.384,
  0.703,
  0.368,
  0.298,
  0.213,
  0.298,
  0.506,
  0.336,
  0.205,
  0.279,
  0.261,
  0.341,
  0.605,
  0.243,
  0.434,
  0.476,
  0.434,
  0.458,
  0.327,
  0.307,
  0.467,
  0.592,
  0.277,
  0.324,
  0.425,
  0.406,
  0.543,
  0.337,
  0.32,
  0.311,
  0.455,
  0.288,
  0.426,
  0.451,
  0.327,
  0.356,
  0.347,
  0.519,
  0.464,
  0.564,
  0.417,
  0.425,
  0.545,
  0.519,
  0.448,
  0.548,
  0.479,
  0.68,
  0.736,
  0.532,
  0.582,
  0.75,
  0.565,
  0.469,
  0.492,
  0.639,
  0.419,
  0.54,
  0.63,
  0.4,
  0.652,
  0.735,
  0.658,
  0.552,
  0.515,
  0.485,
  0.286,
  0.188,
  0.308,
  0.202,
  0.346,
  0.443,
  0.304,
  0.244,
  0.375,
  0.211,
  0.468,
  0.404,
  0.44,
  0.37,
  0.3,
  0.292,
  0.398,
  0.511,
  0.402,
  0.421,
  0.41,
  0.452,
  0.359,
  0.449,
  0.452,
  0.277,
  0.235,
  0.412,
  0.463,
  1.065,
  0.368,
  0.247,
  0.421,
  0.168,
  0.296,
  0.213,
  0.203,
  0.172,
  0.417,
  0.313,
  0.538,
  0.243,
  0.193,
  0.5,
  0.444,
  0.397,
  0.3,
  0.3,
  0.352,
  0.757,
  0.252,
  0.429,
  0.524,
  0.191,
  0.334,
  0.409,
  0.245,
  0.201,
  0.261,
  0.382,
  0.476,
  0.414,
  0.342,
  0.304,
  0.316,
  0.558,
  0.289,
  0.278,
  0.222,
  0.464,
  0.322,
  0.232,
  0.337,
  0.412,
  0.529,
  0.575,
  0.312,
  0.363,
  0.491,
  0.582,
  0.489,
  0.527,
  0.632,
  0.407,
  0.525,
  0.562,
  0.799,
  0.467,
  0.4,
  0.577,
  0.677,
  0.629,
  0.571,
  0.637,
  0.587,
  0.32,
  0.414,
  0.527,
  0.443,
  0.649,
  0.472,
  0.612,
  0.404,
  0.766,
  0.66,
  0.505,
  0.503,
  0.549,
  0.574,
  0.495,
  0.507,
  0.741,
  0.793,
  0.41,
  0.567,
  0.534,
  0.521,
  0.513,
  0.644,
  0.633,
  0.684,
  0.553,
  0.569,
  0.585,
  0.305,
  0.236,
  0.602,
  0.46,
  0.218,
  0.382,
  0.307,
  0.347,
  0.446,
  0.218,
  0.207,
  0.482,
  0.608,
  0.314,
  0.644,
  0.554,
  0.581,
  0.477,
  0.529,
  0.43173,
  0.396412,
  0.449614,
  0.537,
  0.483,
  0.468,
  0.402,
  0.554032,
  0.659,
  0.748,
  0.584,
  0.564876,
  1.203,
  0.482,
  0.45,
  0.385,
  0.444,
  0.345,
  0.544,
  0.318,
  0.283,
  0.291,
  0.226,
  0.617,
  0.497,
  0.717,
  0.539,
  0.572,
  0.828,
  0.729,
  0.492,
  0.457,
  0.691,
  0.626,
  0.553,
  0.567,
  0.519,
  0.593,
  0.496,
  0.609,
  0.625,
  0.586,
  0.514,
  0.497,
  0.355,
  0.44,
  0.435,
  0.464,
  0.171,
  0.262,
  0.355181,
  0.327,
  0.513,
  0.248,
  0.251,
  0.38,
  0.524,
  0.354,
  0.382,
  0.354,
  0.362,
  0.231,
  0.345,
  0.254,
  0.224,
  0.209,
  0.502,
  0.534,
  0.288,
  0.5,
  0.21,
  0.415,
  0.414,
  0.342,
  0.284,
  0.308,
  0.557,
  0.52,
  0.459,
  0.425,
  0.415,
  0.549,
  0.599,
  0.644,
  0.458,
  0.637,
  0.646,
  0.547,
  0.545,
  0.486,
  0.593,
  0.417357,
  0.439,
  0.573,
  0.391,
  0.428,
  0.525,
  0.51,
  0.425,
  0.655,
  0.409,
  0.561052,
  0.888131,
  0.556,
  0.581425,
  0.535,
  0.73,
  0.732,
  0.467,
  0.416,
  0.415,
  0.65,
  0.493,
  0.523,
  0.459,
  0.455,
  0.392,
  0.601,
  0.613,
  0.531,
  0.518,
  0.486,
  0.597,
  0.516,
  0.584,
  0.803,
  0.527,
  0.679,
  0.734,
  0.575,
  0.542,
  0.552,
  0.643,
  0.791,
  0.678,
  0.67,
  0.6,
  0.344,
  0.416,
  0.407,
  0.314,
  0.22,
  0.363,
  0.37,
  0.269,
  0.245,
  0.466,
  0.234,
  0.466,
  0.583,
  0.351,
  0.312,
  0.275,
  0.504897,
  0.24,
  0.268897,
  0.216243,
  0.197897,
  0.339897,
  0.328145,
  0.274564,
  0.272103,
  0.247,
  0.190461,
  0.366,
  0.426777,
  0.309,
  0.324,
  0.307,
  0.325237,
  0.30979,
  0.386,
  0.29053,
  0.263178,
  0.387806,
  0.379492,
  0.338341,
  0.481806,
  0.269537,
  0.262,
  0.407,
  0.549383,
  0.420021,
  0.367195,
  0.302,
  0.652,
  0.533903,
  0.613391,
  0.514563,
  0.56,
  0.475,
  0.642095,
  0.682195,
  0.492749,
  0.566484,
  0.464618,
  0.698,
  0.626,
  0.707601,
  0.549,
  0.29,
  0.291,
  0.358,
  0.222,
  0.193,
  0.226,
  0.339,
  0.281,
  0.258,
  0.367,
  0.218,
  0.365575,
  0.411,
  0.537,
  0.347452,
  0.301,
  0.531124,
  0.445,
  0.371,
  0.425,
  0.159486,
  0.269,
  0.318,
  0.29,
  0.371308,
  0.228,
  0.214,
  0.398,
  0.558,
  0.268,
  0.287,
  0.22,
  0.47,
  0.451,
  0.424,
  0.249778,
  0.233,
  0.495,
  0.389,
  0.331,
  0.297,
  0.265,
  0.272,
  0.419,
  0.449,
  0.361,
  0.433,
  0.293,
  0.633,
  0.481,
  0.734,
  0.686,
  0.472,
  0.479,
  0.65,
  0.656,
  0.511,
  0.499,
  0.506386,
  0.715716,
  0.795,
  0.642,
  0.606,
  0.569,
  0.332,
  0.241767,
  0.287,
  0.561325,
  0.295,
  0.233674,
  0.384865,
  0.338,
  0.31127,
  0.25927,
  0.222124,
  0.403,
  0.6026,
  0.450862,
  0.378111,
  0.357,
  0.511,
  0.46,
  0.574,
  0.438916,
  0.388124,
  0.636,
  0.618622,
  0.543673,
  0.675,
  0.453,
  0.465026,
  0.657501,
  0.647248,
  0.528752,
  0.464582,
  0.456,
  0.836,
  0.755,
  0.562,
  0.613,
  0.41,
  0.537,
  0.568624,
  0.529,
  0.505,
  0.496,
  0.423,
  0.618,
  1.04,
  0.639,
  0.585,
  0.582,
  0.302,
  0.474502,
  0.368,
  0.412605,
  0.221111,
  0.773198,
  0.317,
  0.298049,
  0.216,
  0.413,
  0.253,
  0.370763,
  0.561021,
  0.303,
  0.361,
  0.276103,
  0.311,
  0.222,
  0.271,
  0.416,
  0.615,
  0.332,
  0.429,
  0.446,
  0.254,
  0.445,
  0.508,
  0.481,
  0.35,
  0.322,
  0.431,
  0.371,
  0.308111,
  0.444,
  0.242,
  0.215,
  0.486,
  0.387,
  0.321,
  0.249,
  0.333,
  0.224,
  0.521642,
  0.467,
  0.447889,
  0.391889,
  0.356204,
  0.549,
  0.358441,
  0.546112,
  0.376599,
  0.485429,
  0.375,
  0.555429,
  0.466796,
  0.414,
  0.397751,
  0.634825,
  0.775381,
  0.545,
  0.559,
  0.476,
  0.532534,
  0.247,
  0.296,
  0.438,
  0.336,
  0.204,
  0.335,
  0.303,
  0.565,
  0.405,
  0.25,
  0.391,
  0.438,
  0.417,
  0.389,
  0.259,
  0.336,
  0.318867,
  0.377,
  0.264,
  0.397,
  0.488,
  0.353,
  0.496312,
  0.214408,
  0.253135,
  0.258472,
  0.485,
  0.575,
  0.388478,
  0.380611,
  0.342534,
  0.540284,
  0.465,
  0.46,
  0.446716,
  0.616,
  0.375,
  0.536316,
  0.535238,
  0.682288,
  0.699,
  0.684522,
  0.6,
  0.705,
  0.609,
  0.507716,
  0.528,
  0.276,
  0.205,
  0.356,
  0.445,
  0.24,
  0.391,
  0.337,
  0.296,
  0.216,
  0.219,
  0.406,
  0.482,
  0.491,
  0.396,
  0.332,
  0.239,
  0.57,
  0.617,
  0.561,
  0.452,
  0.723,
  0.555,
  0.572,
  0.741,
  0.777,
  0.437,
  0.664,
  0.609,
  0.635,
  0.322,
  0.224,
  0.303,
  0.518,
  0.226,
  0.364,
  0.384,
  0.224,
  0.254,
  0.405,
  0.375,
  0.59,
  0.371,
  0.369,
  0.278,
  0.488,
  0.43,
  0.509,
  0.607,
  0.35,
  0.527,
  0.774,
  0.451,
  0.464,
  0.652,
  0.809,
  0.582,
  0.564,
  0.496,
  0.535,
  0.579,
  0.466,
  0.529,
  1.08,
  0.448,
  0.462,
  0.628,
  0.794,
  0.708,
  0.583,
  0.495,
  0.588,
  0.727,
  0.572,
  0.569,
  0.551,
  0.31,
  0.18499,
  0.243,
  0.556,
  0.18159,
  0.199327,
  0.377,
  0.321329,
  0.24999,
  0.202,
  0.157,
  0.46481,
  0.455,
  0.483,
  0.492,
  0.446,
  0.375,
  0.265,
  0.32279,
  0.374,
  0.263,
  0.452,
  0.355853,
  0.652,
  0.256,
  0.289879,
  0.501,
  0.756306,
  0.467208,
  0.388208,
  0.417,
  0.368,
  0.565,
  0.472,
  0.33,
  0.422,
  0.299,
  0.207,
  0.308,
  0.291,
  0.287,
  0.238,
  0.824,
  0.391,
  0.486,
  0.43,
  0.387,
  0.354,
  0.749,
  0.484,
  0.615,
  0.468,
  0.575,
  0.531,
  0.752,
  0.456,
  0.499,
  0.6,
  0.757,
  0.599,
  0.622,
  0.519,
  0.646,
  0.465,
  0.662,
  0.729,
  0.786,
  0.482,
  0.607,
  0.538,
  0.484,
  0.758,
  0.553,
  0.714,
  0.798,
  0.583,
  0.647,
  0.604,
  0.53828,
  0.730124,
  0.508862,
  0.668,
  0.465,
  0.414,
  0.565,
  0.477,
  0.662,
  0.417,
  0.621,
  0.756111,
  0.638,
  0.53,
  0.481,
  0.61,
  0.606,
  0.449,
  0.572,
  0.669,
  0.582,
  0.613,
  0.414,
  0.422,
  0.454,
  0.563,
  0.707,
  0.562,
  1.062,
  0.564,
  0.354,
  0.218,
  0.346,
  0.329,
  0.293,
  0.278,
  0.371,
  0.326,
  0.215,
  0.433,
  0.307,
  0.394,
  0.578,
  0.42,
  0.407,
  0.362,
  0.247,
  0.331,
  0.358,
  0.213,
  0.512,
  0.599,
  0.361,
  0.573,
  0.368,
  0.222,
  0.232,
  0.704,
  0.409,
  0.309,
  0.369,
  0.294,
  0.358,
  0.234,
  0.291,
  0.423,
  0.46,
  0.18,
  0.568,
  0.575,
  0.252,
  0.509,
  0.461,
  0.642,
  0.445,
  0.409,
  0.472,
  0.31,
  0.316,
  0.443,
  0.46,
  0.325,
  0.514,
  0.269,
  0.355,
  0.502,
  0.519,
  0.362,
  0.262,
  0.606,
  0.317,
  0.205,
  0.431,
  0.466,
  0.216,
  0.416,
  0.18,
  0.245,
  0.219,
  0.398,
  0.378,
  0.494,
  0.234,
  0.233,
  0.358,
  0.436,
  0.354,
  0.341,
  0.373,
  0.41,
  0.493,
  0.291,
  0.218,
  0.37,
  0.446,
  0.33,
  0.395,
  0.303,
  0.506,
  0.547,
  0.395,
  0.429,
  0.398,
  0.459,
  0.413,
  0.354709,
  0.258,
  0.366,
  0.277,
  0.462193,
  0.383,
  0.34671,
  0.526,
  0.259,
  0.316,
  0.48,
  0.482,
  0.362227,
  0.973,
  0.441,
  0.38,
  0.197,
  0.359,
  0.215,
  0.296,
  0.257,
  0.32,
  0.338,
  0.27,
  0.439,
  0.498,
  0.388,
  0.49,
  0.314,
  0.373,
  0.306,
  0.377,
  0.928111,
  0.357,
  0.4,
  0.255,
  0.259,
  0.358,
  0.327,
  0.51,
  0.457,
  0.486,
  0.418,
  0.549,
  0.364,
  0.309,
  0.297,
  0.303,
  0.252,
  0.382,
  0.378,
  0.226,
  0.217,
  0.47,
  0.51,
  0.855,
  0.317,
  0.305,
  0.521,
  0.513,
  0.332,
  0.38,
  0.374,
  0.363799,
  0.308276,
  0.352244,
  0.241435,
  0.216,
  0.244532,
  0.365,
  0.379009,
  0.38,
  0.311,
  0.471,
  0.402531,
  0.569,
  0.321022,
  0.498,
  0.44,
  0.315883,
  0.599579,
  0.667,
  0.401,
  0.534,
  0.187541,
  0.374,
  0.599319,
  0.411744,
  0.403,
  0.508477,
  0.441,
  0.47727,
  0.349,
  0.412,
  0.269983,
  0.662812,
  0.5449,
  0.627,
  0.790179,
  0.91,
  0.538,
  0.67,
  0.689,
  0.585,
  0.838,
  0.874,
  0.70255,
  0.809,
  1.109667,
  0.694,
  0.671,
  0.348,
  0.496,
  0.289,
  0.329,
  0.214,
  0.24,
  0.43,
  0.485,
  0.341,
  0.35,
  0.44127,
  0.708,
  0.349398,
  0.367,
  0.241,
  0.580709,
  1.213,
  0.515648,
  0.5,
  0.422929,
  0.522032,
  0.552654,
  0.54143,
  1.076,
  0.403845,
  0.428914,
  0.617,
  0.738214,
  0.552647,
  0.610112,
  0.511119,
  0.512,
  0.621,
  0.444,
  0.405,
  0.407,
  0.461,
  0.736,
  0.549,
  0.61,
  0.506,
  0.54,
  0.669,
  0.476,
  0.641,
  0.589,
  0.606716,
  0.819,
  0.541,
  0.536,
  0.695,
  0.514149,
  0.585,
  0.928,
  0.545,
  0.716,
  0.545,
  0.712,
  0.741,
  0.596,
  0.632,
  0.617,
  0.457,
  0.576,
  0.559,
  0.525,
  0.42,
  0.677,
  0.478,
  0.453,
  0.925,
  0.703,
  0.686,
  0.769,
  0.608,
  0.639,
  0.785,
  0.435,
  0.266,
  0.437,
  0.171,
  0.191,
  0.497,
  0.282,
  0.435,
  0.193,
  0.239,
  0.436,
  0.787,
  0.417,
  0.836,
  0.317
]