{
  "1048576": [
    6.766,
    5.394,
    5.462,
    4.762284,
    7.388,
    6.014007,
    4.464,
    4.869814,
    2.411,
    4.916,
    6.191,
    4.92,
    6.742,
    6.234,
    2.524,
    2.261,
    4.948,
    2.744,
    2.749,
    8.085,
    5.086,
    5.277,
    8.869,
    4.809,
    5.24697,
    1.791,
    3.937,
    2.311,
    2.058,
    2.128,
    3.453,
    7.403,
    3.42,
    3.885611,
    3.902,
    6.16,
    5.365,
    5.296,
    5.695,
    2.536,
    2.574,
    4.204,
    5.42171,
    11.002,
    6.717,
    8.714,
    5.281,
    2.716,
    3.685988,
    3.993,
    4.758,
    5.348,
    7.386,
    6.71875,
    8.211,
    4.646,
    4.323,
    5.286,
    8.818,
    7.732,
    6.773124,
    5.105,
    4.535,
    3.23,
    4.765897,
    2.115,
    2.12514,
    4.120897,
    3.607805,
    5.569,
    4.170452,
    3.367539,
    2.269,
    4.208,
    4.471,
    5.329716,
    6.506,
    2.269,
    4.978,
    5.809501,
    8.801,
    2.590388,
    3.759,
    3.643,
    3.174,
    2.83,
    2.505,
    3.278222,
    10.935,
    2.319,
    2.992864,
    3.071,
    5.364,
    5.123,
    3.141,
    2.672559,
    5.487336,
    5.914,
    5.394,
    2.272,
    3.543,
    4.433,
    4.727,
    7.299,
    7.852,
    6.052,
    2.259965,
    2.825392,
    2.879,
    3.14889,
    3.281,
    2.513,
    3.056,
    6.73,
    6.613,
    5.311,
    7.02,
    7.34,
    5.602,
    7.662,
    6.173,
    5.25,
    5.038,
    6.891,
    10.981,
    2.827,
    3.606,
    3.18,
    6.034,
    3.404,
    5.006,
    4.314,
    4.468,
    2.727,
    2.977,
    3.092,
    3.655,
    3.108,
    3.283,
    4.126,
    3.664,
    4.516,
    4.122,
    3.144134,
    4.295,
    6.575712,
    2.740477,
    4.227,
    23.86577,
    5.180361,
    7.134,
    5.447,
    4.583,
    8.12,
    7.37
  ],
  "51200": [
    2.408,
    3.418,
    1.581,
    2.099,
    1.439,
    1.901,
    1.81,
    2.287,
    1.476,
    2.04,
    2.586,
    1.89,
    1.793,
    1.573,
    1.234,
    1.302,
    1.604804,
    1.735,
    1.676375,
    1.397881,
    1.409,
    1.597129,
    2.104593,
    1.731492,
    1.793,
    1.466716,
    1.626822,
    1.534386,
    1.709008,
    1.303111,
    1.19807,
    2.06689,
    1.335403,
    1.342,
    1.265476,
    2.849,
    1.724993,
    1.442604,
    2.121,
    1.723,
    1.71,
    1.588,
    1.375,
    1.69,
    1.943,
    2.336,
    1.71,
    2.085,
    2.180312,
    2.587,
    2.082,
    1.96,
    2.519,
    1.63,
    0.767,
    1.03193,
    1.339,
    0.846,
    1.243,
    1.828,
    1.272,
    0.657,
    1.511594,
    1.836877,
    1.051,
    1.174,
    1.78,
    1.846,
    2.474,
    2.178,
    1.557,
    2.256,
    1.286,
    1.792,
    2.46,
    1.965,
    1.078651,
    0.813,
    1.344,
    1.01,
    1.264,
    0.957,
    1.324,
    1.489,
    0.858,
    1.449,
    1.827072,
    1.398,
    1.082767,
    1.351,
    1.842,
    1.694,
    1.023,
    0.768,
    0.781,
    0.57,
    0.949,
    0.835,
    0.807,
    1.044,
    1.321,
    2.385,
    1.286,
    1.076972,
    0.782,
    1.751,
    1.146,
    0.694,
    0.878,
    0.792,
    1.141,
    1.988849,
    0.765,
    1.676,
    1.491,
    1.818741,
    1.035,
    0.911,
    1.816,
    1.046,
    1.455,
    1.159,
    1.749,
    1.11539,
    1.001,
    1.016,
    1.467,
    1.542248,
    1.872,
    1.069103,
    1.127,
    1.062,
    1.775,
    1.515,
    1.760789,
    1.274,
    1.319,
    1.756,
    1.801,
    1.393,
    1.518,
    2.426,
    2.435,
    1.812,
    2.368,
    1.816,
    1.434,
    1.552,
    2.099,
    1.288,
    2.083,
    2.176,
    1.794,
    1.05599,
    1.035043,
    0.697,
    1.217,
    1.298,
    0.742,
    1.384,
    1.563974,
    1.759527,
    1.221,
    1.070305,
    0.976,
    1.223,
    1.673,
    1.358,
    1.423,
    1.525,
    1.216,
    1.743,
    1.661,
    0.96,
    0.737,
    1.446,
    1.795,
    4.759,
    1.179,
    0.852,
    1.366,
    0.974,
    0.695,
    0.676,
    0.562,
    1.398,
    1.032,
    1.802,
    0.768,
    0.614,
    1.645,
    1.421879,
    1.014,
    1.084,
    2.43,
    0.853,
    1.401,
    0.566,
    1.163,
    1.267,
    0.84,
    0.77,
    1.505,
    1.844539,
    1.089,
    1.028,
    1.121,
    1.648,
    0.999,
    0.874,
    0.628,
    1.555,
    1.058,
    0.783,
    1.425,
    1.73,
    2.027,
    1.076493,
    1.794,
    1.498,
    1.761,
    1.971,
    1.256,
    1.697,
    1.846,
    2.51,
    1.423,
    1.226,
    1.998,
    2.282,
    1.98,
    1.869,
    2.021,
    1.764,
    1.028,
    1.398,
    1.654,
    1.367,
    2.111,
    1.516,
    2.02,
    1.296,
    2.479,
    2.261,
    1.614,
    1.685,
    1.889,
    1.477,
    1.657,
    2.383,
    2.567,
    1.836,
    1.706,
    1.616,
    1.598,
    1.955,
    2.076,
    1.789,
    1.834,
    1.924,
    2.01,
    0.683,
    1.186,
    1.095088,
    1.712,
    1.368,
    0.681,
    0.666,
    1.55,
    2.07,
    2.102,
    1.756,
    1.871,
    1.551,
    1.728876,
    1.369768,
    1.237412,
    1.374985,
    1.539,
    1.405877,
    1.360275,
    1.840079,
    2.253,
    2.394,
    2.301,
    1.807,
    4.768,
    1.941,
    1.039,
    1.066,
    1.934,
    1.864,
    0.865,
    7.386,
    2.107,
    2.552,
    2.387,
    2.112,
    1.774,
    2.603,
    2.454,
    1.578,
    1.365,
    2.217,
    1.982,
    1.813,
    1.387,
    1.628,
    1.452,
    2.173,
    1.852,
    1.597,
    1.609,
    1.473,
    1.536,
    0.543,
    0.841,
    1.110181,
    1.095,
    1.317,
    0.754,
    0.736,
    1.37384,
    1.794,
    1.3,
    1.935,
    1.199,
    0.742,
    0.769,
    0.741,
    0.678,
    0.966,
    1.636,
    0.616,
    1.706883,
    1.178,
    1.047,
    0.953,
    1.745,
    1.499,
    1.605,
    1.355,
    1.252,
    1.688,
    1.99,
    1.973,
    1.416,
    2.109,
    2.181,
    1.778,
    1.472,
    1.805,
    1.229357,
    1.468,
    1.655047,
    1.238,
    1.315,
    1.686,
    1.603978,
    1.352,
    2.103,
    1.255,
    1.875052,
    2.971,
    1.933425,
    1.624,
    2.245,
    1.493,
    1.258,
    2.103,
    1.605,
    1.697,
    1.433,
    1.439,
    2.02,
    2.059,
    1.671,
    1.707,
    1.919,
    1.623,
    1.858,
    1.626,
    2.081,
    2.49,
    1.736,
    1.66,
    2.114,
    2.635,
    2.085,
    1.901,
    1.083,
    1.269,
    1.03,
    0.607,
    1.158,
    1.171,
    0.925,
    0.8,
    1.568,
    0.712,
    2.354,
    1.175,
    0.92,
    0.894205,
    0.594897,
    1.21,
    0.937572,
    0.949,
    0.602461,
    1.350111,
    1.825025,
    1.153111,
    0.972,
    0.954,
    1.123612,
    1.202,
    0.96074,
    0.968,
    1.615806,
    1.282,
    1.159,
    0.857805,
    0.84,
    1.383802,
    1.886954,
    1.371806,
    1.36,
    1.008268,
    1.675,
    2.019,
    1.814721,
    1.519461,
    2.226644,
    1.52176,
    1.736486,
    1.458696,
    2.338183,
    2.012813,
    1.733,
    1.05,
    0.858,
    0.736,
    0.587,
    1.092,
    1.007,
    0.835,
    0.662,
    1.415,
    1.79533,
    1.667,
    1.094452,
    0.985,
    1.79,
    1.332,
    1.196,
    1.287,
    0.519266,
    1.10042,
    1.011,
    1.297308,
    1.006,
    0.674,
    1.44036,
    2.233641,
    1.055103,
    0.765,
    1.56,
    1.503,
    0.807778,
    0.681,
    1.264,
    1.118,
    0.903,
    0.833,
    0.833,
    1.398517,
    2.361909,
    1.502,
    0.984,
    2.029,
    1.472,
    2.329,
    2.217,
    1.407,
    2.016,
    2.192,
    1.636,
    1.581,
    1.612716,
    2.235,
    2.127,
    1.937,
    1.8,
    1.167,
    0.718792,
    0.963,
    1.750314,
    0.947111,
    0.704674,
    1.295,
    1.08666,
    0.947,
    0.843,
    1.356,
    2.09373,
    1.453973,
    1.327,
    1.125111,
    1.691248,
    1.305893,
    1.764,
    1.383639,
    1.180327,
    2.043,
    2.013622,
    1.707673,
    2.178,
    1.435026,
    2.151,
    1.761752,
    1.588582,
    1.502,
    2.762,
    1.763,
    1.862,
    1.281,
    1.638,
    1.760624,
    1.669,
    1.523,
    1.505,
    1.321,
    2.073,
    3.395,
    1.865,
    1.858,
    1.896,
    1.565605,
    1.420502,
    0.728,
    1.236,
    1.092,
    1.057938,
    0.726,
    0.782,
    1.947897,
    1.074897,
    1.357,
    0.878233,
    1.085209,
    0.724,
    0.962,
    1.364,
    1.173,
    1.119,
    1.452,
    1.391,
    1.354,
    1.703,
    1.853,
    1.105,
    1.374,
    1.193,
    0.771,
    1.488,
    1.062,
    0.806,
    1.058,
    0.723,
    1.782233,
    1.851393,
    1.494547,
    1.322889,
    1.126,
    1.782,
    1.158,
    1.77,
    1.183,
    1.437,
    1.192,
    1.749,
    1.455094,
    1.29,
    1.492751,
    2.143112,
    2.593,
    1.664,
    1.815549,
    1.568222,
    1.709534,
    0.756,
    0.942,
    1.521,
    0.698,
    1.108,
    1.013,
    0.785,
    1.407,
    1.734124,
    1.416,
    1.294,
    1.202933,
    1.039867,
    1.214,
    0.821,
    1.369,
    1.614805,
    1.209,
    1.735867,
    0.667646,
    0.874472,
    1.616,
    2.025,
    1.306478,
    1.282401,
    1.133933,
    1.415714,
    1.431,
    1.385,
    1.126,
    1.722316,
    1.598129,
    2.252288,
    2.228,
    2.211284,
    2.024716,
    2.319,
    1.852,
    1.713,
    1.098,
    0.643,
    1.129,
    1.407,
    0.794,
    1.302,
    1.124902,
    1.02,
    0.728,
    1.362,
    1.511,
    1.269,
    1.09,
    0.821,
    1.86,
    1.985,
    1.406,
    2.339,
    1.817,
    1.781,
    2.356,
    2.522,
    1.31,
    2.34,
    1.95,
    2.103,
    1.098,
    0.67,
    0.991,
    0.72,
    1.178,
    1.589,
    0.785,
    0.804,
    1.356,
    1.519,
    1.141,
    1.229,
    1.002,
    1.554,
    1.256,
    1.658,
    1.962,
    0.977,
    2.607,
    1.406,
    1.388,
    2.12,
    2.529,
    2.065,
    2.114,
    1.633,
    1.685,
    1.817,
    1.402,
    1.676,
    3.364,
    1.476,
    1.384,
    2.043,
    2.435,
    1.728,
    1.484,
    1.859,
    2.459,
    1.796,
    1.83,
    1.761,
    1.136,
    0.588,
    0.808,
    0.582,
    1.316499,
    0.745,
    0.665612,
    0.529,
    1.56581,
    1.748937,
    1.558,
    1.68,
    1.422,
    1.274,
    0.743488,
    1.208,
    0.803,
    1.509,
    1.202,
    2.218,
    0.828792,
    1.674,
    2.452306,
    1.857208,
    1.202208,
    1.452,
    1.243,
    1.894,
    1.514,
    1.38,
    1.322,
    0.575,
    1.076399,
    0.74,
    1.667,
    1.368,
    2.115,
    1.409,
    1.398,
    2.438,
    1.435,
    1.884,
    1.479,
    1.541,
    2.006,
    1.918,
    2.002,
    1.66,
    2.067,
    1.441,
    2.07,
    2.322,
    2.516,
    1.961,
    1.782,
    1.523,
    1.648,
    2.315,
    2.625,
    2.027,
    2.478,
    1.594862,
    2.146,
    1.442,
    1.232,
    1.774,
    1.492,
    1.301,
    2.074,
    2.082,
    1.727,
    1.616,
    2.179,
    1.56,
    2.176,
    1.766,
    2.062,
    1.294,
    1.421,
    1.81,
    2.285,
    1.854,
    1.808,
    1.223,
    0.637,
    1.118,
    0.896,
    0.865,
    1.176,
    1.068,
    0.713,
    1.46,
    0.883,
    1.529756,
    2.009294,
    1.282,
    1.119,
    1.038,
    0.715,
    1.553,
    1.834,
    1.175,
    1.957,
    1.286,
    0.728,
    2.303,
    1.791,
    1.081,
    1.389,
    1.182,
    1.2,
    0.797,
    1.051,
    1.434,
    1.61,
    0.56,
    1.815,
    2.055103,
    0.825,
    1.597,
    1.819,
    1.078,
    1.474,
    1.531,
    1.74,
    0.868,
    1.665,
    1.712,
    1.264111,
    0.872,
    2.399,
    1.022,
    0.662,
    1.792,
    1.574,
    0.694,
    1.4,
    0.612,
    0.763,
    0.666,
    1.218313,
    1.627,
    0.781,
    1.545,
    1.198,
    1.179,
    1.271,
    1.672,
    1.147,
    1.484,
    1.096584,
    1.254,
    0.928,
    1.662,
    1.843,
    1.811066,
    1.382,
    1.369,
    1.313,
    1.148408,
    0.82,
    1.272,
    0.882,
    1.554121,
    1.304,
    1.046,
    1.772,
    0.86239,
    0.847,
    1.669,
    1.843072,
    1.175,
    3.967,
    1.437,
    1.276,
    0.716,
    0.831,
    0.857,
    1.167513,
    1.403,
    2.193111,
    1.034,
    1.233,
    0.965,
    1.29,
    2.461,
    1.18,
    1.276,
    0.774,
    0.771,
    1.188,
    1.465,
    1.441,
    1.171,
    1.087425,
    0.963,
    1.08,
    1.124,
    1.292,
    0.676,
    0.636,
    1.528,
    1.587,
    1.931,
    1.034,
    1.068,
    1.732,
    1.338,
    1.015,
    1.231,
    0.733,
    0.604,
    0.696532,
    1.829,
    1.327073,
    1.293,
    1.018458,
    1.523012,
    1.944,
    1.139022,
    1.695962,
    1.071883,
    2.05,
    1.217,
    1.768,
    0.58185,
    1.151,
    2.171981,
    1.253744,
    1.372,
    1.501,
    1.844374,
    1.436,
    0.872671,
    2.152966,
    1.69695,
    2.001,
    2.509333,
    2.933,
    1.637,
    2.16,
    2.236,
    1.857,
    2.568,
    3.213,
    2.339107,
    3.492354,
    2.186,
    2.134283,
    1.24,
    1.633564,
    0.953,
    1.06,
    0.658,
    0.626,
    1.371,
    1.569,
    1.031,
    0.949,
    1.502,
    4.046,
    1.249,
    1.251,
    0.832,
    1.84706,
    1.641077,
    1.541923,
    1.3,
    1.667,
    1.783519,
    1.744714,
    3.427,
    1.32253,
    1.338914,
    2.498214,
    1.963033,
    1.625119,
    1.936,
    1.434,
    1.226,
    1.165,
    1.509,
    1.944,
    1.814,
    1.973,
    1.577,
    1.809,
    2.267,
    1.633,
    2.23,
    1.859,
    1.984,
    2.665,
    1.729,
    1.687,
    1.579052,
    1.916,
    3.088,
    1.687,
    2.278,
    1.678,
    2.263,
    2.503295,
    1.983,
    1.902,
    1.356,
    1.86,
    2.081,
    1.592,
    1.278,
    2.092,
    1.595,
    2.397,
    2.621,
    1.975,
    2.491,
    1.497,
    0.935,
    1.321,
    0.517,
    0.562,
    2.675111,
    0.928,
    1.541,
    0.634,
    0.777,
    1.676,
    2.855,
    1.406,
    2.235,
    1.048
  ],
  "5242880": [
    12.665,
    9.357,
    7.589,
    11.731,
    15.241,
    13.352,
    13.697,
    12.216,
    6.984,
    8.043,
    9.281,
    11.932,
    8.224,
    10.531,
    7.515,
    14.475806,
    17.792,
    18.866455,
    23.333,
    7.736,
    11.134,
    8.154,
    14.29,
    9.973,
    20.529,
    13.857,
    17.049,
    17.839,
    8.746,
    8.031,
    10.904,
    11.331,
    6.46,
    8.256,
    8.821,
    6.557,
    6.753,
    7.921,
    8.342,
    8.846,
    18.439,
    11.487,
    8.305,
    15.54,
    19.855,
    11.831172,
    15.079,
    17.947
  ],
  "ALL": [
    2.408,
    3.418,
    1.581,
    2.099,
    1.439,
    1.901,
    1.81,
    2.287,
    1.476,
    2.04,
    2.586,
    1.89,
    1.793,
    1.573,
    6.766,
    5.394,
    1.234,
    1.302,
    1.604804,
    1.735,
    1.676375,
    1.397881,
    1.409,
    1.597129,
    2.104593,
    1.731492,
    1.793,
    1.466716,
    5.462,
    4.762284,
    7.388,
    1.626822,
    1.534386,
    1.709008,
    1.303111,
    1.19807,
    2.06689,
    1.335403,
    1.342,
    1.265476,
    2.849,
    1.724993,
    1.442604,
    6.014007,
    4.464,
    4.869814,
    12.665,
    2.121,
    1.723,
    1.71,
    1.588,
    1.375,
    1.69,
    1.943,
    2.336,
    1.71,
    2.085,
    2.180312,
    2.587,
    2.082,
    1.96,
    2.519,
    1.63,
    0.767,
    1.03193,
    1.339,
    0.846,
    1.243,
    1.828,
    1.272,
    0.657,
    1.511594,
    1.836877,
    1.051,
    1.174,
    2.411,
    9.357,
    1.78,
    1.846,
    2.474,
    2.178,
    1.557,
    2.256,
    1.286,
    1.792,
    2.46,
    1.965,
    4.916,
    6.191,
    4.92,
    6.742,
    6.234,
    1.078651,
    0.813,
    1.344,
    1.01,
    1.264,
    0.957,
    1.324,
    1.489,
    0.858,
    1.449,
    1.827072,
    1.398,
    1.082767,
    1.351,
    7.589,
    11.731,
    1.842,
    1.694,
    1.023,
    0.768,
    0.781,
    0.57,
    0.949,
    0.835,
    0.807,
    1.044,
    1.321,
    2.385,
    1.286,
    1.076972,
    0.782,
    2.524,
    1.751,
    1.146,
    0.694,
    0.878,
    0.792,
    1.141,
    1.988849,
    0.765,
    1.676,
    1.491,
    1.818741,
    1.035,
    0.911,
    1.816,
    2.261,
    4.948,
    1.046,
    1.455,
    1.159,
    1.749,
    1.11539,
    1.001,
    1.016,
    1.467,
    1.542248,
    1.872,
    1.069103,
    1.127,
    1.062,
    2.744,
    2.749,
    15.241,
    1.775,
    1.515,
    1.760789,
    1.274,
    1.319,
    1.756,
    1.801,
    1.393,
    1.518,
    2.426,
    2.435,
    1.812,
    2.368,
    8.085,
    13.352,
    1.816,
    1.434,
    1.552,
    2.099,
    1.288,
    2.083,
    2.176,
    1.794,
    5.086,
    5.277,
    8.869,
    4.809,
    5.24697,
    13.697,
    1.05599,
    1.035043,
    0.697,
    1.217,
    1.298,
    0.742,
    1.384,
    1.563974,
    1.759527,
    1.221,
    1.070305,
    0.976,
    1.791,
    3.937,
    2.311,
    2.058,
    1.223,
    1.673,
    1.358,
    1.423,
    1.525,
    1.216,
    1.743,
    1.661,
    0.96,
    0.737,
    1.446,
    1.795,
    4.759,
    1.179,
    0.852,
    12.216,
    1.366,
    0.974,
    0.695,
    0.676,
    0.562,
    1.398,
    1.032,
    1.802,
    0.768,
    0.614,
    1.645,
    1.421879,
    1.014,
    2.128,
    3.453,
    6.984,
    1.084,
    2.43,
    0.853,
    1.401,
    0.566,
    1.163,
    1.267,
    0.84,
    0.77,
    1.505,
    1.844539,
    1.089,
    1.028,
    7.403,
    3.42,
    8.043,
    1.121,
    1.648,
    0.999,
    0.874,
    0.628,
    1.555,
    1.058,
    0.783,
    1.425,
    1.73,
    2.027,
    1.076493,
    1.794,
    3.885611,
    3.902,
    1.498,
    1.761,
    1.971,
    1.256,
    1.697,
    1.846,
    2.51,
    1.423,
    1.226,
    1.998,
    2.282,
    1.98,
    1.869,
    2.021,
    6.16,
    1.764,
    1.028,
    1.398,
    1.654,
    1.367,
    2.111,
    1.516,
    2.02,
    1.296,
    2.479,
    2.261,
    1.614,
    1.685,
    5.365,
    1.889,
    1.477,
    1.657,
    2.383,
    2.567,
    1.836,
    1.706,
    1.616,
    1.598,
    1.955,
    2.076,
    1.789,
    1.834,
    1.924,
    5.296,
    5.695,
    2.01,
    0.683,
    1.186,
    1.095088,
    1.712,
    1.368,
    0.681,
    0.666,
    1.55,
    2.07,
    2.102,
    1.756,
    2.536,
    2.574,
    4.204,
    9.281,
    1.871,
    1.551,
    1.728876,
    1.369768,
    1.237412,
    1.374985,
    1.539,
    1.405877,
    1.360275,
    1.840079,
    2.253,
    2.394,
    2.301,
    1.807,
    5.42171,
    4.768,
    1.941,
    1.039,
    1.066,
    1.934,
    1.864,
    0.865,
    7.386,
    2.107,
    2.552,
    2.387,
    2.112,
    1.774,
    11.002,
    6.717,
    8.714,
    2.603,
    2.454,
    1.578,
    1.365,
    2.217,
    1.982,
    1.813,
    1.387,
    1.628,
    1.452,
    2.173,
    1.852,
    1.597,
    1.609,
    5.281,
    11.932,
    1.473,
    1.536,
    0.543,
    0.841,
    1.110181,
    1.095,
    1.317,
    0.754,
    0.736,
    1.37384,
    1.794,
    1.3,
    1.935,
    2.716,
    3.685988,
    3.993,
    1.199,
    0.742,
    0.769,
    0.741,
    0.678,
    0.966,
    1.636,
    0.616,
    1.706883,
    1.178,
    1.047,
    0.953,
    4.758,
    5.348,
    8.224,
    10.531,
    1.745,
    1.499,
    1.605,
    1.355,
    1.252,
    1.688,
    1.99,
    1.973,
    1.416,
    2.109,
    2.181,
    1.778,
    1.472,
    7.386,
    1.805,
    1.229357,
    1.468,
    1.655047,
    1.238,
    1.315,
    1.686,
    1.603978,
    1.352,
    2.103,
    1.255,
    1.875052,
    2.971,
    1.933425,
    1.624,
    6.71875,
    2.245,
    1.493,
    1.258,
    2.103,
    1.605,
    1.697,
    1.433,
    1.439,
    2.02,
    2.059,
    1.671,
    1.707,
    8.211,
    4.646,
    4.323,
    5.286,
    1.919,
    1.623,
    1.858,
    1.626,
    2.081,
    2.49,
    1.736,
    1.66,
    2.114,
    2.635,
    2.085,
    1.901,
    8.818,
    7.732,
    6.773124,
    1.083,
    1.269,
    1.03,
    0.607,
    1.158,
    1.171,
    0.925,
    0.8,
    1.568,
    0.712,
    2.354,
    1.175,
    0.92,
    5.105,
    4.535,
    3.23,
    0.894205,
    0.594897,
    1.21,
    0.937572,
    0.949,
    0.602461,
    1.350111,
    1.825025,
    1.153111,
    0.972,
    0.954,
    4.765897,
    2.115,
    2.12514,
    4.120897,
    7.515,
    1.123612,
    1.202,
    0.96074,
    0.968,
    1.615806,
    1.282,
    1.159,
    0.857805,
    0.84,
    1.383802,
    1.886954,
    1.371806,
    1.36,
    1.008268,
    3.607805,
    14.475806,
    1.675,
    2.019,
    1.814721,
    1.519461,
    2.226644,
    1.52176,
    1.736486,
    1.458696,
    2.338183,
    2.012813,
    1.733,
    5.569,
    17.792,
    18.866455,
    23.333,
    1.05,
    0.858,
    0.736,
    0.587,
    1.092,
    1.007,
    0.835,
    0.662,
    1.415,
    1.79533,
    1.667,
    1.094452,
    0.985,
    4.170452,
    3.367539,
    7.736,
    1.79,
    1.332,
    1.196,
    1.287,
    0.519266,
    1.10042,
    1.011,
    1.297308,
    1.006,
    0.674,
    1.44036,
    2.233641,
    1.055103,
    0.765,
    2.269,
    11.134,
    1.56,
    1.503,
    0.807778,
    0.681,
    1.264,
    1.118,
    0.903,
    0.833,
    0.833,
    1.398517,
    2.361909,
    1.502,
    0.984,
    4.208,
    4.471,
    8.154,
    2.029,
    1.472,
    2.329,
    2.217,
    1.407,
    2.016,
    2.192,
    1.636,
    1.581,
    1.612716,
    2.235,
    2.127,
    1.937,
    1.8,
    5.329716,
    6.506,
    1.167,
    0.718792,
    0.963,
    1.750314,
    0.947111,
    0.704674,
    1.295,
    1.08666,
    0.947,
    0.843,
    1.356,
    2.09373,
    1.453973,
    1.327,
    1.125111,
    2.269,
    1.691248,
    1.305893,
    1.764,
    1.383639,
    1.180327,
    2.043,
    2.013622,
    1.707673,
    2.178,
    1.435026,
    2.151,
    1.761752,
    1.588582,
    1.502,
    4.978,
    5.809501,
    2.762,
    1.763,
    1.862,
    1.281,
    1.638,
    1.760624,
    1.669,
    1.523,
    1.505,
    1.321,
    2.073,
    3.395,
    1.865,
    1.858,
    1.896,
    8.801,
    1.565605,
    1.420502,
    0.728,
    1.236,
    1.092,
    1.057938,
    0.726,
    0.782,
    1.947897,
    1.074897,
    1.357,
    0.878233,
    2.590388,
    3.759,
    3.643,
    3.174,
    1.085209,
    0.724,
    0.962,
    1.364,
    1.173,
    1.119,
    1.452,
    1.391,
    1.354,
    1.703,
    1.853,
    1.105,
    1.374,
    2.83,
    2.505,
    1.193,
    0.771,
    1.488,
    1.062,
    0.806,
    1.058,
    0.723,
    1.782233,
    1.851393,
    1.494547,
    1.322889,
    1.126,
    3.278222,
    10.935,
    2.319,
    2.992864,
    1.782,
    1.158,
    1.77,
    1.183,
    1.437,
    1.192,
    1.749,
    1.455094,
    1.29,
    1.492751,
    2.143112,
    2.593,
    1.664,
    1.815549,
    1.568222,
    1.709534,
    0.756,
    0.942,
    1.521,
    0.698,
    1.108,
    1.013,
    0.785,
    1.407,
    1.734124,
    1.416,
    1.294,
    3.071,
    5.364,
    5.123,
    3.141,
    1.202933,
    1.039867,
    1.214,
    0.821,
    1.369,
    1.614805,
    1.209,
    1.735867,
    0.667646,
    0.874472,
    1.616,
    2.025,
    1.306478,
    1.282401,
    1.133933,
    2.672559,
    1.415714,
    1.431,
    1.385,
    1.126,
    1.722316,
    1.598129,
    2.252288,
    2.228,
    2.211284,
    2.024716,
    2.319,
    1.852,
    1.713,
    5.487336,
    5.914,
    5.394,
    1.098,
    0.643,
    1.129,
    1.407,
    0.794,
    1.302,
    1.124902,
    1.02,
    0.728,
    1.362,
    1.511,
    1.269,
    1.09,
    0.821,
    2.272,
    3.543,
    1.86,
    1.985,
    1.406,
    2.339,
    1.817,
    1.781,
    2.356,
    2.522,
    1.31,
    2.34,
    1.95,
    2.103,
    14.29,
    1.098,
    0.67,
    0.991,
    0.72,
    1.178,
    1.589,
    0.785,
    0.804,
    1.356,
    1.519,
    1.141,
    1.229,
    1.002,
    4.433,
    4.727,
    1.554,
    1.256,
    1.658,
    1.962,
    0.977,
    2.607,
    1.406,
    1.388,
    2.12,
    2.529,
    2.065,
    2.114,
    1.633,
    1.685,
    7.299,
    1.817,
    1.402,
    1.676,
    3.364,
    1.476,
    1.384,
    2.043,
    2.435,
    1.728,
    1.484,
    1.859,
    2.459,
    1.796,
    1.83,
    1.761,
    7.852,
    1.136,
    0.588,
    0.808,
    0.582,
    1.316499,
    0.745,
    0.665612,
    0.529,
    1.56581,
    1.748937,
    1.558,
    1.68,
    1.422,
    6.052,
    2.259965,
    2.825392,
    1.274,
    0.743488,
    1.208,
    0.803,
    1.509,
    1.202,
    2.218,
    0.828792,
    1.674,
    2.452306,
    1.857208,
    1.202208,
    1.452,
    1.243,
    2.879,
    3.14889,
    1.894,
    1.514,
    1.38,
    1.322,
    0.575,
    1.076399,
    0.74,
    1.667,
    1.368,
    2.115,
    1.409,
    1.398,
    3.281,
    2.513,
    3.056,
    9.973,
    2.438,
    1.435,
    1.884,
    1.479,
    1.541,
    2.006,
    1.918,
    2.002,
    1.66,
    6.73,
    6.613,
    5.311,
    7.02,
    7.34,
    2.067,
    1.441,
    2.07,
    2.322,
    2.516,
    1.961,
    1.782,
    1.523,
    1.648,
    2.315,
    2.625,
    2.027,
    5.602,
    7.662,
    6.173,
    20.529,
    2.478,
    1.594862,
    2.146,
    1.442,
    1.232,
    1.774,
    1.492,
    1.301,
    2.074,
    2.082,
    1.727,
    13.857,
    17.049,
    17.839,
    1.616,
    2.179,
    1.56,
    2.176,
    1.766,
    2.062,
    1.294,
    1.421,
    1.81,
    2.285,
    1.854,
    1.808,
    5.25,
    5.038,
    6.891,
    10.981,
    1.223,
    0.637,
    1.118,
    0.896,
    0.865,
    1.176,
    1.068,
    0.713,
    1.46,
    0.883,
    1.529756,
    2.009294,
    1.282,
    1.119,
    2.827,
    3.606,
    1.038,
    0.715,
    1.553,
    1.834,
    1.175,
    1.957,
    1.286,
    0.728,
    2.303,
    1.791,
    1.081,
    1.389,
    1.182,
    3.18,
    8.746,
    8.031,
    1.2,
    0.797,
    1.051,
    1.434,
    1.61,
    0.56,
    1.815,
    2.055103,
    0.825,
    1.597,
    1.819,
    6.034,
    3.404,
    5.006,
    10.904,
    11.331,
    1.078,
    1.474,
    1.531,
    1.74,
    0.868,
    1.665,
    1.712,
    1.264111,
    0.872,
    2.399,
    1.022,
    0.662,
    1.792,
    4.314,
    4.468,
    1.574,
    0.694,
    1.4,
    0.612,
    0.763,
    0.666,
    1.218313,
    1.627,
    0.781,
    1.545,
    1.198,
    1.179,
    2.727,
    6.46,
    8.256,
    8.821,
    1.271,
    1.672,
    1.147,
    1.484,
    1.096584,
    1.254,
    0.928,
    1.662,
    1.843,
    1.811066,
    1.382,
    1.369,
    1.313,
    2.977,
    3.092,
    6.557,
    1.148408,
    0.82,
    1.272,
    0.882,
    1.554121,
    1.304,
    1.046,
    1.772,
    0.86239,
    0.847,
    1.669,
    1.843072,
    1.175,
    3.967,
    1.437,
    1.276,
    0.716,
    0.831,
    0.857,
    1.167513,
    1.403,
    2.193111,
    1.034,
    1.233,
    0.965,
    3.655,
    3.108,
    3.283,
    4.126,
    6.753,
    7.921,
    1.29,
    2.461,
    1.18,
    1.276,
    0.774,
    0.771,
    1.188,
    1.465,
    1.441,
    1.171,
    1.087425,
    0.963,
    3.664,
    4.516,
    8.342,
    8.846,
    1.08,
    1.124,
    1.292,
    0.676,
    0.636,
    1.528,
    1.587,
    1.931,
    1.034,
    1.068,
    1.732,
    1.338,
    1.015,
    4.122,
    18.439,
    11.487,
    1.231,
    0.733,
    0.604,
    0.696532,
    1.829,
    1.327073,
    1.293,
    1.018458,
    1.523012,
    1.944,
    1.139022,
    1.695962,
    3.144134,
    4.295,
    8.305,
    15.54,
    1.071883,
    2.05,
    1.217,
    1.768,
    0.58185,
    1.151,
    2.171981,
    1.253744,
    1.372,
    1.501,
    1.844374,
    1.436,
    0.872671,
    6.575712,
    2.740477,
    4.227,
    2.152966,
    1.69695,
    2.001,
    2.509333,
    2.933,
    1.637,
    2.16,
    2.236,
    1.857,
    2.568,
    3.213,
    2.339107,
    3.492354,
    2.186,
    2.134283,
    19.855,
    1.24,
    1.633564,
    0.953,
    1.06,
    0.658,
    0.626,
    1.371,
    1.569,
    1.031,
    0.949,
    1.502,
    4.046,
    1.249,
    1.251,
    0.832,
    1.84706,
    1.641077,
    1.541923,
    1.3,
    1.667,
    1.783519,
    1.744714,
    3.427,
    1.32253,
    1.338914,
    2.498214,
    1.963033,
    1.625119,
    23.86577,
    5.180361,
    11.831172,
    1.936,
    1.434,
    1.226,
    1.165,
    1.509,
    1.944,
    1.814,
    1.973,
    1.577,
    1.809,
    2.267,
    1.633,
    2.23,
    1.859,
    15.079,
    1.984,
    2.665,
    1.729,
    1.687,
    1.579052,
    1.916,
    3.088,
    1.687,
    2.278,
    1.678,
    2.263,
    2.503295,
    1.983,
    7.134,
    5.447,
    1.902,
    1.356,
    1.86,
    2.081,
    1.592,
    1.278,
    2.092,
    1.595,
    2.397,
    2.621,
    1.975,
    4.583,
    8.12,
    7.37,
    17.947,
    2.491,
    1.497,
    0.935,
    1.321,
    0.517,
    0.562,
    2.675111,
    0.928,
    1.541,
    0.634,
    0.777,
    1.676,
    2.855,
    1.406,
    2.235,
    1.048
  ]
}