{
  "1048576": [
    5.868,
    5.269795,
    5.373082,
    7.209994,
    5.819,
    6.324,
    2.133644,
    2.614,
    5.958,
    5.461,
    5.751,
    5.665,
    5.909,
    2.705594,
    2.79512,
    5.309,
    7.983,
    8.172,
    5.913,
    5.802,
    4.948,
    1.968,
    5.074,
    2.208,
    2.325,
    3.182,
    2.073,
    2.394,
    2.47,
    8.817,
    4.157,
    11.03,
    4.724,
    2.638,
    3.082,
    3.083408,
    4.106,
    4.437,
    4.408,
    3.762,
    6.188,
    5.789,
    5.952,
    4.238,
    5.267,
    7.747,
    7.171,
    5.298,
    4.766587,
    6.15,
    2.934703,
    4.905,
    10.041,
    4.308381,
    3.492,
    3.145,
    2.681,
    2.265,
    6.316,
    4.444,
    4.339,
    4.54,
    6.884,
    5.061,
    8.035,
    7.408,
    5.985,
    5.848576,
    8.247,
    3.966,
    2.795,
    3.629,
    4.863,
    3.927,
    3.305,
    3.486,
    4.674,
    1.951,
    4.269,
    4.679,
    6.035,
    4.731,
    5.819,
    6.813,
    6.573,
    2.033,
    2.02,
    2.767,
    4.61,
    6.104,
    2.1,
    2.509,
    2.396,
    2.241,
    6.77,
    4.038,
    3.347,
    3.203,
    3.035,
    2.436,
    2.444,
    4.178,
    7.047,
    5.56,
    4.003,
    6.395,
    4.196,
    5.293,
    2.666,
    4.127,
    6.532,
    5.947,
    6.043,
    5.444,
    6.959,
    5.666,
    4.575,
    6.147,
    2.411,
    4.816302,
    3.166,
    3.376,
    4.914937,
    6.969,
    7.392,
    8.375,
    8.422,
    5.516252,
    3.996,
    3.029889,
    3.302376,
    4.016,
    4.496,
    3.654,
    2.054,
    2.249,
    4.051,
    4.503,
    6.768,
    5.59478,
    5.662976,
    2.344703,
    4.406783,
    3.403,
    2.455,
    2.932,
    4.851,
    2.852,
    2.391,
    5.523,
    2.024,
    3.473,
    3.353,
    4.069,
    2.812,
    3.113,
    2.261,
    2.576,
    3.348111,
    4.873,
    4.896,
    5.119,
    4.629,
    5.573,
    6.269,
    7.734,
    1.684479,
    2.039747,
    5.081
  ],
  "51200": [
    1.95,
    2.299,
    1.599,
    1.895348,
    1.82341,
    1.497652,
    2.738,
    2.205026,
    1.885,
    0.885455,
    1.707,
    0.886,
    1.148076,
    1.626,
    0.77,
    1.545924,
    0.882386,
    1.08,
    1.430218,
    0.896,
    2.448,
    1.421,
    1.404,
    2.007,
    1.929,
    1.893,
    1.406,
    1.44,
    2.062,
    1.919,
    1.907,
    2.184,
    2.244,
    1.541,
    1.459,
    1.434,
    1.473,
    2.182,
    2.523,
    1.572,
    1.444,
    2.043,
    3.015,
    2.141,
    1.834,
    1.717,
    1.868,
    1.094,
    0.857,
    1.085,
    2.182,
    0.766736,
    1.747,
    1.737176,
    1.869819,
    1.09101,
    1.558,
    1.585,
    1.73,
    1.733,
    1.458,
    2.277,
    1.752,
    1.901,
    1.435,
    2.149,
    2.752,
    1.945,
    1.893,
    1.826,
    1.759,
    2.191,
    1.421092,
    1.28,
    3.154,
    1.529,
    1.434,
    1.792,
    2.16941,
    1.946,
    2.279,
    2.356,
    1.081897,
    0.613897,
    0.911876,
    0.658,
    1.899,
    1.096705,
    0.945,
    0.988,
    1.413,
    0.473,
    1.308,
    1.742,
    1.074,
    1.072,
    0.947,
    2.606,
    0.664,
    1.491,
    0.874,
    1.032,
    1.97373,
    1.027,
    0.792,
    0.725,
    1.758322,
    1.480773,
    2.123,
    1.161,
    1.188,
    0.958,
    1.034729,
    0.844565,
    1.908,
    0.878,
    1.308785,
    1.143888,
    0.816288,
    1.50881,
    1.828,
    1.757087,
    1.883009,
    1.209221,
    1.601,
    1.544,
    2.645567,
    1.832876,
    1.495675,
    1.508226,
    2.018,
    2.103646,
    2.611151,
    1.713,
    2.470531,
    2.191,
    2.983124,
    2.385,
    2.149,
    2.337,
    1.678,
    1.551063,
    1.912599,
    1.511486,
    2.644,
    1.4,
    2.599,
    2.602095,
    2.468,
    1.654,
    1.607,
    2.214,
    2.351,
    2.527,
    1.86404,
    1.65592,
    1.251,
    0.942,
    1.169,
    1.142,
    2.072,
    1.648,
    0.8,
    1.352,
    1.92,
    1.159,
    1.236,
    0.897,
    1.104,
    0.903,
    0.959,
    1.739,
    1.738,
    1.701,
    1.021,
    1.923,
    1.085,
    1.4,
    0.912,
    1.067,
    0.696,
    0.936,
    0.66,
    1.323,
    1.19,
    1.437,
    1.236,
    1.757,
    0.902,
    0.842,
    1.593111,
    1.027,
    1.388,
    0.944,
    0.927,
    1.199,
    1.698,
    0.787,
    0.827,
    1.855111,
    1.273,
    1.376,
    1.445,
    1.228,
    0.818375,
    1.451,
    1.608,
    0.601,
    1.084,
    1.392,
    1.495,
    1.581,
    1.556,
    1.455797,
    1.804,
    1.102,
    1.202,
    1.655,
    2.274,
    1.052,
    1.378,
    1.916,
    1.442,
    1.268,
    1.108,
    1.97,
    2.12,
    1.507,
    1.48,
    1.676,
    1.137,
    1.628,
    1.421,
    1.567,
    1.569,
    1.348,
    2.103,
    1.888,
    1.3,
    1.304,
    1.367,
    1.792,
    1.803,
    1.33,
    2.102,
    1.438,
    2.137601,
    2.274,
    1.902,
    1.626,
    0.981125,
    0.666,
    0.787215,
    1.352,
    0.689473,
    0.721,
    1.137281,
    1.269965,
    0.945,
    1.373,
    2.515662,
    1.47985,
    1.44971,
    1.644,
    1.181,
    1.398,
    1.32,
    1.149,
    1.142,
    1.634,
    1.277,
    1.472,
    1.484,
    2.0,
    2.676,
    1.627,
    1.640823,
    1.166284,
    1.532468,
    1.335976,
    1.272631,
    2.015284,
    2.929,
    2.336508,
    1.198284,
    2.02931,
    2.17143,
    1.974,
    1.766,
    1.656284,
    2.206,
    1.943,
    1.697,
    2.058,
    1.599,
    1.343,
    1.717,
    1.49,
    1.459,
    1.407,
    1.987,
    1.86,
    2.404,
    1.857,
    1.65,
    1.473,
    0.668,
    1.499,
    0.653114,
    0.667,
    1.178234,
    2.293482,
    0.888597,
    0.738683,
    1.476429,
    1.194,
    1.14664,
    1.082296,
    0.749,
    0.675,
    0.913,
    0.672,
    1.083,
    0.955,
    0.774,
    1.389,
    2.095,
    2.426,
    1.49,
    1.18,
    1.645,
    1.208,
    2.081,
    1.393,
    1.872,
    3.194,
    1.413,
    1.325,
    2.067,
    2.375,
    1.82,
    1.852,
    1.894,
    1.728,
    1.616,
    2.168,
    1.336,
    2.077,
    1.679,
    2.154,
    1.42,
    3.015,
    1.915,
    1.747,
    1.968,
    1.23,
    2.059,
    1.337,
    1.32,
    1.823,
    1.962,
    2.535,
    3.17,
    2.288,
    1.813,
    1.965,
    1.693253,
    1.46613,
    2.349,
    1.73,
    1.913928,
    2.592069,
    1.806,
    2.290964,
    2.285885,
    2.251685,
    2.103,
    2.017032,
    1.286,
    1.105,
    0.968,
    0.849,
    0.636,
    0.53,
    1.154,
    1.802,
    0.659,
    0.818,
    0.766,
    1.57,
    1.608103,
    1.087103,
    1.116,
    1.747,
    1.029,
    0.715,
    1.419,
    0.492,
    2.181544,
    2.079265,
    0.75,
    0.91,
    1.545,
    1.8113,
    1.149,
    1.193898,
    1.504011,
    1.694,
    0.936,
    1.112,
    1.186,
    1.109,
    0.664,
    0.818,
    0.748,
    1.381,
    1.732702,
    1.669,
    1.35,
    1.362,
    1.445,
    2.087,
    1.279,
    1.276,
    1.895,
    1.66,
    1.493,
    1.414,
    2.348,
    1.871,
    1.658,
    1.15,
    1.733662,
    1.426,
    1.495,
    0.631,
    0.831,
    1.907,
    1.606,
    0.977,
    0.827,
    1.407,
    1.249,
    1.466,
    1.109,
    0.604,
    1.355,
    0.79,
    0.51,
    0.89733,
    0.714,
    0.616,
    1.357,
    1.756103,
    1.082961,
    1.050111,
    0.896,
    1.258,
    0.659,
    0.953,
    0.881,
    1.131,
    1.902,
    0.796,
    1.364,
    1.499,
    1.268,
    1.828,
    1.376,
    1.927,
    1.885,
    1.746,
    3.748,
    2.379,
    1.929,
    1.774,
    2.007,
    1.079903,
    1.124,
    1.316,
    2.791,
    0.563,
    2.557,
    1.143,
    0.612,
    1.086,
    1.789,
    2.095,
    1.106,
    1.138,
    1.714,
    1.480059,
    1.428,
    1.199188,
    1.244716,
    2.324597,
    1.644592,
    2.081,
    1.42,
    1.555,
    1.743789,
    2.064,
    2.590823,
    1.775026,
    1.753393,
    1.548957,
    1.871,
    1.884,
    1.399,
    1.6,
    2.496,
    1.807,
    2.472,
    2.437,
    2.01219,
    3.144,
    1.732,
    1.81,
    0.667,
    1.535,
    0.763,
    0.903,
    1.077,
    1.039,
    0.95,
    0.822,
    1.860533,
    1.342,
    1.073803,
    1.589,
    1.517,
    0.812,
    1.308017,
    0.875532,
    0.79,
    0.519,
    1.135,
    0.759,
    0.78,
    0.768794,
    1.69,
    2.538,
    1.439094,
    1.262,
    0.898,
    1.147,
    1.434,
    1.207,
    0.768,
    1.22,
    1.346,
    1.143,
    0.867612,
    0.682,
    1.500047,
    1.892364,
    1.728,
    1.135,
    1.353,
    0.693,
    0.851,
    0.669,
    2.646,
    1.349,
    1.816,
    1.736,
    1.736,
    1.426,
    1.358,
    1.937,
    1.244,
    1.098,
    1.339,
    1.113,
    0.92,
    2.57,
    1.944167,
    0.846,
    0.668,
    1.431,
    1.871,
    1.325,
    1.791,
    1.648,
    0.743,
    1.706,
    0.513,
    1.087,
    0.995,
    1.441,
    0.639,
    0.613,
    1.358,
    1.76,
    0.978,
    1.589,
    1.167,
    1.112861,
    1.128,
    1.492,
    1.991,
    1.711,
    1.722,
    2.326147,
    1.361,
    1.618,
    1.322,
    1.16,
    0.82,
    1.342,
    1.398,
    1.359,
    1.134,
    0.922,
    0.919,
    0.638,
    1.591,
    2.203,
    1.156,
    2.016,
    1.383,
    1.759,
    1.549,
    1.491,
    1.883,
    2.948,
    1.813,
    1.52,
    2.167,
    2.324,
    1.857,
    1.872,
    1.724,
    0.446417,
    0.930583,
    0.807,
    1.571237,
    0.575898,
    1.601583,
    1.739,
    0.952103,
    0.697,
    1.954934,
    1.59648,
    1.046968,
    1.931,
    1.683,
    1.402,
    1.286,
    2.91,
    1.763,
    1.568,
    2.802,
    1.825,
    1.874,
    2.909,
    1.774,
    1.932,
    1.288,
    1.408,
    2.109,
    1.33,
    1.367,
    2.245,
    2.54,
    1.701,
    1.544,
    1.089084,
    0.572,
    0.891,
    0.512,
    0.483,
    1.050223,
    0.912,
    0.671,
    0.854,
    1.544,
    1.306,
    1.861723,
    1.251318,
    1.084579,
    1.194,
    1.094222,
    0.837,
    0.967897,
    1.436,
    1.624,
    1.599,
    1.589,
    0.672,
    1.609222,
    1.901,
    1.511103,
    1.748124,
    1.072383,
    1.073296,
    0.898,
    0.781,
    1.471,
    0.493,
    1.39,
    0.964,
    0.707,
    0.767,
    1.826,
    1.52,
    1.897656,
    1.179,
    2.341,
    1.336,
    1.702903,
    1.603242,
    1.322,
    1.357,
    1.87391,
    2.742103,
    2.247103,
    1.551889,
    1.441889,
    1.922,
    2.218897,
    1.856,
    1.825,
    1.764,
    1.497,
    1.82,
    2.156,
    1.28,
    2.719,
    2.359,
    1.642,
    1.967,
    2.363,
    2.077,
    1.888,
    1.752,
    2.278,
    1.295,
    1.377,
    1.927,
    1.685,
    2.36,
    1.585,
    2.599,
    2.928,
    1.837,
    2.307,
    1.933,
    1.27,
    1.803,
    2.349,
    2.397,
    1.266,
    1.891,
    1.951,
    1.511,
    1.648,
    1.806,
    2.014,
    1.809,
    2.411,
    1.088931,
    1.518539,
    1.263369,
    0.818025,
    1.588,
    0.956,
    1.016,
    0.999602,
    1.39,
    1.876713,
    1.083036,
    2.423022,
    1.45618,
    1.558,
    2.032668,
    1.111,
    1.72423,
    2.193,
    1.309962,
    2.152395,
    2.61177,
    1.647,
    0.73,
    1.508,
    0.801,
    1.168,
    1.613,
    0.646,
    0.769,
    2.1,
    2.44,
    1.483,
    1.098,
    1.572,
    0.813,
    1.357,
    0.608,
    1.5,
    1.153,
    1.288232,
    1.965,
    0.693,
    0.651,
    1.337848,
    1.852842,
    1.191,
    1.445,
    2.144,
    1.928,
    2.002,
    1.55321,
    1.668876,
    1.58602,
    2.018587,
    1.77479,
    1.77,
    1.478753,
    1.256443,
    1.24,
    0.714321,
    0.887,
    2.307805,
    2.350702,
    0.826,
    0.965619,
    1.647065,
    1.810934,
    1.096702,
    1.678,
    1.298,
    1.001,
    0.698,
    0.925,
    0.739,
    0.593,
    2.365,
    1.791,
    0.924,
    1.691,
    1.443,
    1.878,
    1.107,
    1.101,
    0.71,
    0.96,
    0.6,
    0.608,
    1.948,
    0.782,
    0.657,
    1.023,
    1.361,
    1.712,
    1.181,
    1.065103,
    0.885,
    1.081248,
    0.648,
    0.671,
    0.826,
    0.593,
    1.058,
    1.842,
    1.567,
    0.675,
    1.601,
    1.93,
    1.078,
    1.047,
    1.38,
    1.187,
    0.894,
    1.358,
    1.392,
    1.267,
    1.388,
    1.869,
    2.033,
    1.395,
    1.241,
    1.067,
    0.647,
    1.165,
    0.894,
    0.816,
    1.132,
    1.236,
    1.653,
    0.764,
    0.749,
    1.37,
    1.787,
    1.36,
    1.114,
    1.162,
    0.699,
    1.034,
    0.89,
    0.835,
    1.673,
    1.408,
    0.682,
    0.798,
    2.051,
    1.49,
    1.049,
    2.145,
    1.23,
    1.916,
    1.256,
    1.318,
    1.058,
    1.614,
    1.483,
    2.028,
    1.229,
    1.081,
    1.838,
    2.265,
    1.7,
    2.659,
    1.261,
    0.808578,
    1.142,
    0.714,
    2.324,
    1.795,
    1.063,
    0.763,
    0.819,
    1.231,
    1.333,
    0.981,
    1.084,
    0.817,
    1.028,
    1.417,
    0.727,
    0.701,
    1.005,
    0.958,
    0.918,
    1.392,
    1.487,
    2.099,
    1.332,
    0.926,
    1.822,
    2.173,
    1.464,
    2.114,
    2.108,
    1.547,
    2.248,
    2.68,
    1.891,
    2.291,
    1.851,
    1.552,
    1.36,
    1.874,
    1.632,
    2.071,
    1.418,
    2.39,
    2.103,
    2.362,
    1.821,
    1.738,
    1.776,
    1.998,
    1.5,
    1.343,
    2.336,
    2.083,
    2.236,
    2.936,
    1.077103,
    1.517664,
    0.910897,
    0.699,
    0.824338,
    1.908,
    1.027,
    0.735258,
    1.347,
    1.893,
    1.082,
    1.061103,
    1.438344
  ],
  "5242880": [
    8.563768,
    14.464,
    7.763445,
    6.013,
    7.138,
    6.026,
    6.91,
    8.725215,
    11.368,
    13.613,
    18.881,
    8.465,
    11.023,
    25.318,
    10.422,
    17.755,
    12.889,
    16.35,
    13.378,
    18.747,
    13.371,
    9.409,
    5.439,
    12.509,
    9.711,
    12.465,
    10.546,
    6.872,
    6.851,
    9.712,
    9.767,
    6.261,
    6.845,
    13.486,
    7.995039,
    10.758,
    9.978,
    6.524,
    11.313255,
    14.953,
    13.838,
    13.522,
    16.508,
    15.5,
    5.865,
    8.813,
    6.567,
    12.205583,
    8.009,
    9.16,
    9.037,
    5.789,
    10.229,
    8.525,
    9.044,
    13.505,
    13.867,
    13.195,
    17.511,
    19.779,
    14.192
  ],
  "ALL": [
    1.95,
    2.299,
    1.599,
    1.895348,
    1.82341,
    1.497652,
    2.738,
    2.205026,
    1.885,
    5.868,
    5.269795,
    5.373082,
    7.209994,
    5.819,
    6.324,
    0.885455,
    1.707,
    0.886,
    1.148076,
    1.626,
    0.77,
    1.545924,
    0.882386,
    1.08,
    1.430218,
    0.896,
    2.133644,
    2.614,
    5.958,
    8.563768,
    2.448,
    1.421,
    1.404,
    2.007,
    1.929,
    1.893,
    1.406,
    1.44,
    2.062,
    1.919,
    1.907,
    2.184,
    5.461,
    5.751,
    5.665,
    2.244,
    1.541,
    1.459,
    1.434,
    1.473,
    2.182,
    2.523,
    1.572,
    1.444,
    2.043,
    3.015,
    2.141,
    1.834,
    5.909,
    14.464,
    1.717,
    1.868,
    1.094,
    0.857,
    1.085,
    2.182,
    0.766736,
    1.747,
    1.737176,
    1.869819,
    1.09101,
    1.558,
    1.585,
    2.705594,
    2.79512,
    1.73,
    1.733,
    1.458,
    2.277,
    1.752,
    1.901,
    1.435,
    2.149,
    2.752,
    1.945,
    1.893,
    1.826,
    5.309,
    7.983,
    8.172,
    1.759,
    2.191,
    1.421092,
    1.28,
    3.154,
    1.529,
    1.434,
    1.792,
    2.16941,
    1.946,
    2.279,
    2.356,
    5.913,
    5.802,
    4.948,
    1.081897,
    0.613897,
    0.911876,
    0.658,
    1.899,
    1.096705,
    0.945,
    0.988,
    1.413,
    0.473,
    1.308,
    1.742,
    1.074,
    1.072,
    0.947,
    1.968,
    2.606,
    0.664,
    1.491,
    0.874,
    1.032,
    1.97373,
    1.027,
    0.792,
    0.725,
    1.758322,
    1.480773,
    2.123,
    1.161,
    1.188,
    0.958,
    5.074,
    1.034729,
    0.844565,
    1.908,
    0.878,
    1.308785,
    1.143888,
    0.816288,
    1.50881,
    1.828,
    1.757087,
    1.883009,
    1.209221,
    1.601,
    1.544,
    2.208,
    7.763445,
    2.645567,
    1.832876,
    1.495675,
    1.508226,
    2.018,
    2.103646,
    2.611151,
    1.713,
    2.470531,
    2.191,
    2.983124,
    2.385,
    2.149,
    2.337,
    1.678,
    1.551063,
    1.912599,
    1.511486,
    2.644,
    1.4,
    2.599,
    2.602095,
    2.468,
    1.654,
    1.607,
    2.214,
    2.351,
    2.527,
    1.86404,
    1.65592,
    1.251,
    0.942,
    1.169,
    1.142,
    2.072,
    1.648,
    0.8,
    1.352,
    1.92,
    1.159,
    1.236,
    0.897,
    2.325,
    3.182,
    2.073,
    2.394,
    1.104,
    0.903,
    0.959,
    1.739,
    1.738,
    1.701,
    1.021,
    1.923,
    1.085,
    1.4,
    0.912,
    2.47,
    8.817,
    4.157,
    6.013,
    7.138,
    1.067,
    0.696,
    0.936,
    0.66,
    1.323,
    1.19,
    1.437,
    1.236,
    1.757,
    0.902,
    0.842,
    11.03,
    4.724,
    2.638,
    6.026,
    6.91,
    1.593111,
    1.027,
    1.388,
    0.944,
    0.927,
    1.199,
    1.698,
    0.787,
    0.827,
    1.855111,
    1.273,
    1.376,
    1.445,
    3.082,
    3.083408,
    8.725215,
    1.228,
    0.818375,
    1.451,
    1.608,
    0.601,
    1.084,
    1.392,
    1.495,
    1.581,
    1.556,
    1.455797,
    1.804,
    1.102,
    1.202,
    4.106,
    4.437,
    1.655,
    2.274,
    1.052,
    1.378,
    1.916,
    1.442,
    1.268,
    1.108,
    1.97,
    2.12,
    1.507,
    1.48,
    4.408,
    3.762,
    11.368,
    1.676,
    1.137,
    1.628,
    1.421,
    1.567,
    1.569,
    1.348,
    2.103,
    1.888,
    6.188,
    5.789,
    5.952,
    4.238,
    5.267,
    7.747,
    7.171,
    1.3,
    1.304,
    1.367,
    1.792,
    1.803,
    1.33,
    2.102,
    1.438,
    2.137601,
    2.274,
    1.902,
    1.626,
    5.298,
    4.766587,
    6.15,
    13.613,
    0.981125,
    0.666,
    0.787215,
    1.352,
    0.689473,
    0.721,
    1.137281,
    1.269965,
    0.945,
    1.373,
    2.515662,
    1.47985,
    1.44971,
    2.934703,
    18.881,
    8.465,
    1.644,
    1.181,
    1.398,
    1.32,
    1.149,
    1.142,
    1.634,
    1.277,
    1.472,
    1.484,
    2.0,
    2.676,
    1.627,
    4.905,
    10.041,
    1.640823,
    1.166284,
    1.532468,
    1.335976,
    1.272631,
    2.015284,
    2.929,
    2.336508,
    1.198284,
    2.02931,
    2.17143,
    1.974,
    1.766,
    1.656284,
    4.308381,
    2.206,
    1.943,
    1.697,
    2.058,
    1.599,
    1.343,
    1.717,
    1.49,
    1.459,
    1.407,
    1.987,
    1.86,
    2.404,
    1.857,
    1.65,
    1.473,
    0.668,
    1.499,
    0.653114,
    0.667,
    1.178234,
    2.293482,
    0.888597,
    0.738683,
    1.476429,
    1.194,
    1.14664,
    3.492,
    3.145,
    11.023,
    25.318,
    10.422,
    1.082296,
    0.749,
    0.675,
    0.913,
    0.672,
    1.083,
    0.955,
    0.774,
    1.389,
    2.095,
    2.426,
    1.49,
    2.681,
    2.265,
    6.316,
    4.444,
    1.18,
    1.645,
    1.208,
    2.081,
    1.393,
    1.872,
    3.194,
    1.413,
    1.325,
    2.067,
    2.375,
    1.82,
    1.852,
    1.894,
    4.339,
    17.755,
    1.728,
    1.616,
    2.168,
    1.336,
    2.077,
    1.679,
    2.154,
    1.42,
    3.015,
    1.915,
    1.747,
    4.54,
    6.884,
    5.061,
    8.035,
    12.889,
    1.968,
    1.23,
    2.059,
    1.337,
    1.32,
    1.823,
    1.962,
    2.535,
    3.17,
    2.288,
    1.813,
    7.408,
    16.35,
    1.965,
    1.693253,
    1.46613,
    2.349,
    1.73,
    1.913928,
    2.592069,
    1.806,
    2.290964,
    2.285885,
    2.251685,
    2.103,
    2.017032,
    5.985,
    5.848576,
    1.286,
    1.105,
    0.968,
    0.849,
    0.636,
    0.53,
    1.154,
    1.802,
    0.659,
    0.818,
    0.766,
    1.57,
    1.608103,
    1.087103,
    1.116,
    1.747,
    1.029,
    0.715,
    1.419,
    0.492,
    2.181544,
    2.079265,
    0.75,
    0.91,
    1.545,
    1.8113,
    1.149,
    8.247,
    3.966,
    2.795,
    13.378,
    1.193898,
    1.504011,
    1.694,
    0.936,
    1.112,
    1.186,
    1.109,
    0.664,
    0.818,
    0.748,
    1.381,
    1.732702,
    1.669,
    1.35,
    1.362,
    3.629,
    1.445,
    2.087,
    1.279,
    1.276,
    1.895,
    1.66,
    1.493,
    1.414,
    2.348,
    1.871,
    1.658,
    4.863,
    18.747,
    13.371,
    1.15,
    1.733662,
    1.426,
    1.495,
    0.631,
    0.831,
    1.907,
    1.606,
    0.977,
    0.827,
    1.407,
    1.249,
    1.466,
    3.927,
    3.305,
    9.409,
    1.109,
    0.604,
    1.355,
    0.79,
    0.51,
    0.89733,
    0.714,
    0.616,
    1.357,
    1.756103,
    1.082961,
    1.050111,
    0.896,
    3.486,
    5.439,
    1.258,
    0.659,
    0.953,
    0.881,
    1.131,
    1.902,
    0.796,
    1.364,
    1.499,
    1.268,
    4.674,
    1.951,
    4.269,
    12.509,
    9.711,
    1.828,
    1.376,
    1.927,
    1.885,
    1.746,
    3.748,
    2.379,
    1.929,
    1.774,
    2.007,
    4.679,
    6.035,
    4.731,
    5.819,
    6.813,
    6.573,
    1.079903,
    1.124,
    1.316,
    2.791,
    0.563,
    2.557,
    1.143,
    0.612,
    1.086,
    1.789,
    2.095,
    1.106,
    1.138,
    2.033,
    2.02,
    2.767,
    1.714,
    1.480059,
    1.428,
    1.199188,
    1.244716,
    2.324597,
    1.644592,
    2.081,
    1.42,
    1.555,
    1.743789,
    2.064,
    2.590823,
    1.775026,
    1.753393,
    1.548957,
    1.871,
    1.884,
    1.399,
    1.6,
    2.496,
    1.807,
    2.472,
    2.437,
    2.01219,
    3.144,
    1.732,
    1.81,
    4.61,
    6.104,
    12.465,
    0.667,
    1.535,
    0.763,
    0.903,
    1.077,
    1.039,
    0.95,
    0.822,
    1.860533,
    1.342,
    1.073803,
    1.589,
    2.1,
    2.509,
    10.546,
    1.517,
    0.812,
    1.308017,
    0.875532,
    0.79,
    0.519,
    1.135,
    0.759,
    0.78,
    0.768794,
    1.69,
    2.538,
    1.439094,
    1.262,
    0.898,
    2.396,
    1.147,
    1.434,
    1.207,
    0.768,
    1.22,
    1.346,
    1.143,
    0.867612,
    0.682,
    1.500047,
    1.892364,
    1.728,
    1.135,
    1.353,
    2.241,
    6.872,
    0.693,
    0.851,
    0.669,
    2.646,
    1.349,
    1.816,
    1.736,
    1.736,
    1.426,
    1.358,
    1.937,
    1.244,
    6.77,
    4.038,
    3.347,
    6.851,
    1.098,
    1.339,
    1.113,
    0.92,
    2.57,
    1.944167,
    0.846,
    0.668,
    1.431,
    1.871,
    1.325,
    3.203,
    3.035,
    2.436,
    9.712,
    1.791,
    1.648,
    0.743,
    1.706,
    0.513,
    1.087,
    0.995,
    1.441,
    0.639,
    0.613,
    1.358,
    1.76,
    0.978,
    2.444,
    9.767,
    6.261,
    1.589,
    1.167,
    1.112861,
    1.128,
    1.492,
    1.991,
    1.711,
    1.722,
    2.326147,
    1.361,
    1.618,
    1.322,
    4.178,
    7.047,
    5.56,
    4.003,
    1.16,
    0.82,
    1.342,
    1.398,
    1.359,
    1.134,
    0.922,
    0.919,
    0.638,
    1.591,
    2.203,
    1.156,
    6.395,
    4.196,
    6.845,
    2.016,
    1.383,
    1.759,
    1.549,
    1.491,
    1.883,
    2.948,
    1.813,
    1.52,
    2.167,
    2.324,
    1.857,
    1.872,
    1.724,
    5.293,
    0.446417,
    0.930583,
    0.807,
    1.571237,
    0.575898,
    1.601583,
    1.739,
    0.952103,
    0.697,
    1.954934,
    1.59648,
    1.046968,
    2.666,
    13.486,
    7.995039,
    10.758,
    1.931,
    1.683,
    1.402,
    1.286,
    2.91,
    1.763,
    1.568,
    2.802,
    1.825,
    1.874,
    2.909,
    4.127,
    6.532,
    5.947,
    6.043,
    1.774,
    1.932,
    1.288,
    1.408,
    2.109,
    1.33,
    1.367,
    2.245,
    2.54,
    1.701,
    1.544,
    5.444,
    6.959,
    5.666,
    4.575,
    6.147,
    1.089084,
    0.572,
    0.891,
    0.512,
    0.483,
    1.050223,
    0.912,
    0.671,
    0.854,
    1.544,
    1.306,
    1.861723,
    1.251318,
    1.084579,
    1.194,
    2.411,
    1.094222,
    0.837,
    0.967897,
    1.436,
    1.624,
    1.599,
    1.589,
    0.672,
    1.609222,
    1.901,
    1.511103,
    1.748124,
    1.072383,
    4.816302,
    9.978,
    6.524,
    1.073296,
    0.898,
    0.781,
    1.471,
    0.493,
    1.39,
    0.964,
    0.707,
    0.767,
    1.826,
    1.52,
    1.897656,
    1.179,
    2.341,
    3.166,
    3.376,
    1.336,
    1.702903,
    1.603242,
    1.322,
    1.357,
    1.87391,
    2.742103,
    2.247103,
    1.551889,
    1.441889,
    1.922,
    2.218897,
    1.856,
    1.825,
    4.914937,
    11.313255,
    1.764,
    1.497,
    1.82,
    2.156,
    1.28,
    2.719,
    2.359,
    1.642,
    1.967,
    2.363,
    2.077,
    1.888,
    6.969,
    7.392,
    14.953,
    13.838,
    1.752,
    2.278,
    1.295,
    1.377,
    1.927,
    1.685,
    2.36,
    1.585,
    2.599,
    2.928,
    1.837,
    2.307,
    13.522,
    16.508,
    1.933,
    1.27,
    1.803,
    2.349,
    2.397,
    1.266,
    1.891,
    1.951,
    1.511,
    1.648,
    1.806,
    2.014,
    1.809,
    2.411,
    8.375,
    8.422,
    1.088931,
    1.518539,
    1.263369,
    0.818025,
    1.588,
    0.956,
    1.016,
    0.999602,
    1.39,
    1.876713,
    1.083036,
    5.516252,
    3.996,
    3.029889,
    3.302376,
    2.423022,
    1.45618,
    1.558,
    2.032668,
    1.111,
    1.72423,
    2.193,
    1.309962,
    2.152395,
    2.61177,
    1.647,
    4.016,
    15.5,
    0.73,
    1.508,
    0.801,
    1.168,
    1.613,
    0.646,
    0.769,
    2.1,
    2.44,
    1.483,
    1.098,
    4.496,
    3.654,
    5.865,
    8.813,
    6.567,
    1.572,
    0.813,
    1.357,
    0.608,
    1.5,
    1.153,
    1.288232,
    1.965,
    0.693,
    0.651,
    1.337848,
    1.852842,
    1.191,
    1.445,
    2.054,
    2.249,
    2.144,
    1.928,
    2.002,
    1.55321,
    1.668876,
    1.58602,
    2.018587,
    1.77479,
    1.77,
    1.478753,
    4.051,
    4.503,
    6.768,
    5.59478,
    5.662976,
    1.256443,
    1.24,
    0.714321,
    0.887,
    2.307805,
    2.350702,
    0.826,
    0.965619,
    1.647065,
    1.810934,
    1.096702,
    1.678,
    1.298,
    2.344703,
    4.406783,
    12.205583,
    1.001,
    0.698,
    0.925,
    0.739,
    0.593,
    2.365,
    1.791,
    0.924,
    1.691,
    1.443,
    1.878,
    1.107,
    1.101,
    3.403,
    2.455,
    2.932,
    0.71,
    0.96,
    0.6,
    0.608,
    1.948,
    0.782,
    0.657,
    1.023,
    1.361,
    1.712,
    1.181,
    1.065103,
    0.885,
    4.851,
    8.009,
    9.16,
    1.081248,
    0.648,
    0.671,
    0.826,
    0.593,
    1.058,
    1.842,
    1.567,
    0.675,
    1.601,
    1.93,
    1.078,
    1.047,
    1.38,
    9.037,
    5.789,
    1.187,
    0.894,
    1.358,
    1.392,
    1.267,
    1.388,
    1.869,
    2.033,
    1.395,
    1.241,
    2.852,
    2.391,
    5.523,
    2.024,
    3.473,
    1.067,
    0.647,
    1.165,
    0.894,
    0.816,
    1.132,
    1.236,
    1.653,
    0.764,
    0.749,
    1.37,
    1.787,
    1.36,
    1.114,
    3.353,
    4.069,
    1.162,
    0.699,
    1.034,
    0.89,
    0.835,
    1.673,
    1.408,
    0.682,
    0.798,
    2.051,
    1.49,
    1.049,
    2.812,
    3.113,
    10.229,
    8.525,
    2.145,
    1.23,
    1.916,
    1.256,
    1.318,
    1.058,
    1.614,
    1.483,
    2.028,
    1.229,
    1.081,
    1.838,
    2.265,
    1.7,
    2.659,
    9.044,
    1.261,
    0.808578,
    1.142,
    0.714,
    2.324,
    1.795,
    1.063,
    0.763,
    0.819,
    1.231,
    1.333,
    0.981,
    2.261,
    2.576,
    3.348111,
    13.505,
    1.084,
    0.817,
    1.028,
    1.417,
    0.727,
    0.701,
    1.005,
    0.958,
    0.918,
    1.392,
    1.487,
    2.099,
    1.332,
    0.926,
    4.873,
    13.867,
    1.822,
    2.173,
    1.464,
    2.114,
    2.108,
    1.547,
    2.248,
    2.68,
    1.891,
    2.291,
    4.896,
    5.119,
    13.195,
    1.851,
    1.552,
    1.36,
    1.874,
    1.632,
    2.071,
    1.418,
    2.39,
    2.103,
    2.362,
    1.821,
    1.738,
    4.629,
    1.776,
    1.998,
    1.5,
    1.343,
    2.336,
    2.083,
    2.236,
    2.936,
    5.573,
    6.269,
    7.734,
    17.511,
    19.779,
    14.192,
    1.077103,
    1.517664,
    0.910897,
    0.699,
    0.824338,
    1.908,
    1.027,
    0.735258,
    1.347,
    1.893,
    1.082,
    1.061103,
    1.438344,
    1.684479,
    2.039747,
    5.081
  ]
}