{
  "ram": {
    "bytes_used_max": 145765814272,
    "gib_used_max": 135.7549934387207,
    "gib_used_per_minute": {
      "0": 2.152230389912923,
      "1": 3.5425197795286016,
      "2": 3.916701494637182,
      "3": 5.2854261883234575,
      "4": 6.006174055196471,
      "5": 6.4788158869339245,
      "6": 6.910226466292042,
      "7": 7.3273364568160755,
      "8": 7.807009598304486,
      "9": 9.481240288685944,
      "10": 11.385713544942565,
      "11": 12.39453157327943,
      "12": 13.665717884645623,
      "13": 14.367568711103019,
      "14": 15.052996360649496,
      "15": 15.78410384614589,
      "16": 16.83245494002003,
      "17": 17.95792835041628,
      "18": 18.790563357078423,
      "19": 19.664059014155946,
      "20": 20.622688674926756,
      "21": 21.61585895085739,
      "22": 22.67050487712278,
      "23": 23.591766034142445,
      "24": 24.43013084540933,
      "25": 25.29656284138308,
      "26": 26.056066286765923,
      "27": 26.788209533691408,
      "28": 27.524151818226958,
      "29": 28.144775907872088,
      "30": 28.749921443098682,
      "31": 29.405415421825346,
      "32": 29.940961417505296,
      "33": 30.393835746635826,
      "34": 30.949808734958456,
      "35": 31.462401891158798,
      "36": 31.83829336651301,
      "37": 32.2180559837212,
      "38": 32.59690559516519,
      "39": 32.98176290221134,
      "40": 33.44499969482422,
      "41": 33.853515689655886,
      "42": 34.22464831122036,
      "43": 34.52555032503807,
      "44": 34.84236351918366,
      "45": 35.17292688660702,
      "46": 35.61316159566243,
      "47": 35.96959324206336,
      "48": 36.301693738517116,
      "49": 36.69428893267098,
      "50": 37.028821848206604,
      "51": 37.33389838267181,
      "52": 37.746965763932565,
      "53": 38.08740001613811,
      "54": 38.35517378984871,
      "55": 38.63700924889516,
      "56": 38.96003807197183,
      "57": 39.25422597335557,
      "58": 39.579590878244176,
      "59": 39.871426016597425,
      "60": 40.12333336523024,
      "61": 40.404318599377646,
      "62": 40.69483469300351,
      "63": 40.99831623142048,
      "64": 41.57156915179754,
      "65": 41.81244711148537,
      "66": 42.00830291489423,
      "67": 42.23558561680681,
      "68": 42.49855287196272,
      "69": 42.73255842823093,
      "70": 43.06668834363,
      "71": 43.36131183171676,
      "72": 43.60738004264185,
      "73": 43.85223634364241,
      "74": 44.03953455262265,
      "75": 44.29905461456816,
      "76": 44.633123494810974,
      "77": 44.92188618546825,
      "78": 45.14128617108879,
      "79": 45.37562561035156,
      "80": 45.68324008230436,
      "81": 45.94573457362288,
      "82": 46.26004422721216,
      "83": 46.528947257995604,
      "84": 46.75653955491923,
      "85": 46.97897034984524,
      "86": 47.23956835471978,
      "87": 47.48689101914228,
      "88": 47.76311460591979,
      "89": 47.99355193315926,
      "90": 48.144022214210636,
      "91": 48.35492221379684,
      "92": 48.55144138659461,
      "93": 48.78517435364804,
      "94": 49.118775319244904,
      "95": 49.36780994221316,
      "96": 49.55592346191406,
      "97": 49.82306005186954,
      "98": 50.08214368658551,
      "99": 50.29877258559405,
      "100": 50.60763816833496,
      "101": 50.85679788104559,
      "102": 51.06818965329962,
      "103": 51.28297146296097,
      "104": 51.50198112099858,
      "105": 51.71671127060712,
      "106": 52.01170724125232,
      "107": 52.314887935832395,
      "108": 52.55340137481689,
      "109": 52.810418985657776,
      "110": 53.049430588544425,
      "111": 53.278337316997984,
      "112": 53.5186008518025,
      "113": 53.75709430241989,
      "114": 53.96743974847308,
      "115": 54.14975247140658,
      "116": 54.36948699951172,
      "117": 54.59008433455128,
      "118": 54.838501235186044,
      "119": 55.110002032781054,
      "120": 55.32908410541082,
      "121": 55.58350669731528,
      "122": 55.88506039118363,
      "123": 56.141788991292316,
      "124": 56.418824923240535,
      "125": 56.72933914701817,
      "126": 56.9420353517694,
      "127": 57.160417589090635,
      "128": 57.41432467961715,
      "129": 57.668421341201004,
      "130": 57.975541583562304,
      "131": 58.32228644419525,
      "132": 58.54652055104574,
      "133": 58.82121005300748,
      "134": 59.10600209640244,
      "135": 59.356584516622256,
      "136": 59.605448512707724,
      "137": 59.937179112838486,
      "138": 60.158855567544194,
      "139": 60.36899346820379,
      "140": 60.615618430961995,
      "141": 60.888106847213486,
      "142": 61.16236689939337,
      "143": 61.51584327827066,
      "144": 61.74763133162159,
      "145": 62.0101002838652,
      "146": 62.31499668703241,
      "147": 62.597308530645854,
      "148": 62.89876737432965,
      "149": 63.267085059214445,
      "150": 63.51795493950278,
      "151": 63.78281538365251,
      "152": 64.08191997722044,
      "153": 64.34495053048862,
      "154": 64.6315328307071,
      "155": 65.00917631785074,
      "156": 65.27792877986514,
      "157": 65.56123694726976,
      "158": 65.81378704006389,
      "159": 66.08141456216069,
      "160": 66.3664111767785,
      "161": 66.80538082122803,
      "162": 67.09557665808727,
      "163": 67.3876226392843,
      "164": 67.69705736839165,
      "165": 68.03140426894366,
      "166": 68.3467025756836,
      "167": 68.76072718733448,
      "168": 69.10206720384501,
      "169": 69.38363983671545,
      "170": 69.70308459007134,
      "171": 70.02776446584927,
      "172": 70.30981697470455,
      "173": 70.72710696721481,
      "174": 71.11457857034974,
      "175": 71.38317851696985,
      "176": 71.75522587663036,
      "177": 72.18895435333252,
      "178": 72.62535644789874,
      "179": 73.06282896914725,
      "180": 73.44652143575378,
      "181": 73.80342625763457,
      "182": 74.16463392871921,
      "183": 74.55889841715495,
      "184": 75.00902344008624,
      "185": 75.42379683155124,
      "186": 75.8102272809562,
      "187": 76.15582689188294,
      "188": 76.51925245382019,
      "189": 76.9033712387085,
      "190": 77.33131020756092,
      "191": 77.76119917530124,
      "192": 78.15268325805664,
      "193": 78.4984117281639,
      "194": 78.85566271765758,
      "195": 79.19933377282094,
      "196": 79.53487551414361,
      "197": 79.95882892608643,
      "198": 80.38288640167754,
      "199": 80.68152747719975,
      "200": 80.9940989866095,
      "201": 81.30265562413102,
      "202": 81.61411867303363,
      "203": 81.99062450861527,
      "204": 82.49033946990967,
      "205": 82.885605121481,
      "206": 83.11434050737802,
      "207": 83.34508456214,
      "208": 83.63366033263125,
      "209": 84.02306734720865,
      "210": 84.46139442314536,
      "211": 84.78928724385925,
      "212": 85.09168657205872,
      "213": 85.3813389923613,
      "214": 85.71425544609458,
      "215": 86.05047135433908,
      "216": 86.43833832821603,
      "217": 86.76376814761404,
      "218": 87.02765455084332,
      "219": 87.3215117373709,
      "220": 87.63337571742171,
      "221": 87.98092405674821,
      "222": 88.40457308494439,
      "223": 88.78530722149348,
      "224": 89.08988183231678,
      "225": 89.37282691567631,
      "226": 89.6631074032541,
      "227": 90.00109300775043,
      "228": 90.42657159169515,
      "229": 90.74546613531598,
      "230": 91.05807883052502,
      "231": 91.3706845428984,
      "232": 91.68328152672719,
      "233": 91.98304677413682,
      "234": 92.39361785630048,
      "235": 92.63352371474444,
      "236": 92.83688968723104,
      "237": 93.09910971431408,
      "238": 93.4081254086252,
      "239": 93.69118370444087,
      "240": 94.09786644628493,
      "241": 94.48619577440165,
      "242": 94.80113627546925,
      "243": 95.15190383135263,
      "244": 95.48672646991277,
      "245": 95.78893292960474,
      "246": 96.21555417378744,
      "247": 96.54169632216632,
      "248": 96.83840463929258,
      "249": 97.15258685613082,
      "250": 97.50117900007862,
      "251": 97.84328480090124,
      "252": 98.27268490548862,
      "253": 98.63248741020591,
      "254": 98.9551512508069,
      "255": 99.34898188962775,
      "256": 99.78497625986735,
      "257": 100.27226587069237,
      "258": 100.71524804325428,
      "259": 101.09549448045634,
      "260": 101.42357208769201,
      "261": 101.73624924481925,
      "262": 102.08460261458058,
      "263": 102.46228460538185,
      "264": 102.90725549062093,
      "265": 103.34596019680217,
      "266": 103.7081806376829,
      "267": 104.05969290005959,
      "268": 104.43388159800384,
      "269": 104.79885592703091,
      "270": 105.19872859372931,
      "271": 105.73234926859537,
      "272": 106.10122344453455,
      "273": 106.45749787152823,
      "274": 106.85769543405307,
      "275": 107.272588956154,
      "276": 107.6827383526301,
      "277": 108.14836372763423,
      "278": 108.53319333394369,
      "279": 108.932292614953,
      "280": 109.30349013764979,
      "281": 109.69342778092724,
      "282": 110.09410134008375,
      "283": 110.54855624699996,
      "284": 110.8856539968717,
      "285": 111.1401221065198,
      "286": 111.41278981354277,
      "287": 111.74729673741227,
      "288": 112.14639605505992,
      "289": 112.58465258280437,
      "290": 112.92682970984508,
      "291": 113.25708318160753,
      "292": 113.62489777904446,
      "293": 113.92483552835755,
      "294": 114.22844915874934,
      "295": 114.59233610508805,
      "296": 114.91807077698789,
      "297": 115.20523601467326,
      "298": 115.51154566619356,
      "299": 115.86194720510709,
      "300": 116.19805946996657,
      "301": 116.5687703924664,
      "302": 116.9574518365375,
      "303": 117.25316878496591,
      "304": 117.58601094908633,
      "305": 117.92849531012067,
      "306": 118.25458222728665,
      "307": 118.64618326822917,
      "308": 118.98469032675533,
      "309": 119.29578153965836,
      "310": 119.63346067525573,
      "311": 119.9489914845612,
      "312": 120.24586764836715,
      "313": 120.60158008640096,
      "314": 120.98580680459233,
      "315": 121.28487228134931,
      "316": 121.58482147475421,
      "317": 121.93589026240979,
      "318": 122.24420166015625,
      "319": 122.60549997879286,
      "320": 123.07879690396584,
      "321": 123.42097919270144,
      "322": 123.7428701368429,
      "323": 124.04497275918217,
      "324": 124.34725202140162,
      "325": 124.66178415589414,
      "326": 125.07688592274984,
      "327": 125.3611406875869,
      "328": 125.68299044592906,
      "329": 125.96304347151417,
      "330": 126.21812658794856,
      "331": 126.61527168144615,
      "332": 127.02113924188129,
      "333": 127.32229413824567,
      "334": 127.7031112929522,
      "335": 128.12175925303313,
      "336": 128.5829287383516,
      "337": 129.0593537648519,
      "338": 129.51935105404613,
      "339": 129.9085944870771,
      "340": 130.29248202049126,
      "341": 130.67792853662525,
      "342": 131.04767576314634,
      "343": 131.4248023598881,
      "344": 131.86735661824545,
      "345": 132.284240851968,
      "346": 132.58158564163466,
      "347": 132.92055776563743,
      "348": 133.33935301182635,
      "349": 133.75452959739556,
      "350": 134.15799195887678,
      "351": 134.27397543589274,
      "352": 134.29951852054919,
      "353": 134.34086654145838,
      "354": 134.38633126727606,
      "355": 134.43127234507415,
      "356": 134.52145023669226,
      "357": 134.57092100779215,
      "358": 134.57510194940082,
      "359": 134.60993627774513,
      "360": 134.64814939337262,
      "361": 134.6984460475081,
      "362": 134.79401649863033,
      "363": 134.87471612294516,
      "364": 134.89414615954382,
      "365": 135.02055089227085,
      "366": 135.08850401538913,
      "367": 135.1244472568318,
      "368": 135.18041807810465,
      "369": 135.2643018819518,
      "370": 135.26264513953257,
      "371": 135.29050477884584,
      "372": 135.31190038131456,
      "373": 135.35541599079713,
      "374": 135.4171503357968,
      "375": 135.5110631393174,
      "376": 135.48683088916843,
      "377": 135.50314292261157,
      "378": 135.54047076984986,
      "379": 135.57917488227457,
      "380": 135.60792037187997,
      "381": 135.6993293762207,
      "382": 135.6963772531283,
      "383": 135.70847107192216,
      "384": 135.7279460713015,
      "385": 101.65986102560292
    }
  },
  "run_time": {
    "hours": 6.416448304444445,
    "human": "6:24:59.213896",
    "minutes": 384.9868982666667,
    "real_seconds_per_sim_second": {
      "2.0": 33.565085,
      "3.002": 34.856606,
      "4.002868": 37.814453,
      "5.004612": 40.399968,
      "6.007024": 43.796412,
      "7.00906": 47.669925,
      "8.00998": 48.957448,
      "9.012049": 49.802109,
      "10.013803": 50.435069,
      "11.013833": 51.07957,
      "12.015441": 51.732101,
      "13.016203": 52.367761,
      "14.017258": 53.052663,
      "15.017439": 53.742946,
      "16.017456": 54.438934,
      "17.017964": 55.113066,
      "18.018744": 55.782027,
      "19.020664": 56.395716,
      "20.021531": 57.046684,
      "21.021627": 57.692364,
      "22.023213": 58.283458,
      "23.024979": 59.117685,
      "24.026387": 59.736006,
      "25.026398": 60.304428,
      "26.027008": 60.832275,
      "27.028748": 61.399457,
      "28.028815": 62.006103,
      "29.028864": 62.601624,
      "30.030857": 63.194755,
      "31.032765": 63.803096,
      "32.032832": 64.491402,
      "33.034259": 65.1993,
      "34.036301": 65.862023,
      "35.036489": 66.543325,
      "36.038439": 67.167049,
      "37.040423": 67.757337,
      "38.040457": 68.393165,
      "39.040527": 69.003849,
      "40.042277": 69.652256,
      "41.042723": 70.375431,
      "42.044278": 71.062609,
      "43.045183": 71.829198,
      "44.046471": 72.452252,
      "45.046587": 73.017866,
      "46.04861": 73.674035,
      "47.048865": 74.347294,
      "48.05074": 74.982634,
      "49.050991": 75.560861,
      "50.051198": 76.202813,
      "51.051632": 76.774662,
      "52.05304": 77.315184,
      "53.054673": 78.034337,
      "54.054734": 78.68683,
      "55.05509": 79.359809,
      "56.055485": 79.981245,
      "57.056555": 80.600441,
      "58.056678": 81.212005,
      "59.057397": 81.81317,
      "60.0589": 82.482781,
      "61.060028": 83.208764,
      "62.060982": 83.970083,
      "63.061682": 84.922929,
      "64.063204": 86.042364,
      "65.063231": 86.979303,
      "66.064046": 88.569834,
      "67.065697": 90.073888,
      "68.067049": 90.823107,
      "69.067798": 91.515748,
      "70.068485": 92.230929,
      "71.06852": 92.929782,
      "72.068751": 93.634581,
      "73.068916": 94.46117,
      "74.069168": 95.229552,
      "75.069309": 95.908277,
      "76.069679": 96.546407,
      "77.070855": 97.207695,
      "78.071295": 97.838047,
      "79.071908": 98.496184,
      "80.073506": 99.200265,
      "81.073683": 99.841671,
      "82.075599": 100.473281,
      "83.077527": 101.198685,
      "84.0784": 101.913782,
      "85.080324": 102.592284,
      "86.080942": 103.228504,
      "87.08269": 103.856741,
      "88.082803": 104.457442,
      "89.084588": 105.018153,
      "90.084932": 105.671786,
      "91.0869": 106.418715,
      "92.087138": 107.171547,
      "93.0875": 108.134831,
      "94.087599": 108.869334,
      "95.089599": 109.430891,
      "96.090006": 110.014531,
      "97.091698": 110.641333,
      "98.093417": 111.385456,
      "99.094175": 112.131395,
      "100.094984": 112.844,
      "101.096624": 113.540577,
      "102.096632": 114.201776,
      "103.098599": 115.000678,
      "104.099413": 115.734872,
      "105.100004": 116.407522,
      "106.101503": 117.129303,
      "107.103348": 117.91459,
      "108.103752": 118.617476,
      "109.10576": 119.305847,
      "110.106326": 120.164726,
      "111.108093": 121.060357,
      "112.108707": 121.821317,
      "113.110509": 122.678862,
      "114.110588": 123.45863,
      "115.111035": 124.208192,
      "116.111358": 124.870187,
      "117.111408": 125.597453,
      "118.111444": 126.347196,
      "119.11148": 127.065765,
      "120.112074": 127.775578,
      "121.114135": 128.480473,
      "122.115298": 129.198327,
      "123.11715": 130.07472,
      "124.119001": 131.050247,
      "125.119386": 132.170092,
      "126.121373": 133.511408,
      "127.122364": 134.807714,
      "128.123662": 135.579153,
      "129.124253": 136.326918,
      "130.125606": 137.049999,
      "131.126966": 137.589803,
      "132.128117": 138.281292,
      "133.129772": 139.082153,
      "134.13072": 139.795414,
      "135.131056": 140.468053,
      "136.131777": 141.157233,
      "137.133768": 141.884899,
      "138.134236": 142.548298,
      "139.136173": 143.188622,
      "140.138105": 143.877363,
      "141.13826": 144.565759,
      "142.140122": 145.215949,
      "143.140638": 146.145135,
      "144.14108": 146.924965,
      "145.142953": 147.697184,
      "146.14406": 148.417308,
      "147.14489": 149.105527,
      "148.146211": 149.688936,
      "149.14778": 150.21126,
      "150.14829": 151.038961,
      "151.150083": 184.346706,
      "152.150995": 226.271493,
      "153.151437": 258.858553,
      "154.152744": 290.416816,
      "155.153282": 312.046735,
      "156.15374": 335.73293,
      "157.153962": 355.872392,
      "158.153967": 370.692242,
      "159.154632": 382.811729,
      "160.156076": 392.199244,
      "161.157333": 400.217226,
      "162.158561": 407.601836,
      "163.159168": 414.114927,
      "164.159963": 419.119952,
      "165.160617": 424.4947,
      "166.16137": 429.216037,
      "167.162823": 433.597063,
      "168.16314": 438.101627,
      "169.163463": 441.945187,
      "170.164883": 445.63065,
      "171.166324": 448.993073,
      "172.16748": 452.550154,
      "173.169112": 455.731365,
      "174.170324": 459.149181,
      "175.171616": 462.047605,
      "176.172898": 464.609218,
      "177.173377": 467.106822,
      "178.173434": 468.811201,
      "179.17446": 470.795515,
      "180.175686": 472.524217,
      "181.177686": 474.16441,
      "182.177933": 475.744843,
      "183.178017": 477.442524,
      "184.178331": 479.358979,
      "185.179328": 481.628587,
      "186.180368": 484.70193,
      "187.181238": 487.891278,
      "188.181391": 491.180982,
      "189.181589": 494.800731,
      "190.18172": 498.062434,
      "191.183296": 501.122143,
      "192.183306": 503.634288,
      "193.184391": 506.078212,
      "194.185974": 508.137185,
      "195.186686": 509.798654,
      "196.187233": 511.399518,
      "197.187811": 512.988671,
      "198.189752": 514.434218,
      "199.191769": 515.90794,
      "200.192496": 517.479674,
      "201.192761": 518.960052,
      "202.19356": 520.265581,
      "203.195688": 521.463262,
      "204.196882": 522.733575,
      "205.198008": 523.903901,
      "206.199363": 525.032428,
      "207.20045": 526.335763,
      "208.202063": 527.568448,
      "209.203945": 528.967341,
      "210.204608": 530.286078,
      "211.204966": 531.750468,
      "212.205446": 533.174073,
      "213.205793": 534.500776,
      "214.20583": 536.374264,
      "215.206108": 538.06006,
      "216.207417": 539.646606,
      "217.207933": 541.341884,
      "218.208767": 542.760142,
      "219.210134": 544.101092,
      "220.210672": 545.535471,
      "221.212348": 546.92767,
      "222.213587": 548.415969,
      "223.215536": 549.72642,
      "224.216731": 550.920444,
      "225.218804": 551.92073,
      "226.219529": 552.938102,
      "227.219534": 554.008735,
      "228.220236": 555.015506,
      "229.22153": 556.020478,
      "230.222153": 556.900958,
      "231.223235": 557.839807,
      "232.225343": 558.757552,
      "233.225889": 559.62815,
      "234.227815": 560.47655,
      "235.229704": 561.182531,
      "236.229847": 561.730527,
      "237.230203": 562.228139,
      "238.230975": 562.823862,
      "239.231592": 563.219045,
      "240.233994": 564.681984,
      "241.23445": 567.315126,
      "242.23595": 584.411799,
      "243.237587": 599.889953,
      "244.238289": 613.883709,
      "245.239569": 620.239354,
      "246.240852": 624.98422,
      "247.242393": 629.249126,
      "248.243215": 631.502275,
      "249.245073": 633.234138,
      "250.246234": 634.798019,
      "251.246429": 635.98713,
      "252.246533": 637.004641,
      "253.247039": 637.905588,
      "254.248968": 638.672628,
      "255.250974": 639.294338,
      "256.253043": 639.902364,
      "257.254559": 640.736912,
      "258.254951": 641.866449,
      "259.25538": 643.253612,
      "260.257257": 644.714484,
      "261.258661": 646.082066,
      "262.259411": 646.958132,
      "263.259596": 647.897729,
      "264.259821": 648.672371,
      "265.261985": 649.252263,
      "266.264099": 649.814391,
      "267.266093": 650.329965,
      "268.267706": 650.950304,
      "269.267823": 651.879132,
      "270.268331": 653.172185,
      "271.269595": 654.513484,
      "272.270313": 655.805163,
      "273.270741": 657.012208,
      "274.27273": 658.908198,
      "275.274349": 660.506941,
      "276.27574": 661.774376,
      "277.276285": 662.948048,
      "278.277625": 664.025652,
      "279.278891": 665.111522,
      "280.279206": 666.691092,
      "281.281118": 668.441176,
      "282.282645": 670.137824,
      "283.284553": 671.685329,
      "284.28637": 672.828549,
      "285.287382": 674.107282,
      "286.28812": 675.152958,
      "287.28946": 675.971425,
      "288.290968": 676.575229,
      "289.292974": 677.086136,
      "290.292995": 677.777728,
      "291.293565": 679.182822,
      "292.293858": 680.957648,
      "293.293944": 682.532757,
      "294.295221": 684.016134,
      "295.296532": 685.086932,
      "296.298061": 686.301339,
      "297.298103": 687.335986,
      "298.300529": 688.107981,
      "299.303102": 688.693706,
      "300.304": 690.861422,
      "301.306": 694.680577,
      "302.308": 698.723538,
      "303.31": 702.421673,
      "304.312": 705.107218,
      "305.314": 707.755385,
      "306.316": 710.389108,
      "307.318": 713.434299,
      "308.32": 716.457889,
      "309.322": 719.837229,
      "310.324": 723.319764,
      "311.326": 726.681543,
      "312.328": 730.095068,
      "313.33": 733.620165,
      "314.332": 737.662741,
      "315.334": 741.779831,
      "316.336": 746.036183,
      "317.338": 750.403669,
      "318.34": 755.001279,
      "319.342": 759.394047,
      "320.344": 763.532342,
      "321.346": 767.073212,
      "322.348": 772.208433,
      "323.35": 777.288174,
      "324.352": 782.799563,
      "325.354": 788.312069,
      "326.356": 794.136861,
      "327.358": 800.196261,
      "328.36": 806.388666,
      "329.362": 812.809998,
      "330.364": 819.161771,
      "331.366": 825.623129,
      "332.368": 832.077803,
      "333.37": 839.02115,
      "334.372": 846.170918,
      "335.374": 853.807967,
      "336.376": 862.863581,
      "337.378": 871.000053,
      "338.38": 878.760577,
      "339.382": 886.923041,
      "340.384": 894.959459,
      "341.386": 902.939441,
      "342.388": 911.080742,
      "343.39": 919.419741,
      "344.392": 927.454126,
      "345.394": 936.048235,
      "346.396": 944.665819,
      "347.398": 953.183211,
      "348.4": 961.384856,
      "349.402": 967.316789,
      "350.404": 973.528067,
      "351.406": 978.758986,
      "352.408": 984.333699,
      "353.41": 988.912345,
      "354.412": 994.09025,
      "355.414": 998.717747,
      "356.416": 1004.739951,
      "357.418": 1011.003528,
      "358.42": 1016.867557,
      "359.422": 1024.821923,
      "360.424": 1034.147929,
      "361.426": 1043.637444,
      "362.428": 1053.528858,
      "363.43": 1063.099689,
      "364.432": 1072.954268,
      "365.434": 1082.5218,
      "366.436": 1091.788448,
      "367.438": 1101.02408,
      "368.44": 1108.486176,
      "369.442": 1117.353642,
      "370.444": 1126.162888,
      "371.446": 1133.329315,
      "372.448": 1142.205925,
      "373.45": 1150.697025,
      "374.452": 1158.827878,
      "375.454": 1167.922192,
      "376.456": 1177.896578,
      "377.458": 1186.294905,
      "378.46": 1193.794232,
      "379.462": 1202.185771,
      "380.464": 1209.509379,
      "381.466": 1216.130811,
      "382.468": 1224.244822,
      "383.47": 1232.156556,
      "384.472": 1239.272192,
      "385.474": 1246.453197,
      "386.476": 1254.719778,
      "387.478": 1261.231428,
      "388.48": 1269.754777,
      "389.482": 1276.479157,
      "390.484": 1283.409451,
      "391.486": 1290.904164,
      "392.488": 1299.642748,
      "393.49": 1307.072533,
      "394.492": 1315.833768,
      "395.494": 1323.638937,
      "396.496": 1330.620618,
      "397.498": 1337.781335,
      "398.5": 1344.603526,
      "399.502": 1351.311778,
      "400.504": 1358.126813,
      "401.506": 1365.071862,
      "402.508": 1371.938152,
      "403.51": 1378.745458,
      "404.512": 1387.981744,
      "405.514": 1395.306228,
      "406.516": 1403.246713,
      "407.518": 1411.103408,
      "408.52": 1419.466849,
      "409.522": 1427.210037,
      "410.524": 1435.134466,
      "411.526": 1443.177518,
      "412.528": 1450.723985,
      "413.53": 1458.820021,
      "414.532": 1466.365436,
      "415.534": 1473.638776,
      "416.536": 1481.365312,
      "417.538": 1489.866167,
      "418.54": 1497.713388,
      "419.542": 1505.291165,
      "420.544": 1513.125348,
      "421.546": 1521.564186,
      "422.548": 1529.385768,
      "423.55": 1537.509914,
      "424.552": 1545.671261,
      "425.554": 1554.224436,
      "426.556": 1563.01118,
      "427.558": 1571.382019,
      "428.56": 1579.44264,
      "429.562": 1587.501796,
      "430.564": 1595.7235,
      "431.566": 1604.1639,
      "432.568": 1612.573204,
      "433.57": 1621.12677,
      "434.572": 1630.180297,
      "435.574": 1638.776708,
      "436.576": 1646.816047,
      "437.578": 1654.964014,
      "438.58": 1663.701069,
      "439.582": 1672.491588,
      "440.584": 1681.918694,
      "441.586": 1689.803844,
      "442.588": 1698.134938,
      "443.59": 1706.532216,
      "444.592": 1714.636104,
      "445.594": 1722.495818,
      "446.596": 1730.389576,
      "447.598": 1738.714492,
      "448.6": 1747.847302,
      "449.602": 1756.3868,
      "450.604": 1765.147235,
      "451.606": 1773.638311,
      "452.608": 1782.245147,
      "453.61": 1790.92626,
      "454.612": 1799.70255,
      "455.614": 1808.311744,
      "456.616": 1817.312112,
      "457.618": 1826.023161,
      "458.62": 1834.484632,
      "459.622": 1843.301667,
      "460.624": 1852.054284,
      "461.626": 1860.329655,
      "462.628": 1868.909837,
      "463.63": 1877.13594,
      "464.632": 1885.742599,
      "465.634": 1894.60871,
      "466.636": 1903.92748,
      "467.638": 1913.367206,
      "468.64": 1924.651876,
      "469.642": 1937.676631,
      "470.644": 1949.493496,
      "471.646": 1963.483489,
      "472.648": 1974.100067,
      "473.65": 1988.699381,
      "474.652": 2002.486139,
      "475.654": 2016.997561,
      "476.656": 2030.258887,
      "477.658": 2043.621818,
      "478.66": 2054.207498,
      "479.662": 2065.583866,
      "480.664": 2075.559444,
      "481.666": 2087.272458,
      "482.668": 2098.866848,
      "483.67": 2112.301177,
      "484.672": 2124.711974,
      "485.674": 2140.970211,
      "486.676": 2155.981746,
      "487.678": 2172.808629,
      "488.68": 2188.177626,
      "489.682": 2203.394298,
      "490.684": 2217.703175,
      "491.686": 2235.310714,
      "492.688": 2251.295329,
      "493.69": 2266.808833,
      "494.692": 2282.632879,
      "495.694": 2300.604634,
      "496.696": 2315.3458,
      "497.698": 2329.807193,
      "498.7": 2343.069266,
      "499.702": 2359.516147,
      "500.704": 2373.200225,
      "501.706": 2387.388793,
      "502.708": 2401.09384,
      "503.71": 2413.506639,
      "504.712": 2424.66094,
      "505.714": 2435.385001,
      "506.716": 2446.262975,
      "507.718": 2457.32534,
      "508.72": 2472.060674,
      "509.722": 2487.321065,
      "510.724": 2499.988004,
      "511.726": 2512.777742,
      "512.728": 2526.181229,
      "513.73": 2541.972528,
      "514.732": 2557.036425,
      "515.734": 2575.754903,
      "516.736": 2594.831829,
      "517.738": 2613.72518,
      "518.74": 2627.853555,
      "519.742": 2643.579072,
      "520.744": 2659.034748,
      "521.746": 2673.674878,
      "522.748": 2688.370001,
      "523.75": 2704.60545,
      "524.752": 2722.299391,
      "525.754": 2737.380867,
      "526.756": 2755.587997,
      "527.758": 2770.349744,
      "528.76": 2781.364867,
      "529.762": 2793.043958,
      "530.764": 2803.602729,
      "531.766": 2814.703637,
      "532.768": 2828.618895,
      "533.77": 2843.003641,
      "534.772": 2857.556428,
      "535.774": 2873.522908,
      "536.776": 2889.645744,
      "537.778": 2907.342348,
      "538.78": 2922.376944,
      "539.782": 2936.729866,
      "540.784": 2951.40238,
      "541.786": 2965.397775,
      "542.788": 2977.456573,
      "543.79": 2991.822947,
      "544.792": 3005.967295,
      "545.794": 3020.559688,
      "546.796": 3034.555587,
      "547.798": 3052.423028,
      "548.8": 3066.614596,
      "549.802": 3082.629742,
      "550.804": 3096.508532,
      "551.806": 3112.950814,
      "552.808": 3126.580401,
      "553.81": 3138.719982,
      "554.812": 3150.210619,
      "555.814": 3161.571726,
      "556.816": 3172.590343,
      "557.818": 3186.12069,
      "558.82": 3202.065111,
      "559.822": 3216.251801,
      "560.824": 3233.198739,
      "561.826": 3248.509241,
      "562.828": 3262.320013,
      "563.83": 3277.89529,
      "564.832": 3294.978189,
      "565.834": 3309.866378,
      "566.836": 3324.772133,
      "567.838": 3340.192588,
      "568.84": 3353.923515,
      "569.842": 3367.465984,
      "570.844": 3380.843949,
      "571.846": 3395.178321,
      "572.848": 3407.902716,
      "573.85": 3421.540437,
      "574.852": 3435.038945,
      "575.854": 3454.518126,
      "576.856": 3476.51235,
      "577.858": 3492.178217,
      "578.86": 3503.953964,
      "579.862": 3515.491873,
      "580.864": 3527.16791,
      "581.866": 3538.205096,
      "582.868": 3553.620338,
      "583.87": 3571.235481,
      "584.872": 3586.449536,
      "585.874": 3603.233005,
      "586.876": 3620.275087,
      "587.878": 3637.180553,
      "588.88": 3652.020591,
      "589.882": 3665.858877,
      "590.884": 3681.343013,
      "591.886": 3697.316726,
      "592.888": 3710.69936,
      "593.89": 3724.590356,
      "594.892": 3738.991069,
      "595.894": 3753.705079,
      "596.896": 3769.560213,
      "597.898": 3784.458246,
      "598.9": 3798.080641,
      "599.902": 3814.20735,
      "600.904": 3841.272795,
      "601.906": 3872.411172,
      "602.908": 3894.832851,
      "603.91": 3918.750981,
      "604.912": 3943.510182,
      "605.914": 3964.765429,
      "606.916": 3987.770374,
      "607.918": 4009.288441,
      "608.92": 4026.87678,
      "609.922": 4043.459232,
      "610.924": 4059.587761,
      "611.926": 4075.187467,
      "612.928": 4089.449564,
      "613.93": 4105.082979,
      "614.932": 4121.107215,
      "615.934": 4137.354607,
      "616.936": 4152.304603,
      "617.938": 4166.789856,
      "618.94": 4181.625935,
      "619.942": 4194.633532,
      "620.944": 4208.232482,
      "621.946": 4219.304188,
      "622.948": 4231.296421,
      "623.95": 4243.783771,
      "624.952": 4255.86068,
      "625.954": 4266.766826,
      "626.956": 4279.840153,
      "627.958": 4293.95023,
      "628.96": 4308.923013,
      "629.962": 4322.921366,
      "630.964": 4337.222007,
      "631.966": 4351.052227,
      "632.968": 4363.396526,
      "633.97": 4378.819834,
      "634.972": 4392.507771,
      "635.974": 4413.793581,
      "636.976": 4438.409178,
      "637.978": 4457.436699,
      "638.98": 4472.513628,
      "639.982": 4486.785275,
      "640.984": 4502.422651,
      "641.986": 4517.589358,
      "642.988": 4531.920031,
      "643.99": 4547.179485,
      "644.992": 4564.472779,
      "645.994": 4581.210647,
      "646.996": 4595.045138,
      "647.998": 4608.129416,
      "649.0": 4620.188197,
      "650.002": 4633.736497,
      "651.004": 4646.510235,
      "652.006": 4660.171545,
      "653.008": 4672.369214,
      "654.01": 4686.620502,
      "655.012": 4701.132589,
      "656.014": 4714.936886,
      "657.016": 4729.845106,
      "658.018": 4745.453665,
      "659.02": 4760.262552,
      "660.022": 4773.201047,
      "661.024": 4785.474564,
      "662.026": 4798.309137,
      "663.028": 4810.472131,
      "664.03": 4822.84668,
      "665.032": 4837.196845,
      "666.034": 4851.562614,
      "667.036": 4865.79989,
      "668.038": 4879.832342,
      "669.04": 4893.616494,
      "670.042": 4906.666231,
      "671.044": 4921.688059,
      "672.046": 4936.348545,
      "673.048": 4948.802955,
      "674.05": 4960.370381,
      "675.052": 4971.74852,
      "676.054": 4982.804555,
      "677.056": 4995.310433,
      "678.058": 5007.832116,
      "679.06": 5022.219944,
      "680.062": 5034.157266,
      "681.064": 5047.754104,
      "682.066": 5061.846097,
      "683.068": 5075.807719,
      "684.07": 5088.523925,
      "685.072": 5103.907083,
      "686.074": 5117.255446,
      "687.076": 5132.427739,
      "688.078": 5146.072413,
      "689.08": 5158.019181,
      "690.082": 5169.82676,
      "691.084": 5182.097292,
      "692.086": 5194.424211,
      "693.088": 5207.082118,
      "694.09": 5221.837525,
      "695.092": 5237.594334,
      "696.094": 5257.708526,
      "697.096": 5278.104346,
      "698.098": 5294.148802,
      "699.1": 5306.076091,
      "700.102": 5318.176454,
      "701.104": 5330.470653,
      "702.106": 5342.120244,
      "703.108": 5354.62832,
      "704.11": 5370.222431,
      "705.112": 5384.958179,
      "706.114": 5403.906841,
      "707.116": 5420.448544,
      "708.118": 5436.886038,
      "709.12": 5453.149295,
      "710.122": 5467.709683,
      "711.124": 5482.299907,
      "712.126": 5495.851037,
      "713.128": 5512.668099,
      "714.13": 5528.624183,
      "715.132": 5544.375981,
      "716.134": 5558.271639,
      "717.136": 5572.804833,
      "718.138": 5586.225501,
      "719.14": 5599.40847,
      "720.142": 5612.211997,
      "721.144": 5625.71192,
      "722.146": 5638.70852,
      "723.148": 5652.924307,
      "724.15": 5664.725031,
      "725.152": 5677.166775,
      "726.154": 5688.267398,
      "727.156": 5699.058775,
      "728.158": 5709.321053,
      "729.16": 5722.253811,
      "730.162": 5734.420138,
      "731.164": 5747.28783,
      "732.166": 5761.321204,
      "733.168": 5775.133404,
      "734.17": 5787.939845,
      "735.172": 5802.777392,
      "736.174": 5814.91707,
      "737.176": 5828.309052,
      "738.178": 5841.3511,
      "739.18": 5853.164538,
      "740.182": 5866.316991,
      "741.184": 5879.214055,
      "742.186": 5891.129104,
      "743.188": 5902.688077,
      "744.19": 5915.989586,
      "745.192": 5929.723679,
      "746.194": 5941.194033,
      "747.196": 5956.250115,
      "748.198": 5969.411308,
      "749.2": 5982.847832,
      "750.202": 5996.234148,
      "751.204": 6008.582222,
      "752.206": 6021.527477,
      "753.208": 6032.258969,
      "754.21": 6043.853685,
      "755.212": 6055.938187,
      "756.214": 6071.576585,
      "757.216": 6090.496839,
      "758.218": 6104.56311,
      "759.22": 6116.45201,
      "760.222": 6128.700218,
      "761.224": 6143.085326,
      "762.226": 6155.050273,
      "763.228": 6168.288063,
      "764.23": 6182.260294,
      "765.232": 6195.667593,
      "766.234": 6211.332763,
      "767.236": 6226.852056,
      "768.238": 6239.388012,
      "769.24": 6251.417044,
      "770.242": 6262.62514,
      "771.244": 6273.798011,
      "772.246": 6284.872617,
      "773.248": 6295.011944,
      "774.25": 6306.201511,
      "775.252": 6318.198698,
      "776.254": 6329.01641,
      "777.256": 6340.297513,
      "778.258": 6352.001525,
      "779.26": 6364.05373,
      "780.262": 6375.590314,
      "781.264": 6388.298819,
      "782.266": 6399.353744,
      "783.268": 6410.374497,
      "784.27": 6421.507371,
      "785.272": 6432.704469,
      "786.274": 6444.166089,
      "787.276": 6455.385011,
      "788.278": 6466.57996,
      "789.28": 6478.262914,
      "790.282": 6488.77037,
      "791.284": 6499.247525,
      "792.286": 6510.523559,
      "793.288": 6522.201739,
      "794.29": 6532.856295,
      "795.292": 6543.226028,
      "796.294": 6553.604729,
      "797.296": 6564.218618,
      "798.298": 6576.004199,
      "799.3": 6587.583575,
      "800.302": 6598.885596,
      "801.304": 6610.693068,
      "802.306": 6621.685487,
      "803.308": 6632.576264,
      "804.31": 6643.961998,
      "805.312": 6655.403563,
      "806.314": 6666.972657,
      "807.316": 6679.118209,
      "808.318": 6691.286138,
      "809.32": 6703.2083,
      "810.322": 6716.159472,
      "811.324": 6728.059305,
      "812.326": 6741.064304,
      "813.328": 6753.272116,
      "814.33": 6764.853926,
      "815.332": 6776.547035,
      "816.334": 6789.901298,
      "817.336": 6802.211262,
      "818.338": 6815.069927,
      "819.34": 6828.373884,
      "820.342": 6841.593212,
      "821.344": 6854.097335,
      "822.346": 6867.022996,
      "823.348": 6879.73494,
      "824.35": 6893.752432,
      "825.352": 6907.552792,
      "826.354": 6922.055999,
      "827.356": 6935.398154,
      "828.358": 6949.276813,
      "829.36": 6961.593757,
      "830.362": 6974.373131,
      "831.364": 6988.375584,
      "832.366": 7001.490022,
      "833.368": 7013.81534,
      "834.37": 7027.669943,
      "835.372": 7041.663493,
      "836.374": 7054.82032,
      "837.376": 7069.858863,
      "838.378": 7083.990793,
      "839.38": 7096.737431,
      "840.382": 7110.87117,
      "841.384": 7123.707238,
      "842.386": 7135.211363,
      "843.388": 7145.868507,
      "844.39": 7157.750499,
      "845.392": 7168.753743,
      "846.394": 7179.711131,
      "847.396": 7190.623818,
      "848.398": 7202.338958,
      "849.4": 7214.369366,
      "850.402": 7225.411292,
      "851.404": 7236.795175,
      "852.406": 7247.418766,
      "853.408": 7258.255852,
      "854.41": 7269.297218,
      "855.412": 7279.856422,
      "856.414": 7290.631635,
      "857.416": 7302.260854,
      "858.418": 7314.304728,
      "859.42": 7325.931149,
      "860.422": 7338.709361,
      "861.424": 7349.694282,
      "862.426": 7360.82567,
      "863.428": 7372.317293,
      "864.43": 7384.895243,
      "865.432": 7396.69936,
      "866.434": 7408.510433,
      "867.436": 7420.084105,
      "868.438": 7431.658753,
      "869.44": 7443.306486,
      "870.442": 7456.918145,
      "871.444": 7469.669132,
      "872.446": 7481.23782,
      "873.448": 7492.450968,
      "874.45": 7503.910964,
      "875.452": 7514.860955,
      "876.454": 7525.971534,
      "877.456": 7537.984609,
      "878.458": 7550.490504,
      "879.46": 7563.139101,
      "880.462": 7576.507999,
      "881.464": 7588.047352,
      "882.466": 7599.97297,
      "883.468": 7612.175841,
      "884.47": 7625.222448,
      "885.472": 7637.205282,
      "886.474": 7650.232661,
      "887.476": 7663.116517,
      "888.478": 7675.547148,
      "889.48": 7687.718404,
      "890.482": 7699.782963,
      "891.484": 7712.473997,
      "892.486": 7724.500655,
      "893.488": 7738.006731,
      "894.49": 7751.670688,
      "895.492": 7762.948975,
      "896.494": 7774.458754,
      "897.496": 7785.704028,
      "898.498": 7796.913897,
      "899.5": 7807.960933,
      "900.502": 7820.65743,
      "901.504": 7849.751949,
      "902.506": 7870.243319,
      "903.508": 7886.162617,
      "904.51": 7901.740473,
      "905.512": 7917.773369,
      "906.514": 7931.983862,
      "907.516": 7945.731661,
      "908.518": 7959.630796,
      "909.52": 7970.871883,
      "910.522": 7983.159405,
      "911.524": 7997.028297,
      "912.526": 8009.63526,
      "913.528": 8021.610009,
      "914.53": 8033.822899,
      "915.532": 8045.740115,
      "916.534": 8057.475551,
      "917.536": 8069.011854,
      "918.538": 8081.133616,
      "919.54": 8099.132689,
      "920.542": 8111.938006,
      "921.544": 8127.219919,
      "922.546": 8140.577227,
      "923.548": 8158.986807,
      "924.55": 8175.105898,
      "925.552": 8192.870374,
      "926.554": 8206.8681,
      "927.556": 8220.233974,
      "928.558": 8231.84215,
      "929.56": 8244.524846,
      "930.562": 8256.524095,
      "931.564": 8274.378398,
      "932.566": 8289.251393,
      "933.568": 8305.667027,
      "934.57": 8320.648152,
      "935.572": 8338.692387,
      "936.574": 8361.227727,
      "937.576": 8381.939679,
      "938.578": 8396.113931,
      "939.58": 8412.77145,
      "940.582": 8426.55951,
      "941.584": 8442.949588,
      "942.586": 8456.337413,
      "943.588": 8474.792974,
      "944.59": 8490.861247,
      "945.592": 8510.731381,
      "946.594": 8529.343259,
      "947.596": 8548.244714,
      "948.598": 8565.454247,
      "949.6": 8579.031139,
      "950.602": 8591.143671,
      "951.604": 8605.601357,
      "952.606": 8618.614437,
      "953.608": 8635.698312,
      "954.61": 8649.782815,
      "955.612": 8669.373323,
      "956.614": 8685.201333,
      "957.616": 8704.291586,
      "958.618": 8721.959999,
      "959.62": 8739.783062,
      "960.622": 8755.967456,
      "961.624": 8774.761361,
      "962.626": 8789.230331,
      "963.628": 8806.785113,
      "964.63": 8822.192549,
      "965.632": 8840.052462,
      "966.634": 8853.754041,
      "967.636": 8870.970771,
      "968.638": 8886.694182,
      "969.64": 8905.025548,
      "970.642": 8919.162379,
      "971.644": 8935.875318,
      "972.646": 8947.765418,
      "973.648": 8960.45502,
      "974.65": 8972.398121,
      "975.652": 8984.506791,
      "976.654": 8998.629785,
      "977.656": 9015.393395,
      "978.658": 9030.759942,
      "979.66": 9048.342776,
      "980.662": 9063.365755,
      "981.664": 9080.848303,
      "982.666": 9095.760093,
      "983.668": 9114.069323,
      "984.67": 9129.542702,
      "985.672": 9149.07192,
      "986.674": 9167.558169,
      "987.676": 9185.541565,
      "988.678": 9201.586788,
      "989.68": 9219.760079,
      "990.682": 9235.644317,
      "991.684": 9254.426737,
      "992.686": 9268.826793,
      "993.688": 9287.022272,
      "994.69": 9302.389771,
      "995.692": 9318.136544,
      "996.694": 9332.807291,
      "997.696": 9348.689992,
      "998.698": 9364.173343,
      "999.7": 9383.421091,
      "1000.702": 9398.229975,
      "1001.704": 9415.490913,
      "1002.706": 9431.525,
      "1003.708": 9451.008401,
      "1004.71": 9470.399968,
      "1005.712": 9490.984156,
      "1006.714": 9511.615974,
      "1007.716": 9530.187398,
      "1008.718": 9548.079336,
      "1009.72": 9566.045425,
      "1010.722": 9582.760984,
      "1011.724": 9599.641717,
      "1012.726": 9614.806182,
      "1013.728": 9630.456409,
      "1014.73": 9647.179338,
      "1015.732": 9663.423493,
      "1016.734": 9676.325522,
      "1017.736": 9689.641679,
      "1018.738": 9702.19567,
      "1019.74": 9717.416483,
      "1020.742": 9734.197347,
      "1021.744": 9752.358597,
      "1022.746": 9768.01912,
      "1023.748": 9783.999131,
      "1024.75": 9800.62907,
      "1025.752": 9817.120099,
      "1026.754": 9833.15195,
      "1027.756": 9850.66695,
      "1028.758": 9866.022161,
      "1029.76": 9881.168226,
      "1030.762": 9895.676171,
      "1031.764": 9911.671577,
      "1032.766": 9927.383827,
      "1033.768": 9942.782299,
      "1034.77": 9958.073406,
      "1035.772": 9976.621073,
      "1036.774": 9991.651135,
      "1037.776": 10007.615496,
      "1038.778": 10024.902253,
      "1039.78": 10039.275242,
      "1040.782": 10052.614079,
      "1041.784": 10066.443224,
      "1042.786": 10079.413587,
      "1043.788": 10096.437214,
      "1044.79": 10113.137605,
      "1045.792": 10129.77438,
      "1046.794": 10145.247647,
      "1047.796": 10163.361726,
      "1048.798": 10178.829714,
      "1049.8": 10198.029732,
      "1050.802": 10213.639322,
      "1051.804": 10231.443198,
      "1052.806": 10249.641541,
      "1053.808": 10265.986622,
      "1054.81": 10284.957928,
      "1055.812": 10306.937907,
      "1056.814": 10329.039065,
      "1057.816": 10349.455636,
      "1058.818": 10365.100318,
      "1059.82": 10380.628916,
      "1060.822": 10394.852643,
      "1061.824": 10407.977188,
      "1062.826": 10421.192924,
      "1063.828": 10435.062161,
      "1064.83": 10449.754305,
      "1065.832": 10465.653053,
      "1066.834": 10483.01913,
      "1067.836": 10500.696088,
      "1068.838": 10516.481988,
      "1069.84": 10532.771043,
      "1070.842": 10546.296485,
      "1071.844": 10560.231757,
      "1072.846": 10574.744801,
      "1073.848": 10588.571929,
      "1074.85": 10601.232526,
      "1075.852": 10614.420716,
      "1076.854": 10627.941612,
      "1077.856": 10641.439454,
      "1078.858": 10655.484114,
      "1079.86": 10668.801563,
      "1080.862": 10681.245873,
      "1081.864": 10693.902767,
      "1082.866": 10705.923083,
      "1083.868": 10717.289306,
      "1084.87": 10728.730624,
      "1085.872": 10739.896794,
      "1086.874": 10753.437049,
      "1087.876": 10765.462286,
      "1088.878": 10776.965767,
      "1089.88": 10788.427728,
      "1090.882": 10800.230349,
      "1091.884": 10812.268624,
      "1092.886": 10824.683904,
      "1093.888": 10837.24763,
      "1094.89": 10850.139513,
      "1095.892": 10863.110671,
      "1096.894": 10876.614154,
      "1097.896": 10890.160005,
      "1098.898": 10902.979829,
      "1099.9": 10915.628636,
      "1100.902": 10929.43937,
      "1101.904": 10941.8551,
      "1102.906": 10953.135997,
      "1103.908": 10966.529139,
      "1104.91": 10979.564348,
      "1105.912": 10993.007067,
      "1106.914": 11005.799858,
      "1107.916": 11017.572458,
      "1108.918": 11029.689626,
      "1109.92": 11041.940471,
      "1110.922": 11054.385008,
      "1111.924": 11066.74978,
      "1112.926": 11079.071549,
      "1113.928": 11092.896402,
      "1114.93": 11105.098111,
      "1115.932": 11120.935765,
      "1116.934": 11134.562868,
      "1117.936": 11147.145577,
      "1118.938": 11159.82399,
      "1119.94": 11172.612981,
      "1120.942": 11186.560759,
      "1121.944": 11200.716008,
      "1122.946": 11214.251097,
      "1123.948": 11227.692733,
      "1124.95": 11240.943399,
      "1125.952": 11254.823714,
      "1126.954": 11268.671898,
      "1127.956": 11280.837233,
      "1128.958": 11294.022212,
      "1129.96": 11307.186143,
      "1130.962": 11319.99357,
      "1131.964": 11333.102068,
      "1132.966": 11345.823508,
      "1133.968": 11358.501747,
      "1134.97": 11370.565227,
      "1135.972": 11383.583555,
      "1136.974": 11396.753871,
      "1137.976": 11408.96071,
      "1138.978": 11421.253262,
      "1139.98": 11433.183901,
      "1140.982": 11445.795928,
      "1141.984": 11458.252573,
      "1142.986": 11471.448277,
      "1143.988": 11486.518815,
      "1144.99": 11498.680985,
      "1145.992": 11510.66282,
      "1146.994": 11522.745587,
      "1147.996": 11535.409505,
      "1148.998": 11549.19945,
      "1150.0": 11563.259994,
      "1151.002": 11576.297788,
      "1152.004": 11589.995674,
      "1153.006": 11602.213094,
      "1154.008": 11614.81354,
      "1155.01": 11627.298054,
      "1156.012": 11640.44893,
      "1157.014": 11654.586338,
      "1158.016": 11667.921325,
      "1159.018": 11681.088451,
      "1160.02": 11695.310497,
      "1161.022": 11709.178255,
      "1162.024": 11722.719345,
      "1163.026": 11737.120501,
      "1164.028": 11752.969434,
      "1165.03": 11768.399654,
      "1166.032": 11782.473268,
      "1167.034": 11796.127236,
      "1168.036": 11809.650649,
      "1169.038": 11823.953468,
      "1170.04": 11837.57488,
      "1171.042": 11852.646653,
      "1172.044": 11865.746914,
      "1173.046": 11879.331242,
      "1174.048": 11892.009891,
      "1175.05": 11905.432319,
      "1176.052": 11921.070231,
      "1177.054": 11935.523183,
      "1178.056": 11951.407678,
      "1179.058": 11967.071383,
      "1180.06": 11982.317003,
      "1181.062": 11998.087537,
      "1182.064": 12014.97756,
      "1183.066": 12028.707434,
      "1184.068": 12044.183265,
      "1185.07": 12058.889214,
      "1186.072": 12072.966236,
      "1187.074": 12088.451219,
      "1188.076": 12103.174229,
      "1189.078": 12118.790732,
      "1190.08": 12134.115067,
      "1191.082": 12149.784696,
      "1192.084": 12165.672917,
      "1193.086": 12182.035894,
      "1194.088": 12198.569547,
      "1195.09": 12214.012035,
      "1196.092": 12226.063173,
      "1197.094": 12238.163413,
      "1198.096": 12250.270919,
      "1199.098": 12262.561063,
      "1200.1": 12277.215293,
      "1201.102": 12308.89629,
      "1202.104": 12350.642778,
      "1203.106": 12379.808037,
      "1204.108": 12405.755998,
      "1205.11": 12428.718977,
      "1206.112": 12447.191202,
      "1207.114": 12467.697795,
      "1208.116": 12484.695225,
      "1209.118": 12500.208833,
      "1210.12": 12513.531384,
      "1211.122": 12527.539385,
      "1212.124": 12542.070953,
      "1213.126": 12556.091962,
      "1214.128": 12569.618693,
      "1215.13": 12583.440339,
      "1216.132": 12595.992385,
      "1217.134": 12608.515564,
      "1218.136": 12620.594262,
      "1219.138": 12633.634119,
      "1220.14": 12648.470806,
      "1221.142": 12663.337497,
      "1222.144": 12677.263155,
      "1223.146": 12693.962605,
      "1224.148": 12712.428762,
      "1225.15": 12729.873433,
      "1226.152": 12746.702224,
      "1227.154": 12762.941503,
      "1228.156": 12780.926243,
      "1229.158": 12796.691585,
      "1230.16": 12812.114214,
      "1231.162": 12828.37006,
      "1232.164": 12843.743727,
      "1233.166": 12859.849435,
      "1234.168": 12877.224937,
      "1235.17": 12895.663682,
      "1236.172": 12920.866315,
      "1237.174": 12944.991094,
      "1238.176": 12959.987767,
      "1239.178": 12974.13963,
      "1240.18": 12987.693364,
      "1241.182": 13002.370006,
      "1242.184": 13018.145996,
      "1243.186": 13034.718224,
      "1244.188": 13054.899007,
      "1245.19": 13073.810091,
      "1246.192": 13096.242081,
      "1247.194": 13118.050633,
      "1248.196": 13137.579831,
      "1249.198": 13155.919846,
      "1250.2": 13173.601172,
      "1251.202": 13191.069121,
      "1252.204": 13209.890301,
      "1253.206": 13228.175681,
      "1254.208": 13244.683628,
      "1255.21": 13262.818392,
      "1256.212": 13280.692072,
      "1257.214": 13298.526001,
      "1258.216": 13316.398226,
      "1259.218": 13331.827308,
      "1260.22": 13346.396521,
      "1261.222": 13361.41093,
      "1262.224": 13377.674559,
      "1263.226": 13394.363891,
      "1264.228": 13414.107316,
      "1265.23": 13433.186155,
      "1266.232": 13450.898186,
      "1267.234": 13468.364552,
      "1268.236": 13487.499051,
      "1269.238": 13506.695181,
      "1270.24": 13526.034571,
      "1271.242": 13543.644495,
      "1272.244": 13560.57834,
      "1273.246": 13581.214203,
      "1274.248": 13599.393495,
      "1275.25": 13616.451196,
      "1276.252": 13634.621157,
      "1277.254": 13652.556998,
      "1278.256": 13671.125105,
      "1279.258": 13686.607897,
      "1280.26": 13700.720215,
      "1281.262": 13716.121599,
      "1282.264": 13733.311951,
      "1283.266": 13751.387594,
      "1284.268": 13767.452232,
      "1285.27": 13784.216786,
      "1286.272": 13800.035241,
      "1287.274": 13818.130913,
      "1288.276": 13834.455819,
      "1289.278": 13852.045286,
      "1290.28": 13869.246626,
      "1291.282": 13887.727938,
      "1292.284": 13904.922723,
      "1293.286": 13922.892756,
      "1294.288": 13944.051138,
      "1295.29": 13964.267418,
      "1296.292": 13987.440297,
      "1297.294": 14011.874589,
      "1298.296": 14029.570607,
      "1299.298": 14046.960721,
      "1300.3": 14062.277306,
      "1301.302": 14078.758906,
      "1302.304": 14097.039099,
      "1303.306": 14116.802275,
      "1304.308": 14139.43651,
      "1305.31": 14162.813656,
      "1306.312": 14185.299314,
      "1307.314": 14206.009598,
      "1308.316": 14225.073231,
      "1309.318": 14244.882051,
      "1310.32": 14263.940248,
      "1311.322": 14282.49767,
      "1312.324": 14303.062943,
      "1313.326": 14323.143482,
      "1314.328": 14343.692717,
      "1315.33": 14367.498709,
      "1316.332": 14389.512278,
      "1317.334": 14408.582641,
      "1318.336": 14421.49505,
      "1319.338": 14435.570757,
      "1320.34": 14449.016096,
      "1321.342": 14464.421381,
      "1322.344": 14479.804875,
      "1323.346": 14495.253021,
      "1324.348": 14509.80414,
      "1325.35": 14526.893786,
      "1326.352": 14543.468765,
      "1327.354": 14559.559935,
      "1328.356": 14575.682032,
      "1329.358": 14592.168791,
      "1330.36": 14607.807909,
      "1331.362": 14624.618111,
      "1332.364": 14640.146599,
      "1333.366": 14657.551532,
      "1334.368": 14675.162753,
      "1335.37": 14692.659962,
      "1336.372": 14711.152824,
      "1337.374": 14728.03902,
      "1338.376": 14744.87415,
      "1339.378": 14763.701943,
      "1340.38": 14778.127877,
      "1341.382": 14792.400486,
      "1342.384": 14806.082763,
      "1343.386": 14820.684281,
      "1344.388": 14836.007418,
      "1345.39": 14852.540297,
      "1346.392": 14867.572144,
      "1347.394": 14883.031013,
      "1348.396": 14898.192816,
      "1349.398": 14914.471765,
      "1350.4": 14930.059807,
      "1351.402": 14948.339224,
      "1352.404": 14964.816201,
      "1353.406": 14983.241978,
      "1354.408": 14999.3764,
      "1355.41": 15017.296511,
      "1356.412": 15036.720812,
      "1357.414": 15054.637807,
      "1358.416": 15070.442879,
      "1359.418": 15086.868448,
      "1360.42": 15102.166279,
      "1361.422": 15118.297975,
      "1362.424": 15136.346007,
      "1363.426": 15151.153648,
      "1364.428": 15165.359597,
      "1365.43": 15179.547655,
      "1366.432": 15194.842423,
      "1367.434": 15211.327133,
      "1368.436": 15226.100486,
      "1369.438": 15242.154538,
      "1370.44": 15257.540926,
      "1371.442": 15271.58114,
      "1372.444": 15285.901084,
      "1373.446": 15300.199989,
      "1374.448": 15313.665887,
      "1375.45": 15328.120587,
      "1376.452": 15341.184165,
      "1377.454": 15354.979384,
      "1378.456": 15368.918396,
      "1379.458": 15383.100108,
      "1380.46": 15396.191876,
      "1381.462": 15409.538978,
      "1382.464": 15423.076403,
      "1383.466": 15437.274658,
      "1384.468": 15451.062729,
      "1385.47": 15465.213009,
      "1386.472": 15479.523818,
      "1387.474": 15495.166959,
      "1388.476": 15508.663101,
      "1389.478": 15521.412606,
      "1390.48": 15534.676005,
      "1391.482": 15546.752769,
      "1392.484": 15560.3518,
      "1393.486": 15575.821244,
      "1394.488": 15590.875998,
      "1395.49": 15605.447946,
      "1396.492": 15619.911148,
      "1397.494": 15634.637245,
      "1398.496": 15648.519174,
      "1399.498": 15662.328673,
      "1400.5": 15676.806856,
      "1401.502": 15690.746937,
      "1402.504": 15704.91827,
      "1403.506": 15718.481025,
      "1404.508": 15731.083526,
      "1405.51": 15745.176211,
      "1406.512": 15760.959796,
      "1407.514": 15775.432335,
      "1408.516": 15788.615065,
      "1409.518": 15801.405652,
      "1410.52": 15814.988367,
      "1411.522": 15828.681191,
      "1412.524": 15843.183995,
      "1413.526": 15861.720881,
      "1414.528": 15875.059512,
      "1415.53": 15888.194741,
      "1416.532": 15902.105466,
      "1417.534": 15915.341497,
      "1418.536": 15930.114684,
      "1419.538": 15945.159781,
      "1420.54": 15959.763163,
      "1421.542": 15973.445684,
      "1422.544": 15985.577348,
      "1423.546": 16000.388698,
      "1424.548": 16015.4223,
      "1425.55": 16030.211386,
      "1426.552": 16044.379642,
      "1427.554": 16058.756607,
      "1428.556": 16074.153695,
      "1429.558": 16088.893628,
      "1430.56": 16103.450352,
      "1431.562": 16117.110442,
      "1432.564": 16131.186119,
      "1433.566": 16145.428413,
      "1434.568": 16160.061936,
      "1435.57": 16175.106222,
      "1436.572": 16189.619237,
      "1437.574": 16203.161223,
      "1438.576": 16216.819868,
      "1439.578": 16233.521327,
      "1440.58": 16245.7492,
      "1441.582": 16258.173789,
      "1442.584": 16270.096924,
      "1443.586": 16282.151835,
      "1444.588": 16293.723745,
      "1445.59": 16305.646737,
      "1446.592": 16317.630433,
      "1447.594": 16331.0313,
      "1448.596": 16344.063058,
      "1449.598": 16358.048524,
      "1450.6": 16371.825586,
      "1451.602": 16385.562926,
      "1452.604": 16399.268924,
      "1453.606": 16412.718878,
      "1454.608": 16425.991038,
      "1455.61": 16439.488388,
      "1456.612": 16452.947178,
      "1457.614": 16466.605742,
      "1458.616": 16480.133263,
      "1459.618": 16493.882749,
      "1460.62": 16508.706799,
      "1461.622": 16521.915325,
      "1462.624": 16534.827976,
      "1463.626": 16548.102212,
      "1464.628": 16560.401901,
      "1465.63": 16574.395463,
      "1466.632": 16588.489409,
      "1467.634": 16603.858928,
      "1468.636": 16615.896197,
      "1469.638": 16627.564621,
      "1470.64": 16639.625447,
      "1471.642": 16651.846743,
      "1472.644": 16666.733375,
      "1473.646": 16682.624786,
      "1474.648": 16695.061354,
      "1475.65": 16709.149594,
      "1476.652": 16722.629879,
      "1477.654": 16736.231509,
      "1478.656": 16749.368067,
      "1479.658": 16762.243895,
      "1480.66": 16776.445501,
      "1481.662": 16791.330465,
      "1482.664": 16805.745625,
      "1483.666": 16820.269511,
      "1484.668": 16834.859668,
      "1485.67": 16848.997172,
      "1486.672": 16863.647478,
      "1487.674": 16877.713827,
      "1488.676": 16892.466003,
      "1489.678": 16906.239961,
      "1490.68": 16920.714387,
      "1491.682": 16934.068678,
      "1492.684": 16947.35193,
      "1493.686": 16964.00296,
      "1494.688": 16976.969503,
      "1495.69": 16989.337227,
      "1496.692": 17001.928652,
      "1497.694": 17015.301955,
      "1498.696": 17029.251805,
      "1499.698": 17043.078589,
      "1500.7": 17058.713128,
      "1501.702": 17095.552144,
      "1502.704": 17125.259853,
      "1503.706": 17152.242934,
      "1504.708": 17172.322586,
      "1505.71": 17191.610609,
      "1506.712": 17210.948723,
      "1507.714": 17227.808516,
      "1508.716": 17244.302354,
      "1509.718": 17259.451636,
      "1510.72": 17273.711771,
      "1511.722": 17287.192666,
      "1512.724": 17301.791972,
      "1513.726": 17314.907647,
      "1514.728": 17331.925431,
      "1515.73": 17344.767473,
      "1516.732": 17357.320726,
      "1517.734": 17369.459067,
      "1518.736": 17382.007087,
      "1519.738": 17395.940048,
      "1520.74": 17410.881305,
      "1521.742": 17427.705838,
      "1522.744": 17442.714745,
      "1523.746": 17458.601542,
      "1524.748": 17474.445784,
      "1525.75": 17490.909268,
      "1526.752": 17505.851535,
      "1527.754": 17522.966648,
      "1528.756": 17539.563626,
      "1529.758": 17558.538964,
      "1530.76": 17575.438175,
      "1531.762": 17595.986517,
      "1532.764": 17612.648139,
      "1533.766": 17632.820182,
      "1534.768": 17649.701998,
      "1535.77": 17674.233762,
      "1536.772": 17699.672492,
      "1537.774": 17716.718791,
      "1538.776": 17730.811081,
      "1539.778": 17746.403683,
      "1540.78": 17761.795594,
      "1541.782": 17780.3208,
      "1542.784": 17795.229181,
      "1543.786": 17814.505038,
      "1544.788": 17832.009567,
      "1545.79": 17854.61702,
      "1546.792": 17875.130889,
      "1547.794": 17896.208559,
      "1548.796": 17913.362272,
      "1549.798": 17931.798099,
      "1550.8": 17946.936197,
      "1551.802": 17965.175884,
      "1552.804": 17980.775122,
      "1553.806": 18000.420093,
      "1554.808": 18017.781167,
      "1555.81": 18037.213095,
      "1556.812": 18057.015948,
      "1557.814": 18075.463346,
      "1558.816": 18088.279169,
      "1559.818": 18102.75544,
      "1560.82": 18116.874854,
      "1561.822": 18132.615029,
      "1562.824": 18147.78931,
      "1563.826": 18165.740184,
      "1564.828": 18183.818279,
      "1565.83": 18201.626244,
      "1566.832": 18217.413422,
      "1567.834": 18235.215389,
      "1568.836": 18254.520324,
      "1569.838": 18275.221102,
      "1570.84": 18294.443093,
      "1571.842": 18313.305451,
      "1572.844": 18328.184507,
      "1573.846": 18346.675733,
      "1574.848": 18364.471765,
      "1575.85": 18384.008087,
      "1576.852": 18403.338069,
      "1577.854": 18422.238473,
      "1578.856": 18441.175789,
      "1579.858": 18456.17907,
      "1580.86": 18471.429263,
      "1581.862": 18487.781714,
      "1582.864": 18505.993759,
      "1583.866": 18527.249247,
      "1584.868": 18543.450328,
      "1585.87": 18561.652642,
      "1586.872": 18576.247444,
      "1587.874": 18594.27624,
      "1588.876": 18610.229094,
      "1589.878": 18630.911403,
      "1590.88": 18648.603949,
      "1591.882": 18666.733518,
      "1592.884": 18682.250432,
      "1593.886": 18701.826354,
      "1594.888": 18718.975136,
      "1595.89": 18740.140363,
      "1596.892": 18760.413472,
      "1597.894": 18780.379609,
      "1598.896": 18803.518959,
      "1599.898": 18817.642448,
      "1600.9": 18831.684288,
      "1601.902": 18845.13417,
      "1602.904": 18858.797115,
      "1603.906": 18878.211095,
      "1604.908": 18896.262494,
      "1605.91": 18914.890057,
      "1606.912": 18933.144461,
      "1607.914": 18952.73582,
      "1608.916": 18969.025603,
      "1609.918": 18988.622313,
      "1610.92": 19004.541838,
      "1611.922": 19020.687334,
      "1612.924": 19035.110038,
      "1613.926": 19052.453859,
      "1614.928": 19067.788305,
      "1615.93": 19085.63911,
      "1616.932": 19102.529488,
      "1617.934": 19119.225944,
      "1618.936": 19136.919753,
      "1619.938": 19156.266804,
      "1620.94": 19175.123325,
      "1621.942": 19190.096982,
      "1622.944": 19203.887091,
      "1623.946": 19218.014793,
      "1624.948": 19232.984083,
      "1625.95": 19250.685505,
      "1626.952": 19266.817555,
      "1627.954": 19281.474862,
      "1628.956": 19298.142441,
      "1629.958": 19317.675616,
      "1630.96": 19336.113861,
      "1631.962": 19354.145503,
      "1632.964": 19370.944074,
      "1633.966": 19389.587667,
      "1634.968": 19404.356049,
      "1635.97": 19421.482496,
      "1636.972": 19437.326283,
      "1637.974": 19455.811312,
      "1638.976": 19472.980782,
      "1639.978": 19491.826004,
      "1640.98": 19508.958538,
      "1641.982": 19524.418571,
      "1642.984": 19542.169712,
      "1643.986": 19556.552765,
      "1644.988": 19569.945841,
      "1645.99": 19584.872053,
      "1646.992": 19600.630207,
      "1647.994": 19619.030176,
      "1648.996": 19637.197876,
      "1649.998": 19655.520249,
      "1651.0": 19673.397427,
      "1652.002": 19692.681876,
      "1653.004": 19711.780569,
      "1654.006": 19731.535214,
      "1655.008": 19750.827782,
      "1656.01": 19777.072842,
      "1657.012": 19803.895681,
      "1658.014": 19825.534235,
      "1659.016": 19841.25273,
      "1660.018": 19858.809075,
      "1661.02": 19875.228734,
      "1662.022": 19890.993087,
      "1663.024": 19909.781725,
      "1664.026": 19926.300093,
      "1665.028": 19941.762049,
      "1666.03": 19959.136559,
      "1667.032": 19979.32471,
      "1668.034": 19999.37312,
      "1669.036": 20015.91457,
      "1670.038": 20031.053797,
      "1671.04": 20044.985195,
      "1672.042": 20059.540096,
      "1673.044": 20073.061431,
      "1674.046": 20086.51747,
      "1675.048": 20101.30834,
      "1676.05": 20117.056452,
      "1677.052": 20131.374478,
      "1678.054": 20145.311123,
      "1679.056": 20159.213191,
      "1680.058": 20171.920558,
      "1681.06": 20185.369564,
      "1682.062": 20198.694281,
      "1683.064": 20212.673754,
      "1684.066": 20226.660582,
      "1685.068": 20241.208238,
      "1686.07": 20255.427663,
      "1687.072": 20273.487787,
      "1688.074": 20287.505057,
      "1689.076": 20301.417968,
      "1690.078": 20314.278186,
      "1691.08": 20327.398549,
      "1692.082": 20340.829369,
      "1693.084": 20355.623502,
      "1694.086": 20370.283666,
      "1695.088": 20384.160349,
      "1696.09": 20398.951771,
      "1697.092": 20413.899349,
      "1698.094": 20428.605683,
      "1699.096": 20442.717043,
      "1700.098": 20455.993758,
      "1701.1": 20470.367969,
      "1702.102": 20483.617036,
      "1703.104": 20498.109969,
      "1704.106": 20511.978297,
      "1705.108": 20527.408535,
      "1706.11": 20541.162729,
      "1707.112": 20555.642746,
      "1708.114": 20569.076748,
      "1709.116": 20584.207772,
      "1710.118": 20598.344321,
      "1711.12": 20611.120022,
      "1712.122": 20625.323129,
      "1713.124": 20642.235182,
      "1714.126": 20655.343489,
      "1715.128": 20668.355626,
      "1716.13": 20682.832592,
      "1717.132": 20696.351248,
      "1718.134": 20709.914399,
      "1719.136": 20727.058214,
      "1720.138": 20741.956009,
      "1721.14": 20757.029585,
      "1722.142": 20773.97233,
      "1723.144": 20788.269401,
      "1724.146": 20804.495963,
      "1725.148": 20819.046927,
      "1726.15": 20835.031909,
      "1727.152": 20851.407441,
      "1728.154": 20867.063761,
      "1729.156": 20881.739672,
      "1730.158": 20894.205503,
      "1731.16": 20906.848811,
      "1732.162": 20918.994426,
      "1733.164": 20932.203988,
      "1734.166": 20945.26981,
      "1735.168": 20959.731926,
      "1736.17": 20973.497498,
      "1737.172": 20987.2378,
      "1738.174": 21000.899095,
      "1739.176": 21018.418951,
      "1740.178": 21030.620316,
      "1741.18": 21042.907096,
      "1742.182": 21054.976272,
      "1743.184": 21067.086371,
      "1744.186": 21080.150803,
      "1745.188": 21092.510041,
      "1746.19": 21104.955842,
      "1747.192": 21118.083007,
      "1748.194": 21130.676121,
      "1749.196": 21144.750924,
      "1750.198": 21159.349612,
      "1751.2": 21175.303182,
      "1752.202": 21189.27281,
      "1753.204": 21203.910331,
      "1754.206": 21217.092901,
      "1755.208": 21230.881711,
      "1756.21": 21244.230084,
      "1757.212": 21257.536662,
      "1758.214": 21271.672199,
      "1759.216": 21286.411733,
      "1760.218": 21300.56509,
      "1761.22": 21314.744784,
      "1762.222": 21329.314671,
      "1763.224": 21342.44885,
      "1764.226": 21356.973745,
      "1765.228": 21370.286145,
      "1766.23": 21385.664829,
      "1767.232": 21398.421533,
      "1768.234": 21411.646697,
      "1769.236": 21424.774059,
      "1770.238": 21437.988577,
      "1771.24": 21451.715644,
      "1772.242": 21465.8248,
      "1773.244": 21481.127022,
      "1774.246": 21496.348939,
      "1775.248": 21511.144531,
      "1776.25": 21528.317411,
      "1777.252": 21546.31857,
      "1778.254": 21560.225596,
      "1779.256": 21574.202711,
      "1780.258": 21590.410851,
      "1781.26": 21605.677948,
      "1782.262": 21620.534595,
      "1783.264": 21635.067612,
      "1784.266": 21651.636409,
      "1785.268": 21668.267088,
      "1786.27": 21685.189569,
      "1787.272": 21699.896959,
      "1788.274": 21712.927576,
      "1789.276": 21725.41055,
      "1790.278": 21738.719863,
      "1791.28": 21753.886844,
      "1792.282": 21766.09384,
      "1793.284": 21778.490279,
      "1794.286": 21790.78306,
      "1795.288": 21803.363847,
      "1796.29": 21816.953229,
      "1797.292": 21830.871668,
      "1798.294": 21845.375512,
      "1799.296": 21859.624266,
      "1800.298": 21873.982934,
      "1801.3": 21906.737401,
      "1802.302": 21943.932743,
      "1803.304": 21972.810967,
      "1804.306": 21997.078474,
      "1805.308": 22021.155862,
      "1806.31": 22041.925457,
      "1807.312": 22062.416108,
      "1808.314": 22080.155575,
      "1809.316": 22098.166077,
      "1810.318": 22112.3008,
      "1811.32": 22129.045223,
      "1812.322": 22142.901772,
      "1813.324": 22156.845836,
      "1814.326": 22171.322306,
      "1815.328": 22188.806168,
      "1816.33": 22204.409951,
      "1817.332": 22221.602797,
      "1818.334": 22239.766365,
      "1819.336": 22259.082912,
      "1820.338": 22278.015566,
      "1821.34": 22295.859301,
      "1822.342": 22314.118261,
      "1823.344": 22332.958787,
      "1824.346": 22352.933343,
      "1825.348": 22372.714664,
      "1826.35": 22391.346041,
      "1827.352": 22409.707687,
      "1828.354": 22426.49246,
      "1829.356": 22446.13802,
      "1830.358": 22464.553063,
      "1831.36": 22481.392781,
      "1832.362": 22499.539912,
      "1833.364": 22515.885873,
      "1834.366": 22534.70841,
      "1835.368": 22557.318149,
      "1836.37": 22582.674172,
      "1837.372": 22608.587378,
      "1838.374": 22629.773585,
      "1839.376": 22649.936981,
      "1840.378": 22671.956666,
      "1841.38": 22692.131408,
      "1842.382": 22712.71174,
      "1843.384": 22734.084653,
      "1844.386": 22753.423682,
      "1845.388": 22778.152293,
      "1846.39": 22800.366698,
      "1847.392": 22826.533506,
      "1848.394": 22853.940845,
      "1849.396": 22873.745515,
      "1850.398": 22892.786572,
      "1851.4": 22914.042455,
      "1852.402": 22937.042578,
      "1853.404": 22959.711883,
      "1854.406": 22982.573091,
      "1855.408": 23005.104999,
      "1856.41": 23027.271036,
      "1857.412": 23050.862609,
      "1858.414": 23075.113424,
      "1859.416": 23099.213896
    },
    "seconds": 23099.213896
  }
}