{
  "1048576": [
    5.979397,
    5.890195,
    4.956644,
    7.616,
    5.822801,
    8.400454,
    3.489,
    3.855903,
    4.471,
    5.596,
    4.206498,
    4.283318,
    5.74673,
    2.417,
    3.433,
    2.576,
    2.199,
    3.634,
    2.152,
    4.260103,
    5.158,
    5.553,
    4.996854,
    7.226698,
    5.863,
    2.735,
    5.863,
    2.77,
    2.842,
    4.761,
    3.026,
    2.956,
    1.964,
    3.754,
    6.109,
    6.218,
    5.717,
    5.076,
    7.314,
    7.604,
    4.411,
    6.839468,
    6.592,
    3.96,
    6.573,
    5.031,
    15.349,
    2.456,
    5.04,
    5.323,
    4.928,
    6.171552,
    20.083,
    4.538,
    6.71,
    4.395,
    6.36,
    6.298,
    5.257,
    3.251,
    1.878,
    4.012,
    4.567,
    3.832,
    2.102594,
    2.788538,
    3.33241,
    5.49627,
    6.210267,
    5.959,
    4.211,
    2.844,
    3.983,
    3.029,
    2.609,
    6.277169,
    9.14,
    8.157,
    9.396,
    1.757,
    4.214,
    2.291,
    2.954,
    13.742,
    10.399,
    4.051,
    4.291,
    7.6,
    6.687,
    2.297,
    4.796601,
    11.883,
    3.243,
    4.46,
    4.574,
    2.48,
    4.045,
    3.776338,
    3.863,
    4.019,
    2.344,
    3.576,
    3.634,
    4.475,
    3.923,
    5.228,
    4.351,
    5.188,
    5.273,
    2.298,
    2.669,
    6.229,
    5.453,
    6.712,
    5.219,
    5.577,
    3.133,
    3.669,
    2.801,
    2.162,
    3.039,
    2.427,
    3.635,
    2.507,
    3.62,
    2.854,
    5.964,
    5.015,
    6.182,
    8.358,
    6.308,
    5.074,
    5.925,
    7.074,
    6.453,
    4.648111,
    3.87352,
    4.9932,
    4.920554,
    2.709012,
    2.374,
    3.532,
    17.355,
    2.41,
    4.461103,
    3.404,
    1.801,
    5.238,
    3.655,
    19.057,
    5.726,
    8.8,
    6.339,
    14.254,
    4.437,
    6.623699,
    5.445681,
    6.535,
    4.639897,
    6.75,
    8.556,
    9.863,
    1.873,
    4.523,
    2.291,
    6.232729,
    7.187103,
    5.217,
    6.644,
    8.887,
    7.593,
    2.34,
    4.03,
    3.366,
    2.316
  ],
  "51200": [
    1.971552,
    2.642015,
    1.411,
    2.004,
    2.021051,
    1.715,
    2.185068,
    2.298,
    1.66903,
    1.626425,
    1.282,
    0.578,
    1.11,
    1.064,
    0.964331,
    1.233,
    2.066,
    1.844879,
    2.153,
    0.891,
    1.679,
    1.328,
    1.177,
    1.229,
    1.789,
    1.701,
    1.65,
    1.555,
    1.241,
    1.72,
    1.784,
    1.68,
    1.995,
    1.747,
    1.525,
    1.24,
    1.166,
    1.479,
    1.329,
    1.32,
    2.873,
    2.181,
    1.739,
    1.45,
    1.426,
    1.143,
    1.79,
    1.142,
    0.72,
    0.629,
    1.547,
    1.699,
    1.669,
    1.005,
    1.538,
    1.821376,
    1.299,
    1.496,
    2.054299,
    2.561,
    1.495,
    2.277,
    1.305388,
    2.015,
    1.862,
    2.489135,
    1.495,
    1.42,
    1.45,
    2.239,
    2.26,
    1.971,
    1.751,
    1.863695,
    1.679364,
    2.092595,
    1.699822,
    2.00927,
    1.189153,
    1.858985,
    2.269631,
    1.366628,
    1.380855,
    1.983985,
    2.506,
    1.816,
    1.796554,
    1.633731,
    1.068218,
    0.647,
    1.005,
    0.902,
    0.835,
    0.477,
    1.063088,
    1.842345,
    0.897,
    1.607,
    1.708175,
    1.747,
    1.931,
    0.694,
    0.619,
    1.191,
    1.685,
    0.862,
    0.675,
    0.730103,
    1.613,
    1.7,
    0.888,
    1.628828,
    0.938695,
    1.023124,
    0.707124,
    0.591897,
    0.663897,
    2.196587,
    0.932897,
    0.701,
    0.732403,
    1.552103,
    1.866206,
    1.141,
    1.062608,
    1.012103,
    1.638,
    1.275,
    1.584,
    1.582,
    2.268,
    1.544,
    1.584,
    1.568,
    1.412,
    2.138,
    2.1,
    2.697,
    3.02,
    2.15,
    2.538,
    1.526,
    1.38,
    1.54573,
    1.399,
    1.3,
    1.71826,
    1.5694,
    1.422025,
    1.204149,
    2.188486,
    1.885818,
    1.857889,
    1.085672,
    0.845,
    1.803,
    1.138,
    2.048056,
    1.608,
    1.615649,
    1.317,
    1.753,
    1.261097,
    1.349,
    0.857,
    0.575,
    0.828,
    0.78,
    1.6,
    0.72,
    0.873,
    0.93,
    0.703,
    1.952,
    1.507,
    1.531,
    0.989,
    1.381,
    0.766,
    1.091,
    0.735,
    0.677,
    1.386,
    1.401,
    0.74,
    0.9,
    1.45938,
    1.849062,
    1.64,
    1.013,
    1.621,
    0.937,
    0.795,
    0.718,
    0.546,
    1.041,
    1.477,
    0.767,
    1.766,
    1.272,
    2.268,
    1.074035,
    1.117,
    1.053,
    1.348,
    1.418,
    2.184,
    0.759,
    0.878,
    1.771,
    2.432,
    1.638,
    1.132,
    0.999,
    2.049,
    3.347,
    1.372,
    1.242,
    1.947688,
    2.563597,
    1.621,
    2.15239,
    1.574,
    1.815284,
    1.965,
    1.652,
    2.114,
    2.395,
    3.068396,
    1.800244,
    2.089057,
    1.641716,
    1.71,
    2.181,
    1.446,
    1.404,
    2.047,
    2.39,
    2.523,
    2.068,
    2.007,
    1.784,
    2.191,
    1.798,
    1.585,
    1.732,
    1.211,
    2.203,
    1.967,
    1.182,
    1.807,
    1.37,
    1.446,
    1.674,
    2.039,
    1.826,
    1.597,
    1.534,
    1.134,
    0.68,
    1.333206,
    0.943,
    0.781,
    1.465,
    1.194,
    0.922,
    0.71,
    0.836897,
    0.730612,
    1.847206,
    1.343,
    1.191,
    1.235,
    2.0,
    1.439,
    2.05,
    2.292,
    1.498,
    1.826,
    1.569,
    1.496,
    2.544,
    2.106,
    2.803,
    2.035,
    2.008,
    1.769,
    1.991,
    0.589,
    0.886,
    1.065,
    0.656,
    1.703,
    1.191,
    1.391,
    1.226,
    1.489,
    0.662,
    1.330275,
    1.078,
    1.157,
    0.982,
    1.515,
    1.741,
    1.984,
    1.464,
    1.446,
    1.958,
    3.551,
    1.637,
    1.72,
    2.213,
    2.608,
    2.092,
    2.18,
    1.542,
    0.81,
    0.972,
    0.829,
    1.118,
    1.048,
    1.569,
    0.841,
    1.491,
    1.0,
    1.179,
    1.738108,
    2.52464,
    2.01506,
    1.518,
    1.427561,
    1.471876,
    1.771568,
    1.567822,
    1.495605,
    2.113156,
    1.235876,
    2.044892,
    3.091472,
    1.757287,
    1.672,
    1.727,
    1.435,
    1.526,
    1.588,
    2.035,
    1.162,
    1.801,
    3.563481,
    1.381,
    2.121,
    1.891,
    1.768,
    1.682,
    1.901,
    1.15,
    1.502,
    1.485,
    1.373,
    1.741,
    1.708,
    1.367684,
    2.154,
    2.381,
    1.767,
    2.337,
    1.884,
    1.841,
    1.634,
    1.401,
    2.125,
    1.949,
    2.484,
    1.609,
    1.491,
    1.213,
    1.956,
    2.272,
    1.787,
    2.72,
    1.65,
    1.603,
    1.729,
    1.393,
    1.774,
    2.323,
    1.719,
    1.354,
    1.971,
    1.487,
    2.062,
    1.804,
    1.43,
    0.506,
    0.976,
    0.668,
    1.661,
    1.046,
    1.399,
    1.383,
    0.753,
    1.492,
    1.327,
    1.108,
    1.054,
    0.85,
    0.781,
    1.033,
    1.517,
    1.308,
    2.246,
    0.93,
    1.463,
    1.528,
    1.642,
    1.862,
    1.265,
    1.069,
    1.156681,
    1.30859,
    0.783074,
    1.222081,
    1.255842,
    0.980567,
    0.718684,
    0.773,
    1.805494,
    1.16405,
    1.177386,
    1.531,
    1.327,
    1.13,
    1.214,
    1.721,
    1.588,
    1.363,
    1.447897,
    1.967,
    2.086,
    1.777,
    1.955768,
    1.499,
    1.747,
    1.146,
    0.696,
    0.79,
    0.744,
    1.174,
    1.196,
    0.901,
    1.102,
    1.833,
    1.322,
    1.412981,
    1.137309,
    1.498011,
    0.934372,
    0.649,
    1.593,
    1.258,
    2.059445,
    2.396114,
    0.832,
    0.682,
    1.044,
    0.916481,
    1.718,
    1.403639,
    1.773,
    1.442937,
    1.528,
    1.408883,
    1.711032,
    1.339,
    2.25708,
    1.351,
    2.557624,
    2.378824,
    1.919,
    2.549,
    2.657,
    2.205,
    1.564,
    1.929,
    9.542,
    2.761,
    1.976,
    1.592,
    1.456,
    2.234,
    2.407,
    2.048,
    1.725,
    1.221,
    0.595,
    1.216,
    1.492,
    0.771,
    0.714,
    1.15,
    0.996,
    0.739,
    1.425,
    1.300223,
    1.801,
    1.254,
    0.944,
    1.094,
    0.658,
    0.95,
    1.697,
    1.335,
    1.181,
    0.885,
    0.843,
    0.667,
    1.456,
    2.649,
    1.329,
    1.045,
    4.101,
    2.865,
    2.797,
    2.191,
    3.715,
    2.478,
    2.533,
    11.854,
    5.304,
    4.994,
    1.911,
    3.259,
    3.213,
    2.874,
    0.74,
    1.784,
    2.331,
    1.177,
    1.22,
    1.789,
    2.285,
    1.858,
    2.087195,
    1.822,
    1.416,
    1.338,
    1.084356,
    0.76,
    0.822,
    1.367,
    0.605,
    0.593,
    1.204,
    0.594,
    0.856,
    0.849,
    1.986,
    1.806,
    1.401,
    1.076008,
    1.217,
    1.87525,
    1.34525,
    1.779,
    1.33,
    1.267,
    1.697758,
    1.545124,
    1.249702,
    5.389152,
    2.074,
    2.284,
    1.728876,
    2.086097,
    1.147,
    0.921,
    1.788,
    0.566,
    0.538,
    0.82,
    1.331,
    0.749,
    1.578,
    1.448,
    1.228,
    1.206,
    0.914,
    1.305041,
    0.844,
    1.233111,
    0.889,
    1.080281,
    1.3376,
    0.943889,
    1.785305,
    1.474,
    2.379,
    1.013,
    2.142705,
    1.503,
    2.41,
    1.999,
    0.545,
    0.646,
    0.926,
    0.658,
    1.523,
    1.856342,
    1.957,
    0.823,
    1.598,
    1.591,
    3.112,
    1.517,
    1.71,
    0.955,
    0.677,
    3.64872,
    1.177,
    1.047263,
    1.275,
    1.258,
    1.387,
    1.227,
    1.423,
    0.868,
    1.267,
    1.105889,
    1.679889,
    1.625,
    0.877,
    1.449025,
    1.915111,
    1.453,
    1.314,
    1.722,
    1.71431,
    1.274,
    1.907,
    2.314773,
    1.817,
    1.458,
    1.810924,
    1.855,
    2.072,
    1.721,
    1.369,
    1.648,
    1.075,
    1.441,
    0.969,
    1.245,
    1.135,
    0.873,
    1.482,
    1.559,
    1.9661,
    1.276,
    1.27,
    1.794,
    1.949,
    1.91,
    2.022,
    1.958,
    2.332877,
    1.399601,
    1.355108,
    2.038,
    2.290135,
    1.798,
    1.698735,
    1.686,
    2.379,
    1.581,
    1.369,
    1.237,
    1.79522,
    1.652,
    1.472,
    1.495,
    1.837,
    1.872,
    1.752,
    1.165,
    0.701,
    0.969,
    1.05,
    0.747,
    1.571,
    1.718,
    0.942,
    1.594,
    0.938,
    1.801,
    1.878,
    1.23026,
    1.344,
    0.997,
    0.769,
    0.956,
    1.398,
    1.622,
    1.712,
    1.57438,
    1.859118,
    1.221,
    1.683,
    1.39,
    1.533,
    1.141,
    1.349474,
    0.713,
    0.752,
    2.029,
    1.617,
    1.926,
    1.475,
    1.915,
    1.541,
    2.305,
    2.005,
    1.81,
    1.999,
    1.526,
    1.373,
    2.288,
    2.162,
    2.475,
    1.74,
    2.393,
    1.649,
    1.369775,
    1.378,
    1.937,
    2.083,
    1.704,
    1.606,
    1.452,
    2.091,
    2.322,
    1.609,
    1.315,
    2.436,
    1.322,
    1.241,
    1.56,
    2.373,
    2.126,
    1.838298,
    2.448,
    1.691,
    1.638,
    2.08,
    1.449,
    2.765,
    1.639,
    1.682,
    1.816,
    2.345,
    2.015,
    1.656,
    1.519,
    1.559,
    2.117,
    2.713,
    1.926,
    2.141,
    1.716964,
    1.465744,
    1.350843,
    1.169981,
    1.161,
    1.731386,
    2.183244,
    1.329,
    1.893,
    2.103277,
    1.705369,
    1.585,
    1.227,
    1.14,
    1.01,
    0.832629,
    1.162,
    1.332,
    0.969947,
    2.012463,
    1.018,
    1.648,
    1.680741,
    1.335,
    1.279913,
    1.122947,
    1.129,
    1.5,
    0.918,
    1.471,
    1.298,
    0.628,
    1.115,
    0.969,
    1.783,
    0.747,
    1.546,
    1.184,
    0.605,
    0.906,
    0.715,
    1.88,
    0.472,
    1.116,
    1.725,
    0.783,
    0.786,
    1.39,
    3.151,
    2.067,
    1.264,
    1.105,
    1.153308,
    0.76581,
    0.807597,
    0.623,
    1.107568,
    1.767,
    0.833,
    0.691,
    0.830945,
    1.477,
    2.310552,
    1.141,
    1.473,
    1.17,
    0.966,
    0.953,
    0.717,
    0.774,
    0.556,
    0.969,
    0.668,
    1.479,
    0.765,
    1.517,
    1.872,
    1.091,
    1.154,
    0.915,
    1.214,
    0.664,
    2.413,
    0.704,
    0.634,
    1.448,
    1.261,
    1.108,
    0.792,
    1.576,
    1.369644,
    1.995,
    1.081,
    1.312,
    0.813,
    1.095,
    0.732356,
    0.991671,
    0.784,
    1.10634,
    0.923,
    1.514,
    1.261,
    1.711768,
    1.860612,
    1.07313,
    1.072224,
    1.757,
    0.7,
    1.533,
    1.439897,
    1.823,
    2.219,
    1.68,
    0.842,
    1.023,
    1.161,
    0.707,
    1.184,
    0.745,
    0.857,
    1.518,
    1.121,
    1.261,
    1.299,
    0.693,
    1.54,
    1.095,
    1.080669,
    1.262,
    1.349809,
    2.156924,
    1.716522,
    1.38574,
    1.362,
    1.39826,
    1.775,
    1.809,
    1.493768,
    1.563,
    2.176,
    1.850124,
    1.742245,
    1.216479,
    1.654,
    0.82557,
    0.734,
    0.531,
    1.463,
    0.978,
    0.793,
    1.615,
    0.758,
    1.346,
    1.831,
    2.065415,
    1.332,
    1.606,
    1.565,
    1.854,
    3.208,
    2.376,
    1.372,
    1.775,
    1.873,
    1.794,
    2.105,
    2.276,
    2.698,
    3.5,
    1.915,
    1.08,
    0.865,
    0.565,
    0.615,
    1.121248,
    1.371,
    0.618,
    2.648,
    1.182,
    0.768,
    1.146,
    1.436,
    1.034,
    0.653,
    0.793,
    1.078,
    1.116177,
    1.105,
    0.660188,
    1.464,
    1.746,
    1.81551,
    1.075852,
    1.1,
    1.083736,
    1.696,
    2.3,
    1.835,
    2.848,
    2.037,
    2.405,
    1.62066,
    2.241,
    2.362,
    2.03,
    2.077,
    2.224359,
    1.938,
    2.003,
    2.26,
    1.644,
    2.248,
    2.161,
    1.991,
    1.954,
    1.796,
    2.426,
    2.524,
    1.995,
    1.921,
    2.334,
    2.086,
    1.68,
    1.57,
    1.586,
    2.802,
    2.272,
    2.561426,
    3.366,
    2.691,
    2.386,
    1.966,
    1.438,
    0.688,
    0.948,
    0.717,
    0.539897,
    1.376103,
    0.729,
    1.376,
    2.312103,
    1.146
  ],
  "5242880": [
    7.627,
    6.95,
    11.137,
    13.212,
    14.471,
    7.681,
    6.3,
    14.519,
    8.118,
    7.669,
    7.887,
    7.288,
    27.979,
    11.596,
    11.718,
    7.886,
    7.112,
    20.293,
    8.304,
    6.501,
    13.895,
    12.209,
    7.922,
    7.182,
    6.462,
    10.723386,
    8.193,
    9.266,
    9.291,
    16.55,
    11.65,
    6.182,
    6.113,
    6.031,
    17.728,
    12.025096,
    6.387,
    7.202,
    6.379,
    8.019,
    19.376,
    5.912,
    12.552,
    7.132,
    10.345,
    30.922,
    20.492
  ],
  "ALL": [
    1.971552,
    2.642015,
    1.411,
    2.004,
    2.021051,
    1.715,
    2.185068,
    2.298,
    1.66903,
    5.979397,
    5.890195,
    4.956644,
    7.616,
    5.822801,
    8.400454,
    1.626425,
    1.282,
    0.578,
    1.11,
    1.064,
    0.964331,
    1.233,
    2.066,
    1.844879,
    2.153,
    0.891,
    3.489,
    3.855903,
    7.627,
    6.95,
    11.137,
    1.679,
    1.328,
    1.177,
    1.229,
    1.789,
    1.701,
    1.65,
    1.555,
    1.241,
    1.72,
    1.784,
    1.68,
    1.995,
    4.471,
    13.212,
    1.747,
    1.525,
    1.24,
    1.166,
    1.479,
    1.329,
    1.32,
    2.873,
    2.181,
    1.739,
    1.45,
    1.426,
    5.596,
    4.206498,
    14.471,
    1.143,
    1.79,
    1.142,
    0.72,
    0.629,
    1.547,
    1.699,
    1.669,
    1.005,
    1.538,
    1.821376,
    1.299,
    1.496,
    7.681,
    6.3,
    14.519,
    2.054299,
    2.561,
    1.495,
    2.277,
    1.305388,
    2.015,
    1.862,
    2.489135,
    1.495,
    1.42,
    1.45,
    2.239,
    2.26,
    1.971,
    1.751,
    1.863695,
    1.679364,
    2.092595,
    1.699822,
    2.00927,
    1.189153,
    1.858985,
    2.269631,
    1.366628,
    1.380855,
    1.983985,
    2.506,
    1.816,
    1.796554,
    1.633731,
    4.283318,
    5.74673,
    1.068218,
    0.647,
    1.005,
    0.902,
    0.835,
    0.477,
    1.063088,
    1.842345,
    0.897,
    1.607,
    1.708175,
    2.417,
    3.433,
    2.576,
    1.747,
    1.931,
    0.694,
    0.619,
    1.191,
    1.685,
    0.862,
    0.675,
    0.730103,
    1.613,
    1.7,
    0.888,
    2.199,
    3.634,
    2.152,
    1.628828,
    0.938695,
    1.023124,
    0.707124,
    0.591897,
    0.663897,
    2.196587,
    0.932897,
    0.701,
    0.732403,
    1.552103,
    1.866206,
    1.141,
    1.062608,
    1.012103,
    4.260103,
    1.638,
    1.275,
    1.584,
    1.582,
    2.268,
    1.544,
    1.584,
    1.568,
    1.412,
    2.138,
    2.1,
    2.697,
    3.02,
    2.15,
    2.538,
    5.158,
    1.526,
    1.38,
    1.54573,
    1.399,
    1.3,
    1.71826,
    1.5694,
    1.422025,
    1.204149,
    2.188486,
    1.885818,
    1.857889,
    5.553,
    4.996854,
    7.226698,
    5.863,
    1.085672,
    0.845,
    1.803,
    1.138,
    2.048056,
    1.608,
    1.615649,
    1.317,
    1.753,
    1.261097,
    1.349,
    0.857,
    2.735,
    5.863,
    2.77,
    0.575,
    0.828,
    0.78,
    1.6,
    0.72,
    0.873,
    0.93,
    0.703,
    1.952,
    1.507,
    1.531,
    0.989,
    2.842,
    8.118,
    7.669,
    7.887,
    1.381,
    0.766,
    1.091,
    0.735,
    0.677,
    1.386,
    1.401,
    0.74,
    0.9,
    1.45938,
    1.849062,
    1.64,
    1.013,
    4.761,
    3.026,
    2.956,
    1.621,
    0.937,
    0.795,
    0.718,
    0.546,
    1.041,
    1.477,
    0.767,
    1.766,
    1.272,
    2.268,
    1.074035,
    1.117,
    1.053,
    1.964,
    7.288,
    1.348,
    1.418,
    2.184,
    0.759,
    0.878,
    1.771,
    2.432,
    1.638,
    1.132,
    0.999,
    2.049,
    3.347,
    1.372,
    1.242,
    3.754,
    27.979,
    1.947688,
    2.563597,
    1.621,
    2.15239,
    1.574,
    1.815284,
    1.965,
    1.652,
    2.114,
    2.395,
    3.068396,
    1.800244,
    2.089057,
    1.641716,
    6.109,
    1.71,
    2.181,
    1.446,
    1.404,
    2.047,
    2.39,
    2.523,
    2.068,
    2.007,
    1.784,
    2.191,
    1.798,
    1.585,
    6.218,
    5.717,
    5.076,
    1.732,
    1.211,
    2.203,
    1.967,
    1.182,
    1.807,
    1.37,
    1.446,
    1.674,
    2.039,
    1.826,
    1.597,
    1.534,
    7.314,
    7.604,
    11.596,
    1.134,
    0.68,
    1.333206,
    0.943,
    0.781,
    1.465,
    1.194,
    0.922,
    0.71,
    0.836897,
    0.730612,
    1.847206,
    1.343,
    1.191,
    1.235,
    4.411,
    2.0,
    1.439,
    2.05,
    2.292,
    1.498,
    1.826,
    1.569,
    1.496,
    2.544,
    2.106,
    2.803,
    2.035,
    2.008,
    1.769,
    6.839468,
    6.592,
    1.991,
    0.589,
    0.886,
    1.065,
    0.656,
    1.703,
    1.191,
    1.391,
    1.226,
    1.489,
    0.662,
    1.330275,
    1.078,
    1.157,
    0.982,
    3.96,
    1.515,
    1.741,
    1.984,
    1.464,
    1.446,
    1.958,
    3.551,
    1.637,
    1.72,
    2.213,
    2.608,
    2.092,
    2.18,
    6.573,
    5.031,
    11.718,
    1.542,
    0.81,
    0.972,
    0.829,
    1.118,
    1.048,
    1.569,
    0.841,
    1.491,
    1.0,
    1.179,
    15.349,
    2.456,
    7.886,
    7.112,
    20.293,
    1.738108,
    2.52464,
    2.01506,
    1.518,
    1.427561,
    1.471876,
    1.771568,
    1.567822,
    1.495605,
    2.113156,
    1.235876,
    2.044892,
    3.091472,
    1.757287,
    1.672,
    1.727,
    1.435,
    1.526,
    1.588,
    2.035,
    1.162,
    1.801,
    3.563481,
    1.381,
    2.121,
    1.891,
    1.768,
    1.682,
    5.04,
    5.323,
    4.928,
    1.901,
    1.15,
    1.502,
    1.485,
    1.373,
    1.741,
    1.708,
    1.367684,
    2.154,
    2.381,
    1.767,
    2.337,
    6.171552,
    20.083,
    4.538,
    6.71,
    1.884,
    1.841,
    1.634,
    1.401,
    2.125,
    1.949,
    2.484,
    1.609,
    1.491,
    1.213,
    1.956,
    2.272,
    1.787,
    2.72,
    4.395,
    6.36,
    1.65,
    1.603,
    1.729,
    1.393,
    1.774,
    2.323,
    1.719,
    1.354,
    1.971,
    1.487,
    2.062,
    1.804,
    1.43,
    6.298,
    5.257,
    0.506,
    0.976,
    0.668,
    1.661,
    1.046,
    1.399,
    1.383,
    0.753,
    1.492,
    1.327,
    1.108,
    3.251,
    1.878,
    4.012,
    8.304,
    6.501,
    1.054,
    0.85,
    0.781,
    1.033,
    1.517,
    1.308,
    2.246,
    0.93,
    1.463,
    1.528,
    1.642,
    1.862,
    1.265,
    1.069,
    4.567,
    13.895,
    1.156681,
    1.30859,
    0.783074,
    1.222081,
    1.255842,
    0.980567,
    0.718684,
    0.773,
    1.805494,
    1.16405,
    1.177386,
    3.832,
    2.102594,
    2.788538,
    3.33241,
    12.209,
    1.531,
    1.327,
    1.13,
    1.214,
    1.721,
    1.588,
    1.363,
    1.447897,
    1.967,
    2.086,
    1.777,
    1.955768,
    1.499,
    5.49627,
    6.210267,
    1.747,
    1.146,
    0.696,
    0.79,
    0.744,
    1.174,
    1.196,
    0.901,
    1.102,
    1.833,
    1.322,
    1.412981,
    5.959,
    4.211,
    2.844,
    7.922,
    1.137309,
    1.498011,
    0.934372,
    0.649,
    1.593,
    1.258,
    2.059445,
    2.396114,
    0.832,
    0.682,
    1.044,
    0.916481,
    3.983,
    3.029,
    2.609,
    7.182,
    1.718,
    1.403639,
    1.773,
    1.442937,
    1.528,
    1.408883,
    1.711032,
    1.339,
    2.25708,
    1.351,
    2.557624,
    2.378824,
    1.919,
    2.549,
    2.657,
    6.277169,
    2.205,
    1.564,
    1.929,
    9.542,
    2.761,
    1.976,
    1.592,
    1.456,
    2.234,
    2.407,
    2.048,
    1.725,
    9.14,
    8.157,
    9.396,
    1.221,
    0.595,
    1.216,
    1.492,
    0.771,
    0.714,
    1.15,
    0.996,
    0.739,
    1.425,
    1.300223,
    1.801,
    1.254,
    0.944,
    1.757,
    4.214,
    1.094,
    0.658,
    0.95,
    1.697,
    1.335,
    1.181,
    0.885,
    0.843,
    0.667,
    1.456,
    2.649,
    1.329,
    1.045,
    2.291,
    2.954,
    6.462,
    4.101,
    2.865,
    2.797,
    2.191,
    3.715,
    2.478,
    2.533,
    11.854,
    5.304,
    4.994,
    1.911,
    3.259,
    3.213,
    2.874,
    13.742,
    10.399,
    0.74,
    1.784,
    2.331,
    1.177,
    1.22,
    1.789,
    2.285,
    1.858,
    2.087195,
    1.822,
    1.416,
    1.338,
    4.051,
    4.291,
    7.6,
    6.687,
    1.084356,
    0.76,
    0.822,
    1.367,
    0.605,
    0.593,
    1.204,
    0.594,
    0.856,
    0.849,
    1.986,
    1.806,
    1.401,
    1.076008,
    1.217,
    2.297,
    1.87525,
    1.34525,
    1.779,
    1.33,
    1.267,
    1.697758,
    1.545124,
    1.249702,
    5.389152,
    2.074,
    2.284,
    1.728876,
    2.086097,
    4.796601,
    1.147,
    0.921,
    1.788,
    0.566,
    0.538,
    0.82,
    1.331,
    0.749,
    1.578,
    1.448,
    1.228,
    1.206,
    0.914,
    11.883,
    3.243,
    4.46,
    1.305041,
    0.844,
    1.233111,
    0.889,
    1.080281,
    1.3376,
    0.943889,
    1.785305,
    1.474,
    2.379,
    1.013,
    4.574,
    2.48,
    4.045,
    3.776338,
    10.723386,
    2.142705,
    1.503,
    2.41,
    1.999,
    0.545,
    0.646,
    0.926,
    0.658,
    1.523,
    1.856342,
    1.957,
    0.823,
    3.863,
    4.019,
    2.344,
    8.193,
    1.598,
    1.591,
    3.112,
    1.517,
    1.71,
    0.955,
    0.677,
    3.64872,
    1.177,
    1.047263,
    1.275,
    3.576,
    3.634,
    9.266,
    9.291,
    1.258,
    1.387,
    1.227,
    1.423,
    0.868,
    1.267,
    1.105889,
    1.679889,
    1.625,
    0.877,
    1.449025,
    1.915111,
    1.453,
    1.314,
    4.475,
    3.923,
    1.722,
    1.71431,
    1.274,
    1.907,
    2.314773,
    1.817,
    1.458,
    1.810924,
    1.855,
    2.072,
    1.721,
    5.228,
    4.351,
    5.188,
    5.273,
    1.369,
    1.648,
    1.075,
    1.441,
    0.969,
    1.245,
    1.135,
    0.873,
    1.482,
    1.559,
    1.9661,
    1.276,
    1.27,
    2.298,
    2.669,
    1.794,
    1.949,
    1.91,
    2.022,
    1.958,
    2.332877,
    1.399601,
    1.355108,
    2.038,
    2.290135,
    1.798,
    1.698735,
    6.229,
    5.453,
    16.55,
    1.686,
    2.379,
    1.581,
    1.369,
    1.237,
    1.79522,
    1.652,
    1.472,
    1.495,
    1.837,
    1.872,
    1.752,
    6.712,
    5.219,
    5.577,
    1.165,
    0.701,
    0.969,
    1.05,
    0.747,
    1.571,
    1.718,
    0.942,
    1.594,
    0.938,
    1.801,
    1.878,
    1.23026,
    3.133,
    3.669,
    11.65,
    1.344,
    0.997,
    0.769,
    0.956,
    1.398,
    1.622,
    1.712,
    1.57438,
    1.859118,
    1.221,
    1.683,
    2.801,
    2.162,
    3.039,
    2.427,
    3.635,
    1.39,
    1.533,
    1.141,
    1.349474,
    0.713,
    0.752,
    2.029,
    1.617,
    1.926,
    1.475,
    2.507,
    3.62,
    2.854,
    6.182,
    6.113,
    6.031,
    1.915,
    1.541,
    2.305,
    2.005,
    1.81,
    1.999,
    1.526,
    1.373,
    2.288,
    2.162,
    2.475,
    5.964,
    5.015,
    6.182,
    8.358,
    1.74,
    2.393,
    1.649,
    1.369775,
    1.378,
    1.937,
    2.083,
    1.704,
    1.606,
    1.452,
    2.091,
    2.322,
    1.609,
    6.308,
    5.074,
    1.315,
    2.436,
    1.322,
    1.241,
    1.56,
    2.373,
    2.126,
    1.838298,
    2.448,
    1.691,
    1.638,
    5.925,
    7.074,
    17.728,
    2.08,
    1.449,
    2.765,
    1.639,
    1.682,
    1.816,
    2.345,
    2.015,
    1.656,
    1.519,
    1.559,
    2.117,
    2.713,
    1.926,
    2.141,
    6.453,
    1.716964,
    1.465744,
    1.350843,
    1.169981,
    1.161,
    1.731386,
    2.183244,
    1.329,
    1.893,
    2.103277,
    1.705369,
    1.585,
    4.648111,
    3.87352,
    4.9932,
    4.920554,
    1.227,
    1.14,
    1.01,
    0.832629,
    1.162,
    1.332,
    0.969947,
    2.012463,
    1.018,
    1.648,
    1.680741,
    1.335,
    1.279913,
    1.122947,
    2.709012,
    12.025096,
    1.129,
    1.5,
    0.918,
    1.471,
    1.298,
    0.628,
    1.115,
    0.969,
    1.783,
    0.747,
    1.546,
    2.374,
    3.532,
    17.355,
    2.41,
    6.387,
    1.184,
    0.605,
    0.906,
    0.715,
    1.88,
    0.472,
    1.116,
    1.725,
    0.783,
    0.786,
    1.39,
    3.151,
    2.067,
    1.264,
    1.105,
    7.202,
    1.153308,
    0.76581,
    0.807597,
    0.623,
    1.107568,
    1.767,
    0.833,
    0.691,
    0.830945,
    1.477,
    2.310552,
    1.141,
    1.473,
    4.461103,
    6.379,
    1.17,
    0.966,
    0.953,
    0.717,
    0.774,
    0.556,
    0.969,
    0.668,
    1.479,
    0.765,
    1.517,
    1.872,
    1.091,
    1.154,
    0.915,
    1.214,
    0.664,
    2.413,
    0.704,
    0.634,
    1.448,
    1.261,
    1.108,
    0.792,
    1.576,
    1.369644,
    1.995,
    1.081,
    1.312,
    0.813,
    3.404,
    1.095,
    0.732356,
    0.991671,
    0.784,
    1.10634,
    0.923,
    1.514,
    1.261,
    1.711768,
    1.860612,
    1.07313,
    1.072224,
    1.757,
    1.801,
    5.238,
    8.019,
    0.7,
    1.533,
    1.439897,
    1.823,
    2.219,
    1.68,
    0.842,
    1.023,
    3.655,
    19.057,
    5.726,
    8.8,
    6.339,
    19.376,
    1.161,
    0.707,
    1.184,
    0.745,
    0.857,
    1.518,
    1.121,
    1.261,
    1.299,
    0.693,
    1.54,
    1.095,
    1.080669,
    1.262,
    14.254,
    4.437,
    1.349809,
    2.156924,
    1.716522,
    1.38574,
    1.362,
    1.39826,
    1.775,
    1.809,
    1.493768,
    1.563,
    2.176,
    1.850124,
    1.742245,
    6.623699,
    5.445681,
    6.535,
    1.216479,
    1.654,
    0.82557,
    0.734,
    0.531,
    1.463,
    0.978,
    0.793,
    1.615,
    0.758,
    1.346,
    1.831,
    2.065415,
    1.332,
    1.606,
    4.639897,
    1.565,
    1.854,
    3.208,
    2.376,
    1.372,
    1.775,
    1.873,
    1.794,
    2.105,
    2.276,
    2.698,
    3.5,
    1.915,
    6.75,
    8.556,
    9.863,
    1.08,
    0.865,
    0.565,
    0.615,
    1.121248,
    1.371,
    0.618,
    2.648,
    1.182,
    0.768,
    1.873,
    4.523,
    2.291,
    5.912,
    12.552,
    7.132,
    1.146,
    1.436,
    1.034,
    0.653,
    0.793,
    1.078,
    1.116177,
    1.105,
    0.660188,
    1.464,
    1.746,
    1.81551,
    1.075852,
    1.1,
    1.083736,
    10.345,
    1.696,
    2.3,
    1.835,
    2.848,
    2.037,
    2.405,
    1.62066,
    2.241,
    2.362,
    2.03,
    2.077,
    2.224359,
    6.232729,
    7.187103,
    1.938,
    2.003,
    2.26,
    1.644,
    2.248,
    2.161,
    1.991,
    1.954,
    1.796,
    2.426,
    2.524,
    1.995,
    1.921,
    2.334,
    5.217,
    2.086,
    1.68,
    1.57,
    1.586,
    2.802,
    2.272,
    2.561426,
    3.366,
    2.691,
    2.386,
    1.966,
    6.644,
    8.887,
    7.593,
    30.922,
    20.492,
    1.438,
    0.688,
    0.948,
    0.717,
    0.539897,
    1.376103,
    0.729,
    1.376,
    2.312103,
    1.146,
    2.34,
    4.03,
    3.366,
    2.316
  ]
}