[
  1.097493,
  1.042037,
  1.068152,
  1.110369,
  1.095088,
  0.973963,
  1.061753,
  1.05481,
  1.05,
  1.518931,
  1.140453,
  0.874037,
  1.04,
  0.991,
  1.061,
  1.302152,
  0.22265,
  0.960281,
  0.982,
  1.102716,
  1.055733,
  1.177,
  1.092,
  1.030152,
  1.018,
  1.09286,
  1.159,
  0.982152,
  0.920284,
  0.984152,
  0.966075,
  0.975209,
  0.962,
  1.045,
  1.049,
  0.947152,
  1.069831,
  0.977607,
  0.928651,
  1.156,
  1.105123,
  1.062165,
  0.999152,
  1.054078,
  0.992445,
  1.158555,
  1.069284,
  0.936686,
  1.047,
  0.972284,
  1.082,
  0.972152,
  1.048,
  0.958,
  0.227256,
  1.017356,
  0.985435,
  1.06357,
  1.046284,
  0.94386,
  0.398,
  0.877,
  0.448,
  0.523903,
  0.385,
  0.559,
  0.509,
  0.56,
  0.409,
  0.583,
  0.607,
  0.492,
  0.75,
  0.764,
  1.048,
  0.958903,
  0.52,
  0.539,
  0.443903,
  0.431,
  0.829,
  0.582,
  0.2082,
  0.513,
  0.436,
  0.785,
  0.596903,
  0.601,
  0.962,
  0.354,
  0.474,
  0.486903,
  0.418,
  0.456,
  1.160903,
  0.458,
  0.503,
  0.966903,
  0.431,
  1.594,
  0.454,
  0.802,
  0.456,
  0.642903,
  0.405,
  0.525,
  0.401903,
  0.736,
  1.044,
  0.406903,
  0.2052,
  0.508,
  0.367,
  1.575,
  0.469,
  0.515,
  0.481,
  4.349,
  1.042,
  1.034794,
  1.332,
  1.13,
  1.145,
  1.053352,
  1.062,
  1.065,
  1.069,
  1.387,
  1.144,
  1.076506,
  1.039794,
  1.363,
  1.041,
  1.427964,
  1.104794,
  1.172,
  0.295,
  1.073352,
  1.154,
  1.048,
  1.062,
  1.027698,
  1.133352,
  1.15,
  1.088781,
  1.105352,
  1.026,
  1.049,
  1.033,
  1.383352,
  1.076,
  1.451,
  1.076,
  1.072,
  1.183352,
  1.129,
  1.059,
  1.201226,
  8.470352,
  1.079,
  1.065576,
  1.038,
  1.163352,
  1.170897,
  1.063,
  1.094,
  1.088,
  1.121352,
  1.06867,
  1.09,
  1.182352,
  1.068698,
  1.270219,
  1.084352,
  1.078,
  1.188698,
  1.425,
  1.062,
  0.505,
  0.342,
  0.423778,
  0.349,
  0.405111,
  0.380907,
  0.377,
  0.371,
  0.437,
  0.394,
  0.453979,
  2.957,
  0.7,
  0.336192,
  0.434,
  0.505,
  0.337111,
  0.37,
  0.375,
  0.332111,
  0.385,
  0.203881,
  0.372008,
  0.379,
  0.393111,
  0.455,
  0.4,
  0.344111,
  0.557,
  0.40872,
  0.386,
  0.595111,
  0.373,
  0.555821,
  0.47863,
  0.454111,
  0.336,
  0.43,
  0.451,
  0.418111,
  0.346,
  0.415,
  0.472,
  0.356,
  0.382111,
  0.36958,
  0.451,
  0.476,
  0.491111,
  0.467,
  0.725,
  0.477111,
  0.35,
  0.354,
  0.368,
  0.347,
  0.400836,
  0.38,
  0.395,
  0.203881,
  0.366539,
  0.544461,
  0.043,
  0.26,
  0.253,
  0.276,
  0.314,
  0.289,
  0.327,
  0.38,
  0.302,
  0.293,
  0.651,
  0.318,
  0.236539,
  0.278516,
  0.24,
  0.286,
  0.263774,
  0.444539,
  0.312,
  0.233052,
  0.346704,
  0.329539,
  0.24,
  0.482284,
  0.406539,
  0.279448,
  0.295,
  0.246,
  0.309539,
  0.461,
  0.296018,
  0.306,
  0.183718,
  0.504539,
  0.587,
  0.339,
  0.458,
  0.299539,
  0.404,
  0.303,
  0.294,
  0.273539,
  0.283,
  0.602,
  0.415,
  0.306539,
  0.35,
  0.32,
  0.309018,
  0.295539,
  0.309105,
  0.249,
  0.228,
  0.223,
  0.334,
  0.297313,
  0.530206,
  0.357,
  0.173858,
  0.382,
  0.363097,
  1.341,
  0.361,
  0.352,
  0.39,
  0.384,
  0.34,
  0.403,
  0.558,
  0.364,
  0.383,
  0.460103,
  0.316,
  0.298,
  0.368,
  0.342008,
  0.401103,
  0.458,
  0.344,
  0.368,
  1.214103,
  0.371,
  0.569,
  0.524,
  0.352103,
  0.303897,
  0.281,
  0.298,
  0.314103,
  0.381,
  0.383,
  0.432103,
  0.922,
  0.312,
  1.944194,
  0.446103,
  0.077,
  0.492,
  0.433,
  0.322,
  0.32,
  0.346103,
  0.36,
  0.404876,
  4.942103,
  0.409,
  0.421,
  0.341,
  0.367103,
  0.318,
  0.403,
  0.495,
  0.33,
  0.599,
  0.465,
  0.523,
  0.374107,
  0.530143,
  0.347387,
  0.400903,
  0.657,
  0.642,
  0.850558,
  0.332,
  0.391097,
  0.333927,
  0.395,
  0.567,
  0.369,
  0.332,
  0.421903,
  0.38468,
  0.666,
  0.41,
  0.357903,
  0.624,
  0.414,
  0.422903,
  0.326,
  40.586,
  0.326097,
  0.580903,
  0.519,
  0.433,
  0.2082,
  0.658,
  0.363,
  0.40888,
  0.648,
  0.364,
  0.823797,
  1.167,
  0.329,
  0.426,
  0.677903,
  0.42412,
  0.664,
  0.324,
  0.465,
  0.591,
  0.346,
  0.509974,
  0.435903,
  0.343,
  0.363,
  0.585255,
  0.381941,
  0.661,
  0.372022,
  0.36,
  0.813,
  0.660576,
  1.5,
  0.307,
  0.546,
  0.406,
  0.476522,
  0.383806,
  0.416,
  0.409,
  0.681,
  0.483,
  0.722,
  0.673,
  0.446102,
  0.066,
  0.572,
  1.076743,
  0.496,
  0.540522,
  0.435,
  0.426,
  0.392,
  0.453522,
  0.418113,
  0.401,
  1.635,
  0.661522,
  0.441,
  0.408255,
  3.482522,
  0.425,
  0.395478,
  0.458,
  0.416,
  0.879522,
  0.445984,
  0.382478,
  0.069154,
  0.593,
  0.534561,
  0.396439,
  0.389,
  0.439522,
  0.794587,
  0.390478,
  0.425,
  0.404,
  0.510522,
  0.417,
  0.438,
  0.417522,
  0.518439,
  0.644989,
  0.372,
  0.546522,
  0.462347,
  0.384,
  0.422,
  7.779737,
  0.476456,
  0.698,
  0.47,
  0.411,
  0.374,
  0.442,
  0.530903,
  0.424,
  0.644,
  0.384,
  0.453,
  0.402,
  0.613,
  0.371,
  0.492,
  0.53,
  0.393999,
  0.555,
  0.433,
  0.4,
  0.562,
  0.417903,
  0.394,
  0.435,
  0.434,
  0.644903,
  0.374,
  0.415898,
  0.491903,
  0.485,
  0.352,
  0.427,
  0.394,
  0.373903,
  0.431,
  0.522,
  0.596903,
  0.173954,
  0.423,
  0.426,
  0.595,
  0.424903,
  0.4,
  0.465,
  0.398,
  0.404,
  0.560903,
  0.382,
  0.419,
  0.453903,
  0.42,
  0.418,
  0.416713,
  0.504,
  0.703,
  0.427,
  0.424,
  0.836,
  0.398,
  0.41,
  0.845,
  0.987,
  0.225,
  0.951,
  1.067,
  0.760339,
  0.829,
  0.871206,
  1.178,
  0.778,
  0.793,
  0.851,
  0.833,
  0.876182,
  0.951117,
  1.25,
  0.882339,
  0.857,
  0.952854,
  0.871339,
  1.232,
  1.178,
  0.754,
  0.863,
  0.972339,
  0.774629,
  0.973339,
  0.988,
  0.857,
  0.929,
  0.88,
  0.829339,
  0.789,
  1.181,
  0.871,
  0.875,
  1.237212,
  0.939339,
  0.821,
  0.876339,
  0.952,
  1.19,
  0.931,
  0.851339,
  0.715,
  0.727,
  1.179,
  0.818,
  0.918,
  0.849339,
  0.902,
  0.928339,
  0.891685,
  0.839,
  1.139339,
  0.987,
  0.752,
  0.776,
  0.72,
  0.869,
  1.238978,
  0.357,
  0.365,
  0.326,
  0.339763,
  0.361,
  0.329,
  0.584,
  0.392,
  0.474,
  0.412,
  0.398,
  1.063,
  0.623,
  0.351,
  0.423,
  0.443,
  0.392,
  0.379,
  0.624763,
  0.34,
  0.369,
  0.420763,
  0.445,
  0.51,
  0.386,
  0.409763,
  0.354,
  0.19834,
  0.450454,
  0.326,
  0.363,
  0.369763,
  0.36,
  0.489,
  0.486763,
  0.402,
  0.282409,
  1.445763,
  0.422,
  0.358,
  0.974,
  0.657,
  0.412,
  0.409763,
  0.438,
  0.356,
  0.396763,
  0.951,
  0.432,
  0.455763,
  0.426924,
  0.353,
  0.477,
  0.333,
  0.321,
  0.385,
  0.786,
  0.366,
  0.361237,
  0.592763,
  0.415109,
  0.426,
  0.341,
  0.41,
  0.48,
  0.65,
  0.507557,
  1.591,
  0.353,
  0.304,
  0.355,
  0.316763,
  0.341,
  0.424,
  0.33,
  0.352763,
  0.321,
  0.337513,
  0.418,
  0.526763,
  0.586,
  0.500943,
  0.346,
  0.46,
  0.20834,
  0.405559,
  0.448,
  0.422,
  0.399763,
  0.351,
  0.358675,
  0.354763,
  0.521,
  0.356237,
  0.567763,
  0.503312,
  0.362,
  0.368842,
  0.329,
  0.426,
  0.455763,
  0.780916,
  0.361044,
  0.373,
  0.317763,
  0.350488,
  0.457821,
  0.462763,
  0.472129,
  0.345,
  0.421,
  0.341,
  0.354,
  0.447189,
  1.051,
  0.928898,
  0.861559,
  0.83304,
  0.80383,
  0.895,
  0.812,
  1.436,
  0.847796,
  0.798354,
  0.832,
  0.770958,
  1.151,
  1.055786,
  0.896716,
  0.837456,
  0.25118,
  0.802104,
  0.830716,
  0.891956,
  0.9,
  0.736616,
  0.954,
  0.805716,
  0.968786,
  0.925716,
  0.775,
  0.823992,
  0.868472,
  0.757528,
  0.823716,
  0.883819,
  0.792181,
  0.758219,
  0.672716,
  0.872214,
  0.789,
  0.781767,
  0.997716,
  0.923053,
  0.821948,
  0.874,
  0.80088,
  0.866,
  0.792,
  0.921786,
  0.790515,
  0.859716,
  0.806644,
  0.846,
  0.725716,
  0.984,
  0.880687,
  0.872716,
  0.148008,
  0.849,
  0.985,
  0.784,
  0.748,
  0.66,
  0.342222,
  0.339,
  0.396,
  0.522,
  0.594,
  0.36,
  0.40474,
  0.406926,
  0.406,
  0.553,
  0.335,
  0.421,
  1.282403,
  0.385,
  0.342,
  0.358,
  0.345,
  0.518403,
  0.414,
  0.390837,
  0.526,
  0.434403,
  0.428,
  0.359,
  0.482403,
  0.382,
  0.410244,
  0.45,
  0.341,
  0.627403,
  0.521197,
  0.403,
  0.067422,
  0.312403,
  0.343292,
  0.437,
  0.342,
  0.391403,
  0.352,
  0.371,
  0.313,
  0.535403,
  0.385,
  0.494,
  0.522,
  0.410403,
  0.666,
  0.719559,
  0.466403,
  0.681,
  0.404,
  0.397,
  0.347,
  0.344,
  0.354778,
  0.295,
  0.347,
  0.303103,
  0.368777,
  0.274,
  0.282,
  0.315897,
  0.338388,
  0.34,
  0.302897,
  0.644,
  0.301,
  0.607,
  0.397671,
  0.320103,
  0.39,
  0.366,
  0.346,
  0.337103,
  0.537,
  0.344,
  0.325103,
  0.052,
  0.347,
  0.421897,
  0.392,
  0.891,
  0.343103,
  0.347876,
  0.352,
  0.283,
  0.349103,
  0.312,
  0.444897,
  0.711692,
  0.336,
  0.322,
  0.354,
  0.404,
  0.294,
  0.314,
  0.397,
  0.291,
  0.302,
  0.724103,
  0.317,
  0.31859,
  0.296103,
  0.634,
  0.437348,
  0.388103,
  0.389,
  0.435,
  0.372752,
  0.365,
  0.387,
  0.361,
  0.351,
  0.548103,
  0.336,
  0.416,
  0.328,
  0.381,
  0.326,
  0.324462,
  0.647,
  0.32104,
  0.551,
  0.643083,
  0.345,
  0.804103,
  0.329897,
  0.385,
  0.303,
  0.462103,
  0.324,
  0.45,
  0.313,
  0.378103,
  1.44,
  0.338,
  0.346008,
  0.494797,
  0.529103,
  0.31,
  0.322,
  0.333,
  0.476103,
  0.354,
  0.424646,
  0.262103,
  0.298,
  0.493,
  0.368,
  0.557,
  0.332,
  0.333752,
  0.365,
  0.309,
  0.361103,
  0.478,
  0.324,
  0.362103,
  0.377897,
  0.505,
  1.075103,
  0.405,
  0.347,
  0.358,
  0.31,
  0.373,
  0.351,
  0.372,
  1.144,
  1.050443,
  1.15,
  1.765897,
  1.157,
  1.309,
  1.04,
  1.017,
  1.04,
  1.216,
  1.172,
  1.059897,
  1.147,
  1.087,
  1.019,
  1.098352,
  1.072,
  1.337897,
  1.363888,
  1.172352,
  1.025889,
  1.225,
  1.04,
  1.043,
  1.048352,
  1.24,
  1.116,
  1.303352,
  1.097,
  1.041,
  1.112,
  1.037352,
  1.028752,
  1.046,
  1.045,
  1.033897,
  0.293597,
  1.055352,
  1.173777,
  1.035,
  1.069352,
  1.327,
  1.065,
  1.015,
  1.046352,
  1.029,
  1.048,
  1.049,
  1.116,
  1.198352,
  1.099,
  1.070897,
  1.169352,
  1.078,
  1.059536,
  1.149352,
  1.076,
  1.172897,
  1.033,
  1.058,
  1.31,
  0.0568,
  0.345747,
  0.452,
  0.492599,
  0.318285,
  0.356,
  0.365,
  0.635998,
  0.382655,
  0.352347,
  0.693,
  0.412,
  0.374325,
  0.817475,
  0.784553,
  0.354,
  0.814,
  0.43,
  0.342,
  0.487571,
  0.338931,
  0.357,
  1.654,
  0.353571,
  0.319,
  0.331152,
  0.3652,
  0.369571,
  0.395429,
  0.373,
  0.345734,
  0.397571,
  0.319,
  0.59886,
  0.335571,
  0.361,
  0.457,
  0.377,
  0.322488,
  0.784226,
  0.439,
  0.36,
  0.469,
  0.355571,
  0.328,
  0.348,
  0.463038,
  0.485571,
  0.688285,
  0.384,
  0.341571,
  0.320255,
  0.821429,
  0.397,
  0.351,
  0.425,
  0.361212,
  0.3,
  1.194,
  1.135384,
  1.121016,
  1.273042,
  1.661935,
  1.215262,
  1.49,
  1.282362,
  1.444901,
  1.295907,
  1.088426,
  2.034206,
  1.307468,
  1.351293,
  1.3,
  2.389754,
  1.19461,
  1.228,
  2.04996,
  1.16379,
  1.208968,
  1.17979,
  1.235121,
  1.179754,
  1.265639,
  1.267325,
  1.463522,
  1.189235,
  1.442103,
  1.557962,
  1.182754,
  1.45771,
  1.193276,
  1.290934,
  0.336225,
  1.344907,
  1.101615,
  1.140745,
  1.424442,
  1.352754,
  1.431322,
  1.159447,
  1.383805,
  1.206456,
  1.177,
  1.459,
  1.447,
  1.250501,
  1.256047,
  1.179289,
  1.272631,
  1.208657,
  1.154,
  1.219536,
  1.214611,
  1.200113,
  1.389922,
  1.487,
  1.209066,
  0.545048,
  0.360405,
  0.349302,
  0.341698,
  0.327302,
  0.370698,
  0.4,
  0.32309,
  1.172302,
  0.400698,
  0.434144,
  0.342302,
  0.427802,
  0.386302,
  0.590724,
  0.240122,
  0.343,
  0.313302,
  0.350698,
  0.330302,
  0.287683,
  0.369317,
  0.317,
  0.462302,
  0.364698,
  0.402302,
  0.395698,
  0.412425,
  0.337,
  0.332604,
  0.387396,
  0.462,
  0.630143,
  0.622,
  0.343,
  0.385,
  0.367,
  0.336158,
  0.315302,
  0.306,
  0.36,
  0.329,
  0.322158,
  0.24731,
  0.342466,
  0.472319,
  0.332302,
  0.336302,
  0.385302,
  0.448698,
  0.325194,
  0.730897,
  0.337691,
  0.355,
  0.36,
  0.436,
  0.322,
  0.506,
  0.333,
  0.356223,
  0.364,
  0.384,
  0.373586,
  0.362,
  0.843,
  0.453,
  0.321,
  0.608,
  0.308,
  0.475,
  0.707,
  0.323223,
  0.376224,
  0.367,
  0.350223,
  0.352,
  0.317897,
  0.544,
  0.428358,
  0.331302,
  0.47558,
  0.322586,
  0.474223,
  0.595,
  0.346888,
  0.348463,
  0.351,
  0.354,
  0.354,
  34.222223,
  0.367223,
  0.404,
  0.587,
  0.356777,
  0.782223,
  0.403,
  0.784,
  0.342,
  0.318,
  0.457223,
  0.388,
  0.317,
  0.378223,
  0.393789,
  0.58837,
  2.081452,
  0.413223,
  0.349832,
  0.402,
  0.315713,
  0.337,
  0.412,
  0.364,
  0.555872,
  0.057,
  0.23,
  1.132897,
  0.322103,
  0.318835,
  0.3,
  0.285,
  0.416389,
  0.304,
  0.622,
  0.428,
  0.336,
  0.361,
  0.406,
  0.396,
  0.323103,
  0.323,
  0.326,
  0.321,
  0.295103,
  0.418,
  0.315,
  0.429284,
  0.381,
  0.049,
  0.251823,
  0.341613,
  0.304,
  0.245103,
  0.289,
  0.313,
  0.291,
  0.284103,
  0.362,
  0.337823,
  0.276103,
  0.277246,
  0.3,
  0.258,
  0.296103,
  0.338389,
  0.374,
  0.298,
  0.319,
  0.282103,
  0.313,
  0.374,
  0.286103,
  0.799,
  0.343,
  0.402,
  0.265103,
  0.327941,
  0.347008,
  0.618,
  0.308,
  0.298,
  0.391356,
  0.367,
  0.407,
  0.288,
  0.521103,
  1.014443,
  0.39,
  0.3,
  0.346777,
  0.35,
  0.380547,
  0.378897,
  0.528235,
  0.328897,
  0.514,
  0.661801,
  0.325103,
  0.411,
  0.365,
  0.343,
  0.316103,
  0.677,
  0.4498,
  0.277897,
  0.322698,
  0.489103,
  0.313103,
  0.360953,
  0.594103,
  0.314,
  0.289323,
  0.302461,
  0.295,
  0.32365,
  0.268,
  0.454897,
  0.297667,
  0.315726,
  0.291474,
  0.352103,
  0.356706,
  0.391,
  0.324897,
  0.320216,
  0.301784,
  0.401759,
  0.334876,
  0.421103,
  0.349344,
  0.403532,
  0.602784,
  0.326103,
  0.321,
  0.301757,
  0.321667,
  0.292889,
  0.402,
  0.366,
  1.21,
  1.055,
  1.088,
  1.314,
  1.224,
  1.452254,
  1.09,
  1.095473,
  1.174,
  1.117,
  1.221,
  1.179555,
  1.151,
  1.187,
  1.131,
  1.283254,
  1.094,
  1.159064,
  1.135,
  1.424098,
  1.182254,
  1.175074,
  1.181,
  1.094,
  1.182254,
  1.241156,
  1.071254,
  1.127,
  1.163097,
  1.300097,
  1.602,
  1.300254,
  1.124,
  1.164,
  1.364,
  1.085682,
  1.178254,
  1.1997,
  1.115254,
  1.137008,
  1.299,
  1.117555,
  1.142254,
  1.282,
  1.182,
  1.089,
  1.208,
  1.191666,
  0.325,
  1.175,
  1.368,
  1.040254,
  1.062367,
  1.117254,
  1.361,
  1.195,
  1.074,
  1.088,
  1.160385,
  1.384254,
  1.172,
  1.141,
  1.207,
  1.447,
  1.991,
  1.195,
  1.149,
  1.141,
  1.227,
  1.197,
  1.249,
  1.158,
  1.311,
  1.254,
  1.654,
  1.272,
  1.241021,
  1.184,
  1.417,
  1.503,
  1.254,
  2.183021,
  1.727,
  1.354,
  1.215,
  2.619021,
  0.356,
  1.264,
  1.379,
  1.326021,
  1.263,
  1.534,
  1.168021,
  1.298,
  1.236,
  10.386,
  3.133,
  1.575,
  1.178021,
  7.235,
  1.621,
  1.247021,
  5.428,
  1.297021,
  1.27,
  1.268,
  4.066,
  1.196,
  1.248,
  1.216,
  1.28,
  1.197,
  1.216,
  1.426021,
  1.555958,
  1.365021,
  1.314,
  1.283,
  1.185,
  1.006164,
  2.08,
  1.264,
  0.543,
  1.332,
  0.557,
  0.453903,
  0.698,
  0.724,
  0.748,
  0.431,
  0.573106,
  28.411,
  0.52,
  0.499,
  3.49,
  0.35,
  1.127903,
  0.654,
  0.73,
  0.49,
  1.440903,
  0.725,
  0.46,
  0.818,
  7.793,
  9.351903,
  0.699,
  0.64,
  0.337903,
  1.116,
  0.372776,
  0.366,
  0.559903,
  0.897,
  0.441,
  0.477,
  0.482903,
  0.458,
  0.467,
  0.429,
  0.660903,
  1.33,
  0.85,
  0.762,
  0.331903,
  0.332,
  0.758,
  0.735,
  0.359208,
  0.595903,
  0.513,
  0.677,
  0.405,
  0.493903,
  1.426,
  0.75,
  0.685,
  0.396,
  0.7,
  1.799007,
  0.941602,
  1.534,
  1.002179,
  0.991,
  1.103738,
  0.254,
  1.077,
  0.923,
  0.938,
  1.131,
  1.05,
  0.944624,
  1.665383,
  0.862,
  1.018806,
  1.011665,
  1.009561,
  1.115073,
  0.944,
  0.996561,
  1.029,
  0.981,
  0.94,
  1.029,
  0.990561,
  1.101,
  0.944,
  1.048561,
  1.08,
  0.971665,
  1.346281,
  3.819889,
  0.970561,
  0.983,
  0.93,
  0.89,
  0.888419,
  0.986561,
  0.93,
  1.001,
  1.925561,
  1.319889,
  1.522,
  1.012,
  0.989561,
  0.940893,
  0.94,
  0.934,
  1.116567,
  0.896561,
  0.916,
  0.956,
  0.930561,
  0.904159,
  1.013,
  0.954561,
  0.977179,
  0.98,
  0.953,
  0.955,
  1.498558,
  1.077,
  1.060462,
  1.072,
  1.318,
  1.305,
  1.098352,
  0.287,
  1.041794,
  1.135,
  1.057,
  1.599,
  1.129777,
  1.321,
  1.211,
  1.13,
  1.056,
  1.024352,
  1.085,
  1.889,
  1.079352,
  1.116,
  1.102,
  1.033097,
  1.111,
  1.05343,
  1.067,
  1.078,
  1.567352,
  1.119,
  1.048,
  1.060794,
  1.206352,
  1.075,
  1.057,
  1.075,
  1.11585,
  1.047352,
  1.043,
  1.195752,
  1.193352,
  1.165,
  1.074,
  1.072876,
  1.114352,
  1.228,
  1.024,
  1.094,
  1.069,
  1.044352,
  1.16,
  1.09,
  1.000352,
  1.475,
  1.040752,
  0.292,
  1.055,
  1.045,
  1.144,
  1.046,
  1.118,
  0.932992,
  0.962,
  1.100112,
  0.995174,
  1.08023,
  0.988258,
  0.944777,
  0.943,
  1.045,
  0.958,
  0.932,
  1.05823,
  1.041252,
  0.945,
  0.929,
  1.004,
  0.961,
  0.944027,
  1.22435,
  1.05923,
  1.288,
  0.950674,
  1.31,
  0.961647,
  1.09423,
  0.97,
  0.96923,
  0.926,
  0.973,
  0.956,
  0.981,
  0.96823,
  0.945,
  1.009,
  0.969,
  0.982777,
  0.93023,
  0.928,
  1.02823,
  0.994,
  1.016,
  1.027,
  1.02823,
  1.22735,
  1.023,
  0.959,
  1.052,
  1.067,
  0.97435,
  1.42123,
  0.943543,
  0.94723,
  0.946,
  0.95,
  0.92923,
  0.958,
  0.991,
  1.399,
  0.945,
  0.97,
  0.866,
  0.927,
  0.878759,
  1.007,
  0.878356,
  0.931249,
  0.914172,
  0.928,
  0.905,
  8.009,
  0.904,
  0.975587,
  1.024897,
  1.310597,
  1.126049,
  0.937356,
  1.239,
  0.989,
  0.878356,
  0.917963,
  0.928,
  0.948,
  1.522175,
  0.922763,
  0.962356,
  0.852,
  1.043,
  0.892356,
  0.904,
  1.098,
  1.039215,
  0.900356,
  0.931,
  0.929,
  0.906,
  0.907,
  0.908356,
  0.311175,
  0.918,
  0.901,
  0.936356,
  0.949,
  1.088586,
  0.948,
  0.871356,
  0.903,
  0.91,
  1.046,
  0.96337,
  1.038356,
  1.108,
  0.941,
  0.947356,
  0.878897,
  0.986825,
  0.953356,
  0.979804,
  0.913777,
  0.973,
  1.035,
  0.955,
  0.981445,
  0.978,
  1.16,
  1.084942,
  1.115,
  1.035,
  1.503,
  1.5,
  1.101,
  0.984,
  1.111,
  1.04,
  1.172094,
  1.145,
  1.216519,
  1.024,
  1.018519,
  1.045,
  1.048,
  1.502,
  1.052889,
  1.069,
  1.025235,
  1.081,
  1.128,
  1.198519,
  1.199,
  1.082173,
  1.359824,
  1.495,
  1.496,
  1.495,
  1.327,
  1.107,
  1.122519,
  1.255,
  1.157,
  1.077841,
  1.190519,
  1.066,
  1.266,
  1.186519,
  1.022,
  1.025,
  1.039,
  0.994897,
  1.066519,
  1.022,
  1.343698,
  1.351,
  1.123519,
  1.356,
  1.422388,
  1.114519,
  1.058,
  1.049,
  1.491,
  1.024305,
  1.354614,
  0.999386,
  1.027,
  1.014,
  1.023388,
  0.986091,
  1.130352,
  1.140015,
  1.012,
  1.17,
  1.046,
  1.03,
  1.023,
  1.158,
  1.034,
  1.12,
  1.052,
  1.015352,
  1.059492,
  1.037305,
  0.983352,
  1.027,
  1.091,
  1.261,
  1.366,
  1.163352,
  1.109,
  1.072039,
  0.29,
  1.021,
  1.175,
  1.249,
  1.02,
  1.066352,
  1.302,
  1.005097,
  1.266,
  1.05,
  1.104352,
  0.96,
  1.026139,
  1.028352,
  0.973,
  1.475,
  1.97,
  1.032877,
  1.514123,
  1.278,
  1.029,
  1.093,
  1.003352,
  1.08199,
  1.019647,
  1.168352,
  1.082,
  1.052352,
  1.284639,
  1.04,
  1.95,
  1.114,
  0.982794,
  0.684,
  0.456,
  0.537168,
  0.463,
  0.466,
  0.443066,
  0.075617,
  0.427853,
  0.408296,
  0.702778,
  0.433267,
  0.364,
  0.445,
  0.441,
  0.452012,
  0.433111,
  0.421889,
  0.464,
  0.426,
  0.418199,
  0.401199,
  0.420429,
  0.379571,
  0.502571,
  0.518,
  0.456675,
  0.460496,
  1.032199,
  0.421383,
  0.421617,
  0.464,
  0.628111,
  0.53,
  0.377,
  0.53623,
  0.466,
  0.348,
  0.401844,
  0.380748,
  0.601044,
  0.432777,
  0.457825,
  0.450175,
  0.202992,
  0.361199,
  0.452617,
  0.452,
  0.414111,
  0.705,
  0.533318,
  0.447751,
  0.419111,
  0.381,
  0.4703,
  0.472,
  0.452,
  0.396889,
  0.434,
  1.108,
  0.971,
  1.287,
  1.138,
  1.637625,
  1.120396,
  0.988236,
  1.343,
  1.316,
  1.297,
  1.001,
  1.216897,
  1.014,
  1.026,
  1.131,
  1.129,
  1.006396,
  1.033,
  1.043375,
  1.013396,
  1.305,
  1.338,
  1.317,
  1.02,
  1.055396,
  1.319439,
  1.025,
  1.042396,
  1.143226,
  1.069999,
  1.16,
  1.081396,
  1.493,
  1.292,
  1.314,
  0.280478,
  1.032,
  1.142396,
  1.094,
  1.014,
  1.006396,
  1.208488,
  1.05,
  1.039,
  1.061396,
  1.32,
  1.294,
  1.297,
  0.976545,
  0.997396,
  1.057,
  1.045,
  0.987396,
  29.867,
  1.087,
  1.024396,
  1.059638,
  1.321,
  1.325,
  1.258,
  0.376,
  0.433087,
  0.607852,
  0.445111,
  0.389,
  0.374,
  0.449,
  0.547,
  0.401,
  0.395,
  0.45053,
  0.341408,
  0.668,
  0.306889,
  0.368,
  0.455111,
  0.493778,
  0.39,
  0.482111,
  0.436664,
  0.395,
  0.434,
  0.463111,
  0.457926,
  0.471062,
  0.499,
  0.426111,
  0.542,
  0.253652,
  0.501,
  0.399,
  0.751111,
  0.375,
  0.585,
  0.503111,
  0.452,
  0.352,
  0.535664,
  0.380111,
  0.383,
  0.639,
  0.473,
  0.481,
  0.457111,
  0.403,
  0.464,
  0.600111,
  0.544,
  0.481,
  0.714,
  0.618,
  0.433281,
  0.373,
  0.537,
  0.457,
  1.077152,
  0.660354,
  0.447,
  0.552,
  0.554,
  0.383111,
  0.465074,
  0.361,
  0.355,
  0.502774,
  0.465216,
  0.485,
  0.457889,
  0.407928,
  0.439,
  0.522,
  0.361,
  0.467111,
  0.074,
  0.46,
  0.337,
  1.163111,
  0.459,
  0.676701,
  0.460111,
  0.348,
  0.465,
  0.39,
  0.451,
  0.448111,
  0.479,
  0.443,
  0.476,
  0.966111,
  0.488,
  0.467995,
  0.343889,
  0.462,
  0.359743,
  0.823,
  0.435,
  0.413,
  0.469,
  0.353,
  0.456,
  0.344,
  0.402111,
  0.45608,
  4.066161,
  0.381111,
  0.593928,
  0.456,
  0.482111,
  0.370545,
  0.659341,
  0.495,
  0.36,
  0.363,
  0.476889,
  0.398,
  0.674014,
  0.343,
  1.050897,
  1.246878,
  2.424694,
  1.297403,
  1.078429,
  1.032,
  1.02,
  1.084572,
  1.06259,
  1.061111,
  1.171008,
  1.0142,
  1.275889,
  1.161316,
  1.083228,
  1.137352,
  1.036897,
  1.099883,
  1.422,
  1.375944,
  1.041704,
  1.118117,
  1.109,
  1.059455,
  2.026193,
  1.157103,
  1.242775,
  1.150455,
  1.321241,
  1.322178,
  1.020103,
  1.156451,
  1.192352,
  1.14,
  1.109208,
  1.062792,
  1.103463,
  1.039103,
  1.358613,
  1.339455,
  1.014103,
  1.219008,
  1.084897,
  1.002352,
  1.027008,
  1.044,
  1.056889,
  1.02603,
  1.042964,
  1.021179,
  1.008612,
  1.956963,
  1.075,
  1.048352,
  1.018,
  1.130854,
  1.057792,
  1.054889,
  1.160883,
  1.029,
  0.288876,
  0.966489,
  0.965,
  1.039,
  1.056,
  1.04791,
  1.063,
  1.309604,
  1.055,
  1.053,
  1.02,
  1.036716,
  1.231,
  1.091882,
  0.965154,
  1.107,
  1.052257,
  1.185672,
  0.983,
  1.417484,
  1.298868,
  1.035405,
  1.024156,
  1.046,
  1.079868,
  1.04,
  1.026226,
  1.268868,
  1.065,
  1.051,
  1.312933,
  0.988868,
  1.069094,
  1.079,
  1.084,
  0.986,
  1.261868,
  1.037,
  0.987,
  1.151868,
  1.062,
  1.023,
  1.489743,
  1.014714,
  1.184,
  1.049,
  1.178,
  1.421461,
  1.420792,
  1.045,
  1.03,
  1.049522,
  1.048868,
  0.986,
  1.328,
  1.034868,
  1.021,
  1.027,
  1.039,
  1.019,
  1.054,
  0.445,
  0.459,
  0.702,
  0.353111,
  0.077219,
  0.449,
  0.418,
  0.467454,
  0.577,
  0.334,
  0.451,
  0.473531,
  0.364,
  0.383,
  0.429,
  0.507111,
  0.457,
  0.455,
  0.444,
  0.354111,
  0.37,
  0.489,
  0.445111,
  0.381,
  0.352,
  0.390889,
  0.321111,
  0.352,
  14.536,
  0.437,
  0.448,
  0.512111,
  0.444,
  0.374727,
  0.609111,
  0.429,
  0.426,
  0.95,
  0.396,
  0.408,
  0.44,
  0.455,
  0.367,
  1.193,
  0.447,
  0.410889,
  0.423111,
  0.464,
  0.463938,
  0.463111,
  0.398,
  1.174,
  0.082,
  0.471,
  0.428,
  0.441,
  0.443,
  0.559,
  0.298,
  0.84,
  0.041,
  0.342103,
  0.601,
  0.658,
  0.369,
  0.377897,
  0.342,
  0.336,
  0.588681,
  0.400897,
  4.142,
  0.593757,
  0.378,
  0.419103,
  0.362,
  0.612,
  0.803,
  0.812103,
  0.329,
  0.433681,
  0.318,
  0.337103,
  0.349909,
  0.261,
  0.600103,
  0.39,
  0.381,
  0.38,
  0.313103,
  0.37,
  0.338119,
  0.386992,
  0.383,
  0.341,
  0.287,
  0.429372,
  0.356103,
  0.328,
  0.361,
  0.363,
  0.4,
  0.424103,
  10.731,
  0.342,
  0.425103,
  0.342,
  0.342701,
  0.284,
  0.433715,
  0.370103,
  0.359783,
  0.399,
  0.345,
  0.247,
  0.336897,
  0.366,
  0.507,
  0.524011,
  0.599195,
  0.529168,
  0.524812,
  0.515195,
  0.545156,
  0.67514,
  0.513372,
  0.57463,
  0.511531,
  0.492,
  0.832979,
  0.619195,
  0.542521,
  0.517,
  0.527,
  0.691195,
  0.578805,
  0.66269,
  0.274413,
  0.518195,
  0.537188,
  0.533,
  0.602805,
  0.517401,
  0.511206,
  0.495016,
  0.525,
  0.522,
  0.557195,
  0.498812,
  0.550042,
  0.203908,
  0.557764,
  0.531639,
  0.440195,
  0.527016,
  0.552016,
  0.877805,
  0.506,
  0.546989,
  1.003011,
  0.852646,
  0.579,
  0.539472,
  0.544927,
  0.525837,
  0.814571,
  0.63892,
  0.527081,
  0.536011,
  0.553,
  0.52,
  0.087,
  0.621,
  0.501,
  0.781,
  0.915,
  1.046926,
  1.020618,
  0.88,
  0.892652,
  1.475094,
  0.932673,
  0.978077,
  0.901488,
  1.043765,
  0.985624,
  1.796296,
  0.952,
  1.151,
  0.916238,
  0.943654,
  1.11187,
  1.002876,
  0.972654,
  0.959565,
  0.991435,
  0.995524,
  0.939472,
  0.975069,
  0.967501,
  0.172102,
  0.948674,
  0.975654,
  1.837836,
  0.870179,
  0.897674,
  1.895237,
  1.14792,
  0.996027,
  0.962973,
  0.912,
  1.060403,
  1.931,
  1.10158,
  0.891654,
  0.966906,
  0.902764,
  1.15397,
  0.899171,
  0.944494,
  0.923227,
  0.945381,
  0.91685,
  0.916219,
  1.108071,
  0.172263,
  1.041031,
  0.923774,
  0.886,
  1.10448,
  0.988654,
  1.018417,
  0.963587,
  0.996413,
  0.978935,
  0.997186,
  1.097103,
  0.993897,
  1.041903,
  1.295251,
  1.040061,
  1.389352,
  1.328608,
  1.327716,
  0.281704,
  1.3073,
  1.374414,
  1.105387,
  1.03,
  1.019103,
  0.996509,
  1.139,
  1.901352,
  1.350612,
  1.169,
  2.003352,
  1.291,
  1.278,
  1.026103,
  1.490316,
  262.620123,
  1.134455,
  1.336787,
  1.319897,
  1.038455,
  1.201,
  1.218008,
  1.011801,
  1.145455,
  1.208,
  1.002392,
  1.023,
  1.042468,
  1.009455,
  1.592835,
  1.003749,
  0.974455,
  0.280704,
  1.29196,
  1.291443,
  1.101883,
  1.033056,
  1.029,
  1.011,
  6.71804,
  1.069103,
  1.064455,
  1.294028,
  1.083206,
  1.811257,
  1.177772,
  1.026103,
  1.017575,
  1.047883,
  1.328574,
  1.283704,
  1.274284,
  0.35,
  0.38,
  0.276173,
  0.355,
  0.337,
  0.359,
  0.316272,
  0.380294,
  0.301,
  0.346,
  0.314,
  0.343,
  0.293058,
  0.331173,
  0.292,
  0.345472,
  0.353,
  0.345,
  0.564064,
  0.284173,
  0.254681,
  0.536235,
  0.294,
  0.395173,
  0.415,
  0.332,
  0.649173,
  0.311,
  0.28,
  0.335,
  0.419,
  0.333,
  0.323,
  0.324593,
  0.421173,
  0.922,
  0.339897,
  0.298,
  0.309173,
  0.327681,
  0.308,
  0.329,
  0.569486,
  0.353173,
  0.452,
  0.814,
  0.319,
  0.450173,
  0.262,
  0.369,
  0.354472,
  0.253173,
  0.339,
  0.331,
  0.333,
  0.246531,
  0.434579,
  0.258,
  0.315897,
  1.053,
  1.087806,
  1.065,
  1.079,
  1.016,
  1.03961,
  1.084,
  1.307,
  1.298,
  1.056053,
  3.587,
  1.071,
  1.063,
  1.090806,
  1.157,
  1.33961,
  0.999,
  1.1704,
  1.15561,
  1.055,
  1.334,
  1.328,
  1.422048,
  1.069909,
  1.04861,
  1.255,
  1.01,
  1.11161,
  1.152,
  1.165,
  1.365593,
  1.01361,
  1.09,
  1.11,
  1.063,
  1.05,
  1.15861,
  1.094,
  1.156,
  1.02061,
  1.221,
  1.503,
  1.315,
  1.07661,
  1.286,
  1.321,
  1.415742,
  1.401554,
  1.065681,
  1.29461,
  1.033,
  27.969,
  1.01861,
  1.009,
  1.034,
  1.09061,
  1.061,
  1.328,
  1.074,
  1.295,
  0.917,
  0.975,
  0.96475,
  1.114854,
  0.94823,
  1.092,
  1.012777,
  0.978,
  1.084,
  0.966,
  0.95,
  1.055,
  0.913,
  1.10333,
  1.009,
  1.51123,
  1.056,
  0.969779,
  1.06223,
  0.982645,
  0.936,
  0.942,
  1.077,
  0.97423,
  1.064392,
  1.067,
  0.253,
  0.98123,
  0.959,
  0.933,
  1.044777,
  1.04923,
  0.963667,
  0.955,
  0.941,
  0.962,
  0.97923,
  0.957,
  1.049,
  1.02223,
  0.95,
  1.082,
  0.954653,
  0.94023,
  0.99,
  0.995,
  0.928,
  33.203,
  1.03523,
  1.110998,
  0.977,
  0.90123,
  1.006,
  1.018,
  1.07123,
  1.397796,
  1.013,
  0.952,
  0.978,
  0.254471,
  0.576222,
  0.439119,
  0.514881,
  0.447904,
  1.068222,
  0.454,
  0.508111,
  0.412889,
  0.414008,
  0.467,
  1.371881,
  0.811,
  0.443,
  0.52,
  0.486039,
  0.494111,
  0.421408,
  0.443,
  0.411517,
  0.428222,
  0.458888,
  0.482889,
  0.748111,
  0.45946,
  0.433,
  0.473111,
  0.426,
  0.392,
  0.441888,
  0.428111,
  0.546,
  0.430111,
  0.218881,
  0.433008,
  0.562,
  0.445111,
  0.434,
  0.418111,
  0.432,
  0.451,
  0.468889,
  0.555889,
  0.44,
  0.471,
  0.631111,
  0.470889,
  0.461889,
  0.408111,
  0.489,
  0.547757,
  0.572592,
  0.436,
  0.447,
  0.453,
  0.431,
  0.421889,
  0.468,
  0.221992,
  1.305906,
  1.107097,
  1.127,
  1.011897,
  1.475455,
  1.046831,
  1.020008,
  1.174,
  1.027816,
  1.000321,
  1.117679,
  1.922,
  1.053218,
  1.120233,
  1.032321,
  1.034352,
  0.991686,
  1.109686,
  1.078352,
  1.078,
  1.011,
  1.215,
  1.179679,
  1.010352,
  1.080321,
  1.236199,
  1.266777,
  1.034455,
  1.1448,
  1.02336,
  1.954102,
  0.998721,
  0.997103,
  1.076897,
  1.095903,
  1.038352,
  1.542322,
  1.034897,
  0.981352,
  1.204856,
  1.217,
  1.074103,
  1.018352,
  1.043889,
  1.026,
  1.144,
  1.027103,
  0.284897,
  0.971352,
  1.304179,
  1.049,
  1.062352,
  1.165,
  0.974,
  1.109352,
  1.085984,
  1.046,
  1.038705,
  1.019,
  1.032295,
  0.921256,
  1.036881,
  0.951131,
  1.004,
  1.004556,
  1.029893,
  0.989259,
  1.010514,
  0.991394,
  1.025188,
  1.627969,
  1.111596,
  2.466696,
  0.964218,
  1.598103,
  1.095696,
  1.010079,
  1.112876,
  0.96782,
  1.008656,
  1.023502,
  0.987,
  0.987088,
  1.017195,
  1.056275,
  1.915843,
  0.993605,
  1.000157,
  1.018,
  1.116,
  0.936218,
  0.201392,
  1.090394,
  0.98259,
  1.02414,
  1.000197,
  1.080696,
  0.991394,
  0.850312,
  1.065738,
  0.907601,
  0.93814,
  1.030589,
  2.130696,
  1.029394,
  1.16514,
  1.145443,
  0.926407,
  1.112556,
  1.011795,
  1.012967,
  1.078049,
  1.250486,
  1.02131,
  1.91382,
  0.963271,
  0.964297,
  0.983,
  1.0,
  1.434,
  1.069897,
  1.073897,
  1.037,
  1.191352,
  1.148897,
  1.078897,
  1.023,
  1.081,
  1.065,
  1.145,
  1.113,
  1.011478,
  0.987752,
  1.053,
  1.062352,
  1.118743,
  1.096,
  1.014352,
  1.008897,
  1.036,
  1.027,
  1.323,
  1.025352,
  0.986,
  1.034,
  1.313352,
  1.029,
  1.16,
  1.092897,
  1.047352,
  1.017097,
  1.028,
  1.035103,
  1.141897,
  1.468058,
  1.174352,
  1.03,
  1.089597,
  1.064352,
  1.087202,
  1.082,
  1.168897,
  1.017352,
  1.030897,
  1.015,
  1.026434,
  1.123897,
  1.087352,
  1.03,
  1.046897,
  1.372352,
  1.083,
  1.051897,
  1.397352,
  1.053,
  1.031876,
  1.074,
  1.062388,
  0.423,
  0.612,
  0.491811,
  0.206921,
  0.507111,
  0.412675,
  0.401,
  0.463,
  0.42,
  0.437,
  0.437467,
  0.44139,
  0.419,
  0.418,
  0.477,
  0.423206,
  0.384111,
  0.417546,
  0.391,
  0.284292,
  0.446,
  0.469754,
  0.509861,
  0.465229,
  0.474111,
  2.168,
  0.449,
  0.354,
  0.481111,
  0.438,
  0.778732,
  0.567,
  0.373111,
  0.449,
  0.450889,
  0.401111,
  0.649,
  0.395,
  0.461492,
  0.400111,
  0.45,
  0.443,
  0.381,
  0.39,
  0.418111,
  0.561777,
  40.684,
  0.377111,
  0.284387,
  0.454195,
  0.463,
  0.422932,
  0.459111,
  0.500617,
  0.558806,
  0.37,
  0.447,
  0.579,
  0.405,
  3.555,
  1.279329,
  1.165,
  1.151,
  1.115,
  1.168948,
  1.141,
  1.176,
  1.145,
  1.325,
  1.168,
  1.166,
  1.123,
  1.217568,
  1.153,
  1.213948,
  1.312,
  1.465,
  1.127948,
  1.166,
  1.15,
  1.14,
  0.33,
  1.253722,
  1.277948,
  1.209,
  1.145948,
  1.310194,
  1.214,
  1.157,
  1.328948,
  1.197,
  1.11,
  1.089,
  1.164,
  1.136948,
  1.173,
  1.222097,
  1.136948,
  1.271,
  1.176,
  1.202,
  1.192948,
  1.281,
  1.141,
  1.156,
  1.317,
  0.329,
  1.203,
  1.221524,
  1.178,
  1.211948,
  1.443,
  1.188561,
  1.184948,
  1.336,
  1.181,
  1.074,
  1.153,
  1.244,
  1.05,
  1.883,
  1.149897,
  1.104,
  1.084,
  1.024352,
  1.615089,
  1.066,
  1.495,
  1.065,
  1.365,
  1.06,
  1.060344,
  1.042,
  1.045,
  1.194,
  1.046352,
  1.073,
  1.388805,
  1.037352,
  1.075,
  1.044,
  1.066,
  0.992998,
  1.035352,
  1.105,
  1.074,
  1.150352,
  1.219,
  1.067,
  1.398,
  1.107352,
  1.052,
  1.06,
  1.037,
  1.033648,
  1.772352,
  1.046,
  1.032,
  1.036352,
  1.009,
  1.141897,
  1.027897,
  1.087352,
  1.065,
  1.041,
  1.038,
  1.205097,
  1.040352,
  1.105,
  1.044,
  0.286,
  1.078352,
  1.333897,
  1.124,
  1.045352,
  1.11,
  1.066,
  1.055,
  1.079,
  0.377,
  0.449648,
  0.447328,
  0.421498,
  0.217,
  0.234,
  0.379206,
  0.314,
  0.264,
  0.264889,
  0.376148,
  0.296,
  0.354752,
  0.301,
  0.225328,
  0.256824,
  0.291,
  0.348,
  0.390328,
  0.42516,
  0.38859,
  0.216328,
  0.236,
  0.351889,
  0.394,
  0.228889,
  0.386328,
  0.191852,
  0.727,
  0.29,
  0.206,
  0.460328,
  0.457,
  0.31,
  0.272009,
  0.375671,
  0.663494,
  0.450998,
  0.495,
  0.375,
  0.282957,
  0.275,
  0.292,
  0.319328,
  0.350179,
  0.302014,
  0.374328,
  0.609,
  0.343,
  0.257328,
  0.482,
  0.293,
  0.29,
  0.293,
  0.322,
  0.289,
  0.236546,
  0.203122,
  0.732,
  0.795,
  0.893059,
  0.789981,
  0.791,
  1.402,
  0.799,
  0.612,
  0.788,
  0.831,
  0.82378,
  0.833,
  0.797,
  0.775995,
  0.930578,
  0.752,
  0.423285,
  0.862,
  0.991,
  0.797981,
  1.575,
  0.957,
  0.796981,
  0.94,
  0.857,
  0.564,
  0.815981,
  0.976,
  0.796,
  1.109,
  0.979612,
  0.834981,
  0.812,
  0.91,
  0.895981,
  0.888,
  0.696,
  0.741981,
  0.79,
  0.929,
  0.852568,
  0.813,
  0.860981,
  0.805,
  0.782,
  0.831,
  0.957981,
  0.207122,
  0.755,
  0.817,
  0.828981,
  0.841,
  0.816686,
  0.811,
  0.896,
  0.921,
  1.265,
  0.796,
  0.375,
  0.329752,
  0.364103,
  0.056,
  0.285,
  0.755,
  0.286,
  0.293392,
  0.605,
  0.315,
  0.323846,
  0.42356,
  0.291897,
  0.308,
  0.329,
  0.773103,
  0.450764,
  0.45,
  0.279,
  0.321103,
  0.344,
  0.393097,
  0.287,
  0.20922,
  0.33,
  0.416777,
  0.354,
  0.42,
  0.337103,
  0.303,
  0.299,
  0.305,
  0.420103,
  0.739,
  0.36808,
  0.290103,
  0.327,
  0.315698,
  0.428897,
  0.366103,
  0.391,
  0.289,
  0.465,
  0.289,
  0.453103,
  0.407,
  0.318698,
  0.327103,
  0.416,
  0.375,
  0.339,
  0.780881,
  0.336,
  0.389,
  0.294,
  0.273,
  0.446,
  0.373,
  0.337,
  0.987828,
  1.219912,
  0.860425,
  1.392895,
  0.868936,
  1.215545,
  0.98951,
  0.870873,
  0.851,
  0.93765,
  1.016392,
  0.917819,
  1.166364,
  1.228831,
  0.869155,
  1.210983,
  0.920805,
  0.979427,
  0.862127,
  0.848119,
  0.880754,
  1.216895,
  1.005986,
  1.177516,
  1.665383,
  0.820283,
  0.816161,
  1.205,
  1.021,
  0.972791,
  0.88,
  0.886233,
  1.175006,
  0.223192,
  0.92728,
  0.82772,
  1.221828,
  0.893883,
  0.896218,
  0.910791,
  0.995013,
  1.017551,
  0.825879,
  0.872369,
  0.861616,
  0.882384,
  0.848018,
  0.888711,
  1.061097,
  0.821371,
  0.83369,
  0.863507,
  1.028105,
  0.893791,
  0.882644,
  0.84446,
  0.890394,
  0.896544,
  1.417716,
  1.263514,
  0.969,
  1.41138,
  0.996079,
  1.018,
  0.99223,
  0.993,
  0.950554,
  1.057,
  1.088,
  0.964,
  1.075112,
  0.883,
  0.989,
  1.091,
  1.74,
  0.958,
  0.96923,
  0.969777,
  0.98723,
  0.987,
  0.979,
  1.098,
  1.11,
  1.07723,
  1.295,
  1.143517,
  1.026,
  0.957453,
  0.993,
  1.174,
  0.94723,
  0.954,
  0.985,
  0.965,
  1.029,
  1.41238,
  0.87823,
  1.142,
  0.968,
  1.095,
  0.966,
  0.947,
  1.62623,
  0.969,
  0.964,
  0.974,
  1.194777,
  1.23,
  0.92323,
  0.948,
  0.94023,
  1.076,
  0.937,
  0.943777,
  0.98723,
  0.947,
  0.952,
  1.145,
  0.978,
  1.124,
  1.378866,
  1.199,
  1.126,
  1.141,
  1.187897,
  1.067656,
  1.095,
  1.118,
  1.335,
  1.187,
  1.131,
  1.204,
  1.092051,
  1.03,
  1.06185,
  1.073,
  1.051897,
  1.358224,
  1.060119,
  1.069897,
  1.085,
  1.096,
  1.20759,
  1.092119,
  1.22,
  2.401966,
  1.594119,
  1.262544,
  1.19,
  1.473,
  1.313119,
  1.155,
  1.14,
  1.092,
  1.039,
  1.068119,
  1.193,
  1.018298,
  1.352224,
  1.056,
  1.023,
  1.071,
  1.126,
  1.349119,
  1.068,
  1.126,
  1.109,
  1.126048,
  1.031119,
  1.897397,
  1.088,
  1.084119,
  1.222897,
  1.103119,
  1.143,
  0.298932,
  1.076142,
  1.095,
  1.126,
  1.304755,
  0.337,
  0.287,
  0.371059,
  1.659216,
  0.312,
  0.284,
  0.445,
  0.432,
  0.342757,
  0.324243,
  0.341726,
  1.229049,
  0.42,
  0.384192,
  0.430795,
  0.656237,
  0.299,
  0.354,
  0.347,
  0.336718,
  0.347,
  0.329,
  0.323237,
  0.386784,
  0.413,
  0.486216,
  0.661633,
  0.319,
  0.301008,
  0.292992,
  0.33,
  0.399237,
  0.344745,
  0.372334,
  0.27232,
  0.347067,
  0.346766,
  0.371732,
  0.344745,
  0.257246,
  0.296216,
  0.338,
  0.361,
  0.484237,
  0.384,
  0.36251,
  0.750615,
  1.287237,
  0.295779,
  0.324237,
  0.579,
  0.308287,
  0.31829,
  0.271462,
  0.843555,
  0.451274,
  0.363,
  1.116,
  0.937,
  1.453151,
  1.124,
  1.101532,
  0.852339,
  1.058,
  0.931947,
  0.877,
  0.867,
  0.873,
  0.854,
  0.873206,
  0.957,
  0.882,
  1.303,
  0.854339,
  0.834694,
  0.929854,
  0.893339,
  0.836,
  1.426,
  0.838,
  0.847,
  0.856339,
  0.879,
  1.005,
  1.077339,
  0.767831,
  1.47778,
  0.864,
  1.039339,
  0.89,
  0.87,
  0.837,
  10.437,
  1.027339,
  0.774,
  0.954,
  0.901,
  0.84,
  1.12,
  1.124,
  0.903339,
  0.882,
  0.85,
  0.828,
  0.932,
  0.835339,
  0.809,
  0.889,
  0.867339,
  0.85,
  0.871,
  1.024854,
  0.837339,
  0.99,
  0.846,
  0.868,
  0.881,
  0.791,
  0.858,
  1.046,
  0.806,
  0.940232,
  1.181,
  0.889,
  0.847,
  0.862,
  0.873,
  0.867,
  1.301,
  0.884,
  0.953,
  0.85,
  1.073232,
  1.173,
  0.935,
  0.887232,
  0.974,
  0.919,
  0.966,
  0.829,
  0.946232,
  0.236,
  0.923606,
  0.847,
  0.910232,
  1.468,
  0.951,
  0.911,
  0.893232,
  0.929,
  0.933,
  0.934,
  1.251,
  0.944232,
  1.134,
  0.883,
  0.943232,
  0.907,
  0.881,
  0.896,
  0.937232,
  0.946,
  0.921,
  0.866,
  0.839,
  0.860232,
  0.961,
  1.036,
  1.056232,
  0.923,
  1.10492,
  0.95508,
  0.91,
  0.899,
  0.855,
  0.913,
  0.838,
  0.316,
  0.823,
  0.428711,
  0.312103,
  0.24812,
  0.36029,
  0.342,
  0.342,
  0.293,
  0.422,
  0.282,
  0.313,
  0.301,
  0.303897,
  0.315,
  0.471103,
  0.266,
  0.353,
  0.341,
  0.253044,
  0.397,
  0.59,
  0.382,
  0.287103,
  0.803,
  0.389275,
  0.298,
  0.356103,
  0.351,
  0.349006,
  0.386,
  0.420103,
  0.359,
  1.635,
  0.24812,
  0.374103,
  0.308514,
  0.244897,
  0.291782,
  0.341103,
  0.375,
  0.271,
  0.346,
  0.353,
  0.351103,
  0.329,
  0.332929,
  0.435103,
  0.355,
  0.314,
  0.375177,
  0.285103,
  0.332,
  0.323,
  0.368,
  0.282,
  0.346,
  0.345,
  0.240458,
  2.005,
  1.16,
  1.050362,
  1.053794,
  1.127352,
  1.269,
  1.036,
  1.033,
  1.066,
  1.148,
  1.507,
  1.231,
  1.177,
  1.103478,
  1.120352,
  1.381,
  1.38312,
  1.104,
  1.038,
  1.061352,
  1.044,
  1.043,
  1.103,
  1.075,
  1.036352,
  1.059,
  1.14,
  1.030352,
  1.16,
  1.027111,
  1.137,
  1.055,
  1.158,
  1.21,
  1.110352,
  1.144,
  0.292,
  1.204,
  1.341,
  1.123,
  1.059897,
  1.102352,
  1.073,
  1.018,
  1.038,
  1.088897,
  1.083,
  6.839,
  1.118,
  1.152352,
  1.07,
  1.098,
  1.007,
  1.075,
  1.083352,
  1.093,
  1.169,
  1.045,
  1.054352,
  1.062,
  1.055,
  1.184,
  1.205,
  1.061,
  1.138429,
  0.283743,
  1.374249,
  1.120603,
  0.979,
  0.977,
  1.085,
  1.072924,
  1.05,
  1.107,
  1.084,
  1.061653,
  1.049429,
  1.063478,
  1.068,
  1.086429,
  1.195478,
  1.009,
  1.143,
  2.083,
  1.676043,
  1.186429,
  1.157423,
  1.099,
  1.048429,
  1.09,
  1.038561,
  1.138,
  1.098429,
  1.016653,
  1.094,
  1.028,
  1.061,
  1.196429,
  2.367698,
  1.084172,
  1.366429,
  1.072,
  1.143,
  0.290478,
  1.021653,
  1.025,
  1.165,
  1.112,
  1.146,
  1.334429,
  1.083,
  1.149,
  1.039,
  1.056429,
  1.055601,
  1.119451,
  1.200429,
  0.987757,
  1.162,
  1.008,
  1.051,
  0.29033,
  0.245,
  0.939,
  0.986,
  0.971,
  25.818232,
  0.964,
  0.836458,
  0.93,
  0.843,
  0.830962,
  0.869,
  0.846933,
  0.989897,
  0.846,
  1.11884,
  0.963,
  0.974232,
  1.292,
  0.880232,
  0.946,
  0.985,
  0.97,
  0.886,
  0.992232,
  0.993,
  0.911,
  0.842,
  0.940232,
  0.89,
  1.144,
  0.865232,
  0.95,
  0.87,
  0.849,
  0.918655,
  0.878232,
  1.270367,
  0.846,
  0.848,
  11.132,
  0.956,
  1.461,
  0.907,
  0.964232,
  0.844,
  0.937,
  0.856,
  1.016378,
  1.055232,
  0.882,
  0.86,
  0.880232,
  0.87,
  0.928495,
  1.798,
  0.934232,
  0.979,
  0.864,
  0.922,
  1.177,
  1.228,
  1.068653,
  1.015429,
  1.07933,
  1.063,
  1.059361,
  1.051,
  1.042,
  1.069,
  1.068044,
  1.220749,
  1.134841,
  1.316482,
  1.043429,
  1.058653,
  1.091255,
  1.626429,
  1.515374,
  1.054,
  1.216,
  1.088,
  1.048653,
  1.072429,
  1.074374,
  1.064,
  1.213429,
  1.084482,
  1.047107,
  1.282429,
  1.076,
  1.070533,
  1.176,
  1.103,
  1.536102,
  1.005534,
  1.159429,
  1.103,
  1.088021,
  1.041429,
  1.034495,
  1.146478,
  1.079429,
  1.037347,
  1.03292,
  1.079897,
  1.043,
  1.079828,
  1.065429,
  1.099138,
  1.153429,
  1.073328,
  1.153478,
  1.092429,
  1.037,
  1.069318,
  1.073522,
  1.129653,
  1.073,
  0.479,
  0.194391,
  0.426166,
  1.135488,
  0.559712,
  0.69,
  0.998,
  0.421,
  0.675,
  0.423,
  0.365,
  0.443294,
  0.713,
  0.411,
  0.468,
  0.455,
  0.657712,
  0.701,
  0.703,
  0.425712,
  0.582,
  0.4528,
  0.452712,
  0.566,
  0.404,
  0.518304,
  0.699608,
  0.441712,
  0.442,
  0.201391,
  0.436392,
  0.719608,
  0.365712,
  0.478608,
  0.512322,
  0.403712,
  0.436947,
  0.724,
  0.434,
  0.768,
  0.454,
  0.397,
  0.424,
  0.422,
  1.510618,
  0.753,
  0.478,
  0.635712,
  0.617,
  0.426104,
  0.554143,
  1.054,
  0.71,
  0.707,
  0.679,
  0.083,
  0.601712,
  0.513288,
  0.372,
  1.047897,
  1.13,
  1.05,
  1.069,
  1.151352,
  1.485767,
  1.109,
  1.302039,
  1.339,
  1.182922,
  2.065,
  1.061,
  1.133,
  1.2,
  1.067,
  1.126,
  1.084352,
  1.073,
  1.097922,
  1.10643,
  1.251,
  2.019,
  1.055,
  1.104,
  1.202352,
  1.315,
  1.137,
  1.335352,
  1.211,
  2.575,
  1.096,
  1.053352,
  1.03,
  1.176,
  1.368612,
  1.858,
  1.0566,
  1.213223,
  1.501767,
  1.045103,
  1.108352,
  1.144,
  1.142,
  1.116,
  1.037352,
  1.155,
  1.113,
  1.062097,
  1.300574,
  1.042352,
  1.055,
  1.084,
  1.00843,
  1.036,
  1.016103,
  1.065352,
  1.2,
  1.046103,
  1.051,
  1.134,
  0.295234,
  0.914717,
  1.021,
  1.067,
  1.04,
  1.39,
  0.969165,
  0.938,
  0.924,
  1.002,
  1.563,
  1.882,
  1.007,
  1.474,
  1.244049,
  1.434165,
  0.968,
  0.957,
  1.112,
  1.017165,
  1.001,
  0.961,
  1.078,
  0.275,
  0.931165,
  0.972,
  1.351165,
  1.151,
  5.341,
  1.066,
  0.996,
  0.994165,
  1.008,
  0.971,
  1.133,
  1.207,
  1.074165,
  1.022,
  1.189165,
  1.017,
  1.007,
  1.046562,
  0.999165,
  1.006,
  0.939,
  0.996,
  0.964,
  0.973,
  1.462187,
  0.979,
  0.984,
  1.123165,
  0.958,
  0.975,
  1.109165,
  1.069,
  0.978,
  1.005,
  0.97,
  0.987,
  1.083,
  0.926,
  0.970111,
  1.225,
  0.931561,
  0.879174,
  0.876,
  1.032,
  1.141,
  0.930881,
  1.033,
  0.969,
  1.040561,
  1.022,
  0.912,
  0.866173,
  0.925561,
  1.096561,
  0.916,
  0.98,
  0.871,
  1.076601,
  0.997561,
  1.117733,
  0.963623,
  1.165,
  1.037567,
  1.013561,
  1.272,
  1.392132,
  1.022561,
  0.930839,
  0.905,
  0.853,
  0.968,
  0.999561,
  0.913,
  1.142296,
  1.002561,
  0.998374,
  1.144,
  0.951,
  1.022561,
  0.981,
  0.868,
  0.989,
  0.998684,
  1.079549,
  1.791889,
  0.988,
  1.110561,
  0.896,
  0.905733,
  1.164561,
  0.894,
  1.34845,
  0.996,
  0.893,
  0.893,
  1.191,
  1.051752,
  1.051581,
  1.269,
  1.191677,
  1.118519,
  1.115547,
  1.235,
  1.253,
  1.071,
  1.245445,
  0.990897,
  1.066,
  0.984778,
  1.029897,
  1.036519,
  1.326805,
  1.042,
  0.986519,
  1.263,
  1.209,
  1.087,
  1.123,
  1.101519,
  1.042,
  1.043,
  1.419833,
  1.269,
  1.032,
  1.025,
  1.054,
  1.034519,
  1.204,
  1.141,
  1.755,
  1.057,
  1.028519,
  1.01,
  1.234777,
  1.054519,
  1.022,
  1.595735,
  1.024,
  1.162,
  1.039,
  1.105167,
  1.229,
  1.23,
  1.005,
  0.993519,
  1.028,
  1.341,
  1.035519,
  1.086,
  1.060897,
  1.039519,
  1.282,
  1.083,
  1.24,
  1.032,
  1.048,
  1.031897,
  1.037876,
  1.502767,
  1.316757,
  1.056,
  2.088,
  1.057752,
  1.065,
  1.04,
  1.045,
  1.097,
  1.094,
  1.038,
  1.136,
  1.031,
  0.291752,
  1.398,
  1.043,
  1.083352,
  1.077,
  1.106,
  1.083,
  1.055,
  9.237,
  1.030352,
  1.074,
  1.05,
  1.020876,
  1.308352,
  1.089,
  1.039,
  1.056352,
  1.060388,
  1.155,
  1.095,
  1.106,
  1.038352,
  1.128,
  1.092,
  1.074,
  1.128,
  1.188,
  1.297,
  1.273352,
  1.136,
  1.079,
  1.055,
  1.171889,
  1.231352,
  1.114,
  1.125,
  0.291,
  1.07,
  1.163,
  3.194,
  1.061,
  1.163352,
  1.084,
  1.35,
  1.065,
  0.826,
  0.858,
  0.749,
  0.816339,
  0.831,
  0.942,
  0.868,
  0.911,
  0.765,
  0.99,
  0.797,
  0.831764,
  0.721,
  0.873764,
  0.861,
  0.801339,
  1.217,
  0.214,
  0.777339,
  0.847,
  0.857743,
  0.87,
  0.989,
  0.957339,
  0.778,
  0.896,
  1.049,
  0.811339,
  0.82,
  1.038,
  0.822339,
  0.844,
  0.891,
  0.854,
  1.14,
  0.782339,
  0.858,
  0.988574,
  0.759663,
  0.883,
  0.822,
  0.834,
  0.817339,
  0.940206,
  0.869,
  0.885,
  0.212,
  0.870338,
  1.020339,
  0.856117,
  0.857,
  0.853339,
  0.858,
  0.868,
  0.854,
  1.407057,
  0.812,
  0.859,
  0.853,
  0.978,
  0.887,
  0.347,
  0.357,
  0.275103,
  0.347,
  0.326,
  0.309,
  0.544,
  0.344,
  0.332,
  0.255,
  0.326,
  0.33,
  0.344,
  0.308,
  0.449103,
  0.351,
  0.315,
  0.313,
  0.051,
  0.363,
  0.377,
  0.333,
  0.275,
  0.328103,
  0.373,
  0.259,
  0.403,
  0.258103,
  0.32,
  0.346,
  0.325,
  0.291103,
  0.319,
  0.314,
  0.367103,
  0.306112,
  1.818,
  0.24812,
  0.672,
  0.350103,
  0.4,
  0.364681,
  0.325,
  0.311,
  0.312103,
  0.533,
  0.341,
  0.356103,
  0.959,
  0.376,
  0.52,
  0.300103,
  0.359,
  0.449053,
  0.34,
  0.305,
  0.049,
  0.275477,
  1.055811,
  0.437,
  0.482,
  0.329,
  0.820388,
  0.733,
  0.15143,
  0.727,
  0.925941,
  0.786794,
  0.858852,
  0.66514,
  0.666,
  0.762,
  0.629,
  0.828,
  0.85068,
  0.816,
  0.740699,
  0.772308,
  0.835,
  0.702,
  0.795794,
  0.690194,
  0.847716,
  0.699,
  0.777,
  0.801,
  0.706946,
  0.735716,
  0.924526,
  0.857233,
  0.866716,
  2.281447,
  0.898509,
  0.780396,
  0.734604,
  0.719618,
  0.67657,
  0.66,
  0.788747,
  0.897252,
  0.753284,
  0.754037,
  0.831451,
  0.809065,
  0.716872,
  0.656626,
  0.754,
  0.816,
  0.879794,
  0.69,
  0.927716,
  0.150442,
  0.921119,
  0.786757,
  0.743584,
  0.801716,
  0.84457,
  0.747,
  0.952716,
  0.794283,
  0.744,
  0.771,
  0.727927,
  0.468003,
  0.449403,
  0.137019,
  0.753831,
  0.453961,
  0.456257,
  0.439249,
  0.376851,
  0.378702,
  0.449,
  0.566,
  0.364703,
  0.367,
  1.665,
  0.469239,
  0.594398,
  0.456359,
  0.448297,
  3.252406,
  0.727495,
  0.631,
  0.131938,
  0.561525,
  0.365443,
  0.388895,
  0.472,
  0.893262,
  0.693642,
  0.460842,
  0.634992,
  0.434,
  0.401877,
  0.812052,
  0.363443,
  0.430037,
  0.481398,
  0.442,
  0.425,
  0.076,
  0.396406,
  0.367638,
  0.650406,
  2.775382,
  3.494,
  6.058208,
  3.507495,
  0.438,
  0.753443,
  0.504495,
  0.384186,
  0.429151,
  0.706287,
  0.471237,
  2.444146,
  0.448297,
  0.427006,
  3.215735,
  0.358,
  0.127938,
  0.479,
  0.460275,
  0.361897,
  0.355103,
  0.345,
  0.885,
  0.435,
  0.469,
  0.314,
  0.353897,
  1.513,
  0.353777,
  0.351,
  0.273,
  0.305,
  0.627103,
  0.331666,
  0.380103,
  0.326194,
  0.324235,
  0.663,
  0.71,
  0.364103,
  0.319,
  0.437841,
  0.587,
  0.366103,
  0.336,
  0.453,
  0.261103,
  0.395,
  0.357,
  0.301505,
  0.34,
  0.333103,
  0.438,
  0.293,
  0.366876,
  0.372103,
  0.471,
  0.352,
  0.417,
  0.376103,
  0.355,
  0.458,
  0.349897,
  0.361103,
  0.288698,
  0.451,
  0.326,
  0.332103,
  0.419,
  0.377,
  0.303103,
  0.353,
  0.321,
  0.343,
  0.281505,
  1.232,
  1.216,
  1.832111,
  1.046889,
  1.095439,
  1.486962,
  1.292021,
  1.282,
  1.331423,
  1.125,
  1.023612,
  1.076853,
  1.011,
  1.016,
  1.043111,
  1.195352,
  1.043889,
  1.431897,
  1.012568,
  1.06134,
  1.069897,
  1.067,
  1.136,
  1.299209,
  1.098352,
  1.091,
  1.107698,
  1.126352,
  1.099,
  1.029,
  1.078784,
  1.036352,
  1.065,
  1.073,
  1.042216,
  1.055,
  0.994352,
  1.118216,
  1.045,
  1.185352,
  1.153,
  1.077897,
  1.373,
  1.301352,
  1.106,
  1.329,
  1.039,
  1.043,
  1.008455,
  1.577,
  1.09,
  1.034878,
  1.123,
  1.004103,
  1.136109,
  1.037012,
  1.072897,
  1.365897,
  1.039,
  1.452138
]