/shadow/avg3cmux/16326/48545/tornet/1/shadow.data/hosts/markovclient355/markovclient355.tor.1000.stdout:Jan 01 00:26:03.802 [warn] Sending XOFF: 249400 249000
/shadow/avg3cmux/16326/48545/tornet/1/shadow.data/hosts/markovclient355/markovclient355.tor.1000.stdout:Jan 01 00:26:09.427 [warn] Sending XOFF: 249400 249000
/shadow/avg3cmux/16326/48545/tornet/1/shadow.data/hosts/markovclient355/markovclient355.tor.1000.stdout:Jan 01 00:27:00.708 [warn] Sending XOFF: 249400 249000
/shadow/avg3cmux/16326/48545/tornet/1/shadow.data/hosts/markovclient355/markovclient355.tor.1000.stdout:Jan 01 00:27:18.124 [warn] Sending XOFF: 249400 249000
/shadow/avg3cmux/16326/48545/tornet/1/shadow.data/hosts/markovclient355/markovclient355.tor.1000.stdout:Jan 01 00:27:24.432 [warn] Sending XOFF: 249400 249000
/shadow/avg3cmux/16326/48545/tornet/1/shadow.data/hosts/markovclient355/markovclient355.tor.1000.stdout:Jan 01 00:27:46.562 [warn] Sending XOFF: 249134 249000
/shadow/avg3cmux/16326/48545/tornet/1/shadow.data/hosts/markovclient355/markovclient355.tor.1000.stdout:Jan 01 00:29:37.073 [warn] Sending XOFF: 249400 249000
/shadow/avg3cmux/16326/48545/tornet/1/shadow.data/hosts/markovclient355/markovclient355.tor.1000.stdout:Jan 01 00:30:14.720 [warn] Sending XOFF: 249074 249000
/shadow/avg3cmux/16326/48545/tornet/1/shadow.data/hosts/markovclient355/markovclient355.tor.1000.stdout:Jan 01 00:30:16.983 [warn] Sending XOFF: 249400 249000
/shadow/avg3cmux/16326/48545/tornet/1/shadow.data/hosts/markovclient355/markovclient355.tor.1000.stdout:Jan 01 00:30:18.484 [warn] Sending XOFF: 249422 249000
/shadow/avg3cmux/16326/48545/tornet/1/shadow.data/hosts/markovclient355/markovclient355.tor.1000.stdout:Jan 01 00:30:23.341 [warn] Sending XOFF: 249038 249000
/shadow/avg3cmux/16326/48545/tornet/1/shadow.data/hosts/markovclient355/markovclient355.tor.1000.stdout:Jan 01 00:30:38.248 [warn] Sending XOFF: 249400 249000
/shadow/avg3cmux/16326/48545/tornet/1/shadow.data/hosts/markovclient355/markovclient355.tor.1000.stdout:Jan 01 00:30:42.217 [warn] Sending XOFF: 249326 249000
/shadow/avg3cmux/16326/48545/tornet/1/shadow.data/hosts/markovclient195/markovclient195.tor.1000.stdout:Jan 01 00:18:50.334 [warn] Sending XOFF: 249226 249000
/shadow/avg3cmux/16326/48545/tornet/1/shadow.data/hosts/markovclient195/markovclient195.tor.1000.stdout:Jan 01 00:19:57.857 [warn] Sending XOFF: 249266 249000
/shadow/avg3cmux/16326/48545/tornet/1/shadow.data/hosts/markovclient195/markovclient195.tor.1000.stdout:Jan 01 00:21:11.771 [warn] Sending XOFF: 249362 249000
/shadow/avg3cmux/16326/48545/tornet/1/shadow.data/hosts/markovclient195/markovclient195.tor.1000.stdout:Jan 01 00:21:16.464 [warn] Sending XOFF: 249416 249000
/shadow/avg3cmux/16326/48545/tornet/1/shadow.data/hosts/markovclient195/markovclient195.tor.1000.stdout:Jan 01 00:22:13.219 [warn] Sending XOFF: 249070 249000
/shadow/avg3cmux/16326/48545/tornet/1/shadow.data/hosts/markovclient195/markovclient195.tor.1000.stdout:Jan 01 00:22:15.101 [warn] Sending XOFF: 249380 249000
/shadow/avg3cmux/16326/48545/tornet/1/shadow.data/hosts/markovclient195/markovclient195.tor.1000.stdout:Jan 01 00:22:39.746 [warn] Sending XOFF: 249404 249000
/shadow/avg3cmux/16326/48545/tornet/1/shadow.data/hosts/markovclient195/markovclient195.tor.1000.stdout:Jan 01 00:23:27.143 [warn] Sending XOFF: 249470 249000
/shadow/avg3cmux/16326/48545/tornet/1/shadow.data/hosts/markovclient195/markovclient195.tor.1000.stdout:Jan 01 00:24:33.207 [warn] Sending XOFF: 249026 249000
/shadow/avg3cmux/16326/48545/tornet/1/shadow.data/hosts/markovclient195/markovclient195.tor.1000.stdout:Jan 01 00:24:50.321 [warn] Sending XOFF: 249290 249000
/shadow/avg3cmux/16326/48545/tornet/1/shadow.data/hosts/markovclient195/markovclient195.tor.1000.stdout:Jan 01 00:28:28.162 [warn] Sending XOFF: 249462 249000
/shadow/avg3cmux/16326/48545/tornet/1/shadow.data/hosts/markovclient195/markovclient195.tor.1000.stdout:Jan 01 00:28:50.983 [warn] Sending XOFF: 249050 249000
/shadow/avg3cmux/16326/48545/tornet/1/shadow.data/hosts/markovclient195/markovclient195.tor.1000.stdout:Jan 01 00:29:17.739 [warn] Sending XOFF: 249236 249000
/shadow/avg3cmux/16326/48545/tornet/1/shadow.data/hosts/markovclient195/markovclient195.tor.1000.stdout:Jan 01 00:29:23.326 [warn] Sending XOFF: 249350 249000
/shadow/avg3cmux/16326/48545/tornet/1/shadow.data/hosts/markovclient195/markovclient195.tor.1000.stdout:Jan 01 00:29:58.626 [warn] Sending XOFF: 249400 249000
/shadow/avg3cmux/16326/48545/tornet/1/shadow.data/hosts/markovclient195/markovclient195.tor.1000.stdout:Jan 01 00:30:06.132 [warn] Sending XOFF: 249290 249000
/shadow/avg3cmux/16326/48545/tornet/1/shadow.data/hosts/markovclient195/markovclient195.tor.1000.stdout:Jan 01 00:30:10.463 [warn] Sending XOFF: 249128 249000
/shadow/avg3cmux/16326/48545/tornet/1/shadow.data/hosts/markovclient195/markovclient195.tor.1000.stdout:Jan 01 00:30:18.965 [warn] Sending XOFF: 249380 249000
/shadow/avg3cmux/16326/48545/tornet/1/shadow.data/hosts/markovclient195/markovclient195.tor.1000.stdout:Jan 01 00:30:31.699 [warn] Sending XOFF: 249026 249000
/shadow/avg3cmux/16326/48545/tornet/1/shadow.data/hosts/markovclient195/markovclient195.tor.1000.stdout:Jan 01 00:30:34.239 [warn] Sending XOFF: 249452 249000
/shadow/avg3cmux/16326/48545/tornet/1/shadow.data/hosts/markovclient195/markovclient195.tor.1000.stdout:Jan 01 00:30:34.570 [warn] Sending XOFF: 249253 249000
/shadow/avg3cmux/16326/48545/tornet/1/shadow.data/hosts/markovclient195/markovclient195.tor.1000.stdout:Jan 01 00:30:35.845 [warn] Sending XOFF: 249488 249000
/shadow/avg3cmux/16326/48545/tornet/1/shadow.data/hosts/markovclient33/markovclient33.tor.1000.stdout:Jan 01 00:19:41.453 [warn] Sending XOFF: 249286 249000
/shadow/avg3cmux/16326/48545/tornet/1/shadow.data/hosts/markovclient33/markovclient33.tor.1000.stdout:Jan 01 00:21:05.701 [warn] Sending XOFF: 249200 249000
/shadow/avg3cmux/16326/48545/tornet/1/shadow.data/hosts/markovclient33/markovclient33.tor.1000.stdout:Jan 01 00:21:06.838 [warn] Sending XOFF: 249464 249000
/shadow/avg3cmux/16326/48545/tornet/1/shadow.data/hosts/markovclient33/markovclient33.tor.1000.stdout:Jan 01 00:21:14.682 [warn] Sending XOFF: 249014 249000
/shadow/avg3cmux/16326/48545/tornet/1/shadow.data/hosts/markovclient33/markovclient33.tor.1000.stdout:Jan 01 00:21:15.916 [warn] Sending XOFF: 249400 249000
/shadow/avg3cmux/16326/48545/tornet/1/shadow.data/hosts/markovclient33/markovclient33.tor.1000.stdout:Jan 01 00:21:31.603 [warn] Sending XOFF: 249404 249000
/shadow/avg3cmux/16326/48545/tornet/1/shadow.data/hosts/markovclient33/markovclient33.tor.1000.stdout:Jan 01 00:23:59.429 [warn] Sending XOFF: 249091 249000
/shadow/avg3cmux/16326/48545/tornet/1/shadow.data/hosts/markovclient33/markovclient33.tor.1000.stdout:Jan 01 00:24:02.452 [warn] Sending XOFF: 249380 249000
/shadow/avg3cmux/16326/48545/tornet/1/shadow.data/hosts/markovclient33/markovclient33.tor.1000.stdout:Jan 01 00:24:14.647 [warn] Sending XOFF: 249400 249000
/shadow/avg3cmux/16326/48545/tornet/1/shadow.data/hosts/markovclient33/markovclient33.tor.1000.stdout:Jan 01 00:25:10.471 [warn] Sending XOFF: 249008 249000
/shadow/avg3cmux/16326/48545/tornet/1/shadow.data/hosts/markovclient33/markovclient33.tor.1000.stdout:Jan 01 00:25:12.717 [warn] Sending XOFF: 249290 249000
/shadow/avg3cmux/16326/48545/tornet/1/shadow.data/hosts/markovclient33/markovclient33.tor.1000.stdout:Jan 01 00:25:31.300 [warn] Sending XOFF: 249446 249000
/shadow/avg3cmux/16326/48545/tornet/1/shadow.data/hosts/markovclient33/markovclient33.tor.1000.stdout:Jan 01 00:25:50.634 [warn] Sending XOFF: 249308 249000
/shadow/avg3cmux/16326/48545/tornet/1/shadow.data/hosts/markovclient33/markovclient33.tor.1000.stdout:Jan 01 00:26:01.574 [warn] Sending XOFF: 249074 249000
/shadow/avg3cmux/16326/48545/tornet/1/shadow.data/hosts/markovclient33/markovclient33.tor.1000.stdout:Jan 01 00:27:17.801 [warn] Sending XOFF: 249400 249000
/shadow/avg3cmux/16326/48545/tornet/1/shadow.data/hosts/markovclient33/markovclient33.tor.1000.stdout:Jan 01 00:28:22.292 [warn] Sending XOFF: 249074 249000
/shadow/avg3cmux/16326/48545/tornet/1/shadow.data/hosts/markovclient33/markovclient33.tor.1000.stdout:Jan 01 00:28:29.265 [warn] Sending XOFF: 249156 249000
/shadow/avg3cmux/16326/48545/tornet/1/shadow.data/hosts/markovclient33/markovclient33.tor.1000.stdout:Jan 01 00:28:29.670 [warn] Sending XOFF: 249400 249000
/shadow/avg3cmux/16326/48545/tornet/1/shadow.data/hosts/markovclient33/markovclient33.tor.1000.stdout:Jan 01 00:28:39.872 [warn] Sending XOFF: 249074 249000
/shadow/avg3cmux/16326/48545/tornet/1/shadow.data/hosts/markovclient33/markovclient33.tor.1000.stdout:Jan 01 00:29:16.928 [warn] Sending XOFF: 249380 249000
/shadow/avg3cmux/16326/48545/tornet/1/shadow.data/hosts/markovclient33/markovclient33.tor.1000.stdout:Jan 01 00:29:18.108 [warn] Sending XOFF: 249400 249000
/shadow/avg3cmux/16326/48545/tornet/1/shadow.data/hosts/markovclient33/markovclient33.tor.1000.stdout:Jan 01 00:29:18.831 [warn] Sending XOFF: 249464 249000
/shadow/avg3cmux/16326/48545/tornet/1/shadow.data/hosts/markovclient33/markovclient33.tor.1000.stdout:Jan 01 00:29:36.555 [warn] Sending XOFF: 249400 249000
/shadow/avg3cmux/16326/48545/tornet/1/shadow.data/hosts/markovclient33/markovclient33.tor.1000.stdout:Jan 01 00:29:48.591 [warn] Sending XOFF: 249380 249000
/shadow/avg3cmux/16326/48545/tornet/1/shadow.data/hosts/markovclient33/markovclient33.tor.1000.stdout:Jan 01 00:30:03.226 [warn] Sending XOFF: 249114 249000
/shadow/avg3cmux/16326/48545/tornet/1/shadow.data/hosts/markovclient33/markovclient33.tor.1000.stdout:Jan 01 00:30:33.060 [warn] Sending XOFF: 249236 249000
/shadow/avg3cmux/16326/48545/tornet/1/shadow.data/hosts/markovclient33/markovclient33.tor.1000.stdout:Jan 01 00:30:33.492 [warn] Sending XOFF: 249422 249000
/shadow/avg3cmux/16326/48545/tornet/1/shadow.data/hosts/markovclient33/markovclient33.tor.1000.stdout:Jan 01 00:30:34.042 [warn] Sending XOFF: 249452 249000
/shadow/avg3cmux/16326/48545/tornet/1/shadow.data/hosts/markovclient33/markovclient33.tor.1000.stdout:Jan 01 00:30:35.037 [warn] Sending XOFF: 249400 249000
/shadow/avg3cmux/16326/48545/tornet/1/shadow.data/hosts/markovclient33/markovclient33.tor.1000.stdout:Jan 01 00:30:38.516 [warn] Sending XOFF: 249400 249000
/shadow/avg3cmux/16326/48545/tornet/1/shadow.data/hosts/markovclient33/markovclient33.tor.1000.stdout:Jan 01 00:30:45.873 [warn] Sending XOFF: 249302 249000
/shadow/avg3cmux/16326/48545/tornet/1/shadow.data/hosts/markovclient33/markovclient33.tor.1000.stdout:Jan 01 00:30:57.564 [warn] Sending XOFF: 249012 249000
/shadow/avg3cmux/16326/48545/tornet/1/shadow.data/hosts/markovclient281/markovclient281.tor.1000.stdout:Jan 01 00:24:11.994 [warn] Sending XOFF: 249400 249000
/shadow/avg3cmux/16326/48545/tornet/1/shadow.data/hosts/markovclient281/markovclient281.tor.1000.stdout:Jan 01 00:25:11.839 [warn] Sending XOFF: 249074 249000
/shadow/avg3cmux/16326/48545/tornet/1/shadow.data/hosts/markovclient281/markovclient281.tor.1000.stdout:Jan 01 00:26:22.831 [warn] Sending XOFF: 249380 249000
/shadow/avg3cmux/16326/48545/tornet/1/shadow.data/hosts/markovclient281/markovclient281.tor.1000.stdout:Jan 01 00:26:23.922 [warn] Sending XOFF: 249380 249000
/shadow/avg3cmux/16326/48545/tornet/1/shadow.data/hosts/markovclient281/markovclient281.tor.1000.stdout:Jan 01 00:26:31.453 [warn] Sending XOFF: 249050 249000
/shadow/avg3cmux/16326/48545/tornet/1/shadow.data/hosts/markovclient281/markovclient281.tor.1000.stdout:Jan 01 00:26:36.103 [warn] Sending XOFF: 249184 249000
/shadow/avg3cmux/16326/48545/tornet/1/shadow.data/hosts/markovclient281/markovclient281.tor.1000.stdout:Jan 01 00:26:56.267 [warn] Sending XOFF: 249278 249000
/shadow/avg3cmux/16326/48545/tornet/1/shadow.data/hosts/markovclient281/markovclient281.tor.1000.stdout:Jan 01 00:27:14.010 [warn] Sending XOFF: 249068 249000
/shadow/avg3cmux/16326/48545/tornet/1/shadow.data/hosts/markovclient281/markovclient281.tor.1000.stdout:Jan 01 00:27:31.754 [warn] Sending XOFF: 249014 249000
/shadow/avg3cmux/16326/48545/tornet/1/shadow.data/hosts/markovclient281/markovclient281.tor.1000.stdout:Jan 01 00:27:49.356 [warn] Sending XOFF: 249380 249000
/shadow/avg3cmux/16326/48545/tornet/1/shadow.data/hosts/markovclient281/markovclient281.tor.1000.stdout:Jan 01 00:28:10.754 [warn] Sending XOFF: 249074 249000
/shadow/avg3cmux/16326/48545/tornet/1/shadow.data/hosts/markovclient281/markovclient281.tor.1000.stdout:Jan 01 00:28:11.001 [warn] Sending XOFF: 249308 249000
/shadow/avg3cmux/16326/48545/tornet/1/shadow.data/hosts/markovclient281/markovclient281.tor.1000.stdout:Jan 01 00:28:59.669 [warn] Sending XOFF: 249400 249000
/shadow/avg3cmux/16326/48545/tornet/1/shadow.data/hosts/markovclient281/markovclient281.tor.1000.stdout:Jan 01 00:29:09.812 [warn] Sending XOFF: 249074 249000
/shadow/avg3cmux/16326/48545/tornet/1/shadow.data/hosts/markovclient281/markovclient281.tor.1000.stdout:Jan 01 00:29:44.458 [warn] Sending XOFF: 249152 249000
/shadow/avg3cmux/16326/48545/tornet/1/shadow.data/hosts/markovclient281/markovclient281.tor.1000.stdout:Jan 01 00:30:21.612 [warn] Sending XOFF: 249074 249000
/shadow/avg3cmux/16326/48545/tornet/1/shadow.data/hosts/markovclient109/markovclient109.tor.1000.stdout:Jan 01 00:30:19.270 [warn] Sending XOFF: 249400 249000
/shadow/avg3cmux/16326/48545/tornet/1/shadow.data/hosts/markovclient109/markovclient109.tor.1000.stdout:Jan 01 00:30:40.799 [warn] Sending XOFF: 249266 249000
/shadow/avg3cmux/16326/48545/tornet/1/shadow.data/hosts/markovclient42/markovclient42.tor.1000.stdout:Jan 01 00:26:35.166 [warn] Sending XOFF: 249074 249000
/shadow/avg3cmux/16326/48545/tornet/1/shadow.data/hosts/markovclient42/markovclient42.tor.1000.stdout:Jan 01 00:27:14.364 [warn] Sending XOFF: 249400 249000
/shadow/avg3cmux/16326/48545/tornet/1/shadow.data/hosts/markovclient42/markovclient42.tor.1000.stdout:Jan 01 00:27:14.447 [warn] Sending XOFF: 249200 249000
/shadow/avg3cmux/16326/48545/tornet/1/shadow.data/hosts/markovclient42/markovclient42.tor.1000.stdout:Jan 01 00:28:23.438 [warn] Sending XOFF: 249205 249000
/shadow/avg3cmux/16326/48545/tornet/1/shadow.data/hosts/markovclient42/markovclient42.tor.1000.stdout:Jan 01 00:29:02.594 [warn] Sending XOFF: 249236 249000
/shadow/avg3cmux/16326/48545/tornet/1/shadow.data/hosts/markovclient42/markovclient42.tor.1000.stdout:Jan 01 00:29:23.283 [warn] Sending XOFF: 249302 249000
/shadow/avg3cmux/16326/48545/tornet/1/shadow.data/hosts/markovclient42/markovclient42.tor.1000.stdout:Jan 01 00:29:33.412 [warn] Sending XOFF: 249074 249000
/shadow/avg3cmux/16326/48545/tornet/1/shadow.data/hosts/markovclient42/markovclient42.tor.1000.stdout:Jan 01 00:29:40.447 [warn] Sending XOFF: 249385 249000
/shadow/avg3cmux/16326/48545/tornet/1/shadow.data/hosts/markovclient42/markovclient42.tor.1000.stdout:Jan 01 00:30:05.655 [warn] Sending XOFF: 249400 249000
/shadow/avg3cmux/16326/48545/tornet/1/shadow.data/hosts/markovclient42/markovclient42.tor.1000.stdout:Jan 01 00:30:11.655 [warn] Sending XOFF: 249235 249000
/shadow/avg3cmux/16326/48545/tornet/1/shadow.data/hosts/markovclient42/markovclient42.tor.1000.stdout:Jan 01 00:30:21.755 [warn] Sending XOFF: 249008 249000
/shadow/avg3cmux/16326/48545/tornet/1/shadow.data/hosts/markovclient42/markovclient42.tor.1000.stdout:Jan 01 00:30:29.042 [warn] Sending XOFF: 249400 249000
/shadow/avg3cmux/16326/48545/tornet/1/shadow.data/hosts/markovclient42/markovclient42.tor.1000.stdout:Jan 01 00:30:43.508 [warn] Sending XOFF: 249380 249000
/shadow/avg3cmux/16326/48545/tornet/1/shadow.data/hosts/markovclient50/markovclient50.tor.1000.stdout:Jan 01 00:27:37.156 [warn] Sending XOFF: 249248 249000
/shadow/avg3cmux/16326/48545/tornet/1/shadow.data/hosts/markovclient50/markovclient50.tor.1000.stdout:Jan 01 00:27:42.517 [warn] Sending XOFF: 249074 249000
/shadow/avg3cmux/16326/48545/tornet/1/shadow.data/hosts/markovclient50/markovclient50.tor.1000.stdout:Jan 01 00:28:44.331 [warn] Sending XOFF: 249073 249000
/shadow/avg3cmux/16326/48545/tornet/1/shadow.data/hosts/markovclient50/markovclient50.tor.1000.stdout:Jan 01 00:29:17.946 [warn] Sending XOFF: 249272 249000
/shadow/avg3cmux/16326/48545/tornet/1/shadow.data/hosts/markovclient50/markovclient50.tor.1000.stdout:Jan 01 00:29:25.574 [warn] Sending XOFF: 249194 249000
/shadow/avg3cmux/16326/48545/tornet/1/shadow.data/hosts/markovclient50/markovclient50.tor.1000.stdout:Jan 01 00:30:32.338 [warn] Sending XOFF: 249054 249000
/shadow/avg3cmux/16326/48545/tornet/1/shadow.data/hosts/markovclient50/markovclient50.tor.1000.stdout:Jan 01 00:30:38.976 [warn] Sending XOFF: 249308 249000
/shadow/avg3cmux/16326/48545/tornet/1/shadow.data/hosts/markovclient84/markovclient84.tor.1000.stdout:Jan 01 00:26:20.690 [warn] Sending XOFF: 249400 249000
/shadow/avg3cmux/16326/48545/tornet/1/shadow.data/hosts/markovclient332/markovclient332.tor.1000.stdout:Jan 01 00:21:17.074 [warn] Sending XOFF: 249380 249000
/shadow/avg3cmux/16326/48545/tornet/1/shadow.data/hosts/markovclient332/markovclient332.tor.1000.stdout:Jan 01 00:21:43.910 [warn] Sending XOFF: 249400 249000
/shadow/avg3cmux/16326/48545/tornet/1/shadow.data/hosts/markovclient332/markovclient332.tor.1000.stdout:Jan 01 00:22:05.947 [warn] Sending XOFF: 249062 249000
/shadow/avg3cmux/16326/48545/tornet/1/shadow.data/hosts/markovclient332/markovclient332.tor.1000.stdout:Jan 01 00:22:13.287 [warn] Sending XOFF: 249400 249000
/shadow/avg3cmux/16326/48545/tornet/1/shadow.data/hosts/markovclient332/markovclient332.tor.1000.stdout:Jan 01 00:22:32.508 [warn] Sending XOFF: 249400 249000
/shadow/avg3cmux/16326/48545/tornet/1/shadow.data/hosts/markovclient332/markovclient332.tor.1000.stdout:Jan 01 00:23:20.529 [warn] Sending XOFF: 249400 249000
/shadow/avg3cmux/16326/48545/tornet/1/shadow.data/hosts/markovclient332/markovclient332.tor.1000.stdout:Jan 01 00:23:22.655 [warn] Sending XOFF: 249400 249000
/shadow/avg3cmux/16326/48545/tornet/1/shadow.data/hosts/markovclient332/markovclient332.tor.1000.stdout:Jan 01 00:24:37.340 [warn] Sending XOFF: 249400 249000
/shadow/avg3cmux/16326/48545/tornet/1/shadow.data/hosts/markovclient332/markovclient332.tor.1000.stdout:Jan 01 00:25:06.993 [warn] Sending XOFF: 249400 249000
/shadow/avg3cmux/16326/48545/tornet/1/shadow.data/hosts/markovclient332/markovclient332.tor.1000.stdout:Jan 01 00:25:09.311 [warn] Sending XOFF: 249374 249000
/shadow/avg3cmux/16326/48545/tornet/1/shadow.data/hosts/markovclient332/markovclient332.tor.1000.stdout:Jan 01 00:25:12.066 [warn] Sending XOFF: 249380 249000
/shadow/avg3cmux/16326/48545/tornet/1/shadow.data/hosts/markovclient332/markovclient332.tor.1000.stdout:Jan 01 00:25:29.525 [warn] Sending XOFF: 249400 249000
/shadow/avg3cmux/16326/48545/tornet/1/shadow.data/hosts/markovclient332/markovclient332.tor.1000.stdout:Jan 01 00:25:51.342 [warn] Sending XOFF: 249400 249000
/shadow/avg3cmux/16326/48545/tornet/1/shadow.data/hosts/markovclient332/markovclient332.tor.1000.stdout:Jan 01 00:25:54.182 [warn] Sending XOFF: 249400 249000
/shadow/avg3cmux/16326/48545/tornet/1/shadow.data/hosts/markovclient332/markovclient332.tor.1000.stdout:Jan 01 00:26:50.426 [warn] Sending XOFF: 249271 249000
/shadow/avg3cmux/16326/48545/tornet/1/shadow.data/hosts/markovclient332/markovclient332.tor.1000.stdout:Jan 01 00:27:29.507 [warn] Sending XOFF: 249164 249000
/shadow/avg3cmux/16326/48545/tornet/1/shadow.data/hosts/markovclient332/markovclient332.tor.1000.stdout:Jan 01 00:27:31.769 [warn] Sending XOFF: 249400 249000
/shadow/avg3cmux/16326/48545/tornet/1/shadow.data/hosts/markovclient332/markovclient332.tor.1000.stdout:Jan 01 00:27:44.106 [warn] Sending XOFF: 249400 249000
/shadow/avg3cmux/16326/48545/tornet/1/shadow.data/hosts/markovclient332/markovclient332.tor.1000.stdout:Jan 01 00:27:50.573 [warn] Sending XOFF: 249400 249000
/shadow/avg3cmux/16326/48545/tornet/1/shadow.data/hosts/markovclient332/markovclient332.tor.1000.stdout:Jan 01 00:28:02.714 [warn] Sending XOFF: 249400 249000
/shadow/avg3cmux/16326/48545/tornet/1/shadow.data/hosts/markovclient332/markovclient332.tor.1000.stdout:Jan 01 00:28:13.685 [warn] Sending XOFF: 249400 249000
/shadow/avg3cmux/16326/48545/tornet/1/shadow.data/hosts/markovclient332/markovclient332.tor.1000.stdout:Jan 01 00:28:15.974 [warn] Sending XOFF: 249236 249000
/shadow/avg3cmux/16326/48545/tornet/1/shadow.data/hosts/markovclient332/markovclient332.tor.1000.stdout:Jan 01 00:28:19.671 [warn] Sending XOFF: 249242 249000
/shadow/avg3cmux/16326/48545/tornet/1/shadow.data/hosts/markovclient332/markovclient332.tor.1000.stdout:Jan 01 00:28:21.503 [warn] Sending XOFF: 249266 249000
/shadow/avg3cmux/16326/48545/tornet/1/shadow.data/hosts/markovclient332/markovclient332.tor.1000.stdout:Jan 01 00:28:35.392 [warn] Sending XOFF: 249166 249000
/shadow/avg3cmux/16326/48545/tornet/1/shadow.data/hosts/markovclient332/markovclient332.tor.1000.stdout:Jan 01 00:30:50.867 [warn] Sending XOFF: 249026 249000
/shadow/avg3cmux/16326/48545/tornet/1/shadow.data/hosts/markovclient332/markovclient332.tor.1000.stdout:Jan 01 00:30:56.692 [warn] Sending XOFF: 249400 249000
/shadow/avg3cmux/16326/48545/tornet/1/shadow.data/hosts/markovclient298/markovclient298.tor.1000.stdout:Jan 01 00:21:00.249 [warn] Sending XOFF: 249290 249000
/shadow/avg3cmux/16326/48545/tornet/1/shadow.data/hosts/markovclient298/markovclient298.tor.1000.stdout:Jan 01 00:21:23.741 [warn] Sending XOFF: 249400 249000
/shadow/avg3cmux/16326/48545/tornet/1/shadow.data/hosts/markovclient298/markovclient298.tor.1000.stdout:Jan 01 00:23:03.199 [warn] Sending XOFF: 249206 249000
/shadow/avg3cmux/16326/48545/tornet/1/shadow.data/hosts/markovclient298/markovclient298.tor.1000.stdout:Jan 01 00:23:04.343 [warn] Sending XOFF: 249074 249000
/shadow/avg3cmux/16326/48545/tornet/1/shadow.data/hosts/markovclient298/markovclient298.tor.1000.stdout:Jan 01 00:24:22.720 [warn] Sending XOFF: 249074 249000
/shadow/avg3cmux/16326/48545/tornet/1/shadow.data/hosts/markovclient298/markovclient298.tor.1000.stdout:Jan 01 00:25:12.519 [warn] Sending XOFF: 249128 249000
/shadow/avg3cmux/16326/48545/tornet/1/shadow.data/hosts/markovclient298/markovclient298.tor.1000.stdout:Jan 01 00:25:41.899 [warn] Sending XOFF: 249032 249000
/shadow/avg3cmux/16326/48545/tornet/1/shadow.data/hosts/markovclient298/markovclient298.tor.1000.stdout:Jan 01 00:25:50.780 [warn] Sending XOFF: 249096 249000
/shadow/avg3cmux/16326/48545/tornet/1/shadow.data/hosts/markovclient298/markovclient298.tor.1000.stdout:Jan 01 00:26:24.629 [warn] Sending XOFF: 249056 249000
/shadow/avg3cmux/16326/48545/tornet/1/shadow.data/hosts/markovclient298/markovclient298.tor.1000.stdout:Jan 01 00:26:31.605 [warn] Sending XOFF: 249428 249000
/shadow/avg3cmux/16326/48545/tornet/1/shadow.data/hosts/markovclient298/markovclient298.tor.1000.stdout:Jan 01 00:26:41.412 [warn] Sending XOFF: 249432 249000
/shadow/avg3cmux/16326/48545/tornet/1/shadow.data/hosts/markovclient298/markovclient298.tor.1000.stdout:Jan 01 00:26:59.062 [warn] Sending XOFF: 249354 249000
/shadow/avg3cmux/16326/48545/tornet/1/shadow.data/hosts/markovclient298/markovclient298.tor.1000.stdout:Jan 01 00:27:16.589 [warn] Sending XOFF: 249032 249000
/shadow/avg3cmux/16326/48545/tornet/1/shadow.data/hosts/markovclient298/markovclient298.tor.1000.stdout:Jan 01 00:27:17.244 [warn] Sending XOFF: 249194 249000
/shadow/avg3cmux/16326/48545/tornet/1/shadow.data/hosts/markovclient298/markovclient298.tor.1000.stdout:Jan 01 00:27:52.946 [warn] Sending XOFF: 249272 249000
/shadow/avg3cmux/16326/48545/tornet/1/shadow.data/hosts/markovclient298/markovclient298.tor.1000.stdout:Jan 01 00:28:41.161 [warn] Sending XOFF: 249146 249000
/shadow/avg3cmux/16326/48545/tornet/1/shadow.data/hosts/markovclient298/markovclient298.tor.1000.stdout:Jan 01 00:28:45.245 [warn] Sending XOFF: 249074 249000
/shadow/avg3cmux/16326/48545/tornet/1/shadow.data/hosts/markovclient298/markovclient298.tor.1000.stdout:Jan 01 00:29:32.806 [warn] Sending XOFF: 249072 249000
/shadow/avg3cmux/16326/48545/tornet/1/shadow.data/hosts/markovclient298/markovclient298.tor.1000.stdout:Jan 01 00:30:04.850 [warn] Sending XOFF: 249400 249000
/shadow/avg3cmux/16326/48545/tornet/1/shadow.data/hosts/markovclient298/markovclient298.tor.1000.stdout:Jan 01 00:30:05.350 [warn] Sending XOFF: 249032 249000
/shadow/avg3cmux/16326/48545/tornet/1/shadow.data/hosts/markovclient298/markovclient298.tor.1000.stdout:Jan 01 00:30:07.363 [warn] Sending XOFF: 249164 249000
/shadow/avg3cmux/16326/48545/tornet/1/shadow.data/hosts/markovclient298/markovclient298.tor.1000.stdout:Jan 01 00:30:30.823 [warn] Sending XOFF: 249400 249000
/shadow/avg3cmux/16326/48545/tornet/1/shadow.data/hosts/markovclient298/markovclient298.tor.1000.stdout:Jan 01 00:30:31.491 [warn] Sending XOFF: 249032 249000
/shadow/avg3cmux/16326/48545/tornet/1/shadow.data/hosts/markovclient298/markovclient298.tor.1000.stdout:Jan 01 00:30:57.339 [warn] Sending XOFF: 249074 249000
/shadow/avg3cmux/16326/48545/tornet/1/shadow.data/hosts/markovclient155/markovclient155.tor.1000.stdout:Jan 01 00:29:06.998 [warn] Sending XOFF: 249254 249000
/shadow/avg3cmux/16326/48545/tornet/1/shadow.data/hosts/markovclient155/markovclient155.tor.1000.stdout:Jan 01 00:29:11.401 [warn] Sending XOFF: 249464 249000
/shadow/avg3cmux/16326/48545/tornet/1/shadow.data/hosts/markovclient155/markovclient155.tor.1000.stdout:Jan 01 00:29:16.301 [warn] Sending XOFF: 249236 249000
/shadow/avg3cmux/16326/48545/tornet/1/shadow.data/hosts/markovclient155/markovclient155.tor.1000.stdout:Jan 01 00:29:22.034 [warn] Sending XOFF: 249236 249000
/shadow/avg3cmux/16326/48545/tornet/1/shadow.data/hosts/markovclient155/markovclient155.tor.1000.stdout:Jan 01 00:30:13.945 [warn] Sending XOFF: 249283 249000
/shadow/avg3cmux/16326/48545/tornet/1/shadow.data/hosts/markovclient155/markovclient155.tor.1000.stdout:Jan 01 00:30:25.450 [warn] Sending XOFF: 249007 249000
/shadow/avg3cmux/16326/48545/tornet/1/shadow.data/hosts/markovclient155/markovclient155.tor.1000.stdout:Jan 01 00:30:38.220 [warn] Sending XOFF: 249338 249000
/shadow/avg3cmux/16326/48545/tornet/1/shadow.data/hosts/markovclient116/markovclient116.tor.1000.stdout:Jan 01 00:21:07.423 [warn] Sending XOFF: 249074 249000
/shadow/avg3cmux/16326/48545/tornet/1/shadow.data/hosts/markovclient116/markovclient116.tor.1000.stdout:Jan 01 00:21:40.851 [warn] Sending XOFF: 249014 249000
/shadow/avg3cmux/16326/48545/tornet/1/shadow.data/hosts/markovclient116/markovclient116.tor.1000.stdout:Jan 01 00:21:56.990 [warn] Sending XOFF: 249380 249000
/shadow/avg3cmux/16326/48545/tornet/1/shadow.data/hosts/markovclient116/markovclient116.tor.1000.stdout:Jan 01 00:22:09.572 [warn] Sending XOFF: 249462 249000
/shadow/avg3cmux/16326/48545/tornet/1/shadow.data/hosts/markovclient116/markovclient116.tor.1000.stdout:Jan 01 00:22:13.438 [warn] Sending XOFF: 249350 249000
/shadow/avg3cmux/16326/48545/tornet/1/shadow.data/hosts/markovclient116/markovclient116.tor.1000.stdout:Jan 01 00:22:39.629 [warn] Sending XOFF: 249204 249000
/shadow/avg3cmux/16326/48545/tornet/1/shadow.data/hosts/markovclient116/markovclient116.tor.1000.stdout:Jan 01 00:22:52.627 [warn] Sending XOFF: 249062 249000
/shadow/avg3cmux/16326/48545/tornet/1/shadow.data/hosts/markovclient116/markovclient116.tor.1000.stdout:Jan 01 00:23:23.672 [warn] Sending XOFF: 249400 249000
/shadow/avg3cmux/16326/48545/tornet/1/shadow.data/hosts/markovclient116/markovclient116.tor.1000.stdout:Jan 01 00:23:25.048 [warn] Sending XOFF: 249380 249000
/shadow/avg3cmux/16326/48545/tornet/1/shadow.data/hosts/markovclient116/markovclient116.tor.1000.stdout:Jan 01 00:24:26.012 [warn] Sending XOFF: 249400 249000
/shadow/avg3cmux/16326/48545/tornet/1/shadow.data/hosts/markovclient116/markovclient116.tor.1000.stdout:Jan 01 00:24:44.716 [warn] Sending XOFF: 249314 249000
/shadow/avg3cmux/16326/48545/tornet/1/shadow.data/hosts/markovclient116/markovclient116.tor.1000.stdout:Jan 01 00:25:22.025 [warn] Sending XOFF: 249085 249000
/shadow/avg3cmux/16326/48545/tornet/1/shadow.data/hosts/markovclient116/markovclient116.tor.1000.stdout:Jan 01 00:25:32.333 [warn] Sending XOFF: 249188 249000
/shadow/avg3cmux/16326/48545/tornet/1/shadow.data/hosts/markovclient116/markovclient116.tor.1000.stdout:Jan 01 00:25:38.334 [warn] Sending XOFF: 249038 249000
/shadow/avg3cmux/16326/48545/tornet/1/shadow.data/hosts/markovclient116/markovclient116.tor.1000.stdout:Jan 01 00:25:44.946 [warn] Sending XOFF: 249134 249000
/shadow/avg3cmux/16326/48545/tornet/1/shadow.data/hosts/markovclient116/markovclient116.tor.1000.stdout:Jan 01 00:26:14.306 [warn] Sending XOFF: 249162 249000
/shadow/avg3cmux/16326/48545/tornet/1/shadow.data/hosts/markovclient116/markovclient116.tor.1000.stdout:Jan 01 00:26:17.514 [warn] Sending XOFF: 249026 249000
/shadow/avg3cmux/16326/48545/tornet/1/shadow.data/hosts/markovclient116/markovclient116.tor.1000.stdout:Jan 01 00:26:24.956 [warn] Sending XOFF: 249400 249000
/shadow/avg3cmux/16326/48545/tornet/1/shadow.data/hosts/markovclient116/markovclient116.tor.1000.stdout:Jan 01 00:26:29.753 [warn] Sending XOFF: 249208 249000
/shadow/avg3cmux/16326/48545/tornet/1/shadow.data/hosts/markovclient116/markovclient116.tor.1000.stdout:Jan 01 00:26:38.915 [warn] Sending XOFF: 249404 249000
/shadow/avg3cmux/16326/48545/tornet/1/shadow.data/hosts/markovclient116/markovclient116.tor.1000.stdout:Jan 01 00:26:42.262 [warn] Sending XOFF: 249014 249000
/shadow/avg3cmux/16326/48545/tornet/1/shadow.data/hosts/markovclient116/markovclient116.tor.1000.stdout:Jan 01 00:26:57.442 [warn] Sending XOFF: 249128 249000
/shadow/avg3cmux/16326/48545/tornet/1/shadow.data/hosts/markovclient116/markovclient116.tor.1000.stdout:Jan 01 00:27:08.536 [warn] Sending XOFF: 249386 249000
/shadow/avg3cmux/16326/48545/tornet/1/shadow.data/hosts/markovclient116/markovclient116.tor.1000.stdout:Jan 01 00:27:33.858 [warn] Sending XOFF: 249400 249000
/shadow/avg3cmux/16326/48545/tornet/1/shadow.data/hosts/markovclient116/markovclient116.tor.1000.stdout:Jan 01 00:27:48.065 [warn] Sending XOFF: 249086 249000
/shadow/avg3cmux/16326/48545/tornet/1/shadow.data/hosts/markovclient116/markovclient116.tor.1000.stdout:Jan 01 00:28:09.439 [warn] Sending XOFF: 249264 249000
/shadow/avg3cmux/16326/48545/tornet/1/shadow.data/hosts/markovclient116/markovclient116.tor.1000.stdout:Jan 01 00:28:25.075 [warn] Sending XOFF: 249344 249000
/shadow/avg3cmux/16326/48545/tornet/1/shadow.data/hosts/markovclient116/markovclient116.tor.1000.stdout:Jan 01 00:28:35.254 [warn] Sending XOFF: 249293 249000
/shadow/avg3cmux/16326/48545/tornet/1/shadow.data/hosts/markovclient116/markovclient116.tor.1000.stdout:Jan 01 00:29:24.896 [warn] Sending XOFF: 249374 249000
/shadow/avg3cmux/16326/48545/tornet/1/shadow.data/hosts/markovclient116/markovclient116.tor.1000.stdout:Jan 01 00:29:24.939 [warn] Sending XOFF: 249488 249000
/shadow/avg3cmux/16326/48545/tornet/1/shadow.data/hosts/markovclient116/markovclient116.tor.1000.stdout:Jan 01 00:29:47.447 [warn] Sending XOFF: 249272 249000
/shadow/avg3cmux/16326/48545/tornet/1/shadow.data/hosts/markovclient116/markovclient116.tor.1000.stdout:Jan 01 00:30:39.292 [warn] Sending XOFF: 249400 249000
/shadow/avg3cmux/16326/48545/tornet/1/shadow.data/hosts/markovclient698/markovclient698.tor.1000.stdout:Jan 01 00:25:37.997 [warn] Sending XOFF: 249272 249000
/shadow/avg3cmux/16326/48545/tornet/1/shadow.data/hosts/markovclient698/markovclient698.tor.1000.stdout:Jan 01 00:26:29.015 [warn] Sending XOFF: 249032 249000
/shadow/avg3cmux/16326/48545/tornet/1/shadow.data/hosts/markovclient698/markovclient698.tor.1000.stdout:Jan 01 00:28:20.176 [warn] Sending XOFF: 249302 249000
/shadow/avg3cmux/16326/48545/tornet/1/shadow.data/hosts/markovclient698/markovclient698.tor.1000.stdout:Jan 01 00:28:40.154 [warn] Sending XOFF: 249350 249000
/shadow/avg3cmux/16326/48545/tornet/1/shadow.data/hosts/markovclient698/markovclient698.tor.1000.stdout:Jan 01 00:28:56.980 [warn] Sending XOFF: 249224 249000
/shadow/avg3cmux/16326/48545/tornet/1/shadow.data/hosts/markovclient698/markovclient698.tor.1000.stdout:Jan 01 00:29:06.462 [warn] Sending XOFF: 249252 249000
/shadow/avg3cmux/16326/48545/tornet/1/shadow.data/hosts/markovclient698/markovclient698.tor.1000.stdout:Jan 01 00:29:09.861 [warn] Sending XOFF: 249092 249000
/shadow/avg3cmux/16326/48545/tornet/1/shadow.data/hosts/markovclient698/markovclient698.tor.1000.stdout:Jan 01 00:29:25.722 [warn] Sending XOFF: 249400 249000
/shadow/avg3cmux/16326/48545/tornet/1/shadow.data/hosts/markovclient698/markovclient698.tor.1000.stdout:Jan 01 00:30:05.760 [warn] Sending XOFF: 249408 249000
/shadow/avg3cmux/16326/48545/tornet/1/shadow.data/hosts/markovclient698/markovclient698.tor.1000.stdout:Jan 01 00:30:10.252 [warn] Sending XOFF: 249074 249000
/shadow/avg3cmux/16326/48545/tornet/1/shadow.data/hosts/markovclient698/markovclient698.tor.1000.stdout:Jan 01 00:30:26.640 [warn] Sending XOFF: 249400 249000
/shadow/avg3cmux/16326/48545/tornet/1/shadow.data/hosts/markovclient698/markovclient698.tor.1000.stdout:Jan 01 00:30:39.886 [warn] Sending XOFF: 249236 249000
/shadow/avg3cmux/16326/48545/tornet/1/shadow.data/hosts/markovclient92/markovclient92.tor.1000.stdout:Jan 01 00:26:31.646 [warn] Sending XOFF: 249400 249000
/shadow/avg3cmux/16326/48545/tornet/1/shadow.data/hosts/markovclient92/markovclient92.tor.1000.stdout:Jan 01 00:28:45.843 [warn] Sending XOFF: 249136 249000
/shadow/avg3cmux/16326/48545/tornet/1/shadow.data/hosts/markovclient26/markovclient26.tor.1000.stdout:Jan 01 00:28:05.531 [warn] Sending XOFF: 249400 249000
/shadow/avg3cmux/16326/48545/tornet/1/shadow.data/hosts/markovclient26/markovclient26.tor.1000.stdout:Jan 01 00:29:07.498 [warn] Sending XOFF: 249146 249000
/shadow/avg3cmux/16326/48545/tornet/1/shadow.data/hosts/markovclient338/markovclient338.tor.1000.stdout:Jan 01 00:27:36.915 [warn] Sending XOFF: 249128 249000
/shadow/avg3cmux/16326/48545/tornet/1/shadow.data/hosts/markovclient338/markovclient338.tor.1000.stdout:Jan 01 00:30:20.692 [warn] Sending XOFF: 249134 249000
/shadow/avg3cmux/16326/48545/tornet/1/shadow.data/hosts/markovclient41/markovclient41.tor.1000.stdout:Jan 01 00:24:34.833 [warn] Sending XOFF: 249400 249000
/shadow/avg3cmux/16326/48545/tornet/1/shadow.data/hosts/markovclient41/markovclient41.tor.1000.stdout:Jan 01 00:26:53.689 [warn] Sending XOFF: 249400 249000
/shadow/avg3cmux/16326/48545/tornet/1/shadow.data/hosts/markovclient41/markovclient41.tor.1000.stdout:Jan 01 00:27:18.098 [warn] Sending XOFF: 249464 249000
/shadow/avg3cmux/16326/48545/tornet/1/shadow.data/hosts/markovclient41/markovclient41.tor.1000.stdout:Jan 01 00:28:29.328 [warn] Sending XOFF: 249400 249000
/shadow/avg3cmux/16326/48545/tornet/1/shadow.data/hosts/markovclient41/markovclient41.tor.1000.stdout:Jan 01 00:28:36.779 [warn] Sending XOFF: 249380 249000
/shadow/avg3cmux/16326/48545/tornet/1/shadow.data/hosts/markovclient41/markovclient41.tor.1000.stdout:Jan 01 00:28:56.569 [warn] Sending XOFF: 249026 249000
Jan 01 00:21:03.749 [warn] Got XOFF!
Jan 01 00:27:42.454 [warn] Got XOFF!
Jan 01 00:30:20.933 [warn] Got XOFF!
Jan 01 00:30:37.207 [warn] Got XOFF!
Jan 01 00:28:34.749 [warn] Got XOFF!
Jan 01 00:25:26.515 [warn] Got XOFF!
Jan 01 00:21:23.829 [warn] Got XOFF!
Jan 01 00:24:58.058 [warn] Got XOFF!
Jan 01 00:30:03.186 [warn] Got XOFF!
Jan 01 00:30:28.463 [warn] Got XOFF!
Jan 01 00:30:38.861 [warn] Got XOFF!
Jan 01 00:30:47.809 [warn] Got XOFF!
Jan 01 00:30:49.449 [warn] Got XOFF!
Jan 01 00:28:42.262 [warn] Got XOFF!
Jan 01 00:29:25.428 [notice] Request to start reading on an edgeconn blocked with XOFF
Jan 01 00:29:26.350 [notice] Request to start reading on an edgeconn blocked with XOFF
Jan 01 00:29:26.360 [notice] Request to start reading on an edgeconn blocked with XOFF
Jan 01 00:30:31.479 [warn] Got XOFF!
Jan 01 00:24:56.982 [warn] Got XOFF!
Jan 01 00:28:52.094 [warn] Got XOFF!
Jan 01 00:29:34.968 [warn] Got XOFF!
Jan 01 00:29:42.572 [warn] Got XOFF!
Jan 01 00:30:38.522 [warn] Got XOFF!
Jan 01 00:26:58.770 [warn] Got XOFF!
Jan 01 00:27:42.706 [warn] Got XOFF!
Jan 01 00:26:02.916 [warn] Got XOFF!
Jan 01 00:24:11.168 [warn] Got XOFF!
Jan 01 00:26:17.892 [warn] Got XOFF!
Jan 01 00:30:15.972 [warn] Got XOFF!
Jan 01 00:22:31.305 [warn] Got XOFF!
Jan 01 00:24:10.272 [warn] Got XOFF!
Jan 01 00:25:23.103 [warn] Got XOFF!
Jan 01 00:30:11.295 [warn] Got XOFF!
Jan 01 00:23:08.688 [warn] Got XOFF!
Jan 01 00:23:30.165 [warn] Got XOFF!
Jan 01 00:24:11.308 [notice] Request to start reading on an edgeconn blocked with XOFF
Jan 01 00:24:22.702 [notice] Request to start reading on an edgeconn blocked with XOFF
Jan 01 00:25:10.338 [notice] Request to start reading on an edgeconn blocked with XOFF
Jan 01 00:25:10.377 [notice] Request to start reading on an edgeconn blocked with XOFF
Jan 01 00:25:10.387 [notice] Request to start reading on an edgeconn blocked with XOFF
Jan 01 00:25:25.140 [warn] Got XOFF!
Jan 01 00:26:51.666 [warn] Got XOFF!
Jan 01 00:27:04.258 [warn] Got XOFF!
Jan 01 00:28:22.524 [warn] Got XOFF!
Jan 01 00:30:26.411 [warn] Got XOFF!
Jan 01 00:30:31.830 [warn] Got XOFF!
Jan 01 00:23:41.035 [warn] Got XOFF!
Jan 01 00:21:16.362 [warn] Got XOFF!
Jan 01 00:23:00.732 [warn] Got XOFF!
Jan 01 00:23:35.124 [warn] Got XOFF!
Jan 01 00:27:55.348 [warn] Got XOFF!
Jan 01 00:29:52.768 [warn] Got XOFF!
Jan 01 00:30:47.320 [warn] Got XOFF!
Jan 01 00:25:24.364 [warn] Got XOFF!
Jan 01 00:26:28.258 [warn] Got XOFF!
Jan 01 00:27:56.667 [warn] Got XOFF!
Jan 01 00:29:41.550 [warn] Got XOFF!
Jan 01 00:20:04.500 [warn] Got XOFF!
Jan 01 00:21:11.981 [warn] Got XOFF!
Jan 01 00:21:20.346 [warn] Got XOFF!
Jan 01 00:21:40.770 [warn] Got XOFF!
Jan 01 00:24:43.571 [warn] Got XOFF!
Jan 01 00:25:46.661 [warn] Got XOFF!
Jan 01 00:26:15.122 [warn] Got XOFF!
Jan 01 00:26:17.601 [notice] Request to start reading on an edgeconn blocked with XOFF
Jan 01 00:26:18.849 [notice] Request to start reading on an edgeconn blocked with XOFF
Jan 01 00:26:20.093 [notice] Request to start reading on an edgeconn blocked with XOFF
Jan 01 00:26:22.294 [notice] Request to start reading on an edgeconn blocked with XOFF
Jan 01 00:26:31.924 [notice] Request to start reading on an edgeconn blocked with XOFF
Jan 01 00:26:48.188 [notice] Request to start reading on an edgeconn blocked with XOFF
Jan 01 00:27:04.762 [notice] Request to start reading on an edgeconn blocked with XOFF
Jan 01 00:27:15.428 [notice] Request to start reading on an edgeconn blocked with XOFF
Jan 01 00:27:16.055 [notice] Request to start reading on an edgeconn blocked with XOFF
Jan 01 00:27:16.707 [notice] Request to start reading on an edgeconn blocked with XOFF
Jan 01 00:27:17.938 [notice] Request to start reading on an edgeconn blocked with XOFF
Jan 01 00:27:18.246 [notice] Request to start reading on an edgeconn blocked with XOFF
Jan 01 00:27:18.866 [notice] Request to start reading on an edgeconn blocked with XOFF
Jan 01 00:27:19.805 [notice] Request to start reading on an edgeconn blocked with XOFF
Jan 01 00:27:33.871 [warn] Got XOFF!
Jan 01 00:28:27.212 [warn] Got XOFF!
Jan 01 00:28:30.936 [warn] Got XOFF!
Jan 01 00:29:07.690 [warn] Got XOFF!
Jan 01 00:30:02.700 [warn] Got XOFF!
Jan 01 00:30:43.307 [warn] Got XOFF!
Jan 01 00:30:55.338 [warn] Got XOFF!
Jan 01 00:29:27.641 [warn] Got XOFF!
Jan 01 00:29:28.533 [notice] Request to start reading on an edgeconn blocked with XOFF
Jan 01 00:27:58.996 [warn] Got XOFF!
Jan 01 00:28:36.070 [warn] Got XOFF!
Jan 01 00:28:47.564 [warn] Got XOFF!
Jan 01 00:29:20.119 [notice] Request to start reading on an edgeconn blocked with XOFF
Jan 01 00:30:36.030 [warn] Got XOFF!
Jan 01 00:30:55.158 [notice] Request to start reading on an edgeconn blocked with XOFF
Jan 01 00:22:17.820 [warn] Got XOFF!
Jan 01 00:26:42.218 [warn] Got XOFF!
Jan 01 00:27:48.029 [warn] Got XOFF!
Jan 01 00:28:00.431 [warn] Got XOFF!
Jan 01 00:29:34.895 [warn] Got XOFF!
Jan 01 00:24:20.002 [warn] Got XOFF!
Jan 01 00:27:47.959 [warn] Got XOFF!
Jan 01 00:26:31.981 [warn] Got XOFF!
Jan 01 00:26:37.036 [warn] Got XOFF!
Jan 01 00:28:47.798 [warn] Got XOFF!
Jan 01 00:29:37.427 [warn] Got XOFF!
Jan 01 00:30:04.572 [warn] Got XOFF!
Jan 01 00:30:19.444 [notice] Request to start reading on an edgeconn blocked with XOFF
Jan 01 00:30:19.444 [notice] Request to start reading on an edgeconn blocked with XOFF
Jan 01 00:30:19.570 [notice] Request to start reading on an edgeconn blocked with XOFF
Jan 01 00:30:19.570 [notice] Request to start reading on an edgeconn blocked with XOFF
Jan 01 00:30:19.580 [notice] Request to start reading on an edgeconn blocked with XOFF
Jan 01 00:30:19.580 [notice] Request to start reading on an edgeconn blocked with XOFF
Jan 01 00:30:19.686 [notice] Request to start reading on an edgeconn blocked with XOFF
Jan 01 00:30:19.686 [notice] Request to start reading on an edgeconn blocked with XOFF
Jan 01 00:30:19.696 [notice] Request to start reading on an edgeconn blocked with XOFF
Jan 01 00:30:19.696 [notice] Request to start reading on an edgeconn blocked with XOFF
Jan 01 00:30:19.706 [notice] Request to start reading on an edgeconn blocked with XOFF
Jan 01 00:30:19.706 [notice] Request to start reading on an edgeconn blocked with XOFF
Jan 01 00:30:19.715 [notice] Request to start reading on an edgeconn blocked with XOFF
Jan 01 00:30:19.715 [notice] Request to start reading on an edgeconn blocked with XOFF
Jan 01 00:30:19.810 [notice] Request to start reading on an edgeconn blocked with XOFF
Jan 01 00:30:19.810 [notice] Request to start reading on an edgeconn blocked with XOFF
Jan 01 00:30:19.820 [notice] Request to start reading on an edgeconn blocked with XOFF
Jan 01 00:30:19.820 [notice] Request to start reading on an edgeconn blocked with XOFF
Jan 01 00:30:19.830 [notice] Request to start reading on an edgeconn blocked with XOFF
Jan 01 00:30:19.830 [notice] Request to start reading on an edgeconn blocked with XOFF
Jan 01 00:22:04.410 [warn] Got XOFF!
Jan 01 00:23:54.060 [warn] Got XOFF!
Jan 01 00:26:12.984 [notice] Request to start reading on an edgeconn blocked with XOFF
Jan 01 00:26:12.984 [notice] Request to start reading on an edgeconn blocked with XOFF
Jan 01 00:26:12.994 [notice] Request to start reading on an edgeconn blocked with XOFF
Jan 01 00:26:12.994 [notice] Request to start reading on an edgeconn blocked with XOFF
Jan 01 00:26:13.220 [notice] Request to start reading on an edgeconn blocked with XOFF
Jan 01 00:26:13.220 [notice] Request to start reading on an edgeconn blocked with XOFF
Jan 01 00:26:13.288 [notice] Request to start reading on an edgeconn blocked with XOFF
Jan 01 00:26:13.288 [notice] Request to start reading on an edgeconn blocked with XOFF
Jan 01 00:27:01.120 [warn] Got XOFF!
Jan 01 00:29:03.190 [warn] Got XOFF!
Jan 01 00:30:26.479 [warn] Got XOFF!
Jan 01 00:30:50.545 [warn] Got XOFF!
Jan 01 00:27:21.226 [warn] Got XOFF!
Jan 01 00:26:44.032 [warn] Got XOFF!
Jan 01 00:23:06.124 [warn] Got XOFF!
Jan 01 00:28:22.547 [warn] Got XOFF!
Jan 01 00:28:42.679 [warn] Got XOFF!
Jan 01 00:28:55.858 [warn] Got XOFF!
Jan 01 00:27:04.162 [warn] Got XOFF!
Jan 01 00:30:16.676 [warn] Got XOFF!
Jan 01 00:22:23.619 [warn] Got XOFF!
Jan 01 00:24:38.113 [warn] Got XOFF!
Jan 01 00:26:50.183 [warn] Got XOFF!
Jan 01 00:28:04.484 [warn] Got XOFF!
Jan 01 00:30:43.360 [warn] Got XOFF!
Jan 01 00:29:16.401 [warn] Got XOFF!
Jan 01 00:29:41.899 [warn] Got XOFF!
Jan 01 00:30:20.461 [warn] Got XOFF!
Jan 01 00:30:34.902 [notice] Request to start reading on an edgeconn blocked with XOFF
Jan 01 00:30:34.991 [notice] Request to start reading on an edgeconn blocked with XOFF
Jan 01 00:30:35.082 [notice] Request to start reading on an edgeconn blocked with XOFF
Jan 01 00:30:35.091 [notice] Request to start reading on an edgeconn blocked with XOFF
Jan 01 00:30:35.101 [notice] Request to start reading on an edgeconn blocked with XOFF
Jan 01 00:30:35.112 [notice] Request to start reading on an edgeconn blocked with XOFF
Jan 01 00:26:22.324 [warn] Got XOFF!
Jan 01 00:27:23.262 [warn] Got XOFF!
Jan 01 00:29:12.705 [warn] Got XOFF!
Jan 01 00:30:10.817 [warn] Got XOFF!
Jan 01 00:30:20.114 [warn] Got XOFF!
Jan 01 00:27:21.326 [warn] Got XOFF!
Jan 01 00:27:22.759 [warn] Got XOFF!
Jan 01 00:29:21.377 [warn] Got XOFF!
Jan 01 00:30:15.189 [warn] Got XOFF!
Jan 01 00:30:25.228 [warn] Got XOFF!
Jan 01 00:21:26.796 [warn] Got XOFF!
Jan 01 00:27:10.717 [warn] Got XOFF!
Jan 01 00:29:21.841 [warn] Got XOFF!
Jan 01 00:21:47.542 [warn] Got XOFF!
Jan 01 00:22:50.057 [warn] Got XOFF!
Jan 01 00:27:04.805 [warn] Got XOFF!
Jan 01 00:25:45.866 [warn] Got XOFF!
Jan 01 00:30:44.238 [warn] Got XOFF!
Jan 01 00:26:21.350 [warn] Got XOFF!
Jan 01 00:26:29.778 [notice] Request to start reading on an edgeconn blocked with XOFF
Jan 01 00:26:29.886 [notice] Request to start reading on an edgeconn blocked with XOFF
Jan 01 00:26:29.896 [notice] Request to start reading on an edgeconn blocked with XOFF
Jan 01 00:26:30.007 [notice] Request to start reading on an edgeconn blocked with XOFF
Jan 01 00:26:30.016 [notice] Request to start reading on an edgeconn blocked with XOFF
Jan 01 00:28:24.963 [warn] Got XOFF!
Jan 01 00:28:59.999 [notice] Request to start reading on an edgeconn blocked with XOFF
Jan 01 00:29:13.399 [notice] Request to start reading on an edgeconn blocked with XOFF
Jan 01 00:29:13.409 [notice] Request to start reading on an edgeconn blocked with XOFF
Jan 01 00:29:13.597 [notice] Request to start reading on an edgeconn blocked with XOFF
Jan 01 00:29:13.606 [notice] Request to start reading on an edgeconn blocked with XOFF
Jan 01 00:29:15.446 [notice] Request to start reading on an edgeconn blocked with XOFF
Jan 01 00:29:15.456 [notice] Request to start reading on an edgeconn blocked with XOFF
Jan 01 00:29:15.466 [notice] Request to start reading on an edgeconn blocked with XOFF
Jan 01 00:29:15.476 [notice] Request to start reading on an edgeconn blocked with XOFF
Jan 01 00:29:18.765 [warn] Got XOFF!
Jan 01 00:21:19.120 [warn] Got XOFF!
Jan 01 00:23:33.082 [warn] Got XOFF!
Jan 01 00:24:58.351 [warn] Got XOFF!
Jan 01 00:25:56.826 [warn] Got XOFF!
Jan 01 00:27:23.091 [warn] Got XOFF!
Jan 01 00:27:29.160 [notice] Request to start reading on an edgeconn blocked with XOFF
Jan 01 00:28:24.570 [warn] Got XOFF!
Jan 01 00:28:56.381 [warn] Got XOFF!
Jan 01 00:29:08.368 [warn] Got XOFF!
Jan 01 00:29:47.882 [warn] Got XOFF!
Jan 01 00:30:42.006 [warn] Got XOFF!
Jan 01 00:26:08.891 [warn] Got XOFF!
Jan 01 00:26:16.037 [notice] Request to start reading on an edgeconn blocked with XOFF
Jan 01 00:26:17.581 [notice] Request to start reading on an edgeconn blocked with XOFF
Jan 01 00:26:18.816 [notice] Request to start reading on an edgeconn blocked with XOFF
Jan 01 00:26:20.069 [notice] Request to start reading on an edgeconn blocked with XOFF
Jan 01 00:26:28.168 [warn] Got XOFF!
Jan 01 00:26:42.656 [warn] Got XOFF!
Jan 01 00:26:48.156 [notice] Request to start reading on an edgeconn blocked with XOFF
Jan 01 00:26:59.278 [notice] Request to start reading on an edgeconn blocked with XOFF
Jan 01 00:27:04.749 [notice] Request to start reading on an edgeconn blocked with XOFF
Jan 01 00:27:13.937 [notice] Request to start reading on an edgeconn blocked with XOFF
Jan 01 00:27:15.157 [notice] Request to start reading on an edgeconn blocked with XOFF
Jan 01 00:27:16.041 [notice] Request to start reading on an edgeconn blocked with XOFF
Jan 01 00:27:16.663 [notice] Request to start reading on an edgeconn blocked with XOFF
Jan 01 00:27:17.919 [notice] Request to start reading on an edgeconn blocked with XOFF
Jan 01 00:27:18.231 [notice] Request to start reading on an edgeconn blocked with XOFF
Jan 01 00:27:18.856 [notice] Request to start reading on an edgeconn blocked with XOFF
Jan 01 00:27:19.785 [notice] Request to start reading on an edgeconn blocked with XOFF
Jan 01 00:25:42.808 [warn] Got XOFF!
Jan 01 00:28:51.546 [warn] Got XOFF!
Jan 01 00:30:21.014 [warn] Got XOFF!
Jan 01 00:26:12.395 [warn] Got XOFF!
Jan 01 00:28:37.858 [warn] Got XOFF!
Jan 01 00:30:30.543 [warn] Got XOFF!
Jan 01 00:24:34.240 [warn] Got XOFF!
Jan 01 00:25:46.776 [warn] Got XOFF!
Jan 01 00:25:50.882 [warn] Got XOFF!
Jan 01 00:28:00.209 [warn] Got XOFF!
Jan 01 00:29:25.319 [warn] Got XOFF!
Jan 01 00:29:30.401 [warn] Got XOFF!
Jan 01 00:27:45.879 [warn] Got XOFF!
Jan 01 00:29:21.333 [warn] Got XOFF!
Jan 01 00:30:41.427 [warn] Got XOFF!
Jan 01 00:24:28.359 [warn] Got XOFF!
Jan 01 00:30:36.628 [warn] Got XOFF!
Jan 01 00:25:40.012 [warn] Got XOFF!
Jan 01 00:29:33.310 [warn] Got XOFF!
Jan 01 00:29:05.378 [warn] Got XOFF!
Jan 01 00:30:11.048 [notice] Request to start reading on an edgeconn blocked with XOFF
Jan 01 00:30:14.604 [notice] Request to start reading on an edgeconn blocked with XOFF
Jan 01 00:30:14.623 [notice] Request to start reading on an edgeconn blocked with XOFF
Jan 01 00:30:14.632 [notice] Request to start reading on an edgeconn blocked with XOFF
Jan 01 00:30:14.698 [notice] Request to start reading on an edgeconn blocked with XOFF
Jan 01 00:30:14.707 [notice] Request to start reading on an edgeconn blocked with XOFF
Jan 01 00:21:25.427 [warn] Got XOFF!
Jan 01 00:28:10.113 [warn] Got XOFF!
Jan 01 00:29:23.409 [warn] Got XOFF!
Jan 01 00:29:28.359 [warn] Got XOFF!
Jan 01 00:29:33.939 [warn] Got XOFF!
Jan 01 00:30:12.285 [warn] Got XOFF!
Jan 01 00:29:49.975 [warn] Got XOFF!
Jan 01 00:30:04.390 [warn] Got XOFF!
Jan 01 00:30:23.214 [warn] Got XOFF!
Jan 01 00:30:47.096 [warn] Got XOFF!
Jan 01 00:26:36.639 [warn] Got XOFF!
Jan 01 00:27:24.447 [warn] Got XOFF!
Jan 01 00:28:28.051 [warn] Got XOFF!
Jan 01 00:30:29.681 [warn] Got XOFF!
Jan 01 00:30:48.236 [warn] Got XOFF!
