[
  0.659,
  0.495,
  0.724,
  0.461,
  0.555,
  0.555,
  0.633,
  0.666,
  1.159,
  0.792,
  0.48,
  0.631,
  0.719,
  0.574,
  0.559,
  0.525,
  0.37,
  0.224,
  0.242,
  0.435,
  0.326,
  0.387,
  0.492,
  0.465,
  0.483,
  0.527,
  0.424,
  0.327,
  0.416,
  0.273,
  0.654,
  0.611,
  0.561,
  0.491,
  0.523,
  0.532,
  0.625,
  0.6,
  0.588,
  1.147,
  0.499,
  0.681,
  0.734,
  0.647,
  0.578,
  0.62,
  0.555,
  0.594,
  0.457,
  0.421,
  0.413,
  0.398,
  0.608,
  0.612,
  0.439,
  0.456,
  0.619,
  0.687,
  0.526,
  0.606,
  0.639,
  0.291,
  0.187,
  0.362,
  0.501,
  0.259,
  0.206,
  0.353,
  0.53,
  0.266,
  0.437,
  0.447,
  0.4,
  0.422,
  0.352,
  0.357,
  0.289,
  0.591,
  0.435,
  0.862,
  0.515,
  0.624,
  0.445,
  0.561,
  0.68,
  0.463,
  0.515,
  0.471,
  0.828,
  0.641,
  0.579,
  0.662,
  0.462,
  0.545,
  0.196,
  0.328,
  0.302,
  0.164,
  0.37,
  0.318,
  0.286,
  0.253,
  0.359,
  0.223,
  0.356,
  0.537,
  0.306,
  0.415,
  0.258,
  0.294,
  0.292,
  0.315,
  0.271,
  0.516,
  0.182008,
  0.364,
  0.530157,
  0.233,
  0.376,
  0.231,
  0.715,
  0.532,
  0.286862,
  0.362,
  0.288,
  0.265,
  0.272,
  0.296,
  0.237,
  0.226,
  0.43,
  0.419,
  0.331,
  0.323,
  0.256,
  0.218,
  0.59,
  0.806,
  0.346,
  0.699,
  0.609,
  0.358,
  0.183889,
  0.773103,
  0.203671,
  0.419,
  0.346,
  0.251797,
  0.433451,
  0.250432,
  0.342698,
  0.438568,
  0.327612,
  0.367,
  0.281512,
  0.759,
  0.489,
  0.471,
  0.639,
  0.41,
  0.699,
  0.782,
  0.428,
  0.676,
  0.663,
  0.587,
  0.742,
  0.522,
  0.517,
  0.538,
  0.817,
  0.49,
  0.632,
  0.6,
  0.475,
  0.569701,
  0.745,
  0.428,
  0.473,
  0.413,
  0.594,
  0.651,
  0.681,
  0.551,
  0.47,
  0.329,
  0.409,
  0.292,
  0.216,
  0.253,
  0.201,
  0.333,
  0.303,
  0.234,
  0.209,
  0.242,
  0.536,
  0.452,
  0.407,
  0.772,
  0.471,
  0.322,
  0.275,
  0.423,
  0.196,
  0.206,
  0.202,
  1.573,
  0.506,
  0.36,
  0.477,
  0.216,
  0.363,
  0.561,
  0.43,
  0.302,
  0.276,
  0.545413,
  0.665,
  0.484124,
  0.498536,
  0.763324,
  0.388,
  0.60334,
  0.507876,
  0.481917,
  0.484083,
  0.484208,
  4.106903,
  0.657258,
  0.528587,
  0.488517,
  0.454222,
  0.309,
  0.235,
  0.258,
  0.198,
  0.18,
  0.286,
  0.606,
  0.177,
  0.19,
  0.229,
  0.336972,
  0.56,
  0.352,
  0.357,
  0.301,
  0.524531,
  0.424489,
  0.551,
  0.441196,
  0.394,
  0.998124,
  0.533704,
  0.534,
  0.465,
  0.683,
  0.441,
  0.655811,
  0.679,
  0.503,
  0.53,
  0.478,
  0.552501,
  0.486,
  0.556,
  0.505065,
  0.641,
  0.837438,
  0.828,
  0.631,
  0.479662,
  0.72,
  0.474,
  0.669,
  0.656,
  0.618336,
  0.542,
  0.469,
  0.622,
  0.864,
  0.751,
  1.057,
  0.553,
  0.617,
  0.738,
  0.465,
  0.445,
  0.714,
  0.659,
  0.563,
  0.55,
  0.654,
  0.469,
  0.509,
  0.95,
  0.645,
  0.539,
  0.499,
  0.72,
  0.567,
  0.409,
  0.426,
  0.71,
  0.614,
  0.52,
  0.595,
  0.466,
  0.34,
  0.516,
  0.282,
  0.435,
  0.268,
  0.2,
  0.286,
  0.315,
  0.425,
  0.431,
  0.253,
  0.549,
  0.496,
  0.359,
  0.329,
  0.369,
  0.504,
  0.633,
  0.451,
  0.486,
  0.43,
  0.357,
  0.552,
  0.678,
  0.673,
  0.401,
  0.393,
  0.494,
  0.753,
  0.493,
  0.508,
  0.451,
  0.386,
  0.402,
  0.277,
  0.178,
  0.193,
  0.183,
  0.472,
  0.292,
  0.635,
  0.281,
  0.199,
  0.379,
  0.551,
  0.287,
  0.334,
  0.267,
  0.488,
  0.406,
  0.481,
  0.572944,
  0.379736,
  0.353,
  0.491,
  0.479,
  0.410984,
  0.451,
  0.39,
  0.560968,
  0.762,
  0.672032,
  0.513,
  0.513968,
  0.863,
  0.37,
  0.311,
  0.413,
  0.26,
  0.225,
  0.361,
  0.367,
  0.298,
  0.26,
  0.236,
  0.425,
  0.729,
  0.347,
  0.428,
  0.269,
  0.481,
  0.601,
  0.447846,
  0.586877,
  0.322,
  0.332,
  0.5,
  0.879764,
  0.574737,
  0.363012,
  0.373,
  0.56759,
  0.785,
  0.403195,
  0.449003,
  0.611,
  0.445597,
  0.508403,
  0.628,
  0.447568,
  0.567,
  0.589,
  0.54,
  0.521,
  0.509026,
  0.672432,
  0.79,
  0.603,
  0.657,
  0.581,
  0.532,
  0.653296,
  0.509,
  0.55987,
  0.474,
  0.617,
  0.499,
  0.712414,
  0.645,
  0.411,
  0.617091,
  0.738,
  0.573,
  0.527,
  0.475869,
  0.638,
  0.539,
  0.627,
  0.754,
  0.487,
  0.439,
  0.639,
  0.561,
  1.124,
  0.502,
  0.719,
  0.726,
  0.664,
  0.409,
  0.623,
  0.804,
  0.975,
  0.39,
  0.473,
  0.533,
  0.379,
  0.406,
  0.628,
  0.702,
  0.337,
  0.521,
  0.619,
  0.563,
  0.463,
  0.539,
  0.305802,
  0.347223,
  0.473,
  0.243,
  0.199,
  0.38,
  0.284,
  0.58,
  0.244,
  0.297018,
  0.457,
  0.429897,
  0.352,
  0.372,
  0.294,
  0.338612,
  0.213166,
  0.372889,
  0.471,
  0.224,
  0.195,
  0.401,
  0.302352,
  0.266021,
  0.272,
  0.241,
  0.432,
  0.431324,
  0.379612,
  0.37,
  0.252,
  0.264794,
  0.21,
  0.337,
  0.244,
  0.366,
  0.117,
  0.389,
  0.227581,
  0.193,
  0.469,
  0.269,
  0.364,
  0.41,
  0.322,
  0.335,
  0.233388,
  0.646,
  0.72,
  0.479,
  0.588,
  0.41959,
  0.643,
  0.774,
  0.506,
  0.768,
  0.466,
  0.664,
  1.395,
  0.609,
  0.583,
  0.554,
  0.253,
  0.335,
  0.412,
  0.212,
  0.27,
  0.397,
  0.495,
  0.272,
  0.358,
  0.283,
  0.353,
  0.474,
  0.37,
  0.393,
  0.315,
  0.319,
  0.157,
  0.455,
  0.186,
  0.224,
  0.215,
  0.332,
  0.505,
  0.274,
  0.428,
  0.218,
  0.43,
  0.439,
  0.267,
  0.443,
  0.365,
  0.372,
  0.941,
  0.408361,
  0.212,
  0.301,
  0.337,
  0.327948,
  0.336,
  0.289712,
  0.211301,
  0.266292,
  0.596704,
  0.516425,
  0.357,
  0.337,
  0.34,
  0.537948,
  0.450624,
  0.516515,
  0.460812,
  0.421979,
  0.46413,
  0.541784,
  0.801124,
  0.644,
  0.473555,
  0.46,
  0.636,
  0.669,
  0.640594,
  0.566,
  0.618617,
  0.32,
  0.198,
  0.287617,
  0.224,
  0.702,
  0.208,
  0.38,
  0.615,
  0.206,
  0.436,
  0.419,
  0.368,
  0.446,
  0.326,
  0.485,
  0.328,
  0.331,
  0.237,
  0.282,
  0.402,
  0.448,
  0.183,
  0.384,
  0.564,
  0.197,
  0.217,
  0.215,
  0.409,
  0.473,
  0.301,
  0.29,
  0.271,
  0.582,
  0.49,
  0.528,
  0.519,
  0.667,
  0.621,
  0.629,
  0.737,
  0.588,
  0.498,
  0.561,
  0.825,
  0.621,
  0.876,
  0.587,
  0.377,
  0.133,
  0.36,
  0.21,
  0.132,
  0.331,
  0.305,
  0.311,
  0.384,
  0.231,
  0.453,
  0.39,
  0.472,
  0.346,
  0.313,
  0.245,
  0.279,
  0.181,
  0.242,
  0.189,
  0.218,
  0.269,
  0.54,
  0.447,
  0.201,
  0.227,
  0.409,
  0.414,
  0.534,
  0.327,
  0.314,
  0.418,
  0.241,
  0.34,
  0.353,
  0.658,
  0.465,
  0.446,
  0.372,
  0.301,
  0.332,
  0.302,
  0.474,
  0.577,
  0.417,
  0.442,
  0.328,
  0.303,
  0.307,
  0.685,
  0.676,
  0.21,
  0.482,
  0.369,
  0.464,
  0.36,
  0.749,
  0.316,
  0.554,
  0.499,
  0.4,
  0.316,
  0.491,
  0.348,
  0.412,
  0.543,
  0.73,
  0.205,
  0.635,
  0.496,
  0.328,
  0.258,
  0.293,
  0.383,
  0.539,
  0.341,
  0.638,
  0.266,
  0.375,
  0.209453,
  0.331,
  0.236,
  0.27,
  0.432,
  0.290897,
  0.285055,
  0.384514,
  0.225788,
  0.228,
  0.348,
  0.767,
  0.31616,
  0.309644,
  0.432744,
  0.643,
  0.554,
  0.271,
  0.28,
  0.276,
  0.355,
  0.425,
  0.455,
  0.453,
  0.301,
  0.359,
  0.514,
  0.381,
  0.383,
  0.6,
  0.435999,
  0.421,
  0.636,
  0.427,
  0.397,
  0.431,
  0.495,
  0.48,
  0.681,
  0.457,
  0.393,
  0.66,
  0.773,
  0.54,
  0.509,
  0.546,
  0.524,
  0.425,
  0.553,
  0.669,
  0.455,
  0.427,
  0.586,
  0.749,
  0.459,
  0.712,
  0.695,
  0.6,
  0.882,
  0.608,
  0.552,
  0.523,
  0.357024,
  0.207897,
  0.387889,
  0.222,
  0.42001,
  0.42856,
  0.320103,
  0.514498,
  0.199,
  0.24,
  0.409192,
  0.335,
  0.442,
  0.319,
  0.29921,
  0.26,
  0.566,
  0.508,
  0.494,
  0.673,
  0.632,
  0.423,
  0.542,
  0.566,
  0.699,
  0.815,
  0.585,
  0.717,
  0.532,
  0.471,
  0.526,
  0.544,
  0.507,
  0.519,
  0.49,
  0.444,
  0.647,
  0.643,
  0.683,
  0.81,
  0.441,
  0.806,
  1.096,
  2.23858,
  0.527,
  0.298,
  1.007914,
  0.424,
  0.426,
  0.295,
  0.993,
  0.335,
  0.577,
  0.567,
  0.424,
  0.209,
  0.393,
  0.757,
  0.319,
  0.405,
  0.305,
  0.226,
  0.298,
  0.217,
  0.136,
  0.198,
  0.388,
  0.63,
  0.496,
  0.255,
  0.341,
  0.302,
  0.405,
  0.311,
  0.329,
  0.32,
  0.261,
  0.491,
  0.225,
  0.265,
  0.162,
  0.129,
  0.306,
  0.839,
  0.218,
  0.406,
  0.34,
  0.364,
  0.746,
  0.282,
  0.291,
  0.275,
  0.622594,
  0.447989,
  0.559846,
  0.559,
  0.591808,
  0.447193,
  0.612959,
  0.54074,
  0.731818,
  0.539728,
  0.513,
  0.69583,
  0.743077,
  0.56571,
  0.589795,
  0.627789,
  0.589,
  0.68,
  0.609,
  0.523,
  0.757,
  0.533,
  0.644,
  0.59,
  0.492,
  0.475,
  0.608,
  0.745,
  0.593,
  0.516,
  0.499,
  0.525,
  0.388,
  0.513,
  0.355,
  0.351,
  0.337,
  0.513,
  0.538,
  0.463,
  0.387,
  0.396,
  0.743,
  0.73,
  0.486,
  0.643,
  0.464,
  0.573,
  0.45,
  0.553,
  0.61,
  0.442,
  0.472,
  0.509,
  0.549,
  0.559,
  0.48,
  0.413,
  0.58,
  0.69,
  0.601,
  0.583,
  0.532,
  0.524833,
  0.411329,
  0.639659,
  0.465362,
  0.431526,
  0.644,
  0.612,
  0.634662,
  0.691124,
  0.465,
  0.633167,
  0.528014,
  0.636172,
  0.536094,
  0.515,
  0.574311,
  0.455,
  0.309,
  0.23,
  0.443,
  0.19664,
  0.285,
  0.476897,
  0.451972,
  0.376983,
  0.353,
  0.65296,
  0.318,
  0.343044,
  0.439838,
  0.338,
  0.28,
  0.363,
  0.252,
  0.192,
  0.185,
  0.385,
  0.297,
  0.446,
  0.466,
  0.31,
  0.411,
  0.53,
  0.36,
  0.382,
  0.342,
  0.257,
  0.418,
  0.221,
  0.271,
  0.223,
  0.431,
  0.361,
  0.534,
  0.242,
  0.297,
  0.358,
  0.509,
  0.368,
  0.349,
  0.285,
  0.326,
  0.186,
  0.35,
  0.435,
  0.211,
  0.27,
  0.306,
  0.306,
  0.286,
  0.42,
  0.436,
  0.477,
  0.381,
  0.301,
  0.26,
  0.365,
  0.272,
  0.343,
  0.294,
  0.497,
  0.223,
  0.371,
  0.336,
  0.233,
  0.442,
  0.220072,
  0.377,
  0.47,
  0.324,
  0.526,
  0.294,
  0.394,
  0.234,
  0.338,
  0.418,
  0.2,
  0.272,
  0.372,
  0.32,
  0.504,
  0.4,
  0.53,
  0.501,
  0.459,
  0.459,
  0.313,
  0.48,
  0.339,
  0.342,
  0.194,
  0.435,
  0.185,
  0.316,
  0.314,
  0.408,
  0.445,
  0.368,
  0.436,
  0.321,
  0.416,
  0.811,
  0.299,
  0.258,
  0.327,
  0.28,
  0.207,
  0.255,
  0.863,
  0.632,
  0.616,
  0.42,
  0.436,
  0.695,
  0.587,
  0.726,
  0.338,
  0.27,
  0.46495,
  0.453349,
  0.417,
  0.575395,
  0.556876,
  0.592,
  0.455668,
  0.463606,
  0.449,
  0.706,
  0.715,
  0.635975,
  0.546995,
  0.460124,
  0.353,
  0.236,
  0.305166,
  0.369,
  0.214,
  0.294,
  0.405,
  0.405,
  0.330367,
  0.413427,
  0.537,
  0.724721,
  0.463,
  0.371,
  0.715522,
  0.317,
  0.462,
  0.433,
  0.412,
  0.238,
  0.401,
  0.373,
  0.341,
  0.379,
  0.624,
  0.581,
  0.417,
  0.578,
  0.337,
  0.598,
  0.256,
  0.708,
  0.7,
  0.5,
  0.41,
  0.453,
  0.578,
  0.84,
  0.423,
  0.451,
  0.453,
  0.652,
  0.686,
  0.619,
  0.832,
  0.492,
  0.344103,
  0.26,
  0.294,
  0.426216,
  0.425284,
  0.437,
  0.313,
  0.530897,
  0.225,
  0.250103,
  0.250903,
  0.413103,
  0.576645,
  0.28959,
  0.378,
  0.511,
  0.438,
  0.218,
  0.295,
  0.431,
  0.229,
  0.237,
  0.314,
  0.309,
  0.505,
  0.264,
  0.291,
  0.443,
  0.406,
  0.316,
  0.301,
  0.567186,
  0.517903,
  0.636,
  0.464,
  0.494,
  0.687,
  0.571,
  0.499,
  0.783,
  0.549,
  0.674,
  0.6,
  0.793,
  0.7,
  0.655,
  0.565,
  0.501,
  0.4,
  0.551,
  0.366,
  0.643,
  0.331,
  0.484,
  0.739,
  0.462,
  0.433,
  0.379,
  0.502,
  0.71,
  0.519,
  0.535,
  0.454,
  0.49,
  0.418,
  0.562,
  0.446,
  0.374,
  0.561,
  0.504,
  0.654,
  0.396,
  0.653,
  0.691,
  0.521,
  0.696,
  0.563,
  0.333111,
  0.213,
  0.367,
  0.25,
  0.183402,
  0.278,
  0.54235,
  0.369131,
  0.223,
  0.239695,
  0.553,
  0.475,
  0.546,
  0.39,
  0.357
]