[
  1.3218437197287696,
  3.007898603967669,
  1.904069767441861,
  2.3676980913823016,
  2.263909181503163,
  1.8163445497462107,
  3.1636398763523954,
  9.346461187214608,
  2.3014447029245995,
  4.76324283317393,
  3.3180362574739415,
  2.2262095353278712,
  2.4502498282206537,
  2.3581509216589867,
  2.768700011226972,
  3.312095469255664,
  3.3555327868852465,
  2.9157763532763536,
  5.091728855721391,
  6.221504559270516,
  4.304679284963196,
  5.259786897525539,
  0.6756477966661164,
  1.7683585313174943,
  2.408088235294118,
  2.9199358059914404,
  3.982247081712062,
  5.670013850415513,
  6.212063732928677,
  5.968461736966337,
  2.7291666666666665,
  4.077440239043825,
  6.3272797527047935,
  3.876657196969697,
  4.59512397714645,
  6.83758328280829,
  11.8659420289855,
  5.389654759287321,
  3.0701658995782948,
  4.045207509881423,
  6.371793674511269,
  5.237941698430186,
  8.20699983159988,
  3.8191920991819126,
  1.7668321104876994,
  2.8350069252077565,
  3.330960130187144,
  1.9594473963461303,
  1.5424830444611901,
  2.0623425692695214,
  2.2642422566371683,
  2.9303865425912665,
  2.727161294061767,
  8.440721649484539,
  6.396484375000001,
  8.371676891615536,
  7.94740878073403,
  5.393610013175228,
  4.90857314148681,
  3.8728210503611016,
  6.868708053691277,
  7.215283799694028,
  3.5566898349261518,
  9.72387173396675,
  5.6621715076071935,
  6.26914241960184,
  3.049975264933422,
  4.732658959537571,
  6.202651515151518,
  5.577316076294278,
  5.117187499999998,
  1.5292304818827043,
  5.8490749353119105,
  4.464285714285711,
  1.5960038986354774,
  2.756734006734006,
  3.4634094754653146,
  3.247819646938699,
  3.5351899827288418,
  0.627490803188228,
  0.6883722885488482,
  0.8297020672882044,
  0.6006088615023475,
  1.0660807291666667,
  3.9900097465886915,
  5.798512747875354,
  2.938801148600143,
  3.358285479901558,
  8.546450939457205,
  8.710106382978728,
  1.8365859129654545,
  3.5474436741767765,
  6.974020442930151,
  2.771665538253217,
  5.393610013175231,
  6.204983084552986,
  1.7932981573108524,
  2.2152926215536124,
  2.1787469258047203,
  2.163653891485128,
  1.7412714184359757,
  3.422867892976587,
  2.924107142857144,
  4.211676954732511,
  6.386505460218411,
  2.008709519136408,
  6.667345276872963,
  6.467219589257504,
  7.99560546875,
  4.944142512077295,
  3.25676213206046,
  2.6914858645627877,
  4.411368534482759,
  1.6874484748557295,
  3.374910861132981,
  3.3804706853839805,
  4.610078828828829,
  2.654831387808042,
  1.7791177748804858,
  2.362233121754184,
  3.8913973384030416,
  2.0865188583078496,
  1.9607941749265487,
  3.28867562873453,
  2.5004611537517154,
  6.542253971297981,
  4.0732088079813495,
  6.100550483871448,
  5.14670384656002,
  3.661672629695886,
  4.392435622317596,
  6.8572026800669965,
  4.089660339660342,
  4.449728260869565,
  5.344321148825065,
  0.5168223709127635,
  1.2315734055354999,
  1.3326009114583333,
  2.068595250126327,
  3.3255483346872454,
  3.6453695458593045,
  3.562880765883377,
  5.626977603426425,
  5.967565597667639,
  3.087292609351434,
  2.8352464681919107,
  3.8973396699911267,
  4.025715409578129,
  4.611158920107412,
  9.3251708428246,
  5.241677336747761,
  4.774425523626917,
  2.0077243746934768,
  2.957911849710984,
  2.171750663129974,
  1.2477141115513561,
  4.282165271966529,
  2.9493876080691646,
  7.070379965457689,
  4.074388505820342,
  2.9881386861313866,
  2.0540642247867544,
  6.755363036303629,
  0.42063813283626367,
  2.4266449318316545,
  9.282879818594104,
  3.2107843137254903,
  6.610840890887009,
  6.202651515151514,
  5.214968152866241,
  3.136973180076629,
  3.475169779286927,
  3.236166007905139,
  2.673905943827564,
  3.0942932728647015,
  8.32063008130081,
  11.034366576819407,
  7.119565217391305,
  4.789608231983762,
  3.635657193605686,
  4.6309389140271495,
  3.5505203816131843,
  6.467219589257504,
  0.913375725122713,
  4.27181639459218,
  3.909980897803247,
  2.4626193186056415,
  4.520613445174,
  2.2781023928770163,
  6.241528673296852,
  5.577316076294278,
  6.137556221889057,
  6.179133359093875,
  2.3567933218192283,
  3.4171535893155247,
  4.793618266978922,
  2.215232683982684,
  4.678571428571429,
  2.281911928651059,
  5.400725593667546,
  4.749129930394431,
  6.128368263473055,
  3.937176370113333,
  5.557720190934415,
  7.3233452593917745,
  2.7291666666666665,
  3.598148255573777,
  4.387727759914254,
  4.449728260869565,
  0.8651204564666104,
  3.8152376514445483,
  8.564330543933055,
  2.362233121754184,
  4.3183016877637135,
  8.35459183673469,
  5.476002568287005,
  3.0641841317365284,
  3.630353524380456,
  2.134384775808133,
  3.7385844748858457,
  2.362233121754184,
  2.60582431572247,
  3.186963325107237,
  3.7905092592592604,
  4.700057405281286,
  3.4168655230235183,
  7.107204861111116,
  4.241713698960853,
  6.767569229650179,
  5.400725593667546,
  6.516655576744913,
  5.958879184861715,
  6.290557287673043,
  4.867717003567181,
  9.476273148148149,
  2.3170630931681515,
  2.425207345971564,
  1.8611236890869842,
  3.0192835880778954,
  2.6721605744125325,
  1.3287082116196034,
  2.265495296070835,
  3.062084678468954,
  2.4977120195240996,
  2.0581950729009555,
  3.076531708849438,
  2.2644990167579837,
  2.702816012422886,
  2.0116707616707616,
  2.3567933218192283,
  1.7762160815946477,
  3.2776220976781434,
  2.471147560181309,
  4.264322916666667,
  2.8758099685847385,
  3.85475517890772,
  2.0186143984220912,
  2.6565541855937695,
  2.5893421884882977,
  6.055699865091949,
  2.3221943637683786,
  5.234974424552433,
  6.249999999999997,
  5.110799001248441,
  5.869773123859201,
  7.887764932562619,
  7.119565217391302,
  7.94902912621359,
  0.7896894290123458,
  5.393610013175231,
  1.4720424307802946,
  0.7248140934844193,
  2.3773228803716617,
  8.338051864464777,
  4.926293622141998,
  4.138763188437444,
  2.735348554399609,
  5.054130899366775,
  5.578881811516583,
  5.060259579728059,
  4.484925173645348,
  5.840663142651286,
  2.2882895472330915,
  2.8468358831710705,
  3.3336726384364828,
  5.176883437134457,
  4.490745362259858,
  7.99560546875,
  0.34795759621925315,
  4.948469434626413,
  1.0580899457224089,
  1.7900087450808928,
  2.9837827988338197,
  2.302446569178852,
  4.177295918367349,
  5.289082687338501,
  3.575327510917032,
  6.128368263473055,
  5.539580514208387,
  5.765845070422536,
  4.0532178217821775,
  6.857202680067002,
  7.336469534050178,
  5.584924965893589,
  2.798188653451811,
  1.731704737732656,
  7.60920074349442,
  3.80813953488372,
  6.744233937397032,
  5.659971712239088,
  5.406688643411467,
  2.522294775314752,
  3.339110929853181,
  3.840290806754222,
  5.098774550404854,
  4.885143198090692,
  2.5585937500000004,
  2.6935401094852085,
  4.002653606568115,
  3.344566993464053,
  4.507820345672052,
  3.2361557750015013,
  3.824826452149377,
  7.258421985815602,
  4.001710654936461,
  2.5587584700765107,
  2.596917763900766,
  2.5538053649407364,
  2.6073130234131128,
  1.8036302147217642,
  1.7536040176861816,
  2.257974130442097,
  3.380121787594179,
  2.8277476036242133,
  3.26195219123506,
  3.8913973384030434,
  3.9400866217516852,
  2.9054293825408095
]