{
  "1048576": [
    0.608,
    0.908,
    1.031,
    0.803,
    0.408,
    0.394,
    0.563,
    0.746,
    0.506,
    0.481,
    0.402,
    0.784,
    0.562,
    0.422,
    0.448,
    0.304,
    0.543481,
    0.295557,
    0.786,
    0.775,
    0.9,
    0.501,
    0.684,
    0.453,
    0.421,
    0.596,
    0.415,
    0.267,
    0.81,
    0.429,
    0.732736,
    0.353,
    0.564,
    0.603,
    0.701,
    0.679,
    0.767,
    0.893,
    2.028,
    0.548,
    0.799,
    0.471,
    0.537,
    0.386,
    0.581,
    1.075876,
    0.864857,
    0.753504,
    0.258,
    0.531,
    0.326,
    0.756,
    0.496,
    0.617,
    0.46,
    0.908,
    0.752,
    1.068198,
    0.29845,
    0.425,
    0.451,
    0.768,
    0.552,
    0.727,
    1.192,
    0.781,
    0.524,
    0.527408,
    0.67081,
    0.518,
    0.64,
    0.749,
    0.619,
    0.571,
    1.013,
    0.858,
    0.219,
    0.548,
    1.036,
    0.576,
    0.371,
    0.522,
    0.331,
    0.541,
    0.556,
    0.727,
    0.593,
    0.233,
    0.457,
    0.415,
    0.813,
    0.501,
    0.91336,
    0.283,
    0.586,
    0.367,
    0.755,
    0.842,
    0.439,
    0.609,
    0.541,
    0.657,
    0.371,
    0.257,
    0.398,
    0.566,
    1.096,
    0.243,
    0.366,
    0.551,
    0.68,
    0.844,
    0.484,
    1.198,
    0.579,
    0.499,
    0.718,
    0.558,
    0.539,
    1.157,
    0.762,
    0.9,
    0.733,
    0.715,
    0.702756,
    0.553323,
    0.647,
    0.658,
    0.253,
    0.541,
    0.426,
    0.561,
    0.699,
    0.506,
    0.634049,
    0.623597,
    0.417,
    0.857,
    0.534,
    0.561,
    0.2,
    0.45454,
    0.89816,
    0.469,
    0.683,
    0.633,
    0.772,
    0.651,
    0.74331,
    0.911268,
    0.403,
    0.221,
    0.483,
    0.656,
    0.522461,
    0.878,
    0.723,
    0.631947,
    0.701
  ],
  "51200": [
    0.644,
    0.503,
    0.63,
    0.438,
    0.415,
    0.774,
    0.668,
    0.55,
    0.676,
    0.772,
    0.463,
    0.617,
    0.366,
    1.194925,
    0.557,
    0.456,
    0.401,
    0.272,
    0.893,
    0.472,
    0.448,
    0.387,
    0.717,
    0.593,
    0.664,
    0.814538,
    0.586522,
    0.758,
    0.658,
    0.588305,
    1.089003,
    0.834,
    0.977,
    0.713,
    0.838,
    0.719,
    0.532,
    0.518,
    0.499,
    0.567,
    0.739,
    1.04,
    0.578,
    0.497,
    0.897,
    1.037,
    1.833,
    0.704,
    0.374,
    0.523,
    0.313,
    0.314,
    0.879,
    0.323,
    0.414,
    0.622,
    0.682,
    0.673,
    0.461922,
    0.675395,
    0.743,
    1.484,
    0.652,
    0.913,
    0.616,
    0.559,
    0.902,
    1.099,
    0.552,
    1.346,
    0.968,
    1.119,
    1.454,
    0.696,
    0.658,
    0.743,
    0.513344,
    0.714244,
    0.543666,
    0.663114,
    0.552,
    0.682,
    0.633902,
    0.544876,
    0.668238,
    0.807,
    0.933,
    0.672589,
    0.681756,
    0.686,
    0.464,
    0.4,
    0.22,
    0.233,
    0.757,
    0.809,
    0.313,
    0.331,
    0.293,
    0.628,
    1.169,
    0.663,
    0.528,
    0.412,
    0.499201,
    0.366,
    0.597,
    0.706026,
    0.454,
    0.54,
    1.007,
    0.676,
    0.515,
    0.69,
    0.761,
    0.52,
    0.682,
    0.356,
    0.502328,
    0.294557,
    0.471,
    0.319,
    0.359,
    0.576275,
    0.417774,
    0.646725,
    0.560239,
    0.953,
    0.411,
    0.465105,
    0.466574,
    0.715,
    0.529,
    0.612,
    0.862,
    0.46,
    0.632,
    0.599,
    0.545,
    0.873,
    1.139,
    0.827,
    1.059,
    0.715,
    0.666,
    0.864,
    0.909,
    0.762,
    0.753,
    0.877,
    0.555,
    0.922,
    0.808,
    0.937,
    0.698,
    0.621,
    0.68,
    0.614,
    0.238,
    0.552,
    0.46,
    0.694,
    0.666,
    0.322,
    0.282,
    0.791,
    0.51,
    0.426,
    0.453641,
    0.446,
    0.24,
    0.265,
    0.481,
    0.474,
    0.436,
    0.626,
    0.266,
    0.32,
    0.6,
    0.456,
    0.294,
    0.547,
    0.488,
    0.355,
    0.394,
    0.314,
    0.44,
    0.627,
    0.504,
    0.811,
    0.315,
    0.364,
    0.644,
    0.922,
    0.54,
    0.558,
    0.489844,
    0.394,
    0.27,
    0.322865,
    0.666051,
    0.507822,
    0.286,
    0.801256,
    0.944404,
    0.556,
    0.365236,
    0.511,
    0.259,
    0.781,
    0.599,
    0.276,
    0.508,
    0.467,
    0.397,
    0.511,
    0.614,
    0.848,
    0.694,
    0.375,
    0.628,
    0.865,
    0.538,
    0.691,
    1.102,
    0.543,
    0.529,
    0.879,
    0.797,
    1.292,
    0.709,
    0.607,
    3.325,
    0.999,
    0.659,
    0.612,
    0.549,
    0.824,
    0.72,
    0.813,
    0.528,
    0.839,
    0.532,
    0.801,
    0.959,
    0.673,
    0.695,
    5.656,
    1.093,
    0.643,
    0.469,
    0.691,
    1.101,
    0.948,
    1.108,
    0.888,
    0.693,
    0.404,
    0.581,
    0.351,
    0.453,
    0.609,
    0.325,
    0.364,
    0.294,
    1.88,
    0.769,
    0.415,
    0.491,
    0.614187,
    0.472644,
    0.590023,
    0.486614,
    0.837092,
    0.73,
    0.910316,
    0.955224,
    0.816897,
    0.516,
    0.85278,
    0.930678,
    0.753,
    0.744897,
    0.591,
    0.675,
    0.238,
    0.482,
    0.519,
    0.315,
    0.453,
    0.605,
    0.274,
    0.653,
    0.472,
    0.426,
    0.336,
    0.694027,
    1.051805,
    0.660805,
    0.707877,
    0.682476,
    0.908,
    0.695,
    0.738,
    0.723,
    0.984154,
    1.172,
    0.906,
    1.054465,
    0.51368,
    0.297195,
    0.485,
    0.351485,
    0.503504,
    0.52409,
    0.547892,
    0.32812,
    0.841919,
    0.723048,
    0.624496,
    0.607,
    0.482,
    0.403,
    0.665,
    0.214,
    0.524,
    0.47,
    0.593,
    0.319,
    0.698,
    1.127,
    0.735,
    0.458,
    0.328,
    0.663,
    0.472,
    0.738,
    0.536,
    0.881,
    0.499,
    0.692,
    0.593,
    0.55,
    0.514,
    0.822,
    1.031,
    0.772,
    0.755,
    0.682,
    0.499,
    0.502,
    0.757,
    0.354,
    0.601,
    0.721,
    0.398,
    0.852,
    0.923,
    0.657,
    0.634,
    0.561,
    1.426,
    0.617,
    0.45,
    0.493,
    0.665,
    0.609,
    0.586,
    0.911,
    0.624,
    0.633,
    0.731734,
    0.769624,
    0.844614,
    0.541,
    0.466198,
    0.607494,
    0.797,
    1.12198,
    0.659122,
    0.52681,
    0.812802,
    0.67531,
    0.921624,
    0.599204,
    0.476522,
    0.782132,
    0.44935,
    0.26,
    0.497,
    0.615599,
    0.785948,
    0.395559,
    0.342283,
    0.492652,
    0.634,
    0.89065,
    0.449962,
    0.509501,
    0.427392,
    0.594,
    0.333,
    0.806,
    0.445,
    0.848,
    0.63,
    0.589,
    0.77,
    0.37,
    0.415,
    0.767,
    0.78,
    0.797,
    0.547,
    0.484,
    0.74,
    0.392,
    0.262,
    0.766,
    0.328,
    0.976,
    0.337,
    0.33,
    0.712,
    1.183,
    0.509,
    0.427,
    0.578,
    0.66,
    0.52,
    0.471,
    0.665,
    0.694,
    0.529,
    0.442506,
    0.887,
    0.727,
    0.899,
    0.715,
    0.62357,
    0.743,
    0.472,
    0.434,
    0.541,
    0.589055,
    0.455693,
    0.817,
    0.983786,
    0.853468,
    0.993124,
    0.469,
    0.292,
    0.383,
    0.342,
    0.252,
    1.027822,
    0.516,
    0.66,
    0.326,
    0.341,
    0.734,
    0.748,
    0.583,
    0.513,
    0.476,
    0.5,
    0.365348,
    0.505,
    0.66,
    0.255,
    0.477,
    0.486,
    0.608,
    0.731,
    0.507,
    0.721,
    0.611,
    0.549,
    0.48,
    0.684,
    0.651,
    0.562,
    1.077,
    1.063,
    0.714,
    0.78,
    0.428,
    0.61,
    0.477,
    0.488,
    0.399,
    0.282,
    0.548,
    0.484,
    0.344,
    0.526,
    0.539,
    0.328,
    0.374,
    0.526,
    0.566,
    0.521,
    0.355,
    0.653,
    0.688,
    0.472,
    0.401,
    0.864,
    0.713,
    0.844,
    0.44574,
    0.618,
    0.487,
    1.609,
    0.835,
    0.928,
    0.672,
    0.769,
    0.727,
    0.544,
    0.325,
    0.553,
    0.276,
    0.536,
    0.359,
    0.417,
    0.287,
    0.547,
    0.742,
    0.49,
    0.491,
    0.363,
    0.425,
    0.623,
    0.27,
    0.577,
    0.659,
    0.544,
    0.597,
    0.317,
    0.33,
    0.601,
    0.487,
    0.49,
    0.517621,
    0.516,
    0.55876,
    0.286449,
    0.948,
    0.292,
    0.791,
    0.591217,
    1.233138,
    0.374,
    0.555,
    0.579,
    0.556,
    0.317,
    0.583,
    0.356,
    0.745,
    0.306,
    0.365,
    0.737,
    0.58,
    0.741,
    0.522,
    0.506,
    0.372,
    0.754463,
    0.496,
    0.48739,
    0.5048,
    0.472,
    0.724,
    0.671,
    1.126,
    0.513,
    0.541,
    0.888,
    0.927,
    0.651539,
    0.858,
    0.579015,
    0.453,
    0.284,
    0.357,
    0.274,
    0.501492,
    0.552,
    0.428,
    0.275,
    0.216,
    0.378,
    0.431,
    0.749,
    0.464,
    0.684,
    0.232,
    0.561,
    0.539,
    0.387,
    0.307,
    0.249,
    0.852,
    1.63,
    0.452,
    0.5,
    0.335,
    0.445,
    0.271,
    0.334,
    0.74,
    0.314,
    0.484,
    0.872,
    0.655,
    0.299,
    0.84,
    0.669,
    0.493,
    0.447,
    0.823,
    0.531,
    0.523,
    0.51,
    0.758938,
    0.704,
    0.823,
    1.156,
    0.614,
    1.037,
    0.771,
    0.802,
    0.496,
    0.195,
    0.493,
    0.596,
    0.331,
    0.429,
    0.464,
    0.308,
    0.573,
    0.742,
    0.473,
    0.516,
    0.389,
    0.691,
    0.621,
    0.715,
    0.48,
    0.445,
    0.722,
    0.6,
    0.611,
    0.538,
    0.779,
    0.989,
    0.725,
    1.032,
    0.665,
    0.722,
    0.396,
    0.864,
    0.51,
    0.746,
    0.629,
    0.703,
    0.551,
    0.471,
    0.905,
    0.646,
    0.823,
    0.878,
    0.508,
    0.735,
    0.620896,
    0.420573,
    0.701347,
    0.704456,
    0.473,
    0.766816,
    0.504092,
    2.001456,
    0.935,
    0.696908,
    0.338989,
    0.241,
    0.413,
    0.332,
    0.645,
    0.259,
    0.755,
    0.382,
    0.612,
    0.716,
    0.558,
    0.578,
    0.698,
    0.233,
    0.67,
    0.35,
    0.25,
    0.243,
    0.452,
    0.325,
    0.602,
    0.639,
    0.671,
    0.748,
    0.519,
    0.375,
    0.748,
    0.655,
    0.57,
    0.95,
    0.557,
    1.304,
    0.7,
    0.871,
    0.852,
    1.09,
    0.757,
    0.844,
    1.024,
    1.743,
    0.506,
    0.802,
    0.414,
    0.774,
    0.956,
    0.473,
    0.855,
    0.399,
    0.896,
    0.596,
    0.481,
    0.677,
    0.689,
    0.8,
    0.815,
    0.516,
    0.749,
    0.999,
    0.681,
    0.581,
    1.127,
    1.003,
    0.718,
    0.665,
    0.745,
    1.018,
    0.513,
    0.605,
    0.476,
    0.451,
    0.393,
    0.898,
    0.512,
    0.503,
    0.761,
    1.149,
    0.727,
    0.634,
    0.532605,
    0.701619,
    0.498238,
    0.404,
    0.72465,
    0.690293,
    0.493561,
    0.554,
    0.79,
    0.993359,
    0.738465,
    0.715081,
    0.481,
    0.423,
    0.34,
    0.608,
    0.544,
    0.687,
    0.339,
    0.566,
    0.372,
    0.655,
    0.704,
    1.174,
    0.518,
    0.381,
    0.554,
    0.277,
    0.471,
    0.445,
    0.224,
    0.494,
    0.528,
    0.63,
    0.257,
    0.458,
    0.501,
    0.318,
    0.496,
    0.763,
    0.353,
    0.33,
    0.754,
    0.358,
    0.355,
    0.364,
    1.309,
    0.798,
    0.602,
    0.582,
    0.369,
    0.245,
    0.395,
    0.281103,
    0.365,
    0.209,
    0.58,
    0.448685,
    0.281,
    0.617,
    0.321,
    0.603,
    0.410897,
    0.457,
    0.358946,
    0.338451,
    0.45529,
    0.417073,
    0.472062,
    0.57704,
    0.394768,
    0.414984,
    0.407609,
    0.818531,
    0.551789,
    0.579,
    0.515083,
    0.394,
    0.314258,
    0.26,
    0.649,
    0.487,
    0.708,
    0.330017,
    0.583,
    0.622352,
    0.733,
    0.53,
    0.476,
    0.413597,
    0.516,
    0.283,
    0.784,
    0.62,
    0.694,
    0.48,
    0.632,
    0.788,
    0.435,
    0.346,
    10.577,
    0.57,
    0.44,
    0.427,
    0.258,
    0.526,
    1.121,
    0.63,
    0.196,
    0.566,
    0.358,
    0.3,
    0.332,
    0.679,
    0.782,
    0.4,
    0.485,
    0.619,
    0.455,
    0.546,
    0.477,
    0.271,
    0.287,
    0.471,
    0.426,
    0.34,
    0.379,
    0.577,
    0.786,
    0.463,
    0.532,
    0.579,
    0.224831,
    0.165043,
    0.528,
    0.624672,
    0.365022,
    0.59,
    0.499182,
    0.515591,
    0.442,
    0.242,
    0.577,
    0.563,
    0.661,
    0.505,
    0.337,
    0.62,
    0.407,
    0.517,
    0.302981,
    0.469,
    0.476,
    0.743,
    0.415,
    0.701,
    0.985,
    0.54,
    0.43,
    0.805,
    0.863,
    0.606,
    0.766,
    1.445758,
    0.813781,
    0.412988,
    0.836126,
    0.648876,
    0.447,
    0.636322,
    0.494641,
    0.503,
    0.48438,
    0.787698,
    0.64948,
    0.637955,
    0.536326,
    0.492094,
    0.255,
    0.495,
    0.569,
    0.521,
    0.578,
    0.369,
    0.304,
    0.667141,
    0.99,
    0.499,
    0.541,
    0.376,
    0.807,
    0.568,
    0.749,
    0.619,
    0.602,
    0.598,
    0.725,
    0.792,
    0.875,
    0.555,
    0.907,
    0.932,
    0.958,
    0.821,
    0.852,
    0.67,
    0.708564,
    0.51739,
    0.548124,
    0.427,
    0.728,
    0.693,
    0.53,
    0.548,
    0.792577,
    0.973,
    0.860103,
    0.740903,
    0.639475,
    0.777,
    0.472,
    0.961,
    0.597,
    0.801,
    0.586,
    0.799,
    0.591,
    0.553,
    0.857,
    1.031,
    0.773,
    0.755,
    0.706,
    0.612,
    0.426574,
    0.589072,
    0.767,
    0.466,
    0.601583,
    0.712313,
    0.445188,
    0.398795,
    0.795,
    0.927876,
    0.705,
    0.611,
    0.522
  ],
  "5242880": [
    0.846,
    0.807,
    0.923,
    0.664,
    0.802,
    0.311,
    0.265,
    0.233,
    0.638,
    0.306,
    0.475,
    0.244612,
    0.377,
    0.332,
    0.99,
    2.924,
    0.523,
    0.864171,
    0.261,
    0.65,
    0.911226,
    0.646248,
    0.602,
    0.663,
    0.747,
    0.468,
    0.43,
    0.698,
    0.515,
    0.442,
    0.329,
    0.66,
    0.475,
    0.683,
    0.387,
    0.486,
    0.599,
    0.394,
    0.79,
    0.693,
    0.435,
    0.411,
    0.532,
    0.9,
    0.806,
    0.329,
    0.539,
    0.963,
    1.179,
    0.721,
    0.512721,
    0.534521,
    0.757,
    0.397,
    0.302,
    0.771,
    0.807971,
    0.245828,
    0.317,
    0.681,
    0.718,
    0.929
  ],
  "ALL": [
    0.644,
    0.503,
    0.63,
    0.438,
    0.415,
    0.774,
    0.668,
    0.55,
    0.676,
    0.772,
    0.608,
    0.908,
    1.031,
    0.803,
    0.846,
    0.463,
    0.617,
    0.366,
    1.194925,
    0.557,
    0.456,
    0.401,
    0.272,
    0.893,
    0.472,
    0.448,
    0.387,
    0.408,
    0.394,
    0.563,
    0.807,
    0.717,
    0.593,
    0.664,
    0.814538,
    0.586522,
    0.758,
    0.658,
    0.588305,
    1.089003,
    0.834,
    0.977,
    0.713,
    0.838,
    0.746,
    0.923,
    0.719,
    0.532,
    0.518,
    0.499,
    0.567,
    0.739,
    1.04,
    0.578,
    0.497,
    0.897,
    1.037,
    1.833,
    0.704,
    0.506,
    0.664,
    0.374,
    0.523,
    0.313,
    0.314,
    0.879,
    0.323,
    0.414,
    0.622,
    0.682,
    0.673,
    0.461922,
    0.675395,
    0.481,
    0.402,
    0.802,
    0.311,
    0.743,
    1.484,
    0.652,
    0.913,
    0.616,
    0.559,
    0.902,
    1.099,
    0.552,
    1.346,
    0.968,
    1.119,
    1.454,
    0.696,
    0.658,
    0.784,
    0.743,
    0.513344,
    0.714244,
    0.543666,
    0.663114,
    0.552,
    0.682,
    0.633902,
    0.544876,
    0.668238,
    0.807,
    0.933,
    0.672589,
    0.681756,
    0.686,
    0.562,
    0.464,
    0.4,
    0.22,
    0.233,
    0.757,
    0.809,
    0.313,
    0.331,
    0.293,
    0.628,
    1.169,
    0.663,
    0.528,
    0.412,
    0.422,
    0.265,
    0.499201,
    0.366,
    0.597,
    0.706026,
    0.454,
    0.54,
    1.007,
    0.676,
    0.515,
    0.69,
    0.761,
    0.52,
    0.682,
    0.356,
    0.448,
    0.304,
    0.502328,
    0.294557,
    0.471,
    0.319,
    0.359,
    0.576275,
    0.417774,
    0.646725,
    0.560239,
    0.953,
    0.411,
    0.465105,
    0.466574,
    0.543481,
    0.295557,
    0.233,
    0.715,
    0.529,
    0.612,
    0.862,
    0.46,
    0.632,
    0.599,
    0.545,
    0.873,
    1.139,
    0.827,
    1.059,
    0.715,
    0.786,
    0.638,
    0.666,
    0.864,
    0.909,
    0.762,
    0.753,
    0.877,
    0.555,
    0.922,
    0.808,
    0.937,
    0.698,
    0.621,
    0.775,
    0.9,
    0.501,
    0.684,
    0.68,
    0.614,
    0.238,
    0.552,
    0.46,
    0.694,
    0.666,
    0.322,
    0.282,
    0.791,
    0.51,
    0.426,
    0.453641,
    0.453,
    0.421,
    0.596,
    0.446,
    0.24,
    0.265,
    0.481,
    0.474,
    0.436,
    0.626,
    0.266,
    0.32,
    0.6,
    0.456,
    0.294,
    0.547,
    0.415,
    0.267,
    0.81,
    0.488,
    0.355,
    0.394,
    0.314,
    0.44,
    0.627,
    0.504,
    0.811,
    0.315,
    0.364,
    0.644,
    0.922,
    0.54,
    0.558,
    0.429,
    0.306,
    0.489844,
    0.394,
    0.27,
    0.322865,
    0.666051,
    0.507822,
    0.286,
    0.801256,
    0.944404,
    0.556,
    0.365236,
    0.732736,
    0.475,
    0.244612,
    0.377,
    0.511,
    0.259,
    0.781,
    0.599,
    0.276,
    0.508,
    0.467,
    0.397,
    0.511,
    0.614,
    0.848,
    0.694,
    0.375,
    0.353,
    0.564,
    0.332,
    0.628,
    0.865,
    0.538,
    0.691,
    1.102,
    0.543,
    0.529,
    0.879,
    0.797,
    1.292,
    0.709,
    0.607,
    0.603,
    0.701,
    0.99,
    3.325,
    0.999,
    0.659,
    0.612,
    0.549,
    0.824,
    0.72,
    0.813,
    0.528,
    0.839,
    0.532,
    0.801,
    0.959,
    0.673,
    0.679,
    0.767,
    0.695,
    5.656,
    1.093,
    0.643,
    0.469,
    0.691,
    1.101,
    0.948,
    1.108,
    0.888,
    0.693,
    0.893,
    2.028,
    0.548,
    0.799,
    2.924,
    0.404,
    0.581,
    0.351,
    0.453,
    0.609,
    0.325,
    0.364,
    0.294,
    1.88,
    0.769,
    0.415,
    0.491,
    0.471,
    0.537,
    0.386,
    0.523,
    0.614187,
    0.472644,
    0.590023,
    0.486614,
    0.837092,
    0.73,
    0.910316,
    0.955224,
    0.816897,
    0.516,
    0.85278,
    0.930678,
    0.753,
    0.744897,
    0.591,
    0.864171,
    0.675,
    0.238,
    0.482,
    0.519,
    0.315,
    0.453,
    0.605,
    0.274,
    0.653,
    0.472,
    0.426,
    0.336,
    0.581,
    0.261,
    0.65,
    0.694027,
    1.051805,
    0.660805,
    0.707877,
    0.682476,
    0.908,
    0.695,
    0.738,
    0.723,
    0.984154,
    1.172,
    0.906,
    1.054465,
    1.075876,
    0.864857,
    0.911226,
    0.51368,
    0.297195,
    0.485,
    0.351485,
    0.503504,
    0.52409,
    0.547892,
    0.32812,
    0.841919,
    0.723048,
    0.624496,
    0.607,
    0.753504,
    0.646248,
    0.602,
    0.482,
    0.403,
    0.665,
    0.214,
    0.524,
    0.47,
    0.593,
    0.319,
    0.698,
    1.127,
    0.735,
    0.458,
    0.328,
    0.258,
    0.531,
    0.326,
    0.663,
    0.472,
    0.738,
    0.536,
    0.881,
    0.499,
    0.692,
    0.593,
    0.55,
    0.514,
    0.822,
    1.031,
    0.772,
    0.755,
    0.756,
    0.663,
    0.682,
    0.499,
    0.502,
    0.757,
    0.354,
    0.601,
    0.721,
    0.398,
    0.852,
    0.923,
    0.657,
    0.634,
    0.496,
    0.617,
    0.46,
    0.908,
    0.561,
    1.426,
    0.617,
    0.45,
    0.493,
    0.665,
    0.609,
    0.586,
    0.911,
    0.624,
    0.633,
    0.752,
    0.747,
    0.731734,
    0.769624,
    0.844614,
    0.541,
    0.466198,
    0.607494,
    0.797,
    1.12198,
    0.659122,
    0.52681,
    0.812802,
    0.67531,
    0.921624,
    0.599204,
    1.068198,
    0.476522,
    0.782132,
    0.44935,
    0.26,
    0.497,
    0.615599,
    0.785948,
    0.395559,
    0.342283,
    0.492652,
    0.634,
    0.89065,
    0.449962,
    0.509501,
    0.427392,
    0.29845,
    0.594,
    0.333,
    0.806,
    0.445,
    0.848,
    0.63,
    0.589,
    0.77,
    0.37,
    0.415,
    0.767,
    0.78,
    0.797,
    0.547,
    0.425,
    0.451,
    0.484,
    0.74,
    0.392,
    0.262,
    0.766,
    0.328,
    0.976,
    0.337,
    0.33,
    0.712,
    1.183,
    0.509,
    0.427,
    0.768,
    0.552,
    0.468,
    0.578,
    0.66,
    0.52,
    0.471,
    0.665,
    0.694,
    0.529,
    0.442506,
    0.887,
    0.727,
    0.899,
    0.715,
    0.727,
    1.192,
    0.781,
    0.62357,
    0.743,
    0.472,
    0.434,
    0.541,
    0.589055,
    0.455693,
    0.817,
    0.983786,
    0.853468,
    0.993124,
    0.524,
    0.527408,
    0.67081,
    0.469,
    0.292,
    0.383,
    0.342,
    0.252,
    1.027822,
    0.516,
    0.66,
    0.326,
    0.341,
    0.734,
    0.748,
    0.583,
    0.513,
    0.476,
    0.5,
    0.365348,
    0.505,
    0.66,
    0.255,
    0.477,
    0.486,
    0.608,
    0.731,
    0.507,
    0.518,
    0.64,
    0.749,
    0.619,
    0.43,
    0.721,
    0.611,
    0.549,
    0.48,
    0.684,
    0.651,
    0.562,
    1.077,
    1.063,
    0.714,
    0.78,
    0.571,
    1.013,
    0.858,
    0.698,
    0.428,
    0.61,
    0.477,
    0.488,
    0.399,
    0.282,
    0.548,
    0.484,
    0.344,
    0.219,
    0.548,
    1.036,
    0.576,
    0.515,
    0.442,
    0.329,
    0.526,
    0.539,
    0.328,
    0.374,
    0.526,
    0.566,
    0.521,
    0.355,
    0.653,
    0.688,
    0.472,
    0.401,
    0.371,
    0.522,
    0.331,
    0.541,
    0.864,
    0.713,
    0.844,
    0.44574,
    0.618,
    0.487,
    1.609,
    0.835,
    0.928,
    0.672,
    0.769,
    0.727,
    0.556,
    0.727,
    0.593,
    0.66,
    0.544,
    0.325,
    0.553,
    0.276,
    0.536,
    0.359,
    0.417,
    0.287,
    0.547,
    0.742,
    0.49,
    0.491,
    0.363,
    0.233,
    0.457,
    0.475,
    0.425,
    0.623,
    0.27,
    0.577,
    0.659,
    0.544,
    0.597,
    0.317,
    0.33,
    0.601,
    0.487,
    0.49,
    0.415,
    0.813,
    0.501,
    0.683,
    0.517621,
    0.516,
    0.55876,
    0.286449,
    0.948,
    0.292,
    0.791,
    0.591217,
    1.233138,
    0.374,
    0.91336,
    0.283,
    0.586,
    0.367,
    0.755,
    0.387,
    0.555,
    0.579,
    0.556,
    0.317,
    0.583,
    0.356,
    0.745,
    0.306,
    0.365,
    0.737,
    0.58,
    0.741,
    0.522,
    0.506,
    0.372,
    0.486,
    0.754463,
    0.496,
    0.48739,
    0.5048,
    0.472,
    0.724,
    0.671,
    1.126,
    0.513,
    0.541,
    0.888,
    0.927,
    0.651539,
    0.858,
    0.579015,
    0.842,
    0.453,
    0.284,
    0.357,
    0.274,
    0.501492,
    0.552,
    0.428,
    0.275,
    0.216,
    0.378,
    0.431,
    0.749,
    0.439,
    0.609,
    0.541,
    0.657,
    0.464,
    0.684,
    0.232,
    0.561,
    0.539,
    0.387,
    0.307,
    0.249,
    0.852,
    1.63,
    0.452,
    0.5,
    0.335,
    0.371,
    0.257,
    0.445,
    0.271,
    0.334,
    0.74,
    0.314,
    0.484,
    0.872,
    0.655,
    0.299,
    0.84,
    0.669,
    0.493,
    0.447,
    0.398,
    0.566,
    0.599,
    0.823,
    0.531,
    0.523,
    0.51,
    0.758938,
    0.704,
    0.823,
    1.156,
    0.614,
    1.037,
    0.771,
    0.802,
    1.096,
    0.496,
    0.195,
    0.493,
    0.596,
    0.331,
    0.429,
    0.464,
    0.308,
    0.573,
    0.742,
    0.473,
    0.516,
    0.389,
    0.243,
    0.366,
    0.394,
    0.691,
    0.621,
    0.715,
    0.48,
    0.445,
    0.722,
    0.6,
    0.611,
    0.538,
    0.779,
    0.989,
    0.725,
    1.032,
    0.665,
    0.551,
    0.722,
    0.396,
    0.864,
    0.51,
    0.746,
    0.629,
    0.703,
    0.551,
    0.471,
    0.905,
    0.646,
    0.823,
    0.68,
    0.844,
    0.79,
    0.878,
    0.508,
    0.735,
    0.620896,
    0.420573,
    0.701347,
    0.704456,
    0.473,
    0.766816,
    0.504092,
    2.001456,
    0.935,
    0.696908,
    0.338989,
    0.693,
    0.241,
    0.413,
    0.332,
    0.645,
    0.259,
    0.755,
    0.382,
    0.612,
    0.716,
    0.558,
    0.578,
    0.484,
    1.198,
    0.579,
    0.435,
    0.411,
    0.698,
    0.233,
    0.67,
    0.35,
    0.25,
    0.243,
    0.452,
    0.325,
    0.602,
    0.639,
    0.671,
    0.748,
    0.519,
    0.375,
    0.499,
    0.532,
    0.748,
    0.655,
    0.57,
    0.95,
    0.557,
    1.304,
    0.7,
    0.871,
    0.852,
    1.09,
    0.757,
    0.844,
    1.024,
    0.718,
    0.558,
    1.743,
    0.506,
    0.802,
    0.414,
    0.774,
    0.956,
    0.473,
    0.855,
    0.399,
    0.896,
    0.596,
    0.481,
    0.677,
    0.539,
    1.157,
    0.762,
    0.689,
    0.8,
    0.815,
    0.516,
    0.749,
    0.999,
    0.681,
    0.581,
    1.127,
    1.003,
    0.718,
    0.665,
    0.745,
    0.9,
    0.806,
    1.018,
    0.513,
    0.605,
    0.476,
    0.451,
    0.393,
    0.898,
    0.512,
    0.503,
    0.761,
    1.149,
    0.727,
    0.634,
    0.9,
    0.733,
    0.715,
    0.532605,
    0.701619,
    0.498238,
    0.404,
    0.72465,
    0.690293,
    0.493561,
    0.554,
    0.79,
    0.993359,
    0.738465,
    0.715081,
    0.702756,
    0.553323,
    0.647,
    0.658,
    0.481,
    0.423,
    0.34,
    0.608,
    0.544,
    0.687,
    0.339,
    0.566,
    0.372,
    0.655,
    0.704,
    1.174,
    0.518,
    0.381,
    0.253,
    0.541,
    0.554,
    0.277,
    0.471,
    0.445,
    0.224,
    0.494,
    0.528,
    0.63,
    0.257,
    0.458,
    0.501,
    0.318,
    0.426,
    0.329,
    0.539,
    0.963,
    0.496,
    0.763,
    0.353,
    0.33,
    0.754,
    0.358,
    0.355,
    0.364,
    1.309,
    0.798,
    0.602,
    0.582,
    0.369,
    0.561,
    1.179,
    0.245,
    0.395,
    0.281103,
    0.365,
    0.209,
    0.58,
    0.448685,
    0.281,
    0.617,
    0.321,
    0.603,
    0.410897,
    0.457,
    0.358946,
    0.699,
    0.721,
    0.338451,
    0.45529,
    0.417073,
    0.472062,
    0.57704,
    0.394768,
    0.414984,
    0.407609,
    0.818531,
    0.551789,
    0.579,
    0.506,
    0.634049,
    0.512721,
    0.534521,
    0.515083,
    0.394,
    0.314258,
    0.26,
    0.649,
    0.487,
    0.708,
    0.330017,
    0.583,
    0.622352,
    0.733,
    0.53,
    0.476,
    0.413597,
    0.623597,
    0.757,
    0.516,
    0.283,
    0.784,
    0.62,
    0.694,
    0.48,
    0.632,
    0.788,
    0.435,
    0.346,
    10.577,
    0.57,
    0.44,
    0.417,
    0.857,
    0.534,
    0.427,
    0.258,
    0.526,
    1.121,
    0.63,
    0.196,
    0.566,
    0.358,
    0.3,
    0.332,
    0.679,
    0.782,
    0.4,
    0.485,
    0.619,
    0.561,
    0.455,
    0.546,
    0.477,
    0.271,
    0.287,
    0.471,
    0.426,
    0.34,
    0.379,
    0.577,
    0.786,
    0.463,
    0.532,
    0.579,
    0.2,
    0.397,
    0.224831,
    0.165043,
    0.528,
    0.624672,
    0.365022,
    0.59,
    0.499182,
    0.515591,
    0.45454,
    0.89816,
    0.469,
    0.302,
    0.771,
    0.807971,
    0.245828,
    0.442,
    0.242,
    0.577,
    0.563,
    0.661,
    0.505,
    0.337,
    0.62,
    0.407,
    0.517,
    0.302981,
    0.683,
    0.633,
    0.772,
    0.317,
    0.681,
    0.469,
    0.476,
    0.743,
    0.415,
    0.701,
    0.985,
    0.54,
    0.43,
    0.805,
    0.863,
    0.606,
    0.766,
    1.445758,
    0.651,
    0.718,
    0.929,
    0.813781,
    0.412988,
    0.836126,
    0.648876,
    0.447,
    0.636322,
    0.494641,
    0.503,
    0.48438,
    0.787698,
    0.64948,
    0.637955,
    0.536326,
    0.74331,
    0.911268,
    0.492094,
    0.255,
    0.495,
    0.569,
    0.521,
    0.578,
    0.369,
    0.304,
    0.667141,
    0.99,
    0.499,
    0.541,
    0.376,
    0.403,
    0.221,
    0.483,
    0.807,
    0.568,
    0.749,
    0.619,
    0.602,
    0.598,
    0.725,
    0.792,
    0.875,
    0.555,
    0.907,
    0.932,
    0.958,
    0.821,
    0.852,
    0.67,
    0.708564,
    0.51739,
    0.548124,
    0.427,
    0.728,
    0.693,
    0.53,
    0.548,
    0.792577,
    0.973,
    0.860103,
    0.740903,
    0.639475,
    0.656,
    0.522461,
    0.777,
    0.472,
    0.961,
    0.597,
    0.801,
    0.586,
    0.799,
    0.591,
    0.553,
    0.857,
    1.031,
    0.773,
    0.755,
    0.706,
    0.878,
    0.723,
    0.612,
    0.426574,
    0.589072,
    0.767,
    0.466,
    0.601583,
    0.712313,
    0.445188,
    0.398795,
    0.795,
    0.927876,
    0.705,
    0.611,
    0.522,
    0.631947,
    0.701
  ]
}