/shadow/cap3outbuf/16722/49995/tornet/2/shadow.data/hosts/markovclient773/markovclient773.tor.1000.stdout:Jan 01 00:18:10.769 [warn] Sending XOFF: 249400 249000
/shadow/cap3outbuf/16722/49995/tornet/2/shadow.data/hosts/markovclient773/markovclient773.tor.1000.stdout:Jan 01 00:19:30.491 [warn] Sending XOFF: 249400 249000
/shadow/cap3outbuf/16722/49995/tornet/2/shadow.data/hosts/markovclient773/markovclient773.tor.1000.stdout:Jan 01 00:19:45.572 [warn] Sending XOFF: 249400 249000
/shadow/cap3outbuf/16722/49995/tornet/2/shadow.data/hosts/markovclient773/markovclient773.tor.1000.stdout:Jan 01 00:20:22.657 [warn] Sending XOFF: 249400 249000
/shadow/cap3outbuf/16722/49995/tornet/2/shadow.data/hosts/markovclient773/markovclient773.tor.1000.stdout:Jan 01 00:20:23.499 [warn] Sending XOFF: 249198 249000
/shadow/cap3outbuf/16722/49995/tornet/2/shadow.data/hosts/markovclient773/markovclient773.tor.1000.stdout:Jan 01 00:20:32.214 [warn] Sending XOFF: 249400 249000
/shadow/cap3outbuf/16722/49995/tornet/2/shadow.data/hosts/markovclient773/markovclient773.tor.1000.stdout:Jan 01 00:21:30.125 [warn] Sending XOFF: 249400 249000
/shadow/cap3outbuf/16722/49995/tornet/2/shadow.data/hosts/markovclient773/markovclient773.tor.1000.stdout:Jan 01 00:24:42.043 [warn] Sending XOFF: 249400 249000
/shadow/cap3outbuf/16722/49995/tornet/2/shadow.data/hosts/markovclient773/markovclient773.tor.1000.stdout:Jan 01 00:25:52.232 [warn] Sending XOFF: 249400 249000
/shadow/cap3outbuf/16722/49995/tornet/2/shadow.data/hosts/markovclient773/markovclient773.tor.1000.stdout:Jan 01 00:25:53.107 [warn] Sending XOFF: 249236 249000
/shadow/cap3outbuf/16722/49995/tornet/2/shadow.data/hosts/markovclient725/markovclient725.tor.1000.stdout:Jan 01 00:16:23.282 [warn] Sending XOFF: 249400 249000
/shadow/cap3outbuf/16722/49995/tornet/2/shadow.data/hosts/markovclient725/markovclient725.tor.1000.stdout:Jan 01 00:18:51.925 [warn] Sending XOFF: 249050 249000
/shadow/cap3outbuf/16722/49995/tornet/2/shadow.data/hosts/markovclient725/markovclient725.tor.1000.stdout:Jan 01 00:18:58.195 [warn] Sending XOFF: 249400 249000
/shadow/cap3outbuf/16722/49995/tornet/2/shadow.data/hosts/markovclient725/markovclient725.tor.1000.stdout:Jan 01 00:19:41.344 [warn] Sending XOFF: 249314 249000
/shadow/cap3outbuf/16722/49995/tornet/2/shadow.data/hosts/markovclient725/markovclient725.tor.1000.stdout:Jan 01 00:19:55.713 [warn] Sending XOFF: 249482 249000
/shadow/cap3outbuf/16722/49995/tornet/2/shadow.data/hosts/markovclient725/markovclient725.tor.1000.stdout:Jan 01 00:20:04.567 [warn] Sending XOFF: 249400 249000
/shadow/cap3outbuf/16722/49995/tornet/2/shadow.data/hosts/markovclient725/markovclient725.tor.1000.stdout:Jan 01 00:20:07.376 [warn] Sending XOFF: 249400 249000
/shadow/cap3outbuf/16722/49995/tornet/2/shadow.data/hosts/markovclient725/markovclient725.tor.1000.stdout:Jan 01 00:20:13.416 [warn] Sending XOFF: 249074 249000
/shadow/cap3outbuf/16722/49995/tornet/2/shadow.data/hosts/markovclient725/markovclient725.tor.1000.stdout:Jan 01 00:20:16.099 [warn] Sending XOFF: 249400 249000
/shadow/cap3outbuf/16722/49995/tornet/2/shadow.data/hosts/markovclient725/markovclient725.tor.1000.stdout:Jan 01 00:20:37.669 [warn] Sending XOFF: 249400 249000
/shadow/cap3outbuf/16722/49995/tornet/2/shadow.data/hosts/markovclient725/markovclient725.tor.1000.stdout:Jan 01 00:20:57.660 [warn] Sending XOFF: 249025 249000
/shadow/cap3outbuf/16722/49995/tornet/2/shadow.data/hosts/markovclient725/markovclient725.tor.1000.stdout:Jan 01 00:30:32.701 [warn] Sending XOFF: 249266 249000
/shadow/cap3outbuf/16722/49995/tornet/2/shadow.data/hosts/markovclient261/markovclient261.tor.1000.stdout:Jan 01 00:27:15.973 [warn] Sending XOFF: 249380 249000
/shadow/cap3outbuf/16722/49995/tornet/2/shadow.data/hosts/markovclient261/markovclient261.tor.1000.stdout:Jan 01 00:27:39.895 [warn] Sending XOFF: 249400 249000
/shadow/cap3outbuf/16722/49995/tornet/2/shadow.data/hosts/markovclient261/markovclient261.tor.1000.stdout:Jan 01 00:28:19.430 [warn] Sending XOFF: 249400 249000
/shadow/cap3outbuf/16722/49995/tornet/2/shadow.data/hosts/markovclient261/markovclient261.tor.1000.stdout:Jan 01 00:28:58.212 [warn] Sending XOFF: 249374 249000
/shadow/cap3outbuf/16722/49995/tornet/2/shadow.data/hosts/markovclient261/markovclient261.tor.1000.stdout:Jan 01 00:29:08.556 [warn] Sending XOFF: 249008 249000
/shadow/cap3outbuf/16722/49995/tornet/2/shadow.data/hosts/markovclient261/markovclient261.tor.1000.stdout:Jan 01 00:29:39.458 [warn] Sending XOFF: 249400 249000
/shadow/cap3outbuf/16722/49995/tornet/2/shadow.data/hosts/markovclient261/markovclient261.tor.1000.stdout:Jan 01 00:30:16.895 [warn] Sending XOFF: 249470 249000
/shadow/cap3outbuf/16722/49995/tornet/2/shadow.data/hosts/markovclient227/markovclient227.tor.1000.stdout:Jan 01 00:18:39.418 [warn] Got XOFF!
/shadow/cap3outbuf/16722/49995/tornet/2/shadow.data/hosts/markovclient227/markovclient227.tor.1000.stdout:Jan 01 00:18:44.151 [warn] Got XON: 36
/shadow/cap3outbuf/16722/49995/tornet/2/shadow.data/hosts/markovclient446/markovclient446.tor.1000.stdout:Jan 01 00:18:32.928 [warn] Sending XOFF: 249400 249000
/shadow/cap3outbuf/16722/49995/tornet/2/shadow.data/hosts/markovclient446/markovclient446.tor.1000.stdout:Jan 01 00:24:00.109 [warn] Sending XOFF: 249050 249000
/shadow/cap3outbuf/16722/49995/tornet/2/shadow.data/hosts/markovclient446/markovclient446.tor.1000.stdout:Jan 01 00:24:27.919 [warn] Sending XOFF: 249008 249000
/shadow/cap3outbuf/16722/49995/tornet/2/shadow.data/hosts/markovclient446/markovclient446.tor.1000.stdout:Jan 01 00:25:23.346 [warn] Sending XOFF: 249451 249000
/shadow/cap3outbuf/16722/49995/tornet/2/shadow.data/hosts/markovclient446/markovclient446.tor.1000.stdout:Jan 01 00:26:36.639 [warn] Sending XOFF: 249400 249000
/shadow/cap3outbuf/16722/49995/tornet/2/shadow.data/hosts/markovclient446/markovclient446.tor.1000.stdout:Jan 01 00:27:43.638 [warn] Sending XOFF: 249400 249000
/shadow/cap3outbuf/16722/49995/tornet/2/shadow.data/hosts/markovclient446/markovclient446.tor.1000.stdout:Jan 01 00:28:07.435 [warn] Sending XOFF: 249488 249000
/shadow/cap3outbuf/16722/49995/tornet/2/shadow.data/hosts/markovclient446/markovclient446.tor.1000.stdout:Jan 01 00:28:15.472 [warn] Sending XOFF: 249164 249000
/shadow/cap3outbuf/16722/49995/tornet/2/shadow.data/hosts/markovclient446/markovclient446.tor.1000.stdout:Jan 01 00:28:15.719 [warn] Sending XOFF: 249308 249000
/shadow/cap3outbuf/16722/49995/tornet/2/shadow.data/hosts/markovclient446/markovclient446.tor.1000.stdout:Jan 01 00:28:21.266 [warn] Sending XOFF: 249400 249000
/shadow/cap3outbuf/16722/49995/tornet/2/shadow.data/hosts/markovclient446/markovclient446.tor.1000.stdout:Jan 01 00:28:22.075 [warn] Sending XOFF: 249400 249000
/shadow/cap3outbuf/16722/49995/tornet/2/shadow.data/hosts/markovclient446/markovclient446.tor.1000.stdout:Jan 01 00:28:26.913 [warn] Sending XOFF: 249031 249000
/shadow/cap3outbuf/16722/49995/tornet/2/shadow.data/hosts/markovclient446/markovclient446.tor.1000.stdout:Jan 01 00:29:12.045 [warn] Sending XOFF: 249223 249000
/shadow/cap3outbuf/16722/49995/tornet/2/shadow.data/hosts/markovclient446/markovclient446.tor.1000.stdout:Jan 01 00:29:34.523 [warn] Sending XOFF: 249400 249000
/shadow/cap3outbuf/16722/49995/tornet/2/shadow.data/hosts/markovclient446/markovclient446.tor.1000.stdout:Jan 01 00:29:41.901 [warn] Sending XOFF: 249380 249000
/shadow/cap3outbuf/16722/49995/tornet/2/shadow.data/hosts/markovclient446/markovclient446.tor.1000.stdout:Jan 01 00:29:56.091 [warn] Sending XOFF: 249194 249000
/shadow/cap3outbuf/16722/49995/tornet/2/shadow.data/hosts/markovclient446/markovclient446.tor.1000.stdout:Jan 01 00:30:02.565 [warn] Sending XOFF: 249386 249000
/shadow/cap3outbuf/16722/49995/tornet/2/shadow.data/hosts/markovclient446/markovclient446.tor.1000.stdout:Jan 01 00:30:03.445 [warn] Sending XOFF: 249380 249000
/shadow/cap3outbuf/16722/49995/tornet/2/shadow.data/hosts/markovclient446/markovclient446.tor.1000.stdout:Jan 01 00:30:12.385 [warn] Sending XOFF: 249044 249000
/shadow/cap3outbuf/16722/49995/tornet/2/shadow.data/hosts/markovclient446/markovclient446.tor.1000.stdout:Jan 01 00:30:16.222 [warn] Sending XOFF: 249114 249000
/shadow/cap3outbuf/16722/49995/tornet/2/shadow.data/hosts/markovclient446/markovclient446.tor.1000.stdout:Jan 01 00:30:24.987 [warn] Sending XOFF: 249400 249000
/shadow/cap3outbuf/16722/49995/tornet/2/shadow.data/hosts/markovclient446/markovclient446.tor.1000.stdout:Jan 01 00:30:26.053 [warn] Sending XOFF: 249326 249000
/shadow/cap3outbuf/16722/49995/tornet/2/shadow.data/hosts/markovclient446/markovclient446.tor.1000.stdout:Jan 01 00:30:27.466 [warn] Sending XOFF: 249400 249000
/shadow/cap3outbuf/16722/49995/tornet/2/shadow.data/hosts/markovclient446/markovclient446.tor.1000.stdout:Jan 01 00:30:34.997 [warn] Sending XOFF: 249400 249000
/shadow/cap3outbuf/16722/49995/tornet/2/shadow.data/hosts/markovclient446/markovclient446.tor.1000.stdout:Jan 01 00:30:49.721 [warn] Sending XOFF: 249073 249000
/shadow/cap3outbuf/16722/49995/tornet/2/shadow.data/hosts/markovclient446/markovclient446.tor.1000.stdout:Jan 01 00:30:52.991 [warn] Sending XOFF: 249188 249000
/shadow/cap3outbuf/16722/49995/tornet/2/shadow.data/hosts/markovclient446/markovclient446.tor.1000.stdout:Jan 01 00:30:53.962 [warn] Sending XOFF: 249400 249000
/shadow/cap3outbuf/16722/49995/tornet/2/shadow.data/hosts/markovclient446/markovclient446.tor.1000.stdout:Jan 01 00:30:59.885 [warn] Sending XOFF: 249400 249000
/shadow/cap3outbuf/16722/49995/tornet/2/shadow.data/hosts/markovclient464/markovclient464.tor.1000.stdout:Jan 01 00:29:42.628 [warn] Sending XOFF: 249478 249000
/shadow/cap3outbuf/16722/49995/tornet/2/shadow.data/hosts/markovclient466/markovclient466.tor.1000.stdout:Jan 01 00:28:31.975 [warn] Sending XOFF: 249400 249000
/shadow/cap3outbuf/16722/49995/tornet/2/shadow.data/hosts/markovclient466/markovclient466.tor.1000.stdout:Jan 01 00:29:43.637 [warn] Sending XOFF: 249487 249000
/shadow/cap3outbuf/16722/49995/tornet/2/shadow.data/hosts/markovclient466/markovclient466.tor.1000.stdout:Jan 01 00:30:53.392 [warn] Sending XOFF: 249400 249000
/shadow/cap3outbuf/16722/49995/tornet/2/shadow.data/hosts/markovclient258/markovclient258.tor.1000.stdout:Jan 01 00:20:18.499 [warn] Sending XOFF: 249400 249000
/shadow/cap3outbuf/16722/49995/tornet/2/shadow.data/hosts/markovclient258/markovclient258.tor.1000.stdout:Jan 01 00:20:33.502 [warn] Sending XOFF: 249363 249000
/shadow/cap3outbuf/16722/49995/tornet/2/shadow.data/hosts/markovclient258/markovclient258.tor.1000.stdout:Jan 01 00:21:58.790 [warn] Sending XOFF: 249134 249000
/shadow/cap3outbuf/16722/49995/tornet/2/shadow.data/hosts/markovclient258/markovclient258.tor.1000.stdout:Jan 01 00:22:56.822 [warn] Sending XOFF: 249206 249000
/shadow/cap3outbuf/16722/49995/tornet/2/shadow.data/hosts/markovclient258/markovclient258.tor.1000.stdout:Jan 01 00:22:58.943 [warn] Sending XOFF: 249458 249000
/shadow/cap3outbuf/16722/49995/tornet/2/shadow.data/hosts/markovclient258/markovclient258.tor.1000.stdout:Jan 01 00:23:15.930 [warn] Sending XOFF: 249400 249000
/shadow/cap3outbuf/16722/49995/tornet/2/shadow.data/hosts/markovclient258/markovclient258.tor.1000.stdout:Jan 01 00:23:17.187 [warn] Sending XOFF: 249400 249000
/shadow/cap3outbuf/16722/49995/tornet/2/shadow.data/hosts/markovclient258/markovclient258.tor.1000.stdout:Jan 01 00:23:23.350 [warn] Sending XOFF: 249354 249000
/shadow/cap3outbuf/16722/49995/tornet/2/shadow.data/hosts/markovclient258/markovclient258.tor.1000.stdout:Jan 01 00:23:48.657 [warn] Sending XOFF: 249116 249000
/shadow/cap3outbuf/16722/49995/tornet/2/shadow.data/hosts/markovclient258/markovclient258.tor.1000.stdout:Jan 01 00:24:04.215 [warn] Sending XOFF: 249290 249000
/shadow/cap3outbuf/16722/49995/tornet/2/shadow.data/hosts/markovclient639/markovclient639.tor.1000.stdout:Jan 01 00:20:50.601 [warn] Sending XOFF: 249096 249000
/shadow/cap3outbuf/16722/49995/tornet/2/shadow.data/hosts/markovclient639/markovclient639.tor.1000.stdout:Jan 01 00:20:53.133 [warn] Sending XOFF: 249202 249000
/shadow/cap3outbuf/16722/49995/tornet/2/shadow.data/hosts/markovclient639/markovclient639.tor.1000.stdout:Jan 01 00:21:43.563 [warn] Sending XOFF: 249380 249000
/shadow/cap3outbuf/16722/49995/tornet/2/shadow.data/hosts/markovclient639/markovclient639.tor.1000.stdout:Jan 01 00:27:00.039 [warn] Sending XOFF: 249400 249000
/shadow/cap3outbuf/16722/49995/tornet/2/shadow.data/hosts/markovclient639/markovclient639.tor.1000.stdout:Jan 01 00:27:38.847 [warn] Sending XOFF: 249400 249000
/shadow/cap3outbuf/16722/49995/tornet/2/shadow.data/hosts/markovclient639/markovclient639.tor.1000.stdout:Jan 01 00:28:16.372 [warn] Sending XOFF: 249400 249000
/shadow/cap3outbuf/16722/49995/tornet/2/shadow.data/hosts/markovclient639/markovclient639.tor.1000.stdout:Jan 01 00:28:21.155 [warn] Sending XOFF: 249400 249000
/shadow/cap3outbuf/16722/49995/tornet/2/shadow.data/hosts/markovclient639/markovclient639.tor.1000.stdout:Jan 01 00:28:41.389 [warn] Sending XOFF: 249400 249000
/shadow/cap3outbuf/16722/49995/tornet/2/shadow.data/hosts/markovclient639/markovclient639.tor.1000.stdout:Jan 01 00:28:49.253 [warn] Sending XOFF: 249380 249000
/shadow/cap3outbuf/16722/49995/tornet/2/shadow.data/hosts/markovclient546/markovclient546.tor.1000.stdout:Jan 01 00:28:28.394 [warn] Sending XOFF: 249400 249000
/shadow/cap3outbuf/16722/49995/tornet/2/shadow.data/hosts/markovclient546/markovclient546.tor.1000.stdout:Jan 01 00:29:36.539 [warn] Sending XOFF: 249400 249000
/shadow/cap3outbuf/16722/49995/tornet/2/shadow.data/hosts/markovclient79/markovclient79.tor.1000.stdout:Jan 01 00:20:50.537 [warn] Sending XOFF: 249380 249000
/shadow/cap3outbuf/16722/49995/tornet/2/shadow.data/hosts/markovclient79/markovclient79.tor.1000.stdout:Jan 01 00:22:23.931 [warn] Sending XOFF: 249400 249000
/shadow/cap3outbuf/16722/49995/tornet/2/shadow.data/hosts/markovclient79/markovclient79.tor.1000.stdout:Jan 01 00:23:03.798 [warn] Sending XOFF: 249235 249000
/shadow/cap3outbuf/16722/49995/tornet/2/shadow.data/hosts/markovclient79/markovclient79.tor.1000.stdout:Jan 01 00:24:22.185 [warn] Sending XOFF: 249272 249000
/shadow/cap3outbuf/16722/49995/tornet/2/shadow.data/hosts/markovclient79/markovclient79.tor.1000.stdout:Jan 01 00:24:43.798 [warn] Sending XOFF: 249450 249000
/shadow/cap3outbuf/16722/49995/tornet/2/shadow.data/hosts/markovclient79/markovclient79.tor.1000.stdout:Jan 01 00:25:10.738 [warn] Sending XOFF: 249308 249000
/shadow/cap3outbuf/16722/49995/tornet/2/shadow.data/hosts/markovclient79/markovclient79.tor.1000.stdout:Jan 01 00:25:51.795 [warn] Sending XOFF: 249422 249000
/shadow/cap3outbuf/16722/49995/tornet/2/shadow.data/hosts/markovclient79/markovclient79.tor.1000.stdout:Jan 01 00:26:23.179 [warn] Sending XOFF: 249494 249000
/shadow/cap3outbuf/16722/49995/tornet/2/shadow.data/hosts/markovclient79/markovclient79.tor.1000.stdout:Jan 01 00:26:45.441 [warn] Sending XOFF: 249344 249000
/shadow/cap3outbuf/16722/49995/tornet/2/shadow.data/hosts/markovclient79/markovclient79.tor.1000.stdout:Jan 01 00:27:12.611 [warn] Sending XOFF: 249344 249000
/shadow/cap3outbuf/16722/49995/tornet/2/shadow.data/hosts/markovclient79/markovclient79.tor.1000.stdout:Jan 01 00:28:35.196 [warn] Sending XOFF: 249400 249000
/shadow/cap3outbuf/16722/49995/tornet/2/shadow.data/hosts/markovclient79/markovclient79.tor.1000.stdout:Jan 01 00:29:04.361 [warn] Sending XOFF: 249062 249000
/shadow/cap3outbuf/16722/49995/tornet/2/shadow.data/hosts/markovclient79/markovclient79.tor.1000.stdout:Jan 01 00:29:24.665 [warn] Sending XOFF: 249404 249000
/shadow/cap3outbuf/16722/49995/tornet/2/shadow.data/hosts/markovclient79/markovclient79.tor.1000.stdout:Jan 01 00:29:36.305 [warn] Sending XOFF: 249206 249000
/shadow/cap3outbuf/16722/49995/tornet/2/shadow.data/hosts/markovclient79/markovclient79.tor.1000.stdout:Jan 01 00:29:42.491 [warn] Sending XOFF: 249428 249000
/shadow/cap3outbuf/16722/49995/tornet/2/shadow.data/hosts/markovclient79/markovclient79.tor.1000.stdout:Jan 01 00:29:50.765 [warn] Sending XOFF: 249170 249000
/shadow/cap3outbuf/16722/49995/tornet/2/shadow.data/hosts/markovclient79/markovclient79.tor.1000.stdout:Jan 01 00:29:50.867 [warn] Sending XOFF: 249470 249000
/shadow/cap3outbuf/16722/49995/tornet/2/shadow.data/hosts/markovclient79/markovclient79.tor.1000.stdout:Jan 01 00:30:49.348 [warn] Sending XOFF: 249344 249000
/shadow/cap3outbuf/16722/49995/tornet/2/shadow.data/hosts/markovclient79/markovclient79.tor.1000.stdout:Jan 01 00:30:56.949 [warn] Sending XOFF: 249086 249000
/shadow/cap3outbuf/16722/49995/tornet/2/shadow.data/hosts/markovclient95/markovclient95.tor.1000.stdout:Jan 01 00:27:12.036 [warn] Got XOFF!
/shadow/cap3outbuf/16722/49995/tornet/2/shadow.data/hosts/markovclient95/markovclient95.tor.1000.stdout:Jan 01 00:27:12.036 [warn] Got XON: 162
/shadow/cap3outbuf/16722/49995/tornet/2/shadow.data/hosts/markovclient292/markovclient292.tor.1000.stdout:Jan 01 00:24:23.679 [warn] Sending XOFF: 249400 249000
/shadow/cap3outbuf/16722/49995/tornet/2/shadow.data/hosts/markovclient292/markovclient292.tor.1000.stdout:Jan 01 00:24:24.277 [warn] Sending XOFF: 249400 249000
/shadow/cap3outbuf/16722/49995/tornet/2/shadow.data/hosts/markovclient539/markovclient539.tor.1000.stdout:Jan 01 00:20:10.016 [warn] Sending XOFF: 249380 249000
/shadow/cap3outbuf/16722/49995/tornet/2/shadow.data/hosts/markovclient539/markovclient539.tor.1000.stdout:Jan 01 00:20:43.021 [warn] Sending XOFF: 249400 249000
/shadow/cap3outbuf/16722/49995/tornet/2/shadow.data/hosts/markovclient539/markovclient539.tor.1000.stdout:Jan 01 00:22:00.066 [warn] Sending XOFF: 249110 249000
/shadow/cap3outbuf/16722/49995/tornet/2/shadow.data/hosts/markovclient539/markovclient539.tor.1000.stdout:Jan 01 00:22:25.211 [warn] Sending XOFF: 249278 249000
/shadow/cap3outbuf/16722/49995/tornet/2/shadow.data/hosts/markovclient539/markovclient539.tor.1000.stdout:Jan 01 00:23:03.250 [warn] Sending XOFF: 249380 249000
/shadow/cap3outbuf/16722/49995/tornet/2/shadow.data/hosts/markovclient539/markovclient539.tor.1000.stdout:Jan 01 00:23:09.120 [warn] Sending XOFF: 249464 249000
/shadow/cap3outbuf/16722/49995/tornet/2/shadow.data/hosts/markovclient539/markovclient539.tor.1000.stdout:Jan 01 00:23:15.817 [warn] Sending XOFF: 249400 249000
/shadow/cap3outbuf/16722/49995/tornet/2/shadow.data/hosts/markovclient539/markovclient539.tor.1000.stdout:Jan 01 00:23:17.053 [warn] Sending XOFF: 249056 249000
/shadow/cap3outbuf/16722/49995/tornet/2/shadow.data/hosts/markovclient539/markovclient539.tor.1000.stdout:Jan 01 00:23:37.029 [warn] Sending XOFF: 249400 249000
/shadow/cap3outbuf/16722/49995/tornet/2/shadow.data/hosts/markovclient539/markovclient539.tor.1000.stdout:Jan 01 00:24:04.786 [warn] Sending XOFF: 249314 249000
/shadow/cap3outbuf/16722/49995/tornet/2/shadow.data/hosts/markovclient539/markovclient539.tor.1000.stdout:Jan 01 00:24:16.808 [warn] Sending XOFF: 249400 249000
/shadow/cap3outbuf/16722/49995/tornet/2/shadow.data/hosts/markovclient539/markovclient539.tor.1000.stdout:Jan 01 00:24:19.639 [warn] Sending XOFF: 249400 249000
/shadow/cap3outbuf/16722/49995/tornet/2/shadow.data/hosts/markovclient539/markovclient539.tor.1000.stdout:Jan 01 00:24:20.237 [warn] Sending XOFF: 249380 249000
/shadow/cap3outbuf/16722/49995/tornet/2/shadow.data/hosts/markovclient539/markovclient539.tor.1000.stdout:Jan 01 00:24:22.857 [warn] Sending XOFF: 249400 249000
/shadow/cap3outbuf/16722/49995/tornet/2/shadow.data/hosts/markovclient539/markovclient539.tor.1000.stdout:Jan 01 00:24:23.133 [warn] Sending XOFF: 249404 249000
/shadow/cap3outbuf/16722/49995/tornet/2/shadow.data/hosts/markovclient539/markovclient539.tor.1000.stdout:Jan 01 00:24:32.572 [warn] Sending XOFF: 249332 249000
/shadow/cap3outbuf/16722/49995/tornet/2/shadow.data/hosts/markovclient539/markovclient539.tor.1000.stdout:Jan 01 00:24:45.706 [warn] Sending XOFF: 249074 249000
/shadow/cap3outbuf/16722/49995/tornet/2/shadow.data/hosts/markovclient539/markovclient539.tor.1000.stdout:Jan 01 00:24:51.668 [warn] Sending XOFF: 249074 249000
/shadow/cap3outbuf/16722/49995/tornet/2/shadow.data/hosts/markovclient539/markovclient539.tor.1000.stdout:Jan 01 00:24:56.572 [warn] Sending XOFF: 249350 249000
/shadow/cap3outbuf/16722/49995/tornet/2/shadow.data/hosts/markovclient539/markovclient539.tor.1000.stdout:Jan 01 00:24:58.752 [warn] Sending XOFF: 249056 249000
/shadow/cap3outbuf/16722/49995/tornet/2/shadow.data/hosts/markovclient539/markovclient539.tor.1000.stdout:Jan 01 00:25:01.618 [warn] Sending XOFF: 249090 249000
/shadow/cap3outbuf/16722/49995/tornet/2/shadow.data/hosts/markovclient539/markovclient539.tor.1000.stdout:Jan 01 00:25:12.681 [warn] Sending XOFF: 249400 249000
/shadow/cap3outbuf/16722/49995/tornet/2/shadow.data/hosts/markovclient539/markovclient539.tor.1000.stdout:Jan 01 00:25:40.865 [warn] Sending XOFF: 249038 249000
/shadow/cap3outbuf/16722/49995/tornet/2/shadow.data/hosts/markovclient539/markovclient539.tor.1000.stdout:Jan 01 00:25:53.000 [warn] Sending XOFF: 249230 249000
/shadow/cap3outbuf/16722/49995/tornet/2/shadow.data/hosts/markovclient539/markovclient539.tor.1000.stdout:Jan 01 00:26:01.236 [warn] Sending XOFF: 249026 249000
/shadow/cap3outbuf/16722/49995/tornet/2/shadow.data/hosts/markovclient539/markovclient539.tor.1000.stdout:Jan 01 00:26:03.313 [warn] Sending XOFF: 249002 249000
/shadow/cap3outbuf/16722/49995/tornet/2/shadow.data/hosts/markovclient539/markovclient539.tor.1000.stdout:Jan 01 00:26:04.302 [warn] Sending XOFF: 249074 249000
/shadow/cap3outbuf/16722/49995/tornet/2/shadow.data/hosts/markovclient539/markovclient539.tor.1000.stdout:Jan 01 00:26:13.000 [warn] Sending XOFF: 249400 249000
/shadow/cap3outbuf/16722/49995/tornet/2/shadow.data/hosts/markovclient539/markovclient539.tor.1000.stdout:Jan 01 00:26:14.742 [warn] Sending XOFF: 249115 249000
/shadow/cap3outbuf/16722/49995/tornet/2/shadow.data/hosts/markovclient539/markovclient539.tor.1000.stdout:Jan 01 00:26:15.259 [warn] Sending XOFF: 249403 249000
/shadow/cap3outbuf/16722/49995/tornet/2/shadow.data/hosts/markovclient539/markovclient539.tor.1000.stdout:Jan 01 00:26:22.935 [warn] Sending XOFF: 249400 249000
/shadow/cap3outbuf/16722/49995/tornet/2/shadow.data/hosts/markovclient539/markovclient539.tor.1000.stdout:Jan 01 00:26:28.559 [warn] Sending XOFF: 249366 249000
/shadow/cap3outbuf/16722/49995/tornet/2/shadow.data/hosts/markovclient539/markovclient539.tor.1000.stdout:Jan 01 00:26:41.024 [warn] Sending XOFF: 249400 249000
/shadow/cap3outbuf/16722/49995/tornet/2/shadow.data/hosts/markovclient539/markovclient539.tor.1000.stdout:Jan 01 00:26:52.583 [warn] Sending XOFF: 249014 249000
/shadow/cap3outbuf/16722/49995/tornet/2/shadow.data/hosts/markovclient539/markovclient539.tor.1000.stdout:Jan 01 00:26:59.950 [warn] Sending XOFF: 249086 249000
/shadow/cap3outbuf/16722/49995/tornet/2/shadow.data/hosts/markovclient539/markovclient539.tor.1000.stdout:Jan 01 00:27:21.761 [warn] Sending XOFF: 249400 249000
/shadow/cap3outbuf/16722/49995/tornet/2/shadow.data/hosts/markovclient539/markovclient539.tor.1000.stdout:Jan 01 00:27:31.808 [warn] Sending XOFF: 249400 249000
/shadow/cap3outbuf/16722/49995/tornet/2/shadow.data/hosts/markovclient539/markovclient539.tor.1000.stdout:Jan 01 00:27:44.404 [warn] Sending XOFF: 249206 249000
/shadow/cap3outbuf/16722/49995/tornet/2/shadow.data/hosts/markovclient539/markovclient539.tor.1000.stdout:Jan 01 00:27:45.891 [warn] Sending XOFF: 249026 249000
/shadow/cap3outbuf/16722/49995/tornet/2/shadow.data/hosts/markovclient539/markovclient539.tor.1000.stdout:Jan 01 00:28:22.316 [warn] Sending XOFF: 249068 249000
/shadow/cap3outbuf/16722/49995/tornet/2/shadow.data/hosts/markovclient539/markovclient539.tor.1000.stdout:Jan 01 00:28:23.454 [warn] Sending XOFF: 249400 249000
/shadow/cap3outbuf/16722/49995/tornet/2/shadow.data/hosts/markovclient539/markovclient539.tor.1000.stdout:Jan 01 00:28:28.629 [warn] Sending XOFF: 249374 249000
/shadow/cap3outbuf/16722/49995/tornet/2/shadow.data/hosts/markovclient539/markovclient539.tor.1000.stdout:Jan 01 00:28:42.028 [warn] Sending XOFF: 249368 249000
/shadow/cap3outbuf/16722/49995/tornet/2/shadow.data/hosts/markovclient539/markovclient539.tor.1000.stdout:Jan 01 00:29:32.068 [warn] Sending XOFF: 249308 249000
/shadow/cap3outbuf/16722/49995/tornet/2/shadow.data/hosts/markovclient539/markovclient539.tor.1000.stdout:Jan 01 00:29:47.331 [warn] Sending XOFF: 249400 249000
/shadow/cap3outbuf/16722/49995/tornet/2/shadow.data/hosts/markovclient539/markovclient539.tor.1000.stdout:Jan 01 00:29:48.681 [warn] Sending XOFF: 249326 249000
/shadow/cap3outbuf/16722/49995/tornet/2/shadow.data/hosts/markovclient539/markovclient539.tor.1000.stdout:Jan 01 00:29:56.966 [warn] Sending XOFF: 249248 249000
/shadow/cap3outbuf/16722/49995/tornet/2/shadow.data/hosts/markovclient539/markovclient539.tor.1000.stdout:Jan 01 00:30:28.354 [warn] Sending XOFF: 249380 249000
/shadow/cap3outbuf/16722/49995/tornet/2/shadow.data/hosts/markovclient539/markovclient539.tor.1000.stdout:Jan 01 00:30:34.977 [warn] Sending XOFF: 249164 249000
/shadow/cap3outbuf/16722/49995/tornet/2/shadow.data/hosts/markovclient73/markovclient73.tor.1000.stdout:Jan 01 00:25:54.996 [warn] Sending XOFF: 249028 249000
/shadow/cap3outbuf/16722/49995/tornet/2/shadow.data/hosts/markovclient73/markovclient73.tor.1000.stdout:Jan 01 00:27:01.777 [warn] Sending XOFF: 249400 249000
/shadow/cap3outbuf/16722/49995/tornet/2/shadow.data/hosts/markovclient73/markovclient73.tor.1000.stdout:Jan 01 00:28:17.974 [warn] Sending XOFF: 249074 249000
/shadow/cap3outbuf/16722/49995/tornet/2/shadow.data/hosts/markovclient147/markovclient147.tor.1000.stdout:Jan 01 00:16:46.928 [warn] Sending XOFF: 249400 249000
/shadow/cap3outbuf/16722/49995/tornet/2/shadow.data/hosts/markovclient147/markovclient147.tor.1000.stdout:Jan 01 00:16:51.937 [warn] Sending XOFF: 249400 249000
/shadow/cap3outbuf/16722/49995/tornet/2/shadow.data/hosts/markovclient147/markovclient147.tor.1000.stdout:Jan 01 00:18:27.338 [warn] Sending XOFF: 249050 249000
/shadow/cap3outbuf/16722/49995/tornet/2/shadow.data/hosts/markovclient147/markovclient147.tor.1000.stdout:Jan 01 00:18:39.287 [warn] Sending XOFF: 249433 249000
/shadow/cap3outbuf/16722/49995/tornet/2/shadow.data/hosts/markovclient147/markovclient147.tor.1000.stdout:Jan 01 00:19:36.312 [warn] Sending XOFF: 249380 249000
/shadow/cap3outbuf/16722/49995/tornet/2/shadow.data/hosts/markovclient147/markovclient147.tor.1000.stdout:Jan 01 00:20:53.741 [warn] Sending XOFF: 249068 249000
/shadow/cap3outbuf/16722/49995/tornet/2/shadow.data/hosts/markovclient147/markovclient147.tor.1000.stdout:Jan 01 00:22:09.767 [warn] Sending XOFF: 249074 249000
/shadow/cap3outbuf/16722/49995/tornet/2/shadow.data/hosts/markovclient147/markovclient147.tor.1000.stdout:Jan 01 00:22:14.792 [warn] Sending XOFF: 249400 249000
/shadow/cap3outbuf/16722/49995/tornet/2/shadow.data/hosts/markovclient147/markovclient147.tor.1000.stdout:Jan 01 00:22:50.151 [warn] Sending XOFF: 249145 249000
/shadow/cap3outbuf/16722/49995/tornet/2/shadow.data/hosts/markovclient147/markovclient147.tor.1000.stdout:Jan 01 00:22:53.363 [warn] Sending XOFF: 249176 249000
/shadow/cap3outbuf/16722/49995/tornet/2/shadow.data/hosts/markovclient147/markovclient147.tor.1000.stdout:Jan 01 00:22:58.796 [warn] Sending XOFF: 249236 249000
/shadow/cap3outbuf/16722/49995/tornet/2/shadow.data/hosts/markovclient147/markovclient147.tor.1000.stdout:Jan 01 00:23:09.043 [warn] Sending XOFF: 249400 249000
/shadow/cap3outbuf/16722/49995/tornet/2/shadow.data/hosts/markovclient147/markovclient147.tor.1000.stdout:Jan 01 00:23:11.216 [warn] Sending XOFF: 249380 249000
/shadow/cap3outbuf/16722/49995/tornet/2/shadow.data/hosts/markovclient147/markovclient147.tor.1000.stdout:Jan 01 00:23:33.981 [warn] Sending XOFF: 249164 249000
/shadow/cap3outbuf/16722/49995/tornet/2/shadow.data/hosts/markovclient147/markovclient147.tor.1000.stdout:Jan 01 00:23:40.187 [warn] Sending XOFF: 249400 249000
/shadow/cap3outbuf/16722/49995/tornet/2/shadow.data/hosts/markovclient147/markovclient147.tor.1000.stdout:Jan 01 00:23:43.392 [warn] Sending XOFF: 249400 249000
/shadow/cap3outbuf/16722/49995/tornet/2/shadow.data/hosts/markovclient147/markovclient147.tor.1000.stdout:Jan 01 00:23:53.179 [warn] Sending XOFF: 249152 249000
/shadow/cap3outbuf/16722/49995/tornet/2/shadow.data/hosts/markovclient147/markovclient147.tor.1000.stdout:Jan 01 00:23:53.504 [warn] Sending XOFF: 249308 249000
/shadow/cap3outbuf/16722/49995/tornet/2/shadow.data/hosts/markovclient147/markovclient147.tor.1000.stdout:Jan 01 00:23:53.866 [warn] Sending XOFF: 249452 249000
/shadow/cap3outbuf/16722/49995/tornet/2/shadow.data/hosts/markovclient147/markovclient147.tor.1000.stdout:Jan 01 00:23:54.519 [warn] Sending XOFF: 249442 249000
/shadow/cap3outbuf/16722/49995/tornet/2/shadow.data/hosts/markovclient147/markovclient147.tor.1000.stdout:Jan 01 00:24:02.129 [warn] Sending XOFF: 249400 249000
/shadow/cap3outbuf/16722/49995/tornet/2/shadow.data/hosts/markovclient147/markovclient147.tor.1000.stdout:Jan 01 00:24:03.245 [warn] Sending XOFF: 249400 249000
/shadow/cap3outbuf/16722/49995/tornet/2/shadow.data/hosts/markovclient147/markovclient147.tor.1000.stdout:Jan 01 00:24:04.574 [warn] Sending XOFF: 249380 249000
/shadow/cap3outbuf/16722/49995/tornet/2/shadow.data/hosts/markovclient147/markovclient147.tor.1000.stdout:Jan 01 00:24:14.372 [warn] Sending XOFF: 249236 249000
/shadow/cap3outbuf/16722/49995/tornet/2/shadow.data/hosts/markovclient147/markovclient147.tor.1000.stdout:Jan 01 00:24:16.656 [warn] Sending XOFF: 249400 249000
/shadow/cap3outbuf/16722/49995/tornet/2/shadow.data/hosts/markovclient147/markovclient147.tor.1000.stdout:Jan 01 00:24:23.090 [warn] Sending XOFF: 249488 249000
/shadow/cap3outbuf/16722/49995/tornet/2/shadow.data/hosts/markovclient147/markovclient147.tor.1000.stdout:Jan 01 00:24:28.014 [warn] Sending XOFF: 249488 249000
/shadow/cap3outbuf/16722/49995/tornet/2/shadow.data/hosts/markovclient147/markovclient147.tor.1000.stdout:Jan 01 00:24:47.879 [warn] Sending XOFF: 249278 249000
/shadow/cap3outbuf/16722/49995/tornet/2/shadow.data/hosts/markovclient147/markovclient147.tor.1000.stdout:Jan 01 00:24:54.626 [warn] Sending XOFF: 249400 249000
/shadow/cap3outbuf/16722/49995/tornet/2/shadow.data/hosts/markovclient147/markovclient147.tor.1000.stdout:Jan 01 00:24:54.656 [warn] Sending XOFF: 249400 249000
/shadow/cap3outbuf/16722/49995/tornet/2/shadow.data/hosts/markovclient147/markovclient147.tor.1000.stdout:Jan 01 00:24:58.177 [warn] Sending XOFF: 249400 249000
/shadow/cap3outbuf/16722/49995/tornet/2/shadow.data/hosts/markovclient147/markovclient147.tor.1000.stdout:Jan 01 00:25:39.173 [warn] Sending XOFF: 249400 249000
/shadow/cap3outbuf/16722/49995/tornet/2/shadow.data/hosts/markovclient147/markovclient147.tor.1000.stdout:Jan 01 00:25:40.085 [warn] Sending XOFF: 249400 249000
/shadow/cap3outbuf/16722/49995/tornet/2/shadow.data/hosts/markovclient147/markovclient147.tor.1000.stdout:Jan 01 00:25:42.853 [warn] Sending XOFF: 249180 249000
/shadow/cap3outbuf/16722/49995/tornet/2/shadow.data/hosts/markovclient147/markovclient147.tor.1000.stdout:Jan 01 00:25:45.738 [warn] Sending XOFF: 249038 249000
/shadow/cap3outbuf/16722/49995/tornet/2/shadow.data/hosts/markovclient147/markovclient147.tor.1000.stdout:Jan 01 00:25:52.991 [warn] Sending XOFF: 249400 249000
/shadow/cap3outbuf/16722/49995/tornet/2/shadow.data/hosts/markovclient147/markovclient147.tor.1000.stdout:Jan 01 00:25:52.998 [warn] Sending XOFF: 249080 249000
/shadow/cap3outbuf/16722/49995/tornet/2/shadow.data/hosts/markovclient147/markovclient147.tor.1000.stdout:Jan 01 00:25:58.811 [warn] Sending XOFF: 249400 249000
/shadow/cap3outbuf/16722/49995/tornet/2/shadow.data/hosts/markovclient147/markovclient147.tor.1000.stdout:Jan 01 00:26:07.879 [warn] Sending XOFF: 249400 249000
/shadow/cap3outbuf/16722/49995/tornet/2/shadow.data/hosts/markovclient147/markovclient147.tor.1000.stdout:Jan 01 00:26:21.181 [warn] Sending XOFF: 249212 249000
/shadow/cap3outbuf/16722/49995/tornet/2/shadow.data/hosts/markovclient147/markovclient147.tor.1000.stdout:Jan 01 00:26:32.591 [warn] Sending XOFF: 249400 249000
/shadow/cap3outbuf/16722/49995/tornet/2/shadow.data/hosts/markovclient147/markovclient147.tor.1000.stdout:Jan 01 00:26:35.909 [warn] Sending XOFF: 249400 249000
/shadow/cap3outbuf/16722/49995/tornet/2/shadow.data/hosts/markovclient147/markovclient147.tor.1000.stdout:Jan 01 00:26:41.666 [warn] Sending XOFF: 249400 249000
/shadow/cap3outbuf/16722/49995/tornet/2/shadow.data/hosts/markovclient147/markovclient147.tor.1000.stdout:Jan 01 00:26:42.615 [warn] Sending XOFF: 249400 249000
/shadow/cap3outbuf/16722/49995/tornet/2/shadow.data/hosts/markovclient147/markovclient147.tor.1000.stdout:Jan 01 00:27:12.818 [warn] Sending XOFF: 249400 249000
/shadow/cap3outbuf/16722/49995/tornet/2/shadow.data/hosts/markovclient147/markovclient147.tor.1000.stdout:Jan 01 00:27:18.283 [warn] Sending XOFF: 249210 249000
/shadow/cap3outbuf/16722/49995/tornet/2/shadow.data/hosts/markovclient147/markovclient147.tor.1000.stdout:Jan 01 00:27:29.574 [warn] Sending XOFF: 249400 249000
/shadow/cap3outbuf/16722/49995/tornet/2/shadow.data/hosts/markovclient147/markovclient147.tor.1000.stdout:Jan 01 00:27:29.913 [warn] Sending XOFF: 249400 249000
/shadow/cap3outbuf/16722/49995/tornet/2/shadow.data/hosts/markovclient147/markovclient147.tor.1000.stdout:Jan 01 00:27:32.573 [warn] Sending XOFF: 249400 249000
/shadow/cap3outbuf/16722/49995/tornet/2/shadow.data/hosts/markovclient147/markovclient147.tor.1000.stdout:Jan 01 00:27:42.941 [warn] Sending XOFF: 249028 249000
/shadow/cap3outbuf/16722/49995/tornet/2/shadow.data/hosts/markovclient147/markovclient147.tor.1000.stdout:Jan 01 00:27:51.825 [warn] Sending XOFF: 249400 249000
/shadow/cap3outbuf/16722/49995/tornet/2/shadow.data/hosts/markovclient147/markovclient147.tor.1000.stdout:Jan 01 00:27:53.422 [warn] Sending XOFF: 249374 249000
/shadow/cap3outbuf/16722/49995/tornet/2/shadow.data/hosts/markovclient147/markovclient147.tor.1000.stdout:Jan 01 00:27:54.775 [warn] Sending XOFF: 249400 249000
/shadow/cap3outbuf/16722/49995/tornet/2/shadow.data/hosts/markovclient147/markovclient147.tor.1000.stdout:Jan 01 00:28:05.276 [warn] Sending XOFF: 249216 249000
/shadow/cap3outbuf/16722/49995/tornet/2/shadow.data/hosts/markovclient147/markovclient147.tor.1000.stdout:Jan 01 00:28:11.709 [warn] Sending XOFF: 249380 249000
/shadow/cap3outbuf/16722/49995/tornet/2/shadow.data/hosts/markovclient147/markovclient147.tor.1000.stdout:Jan 01 00:28:11.915 [warn] Sending XOFF: 249380 249000
/shadow/cap3outbuf/16722/49995/tornet/2/shadow.data/hosts/markovclient147/markovclient147.tor.1000.stdout:Jan 01 00:28:17.739 [warn] Sending XOFF: 249400 249000
/shadow/cap3outbuf/16722/49995/tornet/2/shadow.data/hosts/markovclient147/markovclient147.tor.1000.stdout:Jan 01 00:28:20.928 [warn] Sending XOFF: 249400 249000
/shadow/cap3outbuf/16722/49995/tornet/2/shadow.data/hosts/markovclient147/markovclient147.tor.1000.stdout:Jan 01 00:28:30.519 [warn] Sending XOFF: 249400 249000
/shadow/cap3outbuf/16722/49995/tornet/2/shadow.data/hosts/markovclient147/markovclient147.tor.1000.stdout:Jan 01 00:28:32.305 [warn] Sending XOFF: 249074 249000
/shadow/cap3outbuf/16722/49995/tornet/2/shadow.data/hosts/markovclient147/markovclient147.tor.1000.stdout:Jan 01 00:28:38.580 [warn] Sending XOFF: 249400 249000
/shadow/cap3outbuf/16722/49995/tornet/2/shadow.data/hosts/markovclient147/markovclient147.tor.1000.stdout:Jan 01 00:28:38.605 [warn] Sending XOFF: 249140 249000
/shadow/cap3outbuf/16722/49995/tornet/2/shadow.data/hosts/markovclient147/markovclient147.tor.1000.stdout:Jan 01 00:28:38.898 [warn] Sending XOFF: 249400 249000
/shadow/cap3outbuf/16722/49995/tornet/2/shadow.data/hosts/markovclient147/markovclient147.tor.1000.stdout:Jan 01 00:28:47.029 [warn] Sending XOFF: 249014 249000
/shadow/cap3outbuf/16722/49995/tornet/2/shadow.data/hosts/markovclient147/markovclient147.tor.1000.stdout:Jan 01 00:28:49.517 [warn] Sending XOFF: 249400 249000
/shadow/cap3outbuf/16722/49995/tornet/2/shadow.data/hosts/markovclient147/markovclient147.tor.1000.stdout:Jan 01 00:28:52.741 [warn] Sending XOFF: 249404 249000
/shadow/cap3outbuf/16722/49995/tornet/2/shadow.data/hosts/markovclient147/markovclient147.tor.1000.stdout:Jan 01 00:28:58.584 [warn] Sending XOFF: 249410 249000
/shadow/cap3outbuf/16722/49995/tornet/2/shadow.data/hosts/markovclient147/markovclient147.tor.1000.stdout:Jan 01 00:29:07.134 [warn] Sending XOFF: 249400 249000
/shadow/cap3outbuf/16722/49995/tornet/2/shadow.data/hosts/markovclient147/markovclient147.tor.1000.stdout:Jan 01 00:29:12.852 [warn] Sending XOFF: 249410 249000
/shadow/cap3outbuf/16722/49995/tornet/2/shadow.data/hosts/markovclient147/markovclient147.tor.1000.stdout:Jan 01 00:29:16.646 [warn] Sending XOFF: 249380 249000
/shadow/cap3outbuf/16722/49995/tornet/2/shadow.data/hosts/markovclient147/markovclient147.tor.1000.stdout:Jan 01 00:29:18.170 [warn] Sending XOFF: 249230 249000
/shadow/cap3outbuf/16722/49995/tornet/2/shadow.data/hosts/markovclient147/markovclient147.tor.1000.stdout:Jan 01 00:29:25.700 [warn] Sending XOFF: 249400 249000
/shadow/cap3outbuf/16722/49995/tornet/2/shadow.data/hosts/markovclient147/markovclient147.tor.1000.stdout:Jan 01 00:29:28.121 [warn] Sending XOFF: 249236 249000
/shadow/cap3outbuf/16722/49995/tornet/2/shadow.data/hosts/markovclient147/markovclient147.tor.1000.stdout:Jan 01 00:29:32.657 [warn] Sending XOFF: 249400 249000
/shadow/cap3outbuf/16722/49995/tornet/2/shadow.data/hosts/markovclient147/markovclient147.tor.1000.stdout:Jan 01 00:29:36.608 [warn] Sending XOFF: 249138 249000
/shadow/cap3outbuf/16722/49995/tornet/2/shadow.data/hosts/markovclient147/markovclient147.tor.1000.stdout:Jan 01 00:29:38.244 [warn] Sending XOFF: 249400 249000
/shadow/cap3outbuf/16722/49995/tornet/2/shadow.data/hosts/markovclient147/markovclient147.tor.1000.stdout:Jan 01 00:29:39.417 [warn] Sending XOFF: 249092 249000
/shadow/cap3outbuf/16722/49995/tornet/2/shadow.data/hosts/markovclient147/markovclient147.tor.1000.stdout:Jan 01 00:29:42.638 [warn] Sending XOFF: 249400 249000
/shadow/cap3outbuf/16722/49995/tornet/2/shadow.data/hosts/markovclient147/markovclient147.tor.1000.stdout:Jan 01 00:29:43.675 [warn] Sending XOFF: 249308 249000
/shadow/cap3outbuf/16722/49995/tornet/2/shadow.data/hosts/markovclient147/markovclient147.tor.1000.stdout:Jan 01 00:29:45.398 [warn] Sending XOFF: 249348 249000
/shadow/cap3outbuf/16722/49995/tornet/2/shadow.data/hosts/markovclient147/markovclient147.tor.1000.stdout:Jan 01 00:29:48.997 [warn] Sending XOFF: 249400 249000
/shadow/cap3outbuf/16722/49995/tornet/2/shadow.data/hosts/markovclient147/markovclient147.tor.1000.stdout:Jan 01 00:29:51.632 [warn] Sending XOFF: 249380 249000
/shadow/cap3outbuf/16722/49995/tornet/2/shadow.data/hosts/markovclient147/markovclient147.tor.1000.stdout:Jan 01 00:29:51.806 [warn] Sending XOFF: 249400 249000
/shadow/cap3outbuf/16722/49995/tornet/2/shadow.data/hosts/markovclient147/markovclient147.tor.1000.stdout:Jan 01 00:29:52.654 [warn] Sending XOFF: 249380 249000
/shadow/cap3outbuf/16722/49995/tornet/2/shadow.data/hosts/markovclient147/markovclient147.tor.1000.stdout:Jan 01 00:29:54.284 [warn] Sending XOFF: 249400 249000
/shadow/cap3outbuf/16722/49995/tornet/2/shadow.data/hosts/markovclient147/markovclient147.tor.1000.stdout:Jan 01 00:30:00.844 [warn] Sending XOFF: 249007 249000
/shadow/cap3outbuf/16722/49995/tornet/2/shadow.data/hosts/markovclient147/markovclient147.tor.1000.stdout:Jan 01 00:30:04.268 [warn] Sending XOFF: 249272 249000
/shadow/cap3outbuf/16722/49995/tornet/2/shadow.data/hosts/markovclient147/markovclient147.tor.1000.stdout:Jan 01 00:30:06.094 [warn] Sending XOFF: 249400 249000
/shadow/cap3outbuf/16722/49995/tornet/2/shadow.data/hosts/markovclient147/markovclient147.tor.1000.stdout:Jan 01 00:30:06.440 [warn] Sending XOFF: 249400 249000
/shadow/cap3outbuf/16722/49995/tornet/2/shadow.data/hosts/markovclient147/markovclient147.tor.1000.stdout:Jan 01 00:30:06.704 [warn] Sending XOFF: 249380 249000
/shadow/cap3outbuf/16722/49995/tornet/2/shadow.data/hosts/markovclient147/markovclient147.tor.1000.stdout:Jan 01 00:30:08.280 [warn] Sending XOFF: 249400 249000
/shadow/cap3outbuf/16722/49995/tornet/2/shadow.data/hosts/markovclient147/markovclient147.tor.1000.stdout:Jan 01 00:30:09.380 [warn] Sending XOFF: 249446 249000
/shadow/cap3outbuf/16722/49995/tornet/2/shadow.data/hosts/markovclient147/markovclient147.tor.1000.stdout:Jan 01 00:30:09.416 [warn] Sending XOFF: 249146 249000
/shadow/cap3outbuf/16722/49995/tornet/2/shadow.data/hosts/markovclient147/markovclient147.tor.1000.stdout:Jan 01 00:30:10.386 [warn] Sending XOFF: 249400 249000
/shadow/cap3outbuf/16722/49995/tornet/2/shadow.data/hosts/markovclient147/markovclient147.tor.1000.stdout:Jan 01 00:30:11.320 [warn] Sending XOFF: 249074 249000
/shadow/cap3outbuf/16722/49995/tornet/2/shadow.data/hosts/markovclient147/markovclient147.tor.1000.stdout:Jan 01 00:30:12.328 [warn] Sending XOFF: 249400 249000
/shadow/cap3outbuf/16722/49995/tornet/2/shadow.data/hosts/markovclient147/markovclient147.tor.1000.stdout:Jan 01 00:30:13.651 [warn] Sending XOFF: 249380 249000
/shadow/cap3outbuf/16722/49995/tornet/2/shadow.data/hosts/markovclient147/markovclient147.tor.1000.stdout:Jan 01 00:30:14.300 [warn] Sending XOFF: 249326 249000
/shadow/cap3outbuf/16722/49995/tornet/2/shadow.data/hosts/markovclient147/markovclient147.tor.1000.stdout:Jan 01 00:30:29.810 [warn] Sending XOFF: 249400 249000
/shadow/cap3outbuf/16722/49995/tornet/2/shadow.data/hosts/markovclient147/markovclient147.tor.1000.stdout:Jan 01 00:30:33.291 [warn] Sending XOFF: 249334 249000
/shadow/cap3outbuf/16722/49995/tornet/2/shadow.data/hosts/markovclient147/markovclient147.tor.1000.stdout:Jan 01 00:30:34.362 [warn] Sending XOFF: 249400 249000
/shadow/cap3outbuf/16722/49995/tornet/2/shadow.data/hosts/markovclient147/markovclient147.tor.1000.stdout:Jan 01 00:30:36.895 [warn] Sending XOFF: 249400 249000
/shadow/cap3outbuf/16722/49995/tornet/2/shadow.data/hosts/markovclient147/markovclient147.tor.1000.stdout:Jan 01 00:30:37.658 [warn] Sending XOFF: 249332 249000
/shadow/cap3outbuf/16722/49995/tornet/2/shadow.data/hosts/markovclient147/markovclient147.tor.1000.stdout:Jan 01 00:30:37.831 [warn] Sending XOFF: 249272 249000
/shadow/cap3outbuf/16722/49995/tornet/2/shadow.data/hosts/markovclient147/markovclient147.tor.1000.stdout:Jan 01 00:30:38.236 [warn] Sending XOFF: 249122 249000
/shadow/cap3outbuf/16722/49995/tornet/2/shadow.data/hosts/markovclient147/markovclient147.tor.1000.stdout:Jan 01 00:30:38.965 [warn] Sending XOFF: 249400 249000
/shadow/cap3outbuf/16722/49995/tornet/2/shadow.data/hosts/markovclient147/markovclient147.tor.1000.stdout:Jan 01 00:30:39.278 [warn] Sending XOFF: 249400 249000
/shadow/cap3outbuf/16722/49995/tornet/2/shadow.data/hosts/markovclient147/markovclient147.tor.1000.stdout:Jan 01 00:30:39.587 [warn] Sending XOFF: 249400 249000
/shadow/cap3outbuf/16722/49995/tornet/2/shadow.data/hosts/markovclient147/markovclient147.tor.1000.stdout:Jan 01 00:30:43.442 [warn] Sending XOFF: 249400 249000
/shadow/cap3outbuf/16722/49995/tornet/2/shadow.data/hosts/markovclient147/markovclient147.tor.1000.stdout:Jan 01 00:30:48.310 [warn] Sending XOFF: 249452 249000
/shadow/cap3outbuf/16722/49995/tornet/2/shadow.data/hosts/markovclient644/markovclient644.tor.1000.stdout:Jan 01 00:22:43.201 [warn] Sending XOFF: 249400 249000
/shadow/cap3outbuf/16722/49995/tornet/2/shadow.data/hosts/markovclient644/markovclient644.tor.1000.stdout:Jan 01 00:23:01.262 [warn] Sending XOFF: 249400 249000
/shadow/cap3outbuf/16722/49995/tornet/2/shadow.data/hosts/markovclient644/markovclient644.tor.1000.stdout:Jan 01 00:23:32.643 [warn] Sending XOFF: 249176 249000
/shadow/cap3outbuf/16722/49995/tornet/2/shadow.data/hosts/markovclient644/markovclient644.tor.1000.stdout:Jan 01 00:23:36.977 [warn] Sending XOFF: 249248 249000
/shadow/cap3outbuf/16722/49995/tornet/2/shadow.data/hosts/markovclient644/markovclient644.tor.1000.stdout:Jan 01 00:24:12.630 [warn] Sending XOFF: 249400 249000
/shadow/cap3outbuf/16722/49995/tornet/2/shadow.data/hosts/markovclient644/markovclient644.tor.1000.stdout:Jan 01 00:24:37.093 [warn] Sending XOFF: 249270 249000
/shadow/cap3outbuf/16722/49995/tornet/2/shadow.data/hosts/markovclient644/markovclient644.tor.1000.stdout:Jan 01 00:24:54.503 [warn] Sending XOFF: 249380 249000
/shadow/cap3outbuf/16722/49995/tornet/2/shadow.data/hosts/markovclient644/markovclient644.tor.1000.stdout:Jan 01 00:25:18.005 [warn] Sending XOFF: 249272 249000
/shadow/cap3outbuf/16722/49995/tornet/2/shadow.data/hosts/markovclient644/markovclient644.tor.1000.stdout:Jan 01 00:25:18.682 [warn] Sending XOFF: 249296 249000
/shadow/cap3outbuf/16722/49995/tornet/2/shadow.data/hosts/markovclient644/markovclient644.tor.1000.stdout:Jan 01 00:25:20.186 [warn] Sending XOFF: 249074 249000
/shadow/cap3outbuf/16722/49995/tornet/2/shadow.data/hosts/markovclient644/markovclient644.tor.1000.stdout:Jan 01 00:25:52.337 [warn] Sending XOFF: 249400 249000
/shadow/cap3outbuf/16722/49995/tornet/2/shadow.data/hosts/markovclient644/markovclient644.tor.1000.stdout:Jan 01 00:25:55.651 [warn] Sending XOFF: 249400 249000
/shadow/cap3outbuf/16722/49995/tornet/2/shadow.data/hosts/markovclient644/markovclient644.tor.1000.stdout:Jan 01 00:26:03.679 [warn] Sending XOFF: 249378 249000
/shadow/cap3outbuf/16722/49995/tornet/2/shadow.data/hosts/markovclient644/markovclient644.tor.1000.stdout:Jan 01 00:26:51.435 [warn] Sending XOFF: 249400 249000
/shadow/cap3outbuf/16722/49995/tornet/2/shadow.data/hosts/markovclient644/markovclient644.tor.1000.stdout:Jan 01 00:27:04.519 [warn] Sending XOFF: 249386 249000
/shadow/cap3outbuf/16722/49995/tornet/2/shadow.data/hosts/markovclient644/markovclient644.tor.1000.stdout:Jan 01 00:27:08.931 [warn] Sending XOFF: 249400 249000
/shadow/cap3outbuf/16722/49995/tornet/2/shadow.data/hosts/markovclient644/markovclient644.tor.1000.stdout:Jan 01 00:27:13.301 [warn] Sending XOFF: 249032 249000
/shadow/cap3outbuf/16722/49995/tornet/2/shadow.data/hosts/markovclient644/markovclient644.tor.1000.stdout:Jan 01 00:27:13.630 [warn] Sending XOFF: 249400 249000
/shadow/cap3outbuf/16722/49995/tornet/2/shadow.data/hosts/markovclient644/markovclient644.tor.1000.stdout:Jan 01 00:27:16.557 [warn] Sending XOFF: 249242 249000
/shadow/cap3outbuf/16722/49995/tornet/2/shadow.data/hosts/markovclient644/markovclient644.tor.1000.stdout:Jan 01 00:27:21.410 [warn] Sending XOFF: 249088 249000
/shadow/cap3outbuf/16722/49995/tornet/2/shadow.data/hosts/markovclient644/markovclient644.tor.1000.stdout:Jan 01 00:27:30.962 [warn] Sending XOFF: 249286 249000
/shadow/cap3outbuf/16722/49995/tornet/2/shadow.data/hosts/markovclient644/markovclient644.tor.1000.stdout:Jan 01 00:27:50.057 [warn] Sending XOFF: 249074 249000
/shadow/cap3outbuf/16722/49995/tornet/2/shadow.data/hosts/markovclient644/markovclient644.tor.1000.stdout:Jan 01 00:28:23.880 [warn] Sending XOFF: 249400 249000
/shadow/cap3outbuf/16722/49995/tornet/2/shadow.data/hosts/markovclient644/markovclient644.tor.1000.stdout:Jan 01 00:28:34.646 [warn] Sending XOFF: 249400 249000
/shadow/cap3outbuf/16722/49995/tornet/2/shadow.data/hosts/markovclient644/markovclient644.tor.1000.stdout:Jan 01 00:29:02.141 [warn] Sending XOFF: 249290 249000
/shadow/cap3outbuf/16722/49995/tornet/2/shadow.data/hosts/markovclient644/markovclient644.tor.1000.stdout:Jan 01 00:29:02.297 [warn] Sending XOFF: 249400 249000
/shadow/cap3outbuf/16722/49995/tornet/2/shadow.data/hosts/markovclient644/markovclient644.tor.1000.stdout:Jan 01 00:29:09.916 [warn] Sending XOFF: 249074 249000
/shadow/cap3outbuf/16722/49995/tornet/2/shadow.data/hosts/markovclient644/markovclient644.tor.1000.stdout:Jan 01 00:29:11.509 [warn] Sending XOFF: 249146 249000
/shadow/cap3outbuf/16722/49995/tornet/2/shadow.data/hosts/markovclient644/markovclient644.tor.1000.stdout:Jan 01 00:29:12.849 [warn] Sending XOFF: 249211 249000
/shadow/cap3outbuf/16722/49995/tornet/2/shadow.data/hosts/markovclient644/markovclient644.tor.1000.stdout:Jan 01 00:29:22.039 [warn] Sending XOFF: 249400 249000
/shadow/cap3outbuf/16722/49995/tornet/2/shadow.data/hosts/markovclient644/markovclient644.tor.1000.stdout:Jan 01 00:29:35.417 [warn] Sending XOFF: 249400 249000
/shadow/cap3outbuf/16722/49995/tornet/2/shadow.data/hosts/markovclient644/markovclient644.tor.1000.stdout:Jan 01 00:29:37.356 [warn] Sending XOFF: 249400 249000
/shadow/cap3outbuf/16722/49995/tornet/2/shadow.data/hosts/markovclient644/markovclient644.tor.1000.stdout:Jan 01 00:29:51.667 [warn] Sending XOFF: 249400 249000
/shadow/cap3outbuf/16722/49995/tornet/2/shadow.data/hosts/markovclient644/markovclient644.tor.1000.stdout:Jan 01 00:30:05.251 [warn] Sending XOFF: 249128 249000
/shadow/cap3outbuf/16722/49995/tornet/2/shadow.data/hosts/markovclient644/markovclient644.tor.1000.stdout:Jan 01 00:30:31.537 [warn] Sending XOFF: 249400 249000
/shadow/cap3outbuf/16722/49995/tornet/2/shadow.data/hosts/markovclient644/markovclient644.tor.1000.stdout:Jan 01 00:30:39.058 [warn] Sending XOFF: 249380 249000
/shadow/cap3outbuf/16722/49995/tornet/2/shadow.data/hosts/markovclient644/markovclient644.tor.1000.stdout:Jan 01 00:30:42.072 [warn] Sending XOFF: 249400 249000
/shadow/cap3outbuf/16722/49995/tornet/2/shadow.data/hosts/markovclient658/markovclient658.tor.1000.stdout:Jan 01 00:19:06.319 [warn] Sending XOFF: 249074 249000
/shadow/cap3outbuf/16722/49995/tornet/2/shadow.data/hosts/markovclient658/markovclient658.tor.1000.stdout:Jan 01 00:19:52.686 [warn] Sending XOFF: 249452 249000
/shadow/cap3outbuf/16722/49995/tornet/2/shadow.data/hosts/markovclient658/markovclient658.tor.1000.stdout:Jan 01 00:20:44.434 [warn] Sending XOFF: 249264 249000
/shadow/cap3outbuf/16722/49995/tornet/2/shadow.data/hosts/markovclient658/markovclient658.tor.1000.stdout:Jan 01 00:20:54.240 [warn] Sending XOFF: 249266 249000
/shadow/cap3outbuf/16722/49995/tornet/2/shadow.data/hosts/markovclient658/markovclient658.tor.1000.stdout:Jan 01 00:21:12.649 [warn] Sending XOFF: 249400 249000
/shadow/cap3outbuf/16722/49995/tornet/2/shadow.data/hosts/markovclient658/markovclient658.tor.1000.stdout:Jan 01 00:23:07.828 [warn] Sending XOFF: 249400 249000
/shadow/cap3outbuf/16722/49995/tornet/2/shadow.data/hosts/markovclient658/markovclient658.tor.1000.stdout:Jan 01 00:23:12.478 [warn] Sending XOFF: 249400 249000
/shadow/cap3outbuf/16722/49995/tornet/2/shadow.data/hosts/markovclient658/markovclient658.tor.1000.stdout:Jan 01 00:24:22.482 [warn] Sending XOFF: 249224 249000
/shadow/cap3outbuf/16722/49995/tornet/2/shadow.data/hosts/markovclient658/markovclient658.tor.1000.stdout:Jan 01 00:30:55.035 [warn] Sending XOFF: 249400 249000
/shadow/cap3outbuf/16722/49995/tornet/2/shadow.data/hosts/markovclient737/markovclient737.tor.1000.stdout:Jan 01 00:22:04.715 [warn] Sending XOFF: 249400 249000
/shadow/cap3outbuf/16722/49995/tornet/2/shadow.data/hosts/markovclient737/markovclient737.tor.1000.stdout:Jan 01 00:22:53.466 [warn] Sending XOFF: 249400 249000
/shadow/cap3outbuf/16722/49995/tornet/2/shadow.data/hosts/markovclient737/markovclient737.tor.1000.stdout:Jan 01 00:23:33.479 [warn] Sending XOFF: 249380 249000
/shadow/cap3outbuf/16722/49995/tornet/2/shadow.data/hosts/markovclient737/markovclient737.tor.1000.stdout:Jan 01 00:24:23.309 [warn] Sending XOFF: 249469 249000
/shadow/cap3outbuf/16722/49995/tornet/2/shadow.data/hosts/markovclient737/markovclient737.tor.1000.stdout:Jan 01 00:24:34.634 [warn] Sending XOFF: 249253 249000
/shadow/cap3outbuf/16722/49995/tornet/2/shadow.data/hosts/markovclient737/markovclient737.tor.1000.stdout:Jan 01 00:24:38.772 [warn] Sending XOFF: 249458 249000
/shadow/cap3outbuf/16722/49995/tornet/2/shadow.data/hosts/markovclient737/markovclient737.tor.1000.stdout:Jan 01 00:24:47.465 [warn] Sending XOFF: 249193 249000
/shadow/cap3outbuf/16722/49995/tornet/2/shadow.data/hosts/markovclient737/markovclient737.tor.1000.stdout:Jan 01 00:25:10.477 [warn] Sending XOFF: 249400 249000
/shadow/cap3outbuf/16722/49995/tornet/2/shadow.data/hosts/markovclient737/markovclient737.tor.1000.stdout:Jan 01 00:25:13.313 [warn] Sending XOFF: 249400 249000
/shadow/cap3outbuf/16722/49995/tornet/2/shadow.data/hosts/markovclient737/markovclient737.tor.1000.stdout:Jan 01 00:25:14.517 [warn] Sending XOFF: 249400 249000
/shadow/cap3outbuf/16722/49995/tornet/2/shadow.data/hosts/markovclient737/markovclient737.tor.1000.stdout:Jan 01 00:25:37.159 [warn] Sending XOFF: 249164 249000
/shadow/cap3outbuf/16722/49995/tornet/2/shadow.data/hosts/markovclient737/markovclient737.tor.1000.stdout:Jan 01 00:25:43.854 [warn] Sending XOFF: 249400 249000
/shadow/cap3outbuf/16722/49995/tornet/2/shadow.data/hosts/markovclient737/markovclient737.tor.1000.stdout:Jan 01 00:25:46.292 [warn] Sending XOFF: 249400 249000
/shadow/cap3outbuf/16722/49995/tornet/2/shadow.data/hosts/markovclient737/markovclient737.tor.1000.stdout:Jan 01 00:26:01.087 [warn] Sending XOFF: 249400 249000
/shadow/cap3outbuf/16722/49995/tornet/2/shadow.data/hosts/markovclient737/markovclient737.tor.1000.stdout:Jan 01 00:26:04.761 [warn] Sending XOFF: 249400 249000
/shadow/cap3outbuf/16722/49995/tornet/2/shadow.data/hosts/markovclient737/markovclient737.tor.1000.stdout:Jan 01 00:26:30.654 [warn] Sending XOFF: 249080 249000
/shadow/cap3outbuf/16722/49995/tornet/2/shadow.data/hosts/markovclient737/markovclient737.tor.1000.stdout:Jan 01 00:27:01.252 [warn] Sending XOFF: 249400 249000
/shadow/cap3outbuf/16722/49995/tornet/2/shadow.data/hosts/markovclient737/markovclient737.tor.1000.stdout:Jan 01 00:27:23.499 [warn] Sending XOFF: 249086 249000
/shadow/cap3outbuf/16722/49995/tornet/2/shadow.data/hosts/markovclient737/markovclient737.tor.1000.stdout:Jan 01 00:27:34.291 [warn] Sending XOFF: 249074 249000
/shadow/cap3outbuf/16722/49995/tornet/2/shadow.data/hosts/markovclient737/markovclient737.tor.1000.stdout:Jan 01 00:27:58.828 [warn] Sending XOFF: 249356 249000
/shadow/cap3outbuf/16722/49995/tornet/2/shadow.data/hosts/markovclient737/markovclient737.tor.1000.stdout:Jan 01 00:28:16.791 [warn] Sending XOFF: 249400 249000
/shadow/cap3outbuf/16722/49995/tornet/2/shadow.data/hosts/markovclient737/markovclient737.tor.1000.stdout:Jan 01 00:28:32.975 [warn] Sending XOFF: 249308 249000
/shadow/cap3outbuf/16722/49995/tornet/2/shadow.data/hosts/markovclient737/markovclient737.tor.1000.stdout:Jan 01 00:28:35.928 [warn] Sending XOFF: 249074 249000
/shadow/cap3outbuf/16722/49995/tornet/2/shadow.data/hosts/markovclient737/markovclient737.tor.1000.stdout:Jan 01 00:28:37.743 [warn] Sending XOFF: 249116 249000
/shadow/cap3outbuf/16722/49995/tornet/2/shadow.data/hosts/markovclient737/markovclient737.tor.1000.stdout:Jan 01 00:28:52.640 [warn] Sending XOFF: 249400 249000
/shadow/cap3outbuf/16722/49995/tornet/2/shadow.data/hosts/markovclient737/markovclient737.tor.1000.stdout:Jan 01 00:28:53.328 [warn] Sending XOFF: 249020 249000
/shadow/cap3outbuf/16722/49995/tornet/2/shadow.data/hosts/markovclient737/markovclient737.tor.1000.stdout:Jan 01 00:29:01.068 [warn] Sending XOFF: 249128 249000
/shadow/cap3outbuf/16722/49995/tornet/2/shadow.data/hosts/markovclient737/markovclient737.tor.1000.stdout:Jan 01 00:29:03.348 [warn] Sending XOFF: 249188 249000
/shadow/cap3outbuf/16722/49995/tornet/2/shadow.data/hosts/markovclient737/markovclient737.tor.1000.stdout:Jan 01 00:29:16.765 [warn] Sending XOFF: 249400 249000
/shadow/cap3outbuf/16722/49995/tornet/2/shadow.data/hosts/markovclient737/markovclient737.tor.1000.stdout:Jan 01 00:29:18.168 [warn] Sending XOFF: 249400 249000
/shadow/cap3outbuf/16722/49995/tornet/2/shadow.data/hosts/markovclient737/markovclient737.tor.1000.stdout:Jan 01 00:29:23.528 [warn] Sending XOFF: 249400 249000
/shadow/cap3outbuf/16722/49995/tornet/2/shadow.data/hosts/markovclient737/markovclient737.tor.1000.stdout:Jan 01 00:29:41.107 [warn] Sending XOFF: 249400 249000
/shadow/cap3outbuf/16722/49995/tornet/2/shadow.data/hosts/markovclient737/markovclient737.tor.1000.stdout:Jan 01 00:29:48.718 [warn] Sending XOFF: 249488 249000
Jan 01 00:24:11.042 [warn] Got XOFF!
Jan 01 00:24:20.012 [warn] Got XOFF!
Jan 01 00:24:51.425 [warn] Got XOFF!
Jan 01 00:25:18.930 [warn] Got XOFF!
Jan 01 00:27:48.154 [warn] Got XOFF!
Jan 01 00:28:35.356 [warn] Got XOFF!
Jan 01 00:28:35.467 [warn] Got XOFF!
Jan 01 00:30:00.346 [warn] Got XOFF!
Jan 01 00:30:58.838 [warn] Got XOFF!
Jan 01 00:26:09.721 [warn] Got XOFF!
Jan 01 00:26:28.349 [warn] Got XOFF!
Jan 01 00:27:16.740 [warn] Got XOFF!
Jan 01 00:27:51.278 [warn] Got XOFF!
Jan 01 00:29:31.210 [warn] Got XOFF!
Jan 01 00:30:26.126 [warn] Got XOFF!
Jan 01 00:18:40.303 [warn] Got XOFF!
Jan 01 00:26:23.386 [warn] Got XOFF!
Jan 01 00:26:57.445 [warn] Got XOFF!
Jan 01 00:28:03.032 [warn] Got XOFF!
Jan 01 00:28:41.669 [warn] Got XOFF!
Jan 01 00:29:04.958 [warn] Got XOFF!
Jan 01 00:30:43.749 [warn] Got XOFF!
Jan 01 00:25:23.616 [warn] Got XOFF!
Jan 01 00:25:28.142 [warn] Got XOFF!
Jan 01 00:27:18.963 [warn] Got XOFF!
Jan 01 00:30:03.706 [warn] Got XOFF!
Jan 01 00:30:32.633 [warn] Got XOFF!
Jan 01 00:28:51.804 [warn] Got XOFF!
Jan 01 00:29:15.796 [warn] Got XOFF!
Jan 01 00:20:26.242 [warn] Got XOFF!
Jan 01 00:20:59.304 [warn] Got XOFF!
Jan 01 00:21:39.972 [notice] Request to start reading on an edgeconn blocked with XOFF
Jan 01 00:21:39.981 [notice] Request to start reading on an edgeconn blocked with XOFF
Jan 01 00:21:40.020 [notice] Request to start reading on an edgeconn blocked with XOFF
Jan 01 00:21:40.030 [notice] Request to start reading on an edgeconn blocked with XOFF
Jan 01 00:22:59.278 [warn] Got XOFF!
Jan 01 00:29:39.270 [warn] Got XOFF!
Jan 01 00:27:52.076 [warn] Got XOFF!
Jan 01 00:28:54.027 [warn] Got XOFF!
Jan 01 00:29:29.227 [warn] Got XOFF!
Jan 01 00:29:44.254 [warn] Got XOFF!
Jan 01 00:29:45.701 [notice] Request to start reading on an edgeconn blocked with XOFF
Jan 01 00:29:54.883 [notice] Request to start reading on an edgeconn blocked with XOFF
Jan 01 00:30:14.317 [warn] Got XOFF!
Jan 01 00:30:23.916 [notice] Request to start reading on an edgeconn blocked with XOFF
Jan 01 00:30:29.959 [warn] Got XOFF!
Jan 01 00:25:56.433 [warn] Got XOFF!
Jan 01 00:25:56.960 [notice] Request to start reading on an edgeconn blocked with XOFF
Jan 01 00:26:10.036 [notice] Request to start reading on an edgeconn blocked with XOFF
Jan 01 00:26:24.582 [notice] Request to start reading on an edgeconn blocked with XOFF
Jan 01 00:26:29.657 [notice] Request to start reading on an edgeconn blocked with XOFF
Jan 01 00:26:35.708 [notice] Request to start reading on an edgeconn blocked with XOFF
Jan 01 00:26:40.761 [notice] Request to start reading on an edgeconn blocked with XOFF
Jan 01 00:26:41.552 [notice] Request to start reading on an edgeconn blocked with XOFF
Jan 01 00:26:42.412 [notice] Request to start reading on an edgeconn blocked with XOFF
Jan 01 00:26:46.873 [notice] Request to start reading on an edgeconn blocked with XOFF
Jan 01 00:26:50.033 [notice] Request to start reading on an edgeconn blocked with XOFF
Jan 01 00:28:22.401 [warn] Got XOFF!
Jan 01 00:28:42.447 [warn] Got XOFF!
Jan 01 00:20:51.659 [warn] Got XOFF!
Jan 01 00:24:16.353 [notice] Request to start reading on an edgeconn blocked with XOFF
Jan 01 00:24:23.123 [warn] Got XOFF!
Jan 01 00:24:24.715 [notice] Request to start reading on an edgeconn blocked with XOFF
Jan 01 00:25:04.294 [warn] Got XOFF!
Jan 01 00:25:16.426 [notice] Request to start reading on an edgeconn blocked with XOFF
Jan 01 00:25:16.575 [notice] Request to start reading on an edgeconn blocked with XOFF
Jan 01 00:25:16.690 [notice] Request to start reading on an edgeconn blocked with XOFF
Jan 01 00:25:16.825 [notice] Request to start reading on an edgeconn blocked with XOFF
Jan 01 00:25:16.951 [notice] Request to start reading on an edgeconn blocked with XOFF
Jan 01 00:25:17.076 [notice] Request to start reading on an edgeconn blocked with XOFF
Jan 01 00:25:17.095 [notice] Request to start reading on an edgeconn blocked with XOFF
Jan 01 00:25:29.655 [warn] Got XOFF!
Jan 01 00:25:35.120 [notice] Request to start reading on an edgeconn blocked with XOFF
Jan 01 00:25:35.886 [notice] Request to start reading on an edgeconn blocked with XOFF
Jan 01 00:25:54.686 [warn] Got XOFF!
Jan 01 00:26:02.862 [notice] Request to start reading on an edgeconn blocked with XOFF
Jan 01 00:26:11.956 [warn] Got XOFF!
Jan 01 00:26:19.545 [warn] Got XOFF!
Jan 01 00:28:31.052 [notice] Request to start reading on an edgeconn blocked with XOFF
Jan 01 00:28:31.061 [notice] Request to start reading on an edgeconn blocked with XOFF
Jan 01 00:28:57.107 [notice] Request to start reading on an edgeconn blocked with XOFF
Jan 01 00:29:53.933 [warn] Got XOFF!
Jan 01 00:22:04.048 [warn] Got XOFF!
Jan 01 00:22:59.254 [notice] Request to start reading on an edgeconn blocked with XOFF
Jan 01 00:22:59.323 [notice] Request to start reading on an edgeconn blocked with XOFF
Jan 01 00:22:59.333 [notice] Request to start reading on an edgeconn blocked with XOFF
Jan 01 00:23:46.627 [warn] Got XOFF!
Jan 01 00:24:27.261 [notice] Request to start reading on an edgeconn blocked with XOFF
Jan 01 00:25:20.277 [warn] Got XOFF!
Jan 01 00:29:17.508 [warn] Got XOFF!
Jan 01 00:29:37.226 [warn] Got XOFF!
Jan 01 00:22:34.945 [warn] Got XOFF!
Jan 01 00:28:29.364 [warn] Got XOFF!
Jan 01 00:18:58.739 [warn] Got XOFF!
Jan 01 00:25:22.977 [warn] Got XOFF!
Jan 01 00:26:13.073 [warn] Got XOFF!
Jan 01 00:27:08.883 [warn] Got XOFF!
Jan 01 00:27:34.608 [notice] Request to start reading on an edgeconn blocked with XOFF
Jan 01 00:27:34.608 [notice] Request to start reading on an edgeconn blocked with XOFF
Jan 01 00:27:36.096 [notice] Request to start reading on an edgeconn blocked with XOFF
Jan 01 00:27:36.096 [notice] Request to start reading on an edgeconn blocked with XOFF
Jan 01 00:27:37.209 [notice] Request to start reading on an edgeconn blocked with XOFF
Jan 01 00:27:37.209 [notice] Request to start reading on an edgeconn blocked with XOFF
Jan 01 00:27:37.219 [notice] Request to start reading on an edgeconn blocked with XOFF
Jan 01 00:27:37.219 [notice] Request to start reading on an edgeconn blocked with XOFF
Jan 01 00:28:19.718 [warn] Got XOFF!
Jan 01 00:28:51.326 [notice] Request to start reading on an edgeconn blocked with XOFF
Jan 01 00:28:51.326 [notice] Request to start reading on an edgeconn blocked with XOFF
Jan 01 00:28:51.336 [notice] Request to start reading on an edgeconn blocked with XOFF
Jan 01 00:28:51.336 [notice] Request to start reading on an edgeconn blocked with XOFF
Jan 01 00:29:15.127 [warn] Got XOFF!
Jan 01 00:29:48.763 [warn] Got XOFF!
Jan 01 00:30:20.196 [warn] Got XOFF!
Jan 01 00:30:30.585 [warn] Got XOFF!
Jan 01 00:29:42.139 [warn] Got XOFF!
Jan 01 00:29:56.237 [notice] Request to start reading on an edgeconn blocked with XOFF
Jan 01 00:24:43.201 [warn] Got XOFF!
Jan 01 00:26:44.790 [warn] Got XOFF!
Jan 01 00:29:25.073 [warn] Got XOFF!
Jan 01 00:30:00.193 [warn] Got XOFF!
Jan 01 00:30:15.999 [notice] Request to start reading on an edgeconn blocked with XOFF
Jan 01 00:30:16.260 [notice] Request to start reading on an edgeconn blocked with XOFF
Jan 01 00:30:16.270 [notice] Request to start reading on an edgeconn blocked with XOFF
Jan 01 00:30:16.531 [notice] Request to start reading on an edgeconn blocked with XOFF
Jan 01 00:30:16.541 [notice] Request to start reading on an edgeconn blocked with XOFF
Jan 01 00:24:46.133 [warn] Got XOFF!
Jan 01 00:24:58.221 [warn] Got XOFF!
Jan 01 00:23:17.038 [warn] Got XOFF!
Jan 01 00:23:20.004 [warn] Got XOFF!
Jan 01 00:23:47.723 [warn] Got XOFF!
Jan 01 00:24:25.881 [notice] Request to start reading on an edgeconn blocked with XOFF
Jan 01 00:24:36.976 [notice] Request to start reading on an edgeconn blocked with XOFF
Jan 01 00:24:37.292 [notice] Request to start reading on an edgeconn blocked with XOFF
Jan 01 00:25:30.143 [warn] Got XOFF!
Jan 01 00:26:29.437 [warn] Got XOFF!
Jan 01 00:27:11.845 [notice] Request to start reading on an edgeconn blocked with XOFF
Jan 01 00:27:12.049 [notice] Request to start reading on an edgeconn blocked with XOFF
Jan 01 00:27:39.355 [warn] Got XOFF!
Jan 01 00:30:00.508 [warn] Got XOFF!
Jan 01 00:30:11.656 [warn] Got XOFF!
Jan 01 00:30:20.048 [notice] Request to start reading on an edgeconn blocked with XOFF
Jan 01 00:30:20.058 [notice] Request to start reading on an edgeconn blocked with XOFF
Jan 01 00:30:20.068 [notice] Request to start reading on an edgeconn blocked with XOFF
Jan 01 00:30:20.078 [notice] Request to start reading on an edgeconn blocked with XOFF
Jan 01 00:30:20.088 [notice] Request to start reading on an edgeconn blocked with XOFF
Jan 01 00:30:20.098 [notice] Request to start reading on an edgeconn blocked with XOFF
Jan 01 00:30:20.108 [notice] Request to start reading on an edgeconn blocked with XOFF
Jan 01 00:25:12.426 [warn] Got XOFF!
Jan 01 00:26:02.191 [warn] Got XOFF!
Jan 01 00:27:09.642 [warn] Got XOFF!
Jan 01 00:27:37.541 [notice] Request to start reading on an edgeconn blocked with XOFF
Jan 01 00:27:37.541 [notice] Request to start reading on an edgeconn blocked with XOFF
Jan 01 00:27:37.541 [notice] Request to start reading on an edgeconn blocked with XOFF
Jan 01 00:29:22.465 [warn] Got XOFF!
Jan 01 00:21:12.809 [warn] Got XOFF!
Jan 01 00:26:37.989 [warn] Got XOFF!
Jan 01 00:30:16.384 [warn] Got XOFF!
Jan 01 00:29:18.036 [warn] Got XOFF!
Jan 01 00:29:25.895 [warn] Got XOFF!
Jan 01 00:30:05.550 [notice] Request to start reading on an edgeconn blocked with XOFF
Jan 01 00:30:09.150 [notice] Request to start reading on an edgeconn blocked with XOFF
Jan 01 00:30:10.109 [notice] Request to start reading on an edgeconn blocked with XOFF
Jan 01 00:30:10.118 [notice] Request to start reading on an edgeconn blocked with XOFF
Jan 01 00:30:10.128 [notice] Request to start reading on an edgeconn blocked with XOFF
Jan 01 00:30:10.138 [notice] Request to start reading on an edgeconn blocked with XOFF
Jan 01 00:30:10.315 [notice] Request to start reading on an edgeconn blocked with XOFF
Jan 01 00:30:10.324 [notice] Request to start reading on an edgeconn blocked with XOFF
Jan 01 00:30:10.334 [notice] Request to start reading on an edgeconn blocked with XOFF
Jan 01 00:19:40.864 [warn] Got XOFF!
Jan 01 00:20:00.059 [notice] Request to start reading on an edgeconn blocked with XOFF
Jan 01 00:20:00.087 [notice] Request to start reading on an edgeconn blocked with XOFF
Jan 01 00:20:00.097 [notice] Request to start reading on an edgeconn blocked with XOFF
Jan 01 00:20:02.783 [notice] Request to start reading on an edgeconn blocked with XOFF
Jan 01 00:20:02.793 [notice] Request to start reading on an edgeconn blocked with XOFF
Jan 01 00:20:36.437 [warn] Got XOFF!
Jan 01 00:20:57.261 [warn] Got XOFF!
Jan 01 00:21:27.538 [warn] Got XOFF!
Jan 01 00:23:40.689 [warn] Got XOFF!
Jan 01 00:24:04.936 [warn] Got XOFF!
Jan 01 00:24:25.812 [warn] Got XOFF!
Jan 01 00:26:40.672 [warn] Got XOFF!
Jan 01 00:27:06.842 [warn] Got XOFF!
Jan 01 00:27:35.720 [warn] Got XOFF!
Jan 01 00:27:37.751 [warn] Got XOFF!
Jan 01 00:28:52.934 [warn] Got XOFF!
Jan 01 00:29:46.210 [warn] Got XOFF!
Jan 01 00:29:50.762 [warn] Got XOFF!
Jan 01 00:29:59.568 [warn] Got XOFF!
Jan 01 00:30:26.047 [warn] Got XOFF!
Jan 01 00:30:54.622 [warn] Got XOFF!
Jan 01 00:19:58.998 [warn] Got XOFF!
Jan 01 00:24:28.655 [warn] Got XOFF!
Jan 01 00:26:09.959 [warn] Got XOFF!
Jan 01 00:26:13.976 [warn] Got XOFF!
Jan 01 00:27:48.992 [notice] Request to start reading on an edgeconn blocked with XOFF
Jan 01 00:27:49.143 [notice] Request to start reading on an edgeconn blocked with XOFF
Jan 01 00:27:49.152 [notice] Request to start reading on an edgeconn blocked with XOFF
Jan 01 00:27:49.161 [notice] Request to start reading on an edgeconn blocked with XOFF
Jan 01 00:21:04.450 [warn] Got XOFF!
Jan 01 00:21:56.375 [warn] Got XOFF!
Jan 01 00:16:43.257 [warn] Got XOFF!
Jan 01 00:20:27.061 [warn] Got XOFF!
Jan 01 00:21:43.822 [warn] Got XOFF!
Jan 01 00:23:12.256 [warn] Got XOFF!
Jan 01 00:23:39.957 [warn] Got XOFF!
Jan 01 00:24:09.564 [warn] Got XOFF!
Jan 01 00:25:06.767 [warn] Got XOFF!
Jan 01 00:28:35.962 [warn] Got XOFF!
Jan 01 00:28:58.816 [warn] Got XOFF!
Jan 01 00:30:29.046 [warn] Got XOFF!
Jan 01 00:30:45.529 [warn] Got XOFF!
Jan 01 00:30:10.386 [warn] Got XOFF!
Jan 01 00:20:58.155 [warn] Got XOFF!
Jan 01 00:25:01.833 [warn] Got XOFF!
Jan 01 00:26:23.740 [warn] Got XOFF!
Jan 01 00:28:25.278 [warn] Got XOFF!
Jan 01 00:28:35.401 [warn] Got XOFF!
Jan 01 00:28:35.814 [notice] Request to start reading on an edgeconn blocked with XOFF
Jan 01 00:28:42.628 [notice] Request to start reading on an edgeconn blocked with XOFF
Jan 01 00:29:06.687 [notice] Request to start reading on an edgeconn blocked with XOFF
Jan 01 00:29:10.189 [notice] Request to start reading on an edgeconn blocked with XOFF
Jan 01 00:29:10.553 [notice] Request to start reading on an edgeconn blocked with XOFF
Jan 01 00:29:32.745 [notice] Request to start reading on an edgeconn blocked with XOFF
Jan 01 00:29:32.794 [notice] Request to start reading on an edgeconn blocked with XOFF
Jan 01 00:30:08.227 [warn] Got XOFF!
Jan 01 00:30:27.801 [warn] Got XOFF!
Jan 01 00:20:43.611 [warn] Got XOFF!
Jan 01 00:23:21.591 [warn] Got XOFF!
Jan 01 00:24:14.313 [warn] Got XOFF!
Jan 01 00:26:03.973 [warn] Got XOFF!
Jan 01 00:26:27.410 [warn] Got XOFF!
Jan 01 00:27:00.106 [warn] Got XOFF!
Jan 01 00:27:17.701 [warn] Got XOFF!
Jan 01 00:29:34.819 [warn] Got XOFF!
Jan 01 00:29:51.294 [warn] Got XOFF!
Jan 01 00:18:42.833 [warn] Got XOFF!
Jan 01 00:24:54.739 [warn] Got XOFF!
Jan 01 00:24:55.442 [warn] Got XOFF!
Jan 01 00:28:52.190 [warn] Got XOFF!
Jan 01 00:29:50.500 [warn] Got XOFF!
Jan 01 00:30:32.215 [warn] Got XOFF!
Jan 01 00:30:42.016 [warn] Got XOFF!
Jan 01 00:30:45.611 [warn] Got XOFF!
Jan 01 00:22:07.257 [warn] Got XOFF!
Jan 01 00:24:08.423 [warn] Got XOFF!
Jan 01 00:25:11.096 [warn] Got XOFF!
Jan 01 00:25:24.865 [warn] Got XOFF!
Jan 01 00:26:25.263 [warn] Got XOFF!
Jan 01 00:20:15.763 [warn] Got XOFF!
Jan 01 00:22:37.384 [warn] Got XOFF!
Jan 01 00:23:40.271 [warn] Got XOFF!
Jan 01 00:28:56.122 [warn] Got XOFF!
Jan 01 00:29:16.677 [warn] Got XOFF!
Jan 01 00:30:16.193 [warn] Got XOFF!
Jan 01 00:23:15.211 [warn] Got XOFF!
Jan 01 00:29:51.422 [warn] Got XOFF!
Jan 01 00:25:20.991 [warn] Got XOFF!
Jan 01 00:28:36.158 [warn] Got XOFF!
Jan 01 00:30:07.468 [warn] Got XOFF!
Jan 01 00:20:54.313 [warn] Got XOFF!
Jan 01 00:28:54.283 [warn] Got XOFF!
Jan 01 00:26:31.425 [warn] Got XOFF!
Jan 01 00:26:32.789 [warn] Got XOFF!
Jan 01 00:28:45.474 [warn] Got XOFF!
Jan 01 00:29:06.983 [notice] Request to start reading on an edgeconn blocked with XOFF
Jan 01 00:29:14.590 [notice] Request to start reading on an edgeconn blocked with XOFF
Jan 01 00:29:14.822 [notice] Request to start reading on an edgeconn blocked with XOFF
Jan 01 00:29:14.831 [notice] Request to start reading on an edgeconn blocked with XOFF
Jan 01 00:29:46.040 [warn] Got XOFF!
Jan 01 00:22:26.943 [warn] Got XOFF!
Jan 01 00:26:52.288 [warn] Got XOFF!
Jan 01 00:17:08.406 [warn] Got XOFF!
Jan 01 00:23:36.396 [warn] Got XOFF!
Jan 01 00:24:45.600 [warn] Got XOFF!
Jan 01 00:26:19.829 [warn] Got XOFF!
Jan 01 00:26:27.505 [warn] Got XOFF!
Jan 01 00:27:34.824 [warn] Got XOFF!
Jan 01 00:20:56.337 [warn] Got XOFF!
Jan 01 00:22:14.766 [warn] Got XOFF!
Jan 01 00:23:18.982 [warn] Got XOFF!
Jan 01 00:23:23.218 [warn] Got XOFF!
Jan 01 00:23:53.847 [warn] Got XOFF!
Jan 01 00:24:21.381 [warn] Got XOFF!
Jan 01 00:24:25.933 [warn] Got XOFF!
Jan 01 00:24:49.094 [warn] Got XOFF!
Jan 01 00:24:52.202 [warn] Got XOFF!
Jan 01 00:25:06.274 [warn] Got XOFF!
Jan 01 00:25:31.390 [warn] Got XOFF!
Jan 01 00:26:30.354 [warn] Got XOFF!
Jan 01 00:30:11.974 [warn] Got XOFF!
Jan 01 00:30:14.662 [warn] Got XOFF!
Jan 01 00:19:14.132 [warn] Got XOFF!
Jan 01 00:22:30.494 [warn] Got XOFF!
Jan 01 00:24:18.397 [warn] Got XOFF!
Jan 01 00:25:59.111 [warn] Got XOFF!
Jan 01 00:25:47.567 [warn] Got XOFF!
Jan 01 00:28:18.107 [warn] Got XOFF!
Jan 01 00:30:23.542 [warn] Got XOFF!
Jan 01 00:30:34.107 [warn] Got XOFF!
Jan 01 00:27:11.595 [warn] Sending XOFF: 249258 249000
Jan 01 00:27:11.846 [warn] Sending XON: 0 162 0
Jan 01 00:28:16.771 [warn] Got XOFF!
Jan 01 00:26:31.220 [warn] Got XOFF!
Jan 01 00:27:45.875 [warn] Got XOFF!
Jan 01 00:29:53.921 [warn] Got XOFF!
Jan 01 00:20:42.140 [warn] Got XOFF!
Jan 01 00:27:57.480 [warn] Got XOFF!
Jan 01 00:24:40.233 [warn] Got XOFF!
Jan 01 00:27:10.028 [warn] Got XOFF!
Jan 01 00:27:40.122 [warn] Got XOFF!
Jan 01 00:27:43.365 [notice] Request to start reading on an edgeconn blocked with XOFF
Jan 01 00:27:43.422 [notice] Request to start reading on an edgeconn blocked with XOFF
Jan 01 00:27:43.432 [notice] Request to start reading on an edgeconn blocked with XOFF
Jan 01 00:27:43.482 [notice] Request to start reading on an edgeconn blocked with XOFF
Jan 01 00:27:43.491 [notice] Request to start reading on an edgeconn blocked with XOFF
Jan 01 00:27:52.333 [warn] Got XOFF!
Jan 01 00:28:24.515 [warn] Got XOFF!
Jan 01 00:28:56.002 [warn] Got XOFF!
Jan 01 00:29:10.421 [notice] Request to start reading on an edgeconn blocked with XOFF
Jan 01 00:29:14.155 [warn] Got XOFF!
Jan 01 00:29:52.777 [warn] Got XOFF!
Jan 01 00:30:10.650 [warn] Got XOFF!
Jan 01 00:27:23.585 [warn] Got XOFF!
Jan 01 00:28:53.911 [warn] Got XOFF!
Jan 01 00:29:45.210 [warn] Got XOFF!
Jan 01 00:30:49.545 [warn] Got XOFF!
Jan 01 00:23:00.807 [warn] Got XOFF!
Jan 01 00:26:31.346 [warn] Got XOFF!
Jan 01 00:24:24.489 [warn] Got XOFF!
Jan 01 00:24:42.549 [notice] Request to start reading on an edgeconn blocked with XOFF
Jan 01 00:24:42.648 [notice] Request to start reading on an edgeconn blocked with XOFF
Jan 01 00:24:42.657 [notice] Request to start reading on an edgeconn blocked with XOFF
Jan 01 00:24:42.667 [notice] Request to start reading on an edgeconn blocked with XOFF
Jan 01 00:24:42.756 [notice] Request to start reading on an edgeconn blocked with XOFF
Jan 01 00:24:42.765 [notice] Request to start reading on an edgeconn blocked with XOFF
Jan 01 00:25:24.283 [notice] Request to start reading on an edgeconn blocked with XOFF
Jan 01 00:25:24.372 [notice] Request to start reading on an edgeconn blocked with XOFF
Jan 01 00:25:25.338 [notice] Request to start reading on an edgeconn blocked with XOFF
Jan 01 00:25:25.347 [notice] Request to start reading on an edgeconn blocked with XOFF
Jan 01 00:25:25.357 [notice] Request to start reading on an edgeconn blocked with XOFF
Jan 01 00:26:10.233 [warn] Got XOFF!
Jan 01 00:24:37.484 [warn] Got XOFF!
Jan 01 00:29:10.046 [warn] Got XOFF!
Jan 01 00:30:19.373 [warn] Got XOFF!
Jan 01 00:23:40.345 [warn] Got XOFF!
Jan 01 00:25:19.449 [warn] Got XOFF!
Jan 01 00:29:33.462 [warn] Got XOFF!
Jan 01 00:28:03.692 [warn] Got XOFF!
Jan 01 00:28:39.853 [warn] Got XOFF!
Jan 01 00:29:25.277 [warn] Got XOFF!
Jan 01 00:29:31.841 [warn] Got XOFF!
Jan 01 00:24:32.374 [warn] Got XOFF!
Jan 01 00:28:06.083 [warn] Got XOFF!
Jan 01 00:29:20.513 [warn] Got XOFF!
Jan 01 00:30:08.155 [warn] Got XOFF!
Jan 01 00:18:40.487 [warn] Got XOFF!
Jan 01 00:18:52.488 [notice] Request to start reading on an edgeconn blocked with XOFF
Jan 01 00:18:53.024 [notice] Request to start reading on an edgeconn blocked with XOFF
Jan 01 00:19:53.891 [warn] Got XOFF!
Jan 01 00:30:57.431 [warn] Got XOFF!
Jan 01 00:24:38.274 [warn] Got XOFF!
Jan 01 00:29:20.560 [warn] Got XOFF!
Jan 01 00:27:11.019 [warn] Got XOFF!
Jan 01 00:24:51.363 [warn] Got XOFF!
Jan 01 00:26:11.410 [warn] Got XOFF!
Jan 01 00:28:41.713 [warn] Got XOFF!
Jan 01 00:29:48.514 [warn] Got XOFF!
Jan 01 00:29:53.330 [warn] Got XOFF!
Jan 01 00:29:58.314 [warn] Got XOFF!
Jan 01 00:30:21.645 [warn] Got XOFF!
Jan 01 00:20:59.580 [warn] Got XOFF!
Jan 01 00:21:05.248 [warn] Got XOFF!
Jan 01 00:18:39.300 [warn] Sending XOFF: 249378 249000
Jan 01 00:18:44.017 [warn] Sending XON: 0 36 0
Jan 01 00:24:18.464 [warn] Got XOFF!
Jan 01 00:27:44.822 [warn] Got XOFF!
Jan 01 00:28:09.276 [notice] Request to start reading on an edgeconn blocked with XOFF
Jan 01 00:29:03.538 [warn] Got XOFF!
Jan 01 00:20:21.849 [warn] Got XOFF!
Jan 01 00:20:51.951 [warn] Got XOFF!
Jan 01 00:24:14.808 [warn] Got XOFF!
Jan 01 00:25:14.669 [warn] Got XOFF!
Jan 01 00:27:04.651 [warn] Got XOFF!
Jan 01 00:27:12.729 [notice] Request to start reading on an edgeconn blocked with XOFF
Jan 01 00:27:12.739 [notice] Request to start reading on an edgeconn blocked with XOFF
Jan 01 00:27:12.748 [notice] Request to start reading on an edgeconn blocked with XOFF
Jan 01 00:27:12.758 [notice] Request to start reading on an edgeconn blocked with XOFF
Jan 01 00:27:12.767 [notice] Request to start reading on an edgeconn blocked with XOFF
Jan 01 00:27:12.776 [notice] Request to start reading on an edgeconn blocked with XOFF
Jan 01 00:29:36.595 [warn] Got XOFF!
Jan 01 00:29:48.422 [warn] Got XOFF!
Jan 01 00:30:00.760 [warn] Got XOFF!
Jan 01 00:29:10.321 [warn] Got XOFF!
Jan 01 00:29:59.150 [warn] Got XOFF!
Jan 01 00:30:28.414 [warn] Got XOFF!
Jan 01 00:24:33.808 [warn] Got XOFF!
Jan 01 00:25:02.526 [notice] Request to start reading on an edgeconn blocked with XOFF
Jan 01 00:25:02.536 [notice] Request to start reading on an edgeconn blocked with XOFF
Jan 01 00:25:02.546 [notice] Request to start reading on an edgeconn blocked with XOFF
Jan 01 00:25:02.979 [notice] Request to start reading on an edgeconn blocked with XOFF
Jan 01 00:28:18.498 [warn] Got XOFF!
Jan 01 00:23:02.074 [warn] Got XOFF!
Jan 01 00:23:47.786 [warn] Got XOFF!
Jan 01 00:23:54.722 [warn] Got XOFF!
Jan 01 00:28:31.621 [warn] Got XOFF!
Jan 01 00:28:39.334 [warn] Got XOFF!
Jan 01 00:25:58.957 [warn] Got XOFF!
Jan 01 00:27:48.409 [warn] Got XOFF!
