[
  2.878867791842475,
  2.3581509216589853,
  1.8300178810907473,
  1.2420358009708736,
  1.502293577981651,
  5.358311518324609,
  5.1930449034268085,
  3.8511288805268102,
  4.6426031919562645,
  5.509757738896363,
  3.425732217573222,
  2.825813247481532,
  6.035104220260849,
  1.7186050992876207,
  3.966812015503876,
  4.313751317175975,
  6.61467565266146,
  1.962488015340365,
  1.3778882220050142,
  2.1687627178894644,
  2.246098304350092,
  1.891072382975244,
  2.528235956749332,
  1.705824408529476,
  2.6791557591623034,
  3.444137457576639,
  4.237836438923394,
  2.226343923161971,
  2.1366127348643,
  3.790509259259259,
  2.1543297357232727,
  2.8134868681037344,
  1.1046258424837951,
  2.7754237288135593,
  2.046875,
  3.2147479087942155,
  3.7317684594348224,
  1.4226620905165819,
  2.3663294797687855,
  1.419961845300035,
  1.2591272306736465,
  3.9794018867832817,
  4.498626373626373,
  6.200716140113842,
  2.80328937547335,
  1.7292089420852814,
  1.7938435071738408,
  2.40243544600939,
  2.024604352126608,
  1.5947604207245816,
  2.8750485466212607,
  2.736195039658537,
  2.0825681352704,
  2.2236556219445953,
  6.313988173273573,
  3.9214117944571956,
  5.932971014492754,
  2.8702207975410228,
  3.5536024305555536,
  1.9684310540644765,
  1.7783850894981124,
  1.040145883397963,
  3.180846930846931,
  3.8192134775903708,
  5.010709914320684,
  4.203028747433266,
  2.8174466620784577,
  3.233609794628752,
  1.6881443298969074,
  6.614483274546904,
  2.584438131313132,
  2.350028702640643,
  2.4831419304786984,
  2.874824438202248,
  1.3352087410306586,
  2.1321614583333335,
  5.757735583684949,
  5.316558441558443,
  4.950120918984281,
  3.2336097946287508,
  1.9273049979285148,
  3.1663290538099975,
  4.039037202060882,
  4.54547978059559,
  2.2933993795006655,
  1.9169436040459626,
  1.5997459945291135,
  2.649676375404531,
  2.292133258678612,
  2.206873315363881,
  2.433858501783592,
  3.374896949711459,
  2.5619899879778134,
  1.2242075358851674,
  6.645698051948053,
  5.016850490196079,
  1.7884447356924424,
  1.7670014131694964,
  2.4524163827105463,
  2.354082806210466,
  2.2117965001342617,
  2.806148678753812,
  2.6309700928993522,
  2.803938356164384,
  2.708292950135654,
  4.962121212121213,
  4.411368534482759,
  5.330403645833335,
  3.9591392649903296,
  5.3027849740932655,
  2.49466788543571,
  4.029281496062992,
  10.268234503274552,
  4.651988636363637,
  2.112628447809627,
  3.657106153675732,
  1.9284353235178426,
  1.85153776571687,
  2.1729033970276013,
  2.103674203494348,
  4.196032487925677,
  3.015196220684008,
  2.412345315262227,
  3.2907958199356906,
  3.4663420829805247,
  2.9004724360355034,
  2.2056842672413794,
  2.6062324208628467,
  2.2781023928770177,
  2.0316377171215882,
  2.4017870762587563,
  2.0067401960784323,
  2.9704417913133585,
  1.85153776571687,
  0.5676303383250139,
  2.5860707517372075,
  3.46927966101695,
  1.3453785036531851,
  3.4607831451090005,
  2.745340381970314,
  2.048923923923924,
  2.5958967868266996,
  2.1100999240235168,
  2.667994880056726,
  2.2394693654266953,
  2.534829721362229,
  3.2515885623510714,
  1.8316554809843406,
  2.370440069484656,
  2.101514373716632,
  2.240695128626163,
  1.3180135222150673,
  1.5769453004622496,
  10.009168704156478,
  4.523480662983424,
  7.797619047619046,
  6.100968703427721,
  5.035362853628538,
  1.8220309185572763,
  1.8891830053596268,
  2.599206349206349,
  1.935673463057538,
  2.520782019704434,
  2.1065829333720303,
  4.88838072948074,
  6.694001357196,
  4.181562819203269,
  1.9795696324951648,
  0.962329572167372,
  2.4701723855997173,
  2.584438131313131,
  1.8664091041099526,
  1.7562581779960962,
  1.7892263986013983,
  1.7737840886096963,
  1.5470326260914258,
  2.6870410287781676,
  1.33130081300813,
  2.0266089108910887,
  1.8591053587647592,
  2.074885960466294,
  2.2947029147982065,
  1.3751259657373194,
  2.28828954723309,
  2.938801148600144,
  2.829129232895646,
  7.169439579684761,
  4.968330119215651,
  4.273225469728603,
  1.868439068918302,
  1.9568594646271513,
  1.5065883222338026,
  1.5645631930656652,
  1.3580132651565064,
  1.9219483568075117,
  1.9634292565947233,
  1.9969512195121952,
  2.126623376623377,
  1.9067303213786677,
  3.200742767787334,
  2.7110927152317883,
  2.614144316730524,
  1.662828199129135,
  1.7592393639879673,
  1.9882224380767362,
  2.491631162507608,
  2.6669381107491854,
  4.974179829890642,
  3.1393788343558287,
  5.1754108723135275,
  3.565984320557491,
  6.366640746500775,
  3.3418367346938784,
  6.722085385878492,
  2.600857687420585,
  1.6874484748557295,
  1.8117673821239244,
  2.63094473007712,
  2.6241802141138746,
  3.0872926093514326,
  4.848185905057865,
  4.264322916666665,
  4.423002747528792,
  1.2729322139303478,
  2.638238884112759,
  3.132199276351982,
  2.6058243157224696,
  4.207348406988696,
  3.6913886384129846,
  1.6047628381027053,
  1.8179642175792863,
  2.40243544600939,
  1.6832853618421055,
  2.3500287026406426,
  1.8390610961365679,
  3.0710802700675175,
  1.6673495587403937,
  1.3905400815217388,
  1.6500403063280933,
  2.5022921760391195,
  2.545864427860697,
  3.0234490398818314,
  3.664950760966877,
  1.8002418645558487,
  3.2335306165488817,
  1.92737758945386,
  2.463146811070999,
  2.461665664461817,
  2.1433246073298426,
  2.911628733997156,
  2.049269571494291
]