{
  "900": 3366307522,
  "901": 3456280131,
  "902": 3404258749,
  "903": 3437478049,
  "904": 3367680791,
  "905": 3330518174,
  "906": 3371741541,
  "907": 3365427934,
  "908": 3411449460,
  "909": 3365820212,
  "910": 3372771104,
  "911": 3348179607,
  "912": 3432604202,
  "913": 3443177478,
  "914": 3400889607,
  "915": 3357486278,
  "916": 3400693649,
  "917": 3419828359,
  "918": 3373650632,
  "919": 3355412667,
  "920": 3374606401,
  "921": 3359629039,
  "922": 3341352881,
  "923": 3335041605,
  "924": 3307382820,
  "925": 3306656789,
  "926": 3355384032,
  "927": 3397380067,
  "928": 3374417978,
  "929": 3392647556,
  "930": 3407605797,
  "931": 3431414429,
  "932": 3438536110,
  "933": 3378213772,
  "934": 3405571492,
  "935": 3418485449,
  "936": 3395348632,
  "937": 3493506316,
  "938": 3445240204,
  "939": 3393541098,
  "940": 3385280753,
  "941": 3395719993,
  "942": 3444415982,
  "943": 3407098307,
  "944": 3412506711,
  "945": 3397248039,
  "946": 3392573393,
  "947": 3378898116,
  "948": 3359464235,
  "949": 3403424739,
  "950": 3445005014,
  "951": 3402395662,
  "952": 3414479157,
  "953": 3353518988,
  "954": 3406958222,
  "955": 3393149013,
  "956": 3445823988,
  "957": 3423082437,
  "958": 3377047676,
  "959": 3449434879,
  "960": 3429959699,
  "961": 3490722802,
  "962": 3522792078,
  "963": 3412677784,
  "964": 3445109117,
  "965": 3482523303,
  "966": 3511491362,
  "967": 3440477503,
  "968": 3420464231,
  "969": 3478613256,
  "970": 3480545619,
  "971": 3495792916,
  "972": 3483916558,
  "973": 3508525387,
  "974": 3518296139,
  "975": 3458592173,
  "976": 3554927130,
  "977": 3446589318,
  "978": 3464506939,
  "979": 3503524009,
  "980": 3576797132,
  "981": 3472757664,
  "982": 3464032962,
  "983": 3477153101,
  "984": 3461176889,
  "985": 3496451744,
  "986": 3509774641,
  "987": 3513612478,
  "988": 3523169517,
  "989": 3540411476,
  "990": 3524925370,
  "991": 3490070351,
  "992": 3450734676,
  "993": 3458275628,
  "994": 3526624267,
  "995": 3446705459,
  "996": 3478454156,
  "997": 3467092074,
  "998": 3493351085,
  "999": 3523155341,
  "1000": 3538411758,
  "1001": 3515938358,
  "1002": 3467270963,
  "1003": 3485609172,
  "1004": 3485417593,
  "1005": 3516390161,
  "1006": 3541281268,
  "1007": 3535585284,
  "1008": 3560492231,
  "1009": 3545872939,
  "1010": 3607003176,
  "1011": 3555666161,
  "1012": 3566694599,
  "1013": 3571448597,
  "1014": 3566151844,
  "1015": 3525193777,
  "1016": 3565644313,
  "1017": 3590419267,
  "1018": 3560613404,
  "1019": 3632560816,
  "1020": 3582601541,
  "1021": 3507203884,
  "1022": 3535110139,
  "1023": 3575885500,
  "1024": 3584566242,
  "1025": 3533538050,
  "1026": 3531024306,
  "1027": 3501640897,
  "1028": 3552391529,
  "1029": 3542419844,
  "1030": 3487421441,
  "1031": 3459818248,
  "1032": 3489852940,
  "1033": 3525623050,
  "1034": 3533759761,
  "1035": 3572788947,
  "1036": 3609845375,
  "1037": 3609072134,
  "1038": 3587711305,
  "1039": 3562251380,
  "1040": 3558537988,
  "1041": 3569235639,
  "1042": 3633741741,
  "1043": 3595360490,
  "1044": 3527734309,
  "1045": 3567711212,
  "1046": 3561746185,
  "1047": 3573531931,
  "1048": 3553808085,
  "1049": 3569346485,
  "1050": 3525514226,
  "1051": 3491247733,
  "1052": 3606174126,
  "1053": 3578738529,
  "1054": 3555067659,
  "1055": 3592714080,
  "1056": 3590991569,
  "1057": 3623949753,
  "1058": 3530408118,
  "1059": 3529179368,
  "1060": 3583219191,
  "1061": 3530696347,
  "1062": 3561494731,
  "1063": 3536315848,
  "1064": 3579266945,
  "1065": 3594358336,
  "1066": 3623377241,
  "1067": 3567500389,
  "1068": 3558254009,
  "1069": 3577716737,
  "1070": 3588672840,
  "1071": 3550788834,
  "1072": 3583965731,
  "1073": 3609659425,
  "1074": 3582044368,
  "1075": 3579807102,
  "1076": 3591285284,
  "1077": 3661112397,
  "1078": 3611574190,
  "1079": 3620150913,
  "1080": 3602240944,
  "1081": 3631726494,
  "1082": 3555684430,
  "1083": 3576135998,
  "1084": 3601428322,
  "1085": 3627350281,
  "1086": 3604805855,
  "1087": 3586521176,
  "1088": 3647004213,
  "1089": 3692278790,
  "1090": 3651033040,
  "1091": 3624171164,
  "1092": 3632150361,
  "1093": 3662287955,
  "1094": 3627089349,
  "1095": 3541076534,
  "1096": 3623002613,
  "1097": 3599557507,
  "1098": 3606256856,
  "1099": 3595244467,
  "1100": 3627877949,
  "1101": 3556571693,
  "1102": 3546252811,
  "1103": 3567152877,
  "1104": 3614480533,
  "1105": 3660603538,
  "1106": 3651751102,
  "1107": 3655352332,
  "1108": 3596479308,
  "1109": 3558945808,
  "1110": 3602321435,
  "1111": 3630632840,
  "1112": 3612483335,
  "1113": 3651024985,
  "1114": 3627451998,
  "1115": 3672459199,
  "1116": 3643886800,
  "1117": 3676514048,
  "1118": 3666400299,
  "1119": 3655427140,
  "1120": 3701333386,
  "1121": 3666763994,
  "1122": 3647174243,
  "1123": 3658875300,
  "1124": 3690004974,
  "1125": 3663066662,
  "1126": 3633864522,
  "1127": 3654456662,
  "1128": 3635327278,
  "1129": 3654089848,
  "1130": 3687287891,
  "1131": 3717999222,
  "1132": 3671800337,
  "1133": 3702508056,
  "1134": 3686974348,
  "1135": 3614889530,
  "1136": 3640685125,
  "1137": 3661687346,
  "1138": 3693229060,
  "1139": 3708228410,
  "1140": 3640541577,
  "1141": 3688063894,
  "1142": 3672084883,
  "1143": 3719689995,
  "1144": 3664969041,
  "1145": 3697823717,
  "1146": 3708435208,
  "1147": 3676351476,
  "1148": 3670602602,
  "1149": 3697883185,
  "1150": 3677451900,
  "1151": 3750022723,
  "1152": 3767048928,
  "1153": 3736072472,
  "1154": 3703860527,
  "1155": 3673418251,
  "1156": 3645373698,
  "1157": 3626156671,
  "1158": 3620729656,
  "1159": 3642251721,
  "1160": 3701567352,
  "1161": 3616772680,
  "1162": 3592930193,
  "1163": 3571691388,
  "1164": 3596899802,
  "1165": 3588418909,
  "1166": 3549529491,
  "1167": 3574433287,
  "1168": 3613396669,
  "1169": 3643157590,
  "1170": 3648675339,
  "1171": 3616089209,
  "1172": 3601983792,
  "1173": 3671216462,
  "1174": 3612501963,
  "1175": 3575770708,
  "1176": 3569883769,
  "1177": 3646007811,
  "1178": 3622577078,
  "1179": 3589347291,
  "1180": 3600903513,
  "1181": 3665989968,
  "1182": 3638929137,
  "1183": 3707321054,
  "1184": 3691768590,
  "1185": 3652075917,
  "1186": 3598070573,
  "1187": 3592188361,
  "1188": 3606538004,
  "1189": 3670299257,
  "1190": 3627164150,
  "1191": 3589562345,
  "1192": 3580822745,
  "1193": 3541780599,
  "1194": 3635558647,
  "1195": 3601191333,
  "1196": 3688265833,
  "1197": 3615311100,
  "1198": 3586073869,
  "1199": 3601304056,
  "1200": 3649294903,
  "1201": 3708112782,
  "1202": 3645345951,
  "1203": 3654791427,
  "1204": 3705232480,
  "1205": 3685770258,
  "1206": 3663939214,
  "1207": 3686640349,
  "1208": 3702084278,
  "1209": 3661325042,
  "1210": 3654256252,
  "1211": 3642041686,
  "1212": 3719366483,
  "1213": 3669411934,
  "1214": 3653749977,
  "1215": 3650851527,
  "1216": 3690194117,
  "1217": 3646222647,
  "1218": 3672847772,
  "1219": 3658111837,
  "1220": 3649938288,
  "1221": 3606719962,
  "1222": 3607162677,
  "1223": 3646177011,
  "1224": 3611434459,
  "1225": 3595925052,
  "1226": 3639402116,
  "1227": 3702603740,
  "1228": 3704313341,
  "1229": 3722638943,
  "1230": 3632156637,
  "1231": 3635877125,
  "1232": 3615708178,
  "1233": 3587685541,
  "1234": 3610033883,
  "1235": 3655423516,
  "1236": 3680574588,
  "1237": 3677696858,
  "1238": 3696509207,
  "1239": 3631443792,
  "1240": 3646568422,
  "1241": 3686566910,
  "1242": 3667686860,
  "1243": 3643628159,
  "1244": 3628628529,
  "1245": 3679307255,
  "1246": 3669687855,
  "1247": 3681921856,
  "1248": 3687471467,
  "1249": 3649280015,
  "1250": 3626209571,
  "1251": 3710894717,
  "1252": 3654226115,
  "1253": 3631006364,
  "1254": 3708840324,
  "1255": 3655374975,
  "1256": 3626807990,
  "1257": 3679544241,
  "1258": 3702550358,
  "1259": 3701386254,
  "1260": 3701175958,
  "1261": 3669776550,
  "1262": 3714918382,
  "1263": 3668465291,
  "1264": 3682712936,
  "1265": 3697017816,
  "1266": 3631092187,
  "1267": 3591300812,
  "1268": 3631148366,
  "1269": 3637819600,
  "1270": 3621727316,
  "1271": 3660866413,
  "1272": 3649954734,
  "1273": 3664559950,
  "1274": 3659367834,
  "1275": 3678063248,
  "1276": 3691434088,
  "1277": 3670730153,
  "1278": 3698877513,
  "1279": 3649084879,
  "1280": 3652462573,
  "1281": 3663260553,
  "1282": 3684497347,
  "1283": 3708580335,
  "1284": 3768464663,
  "1285": 3717879309,
  "1286": 3661680447,
  "1287": 3678001122,
  "1288": 3646175086,
  "1289": 3629080216,
  "1290": 3642984777,
  "1291": 3660001076,
  "1292": 3693931345,
  "1293": 3679789873,
  "1294": 3731674367,
  "1295": 3747649352,
  "1296": 3716268778,
  "1297": 3684696553,
  "1298": 3701437968,
  "1299": 3714734180,
  "1300": 3668817416,
  "1301": 3665610246,
  "1302": 3675875042,
  "1303": 3705107639,
  "1304": 3673555703,
  "1305": 3678475967,
  "1306": 3655132513,
  "1307": 3698678929,
  "1308": 3648460216,
  "1309": 3658959297,
  "1310": 3682079434,
  "1311": 3652491558,
  "1312": 3669983786,
  "1313": 3681794257,
  "1314": 3702202611,
  "1315": 3697627234,
  "1316": 3687716277,
  "1317": 3661543248,
  "1318": 3678545785,
  "1319": 3667818445,
  "1320": 3636686631,
  "1321": 3678011260,
  "1322": 3644672840,
  "1323": 3669057227,
  "1324": 3685258257,
  "1325": 3725732445,
  "1326": 3773858680,
  "1327": 3717426685,
  "1328": 3730176729,
  "1329": 3692926136,
  "1330": 3712522295,
  "1331": 3686675847,
  "1332": 3655761620,
  "1333": 3635224496,
  "1334": 3702577944,
  "1335": 3675581718,
  "1336": 3655171441,
  "1337": 3655204730,
  "1338": 3647985729,
  "1339": 3681004855,
  "1340": 3655352469,
  "1341": 3682409200,
  "1342": 3651970943,
  "1343": 3607797450,
  "1344": 3656727673,
  "1345": 3657677527,
  "1346": 3636697257,
  "1347": 3641812148,
  "1348": 3686790229,
  "1349": 3654684801,
  "1350": 3652361846,
  "1351": 3629790022,
  "1352": 3608861129,
  "1353": 3688752431,
  "1354": 3716709023,
  "1355": 3709509592,
  "1356": 3672487808,
  "1357": 3704802318,
  "1358": 3683874631,
  "1359": 3702962416,
  "1360": 3667904584,
  "1361": 3700793038,
  "1362": 3732858443,
  "1363": 3647387208,
  "1364": 3595410109,
  "1365": 3683343546,
  "1366": 3681605388,
  "1367": 3643508667,
  "1368": 3646917940,
  "1369": 3647333183,
  "1370": 3639911221,
  "1371": 3649612968,
  "1372": 3646831901,
  "1373": 3740800676,
  "1374": 3652005507,
  "1375": 3654807535,
  "1376": 3682049141,
  "1377": 3662906661,
  "1378": 3699284412,
  "1379": 3686412984,
  "1380": 3691772267,
  "1381": 3656324496,
  "1382": 3692667270,
  "1383": 3683576238,
  "1384": 3686036794,
  "1385": 3680551974,
  "1386": 3720257209,
  "1387": 3662898340,
  "1388": 3695927176,
  "1389": 3733206185,
  "1390": 3701984077,
  "1391": 3711055271,
  "1392": 3690993183,
  "1393": 3729745529,
  "1394": 3768953299,
  "1395": 3749524835,
  "1396": 3713165332,
  "1397": 3706767603,
  "1398": 3758580251,
  "1399": 3694741755,
  "1400": 3742455807,
  "1401": 3695068361,
  "1402": 3710572085,
  "1403": 3693754400,
  "1404": 3709031570,
  "1405": 3669123201,
  "1406": 3689467092,
  "1407": 3746255528,
  "1408": 3721171603,
  "1409": 3673121665,
  "1410": 3690099157,
  "1411": 3626801817,
  "1412": 3708458519,
  "1413": 3705226726,
  "1414": 3742103440,
  "1415": 3743455758,
  "1416": 3755858939,
  "1417": 3705741181,
  "1418": 3740373610,
  "1419": 3711882793,
  "1420": 3688609535,
  "1421": 3669190976,
  "1422": 3695895829,
  "1423": 3717256614,
  "1424": 3697462937,
  "1425": 3760493046,
  "1426": 3718012037,
  "1427": 3694230200,
  "1428": 3577523240,
  "1429": 3609837208,
  "1430": 3645039150,
  "1431": 3695888434,
  "1432": 3697409342,
  "1433": 3679101474,
  "1434": 3681254634,
  "1435": 3690658139,
  "1436": 3701130044,
  "1437": 3642589660,
  "1438": 3657328023,
  "1439": 3646381432,
  "1440": 3637012464,
  "1441": 3651429273,
  "1442": 3682946675,
  "1443": 3740395139,
  "1444": 3697807588,
  "1445": 3762218704,
  "1446": 3820166040,
  "1447": 3797776286,
  "1448": 3740160526,
  "1449": 3783844570,
  "1450": 3795060650,
  "1451": 3819090086,
  "1452": 3832770030,
  "1453": 3779306844,
  "1454": 3776619428,
  "1455": 3684038899,
  "1456": 3657099684,
  "1457": 3698090941,
  "1458": 3721347965,
  "1459": 3732280325,
  "1460": 3793184626,
  "1461": 3760703757,
  "1462": 3763763124,
  "1463": 3756349213,
  "1464": 3756006615,
  "1465": 3734243757,
  "1466": 3702096558,
  "1467": 3768646503,
  "1468": 3723284669,
  "1469": 3721996649,
  "1470": 3720881717,
  "1471": 3680011808,
  "1472": 3814652365,
  "1473": 3766593112,
  "1474": 3777822343,
  "1475": 3787830067,
  "1476": 3737010692,
  "1477": 3713129487,
  "1478": 3712069909,
  "1479": 3699947592,
  "1480": 3741988814,
  "1481": 3733150785,
  "1482": 3683520040,
  "1483": 3685937356,
  "1484": 3704191850,
  "1485": 3640668782,
  "1486": 3662941296,
  "1487": 3801075524,
  "1488": 3789210076,
  "1489": 3794279410,
  "1490": 3773197633,
  "1491": 3775410687,
  "1492": 3762731056,
  "1493": 3709537518,
  "1494": 3683512724,
  "1495": 3749655577,
  "1496": 3730489433,
  "1497": 3769259842,
  "1498": 3710193637,
  "1499": 3730184244,
  "1500": 3753523637,
  "1501": 3801476106,
  "1502": 3810204040,
  "1503": 3807129090,
  "1504": 3751240028,
  "1505": 3764663056,
  "1506": 3781538089,
  "1507": 3758553806,
  "1508": 3764396298,
  "1509": 3717273666,
  "1510": 3752213501,
  "1511": 3778706691,
  "1512": 3739250946,
  "1513": 3697055960,
  "1514": 3684228185,
  "1515": 3698103805,
  "1516": 3611548257,
  "1517": 3670540606,
  "1518": 3657807849,
  "1519": 3697582011,
  "1520": 3735528946,
  "1521": 3660768075,
  "1522": 3602705277,
  "1523": 3705897939,
  "1524": 3717041987,
  "1525": 3701303741,
  "1526": 3718133877,
  "1527": 3719671968,
  "1528": 3717209718,
  "1529": 3752299242,
  "1530": 3706997555,
  "1531": 3686882525,
  "1532": 3699940527,
  "1533": 3708385099,
  "1534": 3720269564,
  "1535": 3700924726,
  "1536": 3676439161,
  "1537": 3714854524,
  "1538": 3763005657,
  "1539": 3796748402,
  "1540": 3732684661,
  "1541": 3676738924,
  "1542": 3651581471,
  "1543": 3675518104,
  "1544": 3755682177,
  "1545": 3730673987,
  "1546": 3744418219,
  "1547": 3759665660,
  "1548": 3722902483,
  "1549": 3700268746,
  "1550": 3704687367,
  "1551": 3755899266,
  "1552": 3713749575,
  "1553": 3734652329,
  "1554": 3745374351,
  "1555": 3740252244,
  "1556": 3788645151,
  "1557": 3736254431,
  "1558": 3762437091,
  "1559": 3727670321,
  "1560": 3786459173,
  "1561": 3761074689,
  "1562": 3777158118,
  "1563": 3713865654,
  "1564": 3734831034,
  "1565": 3775865224,
  "1566": 3735236308,
  "1567": 3709895043,
  "1568": 3708376585,
  "1569": 3743673902,
  "1570": 3710445239,
  "1571": 3809518570,
  "1572": 3763805090,
  "1573": 3735189143,
  "1574": 3730932068,
  "1575": 3749836270,
  "1576": 3695436905,
  "1577": 3793635034,
  "1578": 3719570451,
  "1579": 3721831510,
  "1580": 3726753057,
  "1581": 3810271082,
  "1582": 3746078841,
  "1583": 3769753665,
  "1584": 3699741190,
  "1585": 3711220334,
  "1586": 3747838628,
  "1587": 3752213538,
  "1588": 3741239070,
  "1589": 3751825175,
  "1590": 3705202589,
  "1591": 3662645959,
  "1592": 3663731638,
  "1593": 3719867283,
  "1594": 3666191398,
  "1595": 3704761128,
  "1596": 3675138970,
  "1597": 3707829740,
  "1598": 3698651206,
  "1599": 3706718357,
  "1600": 3722749823,
  "1601": 3707643082,
  "1602": 3697394693,
  "1603": 3776049291,
  "1604": 3755235869,
  "1605": 3799647484,
  "1606": 3780111910,
  "1607": 3738370401,
  "1608": 3773245687,
  "1609": 3788773598,
  "1610": 3755838507,
  "1611": 3767665740,
  "1612": 3821392224,
  "1613": 3803877110,
  "1614": 3786179991,
  "1615": 3768997798,
  "1616": 3683368634,
  "1617": 3752368927,
  "1618": 3756791444,
  "1619": 3757384996,
  "1620": 3687113223,
  "1621": 3709691813,
  "1622": 3742428924,
  "1623": 3722119506,
  "1624": 3731927351,
  "1625": 3711352562,
  "1626": 3718649717,
  "1627": 3794326023,
  "1628": 3762577672,
  "1629": 3756980025,
  "1630": 3750773786,
  "1631": 3772604297,
  "1632": 3789341443,
  "1633": 3765901500,
  "1634": 3677802169,
  "1635": 3738028166,
  "1636": 3753536414,
  "1637": 3719604527,
  "1638": 3735618061,
  "1639": 3768130162,
  "1640": 3738239238,
  "1641": 3795033854,
  "1642": 3813125856,
  "1643": 3760372753,
  "1644": 3768446317,
  "1645": 3805749578,
  "1646": 3814238762,
  "1647": 3762192710,
  "1648": 3819467409,
  "1649": 3814177416,
  "1650": 3809139196,
  "1651": 3775204306,
  "1652": 3741334923,
  "1653": 3792524948,
  "1654": 3826686978,
  "1655": 3822129275,
  "1656": 3770257833,
  "1657": 3761049883,
  "1658": 3752038099,
  "1659": 3779339333,
  "1660": 3736259665,
  "1661": 3771393840,
  "1662": 3729834693,
  "1663": 3771838622,
  "1664": 3776211168,
  "1665": 3814932292,
  "1666": 3721929309,
  "1667": 3761584462,
  "1668": 3787126372,
  "1669": 3730488125,
  "1670": 3731729015,
  "1671": 3760981427,
  "1672": 3807593860,
  "1673": 3842574597,
  "1674": 3840493535,
  "1675": 3822671816,
  "1676": 3864499194,
  "1677": 3818737668,
  "1678": 3765636200,
  "1679": 3730001260,
  "1680": 3797132970,
  "1681": 3815633604,
  "1682": 3797980898,
  "1683": 3790528047,
  "1684": 3764354286,
  "1685": 3768028543,
  "1686": 3721242391,
  "1687": 3764134634,
  "1688": 3753885719,
  "1689": 3789600590,
  "1690": 3776590538,
  "1691": 3791191661,
  "1692": 3779598732,
  "1693": 3786986603,
  "1694": 3811717662,
  "1695": 3745930063,
  "1696": 3685032204,
  "1697": 3802353509,
  "1698": 3771407833,
  "1699": 3751997307,
  "1700": 3783711793,
  "1701": 3781033291,
  "1702": 3800027099,
  "1703": 3794386789,
  "1704": 3797885911,
  "1705": 3818534455,
  "1706": 3808028364,
  "1707": 3767456129,
  "1708": 3779380137,
  "1709": 3795460250,
  "1710": 3765522036,
  "1711": 3754400438,
  "1712": 3750898368,
  "1713": 3748703586,
  "1714": 3837127421,
  "1715": 3775274468,
  "1716": 3746472741,
  "1717": 3737681443,
  "1718": 3773739692,
  "1719": 3757373568,
  "1720": 3703273762,
  "1721": 3726700840,
  "1722": 3748499490,
  "1723": 3731957503,
  "1724": 3719276303,
  "1725": 3780681793,
  "1726": 3749113216,
  "1727": 3741076024,
  "1728": 3727005307,
  "1729": 3768167177,
  "1730": 3739049897,
  "1731": 3777490941,
  "1732": 3734987865,
  "1733": 3706542393,
  "1734": 3724242396,
  "1735": 3723985116,
  "1736": 3732063796,
  "1737": 3754469623,
  "1738": 3695718917,
  "1739": 3740754220,
  "1740": 3692675901,
  "1741": 3762331072,
  "1742": 3832356283,
  "1743": 3746503627,
  "1744": 3759582313,
  "1745": 3726298163,
  "1746": 3767245150,
  "1747": 3705285637,
  "1748": 3759727378,
  "1749": 3789021124,
  "1750": 3776859625,
  "1751": 3774207618,
  "1752": 3768829819,
  "1753": 3742620391,
  "1754": 3766712492,
  "1755": 3767419687,
  "1756": 3741378963,
  "1757": 3675523240,
  "1758": 3751354777,
  "1759": 3789564133,
  "1760": 3754339072,
  "1761": 3804230728,
  "1762": 3788023369,
  "1763": 3789322720,
  "1764": 3782514452,
  "1765": 3679003191,
  "1766": 3738426326,
  "1767": 3711925854,
  "1768": 3771046581,
  "1769": 3782259503,
  "1770": 3756509854,
  "1771": 3756112079,
  "1772": 3729825439,
  "1773": 3707016187,
  "1774": 3785699316,
  "1775": 3763440913,
  "1776": 3778162092,
  "1777": 3805200041,
  "1778": 3787599044,
  "1779": 3751585313,
  "1780": 3745907316,
  "1781": 3782956369,
  "1782": 3798245098,
  "1783": 3798514499,
  "1784": 3697367721,
  "1785": 3762697625,
  "1786": 3789961996,
  "1787": 3822967284,
  "1788": 3753521599,
  "1789": 3775640623,
  "1790": 3759549682,
  "1791": 3764276366,
  "1792": 3769860110,
  "1793": 3734660239,
  "1794": 3693919625,
  "1795": 3789952054,
  "1796": 3775891322,
  "1797": 3774888359,
  "1798": 3730672977,
  "1799": 3781305886,
  "1800": 3786307721,
  "1801": 3823682947,
  "1802": 3806059613,
  "1803": 3713347073,
  "1804": 3749568839,
  "1805": 3763857916,
  "1806": 3760115234,
  "1807": 3800360750,
  "1808": 3786012061,
  "1809": 3787419783,
  "1810": 3690097229,
  "1811": 3707100546,
  "1812": 3713093555,
  "1813": 3788865408,
  "1814": 3798097552,
  "1815": 3734610823,
  "1816": 3753699174,
  "1817": 3748586119,
  "1818": 3759675072,
  "1819": 3787683621,
  "1820": 3801316152,
  "1821": 3810507060,
  "1822": 3817483632,
  "1823": 3828398137,
  "1824": 3788251033,
  "1825": 3788310162,
  "1826": 3760477284,
  "1827": 3760477980,
  "1828": 3820886232,
  "1829": 3829572445,
  "1830": 3770288609,
  "1831": 3777535290,
  "1832": 3802989486,
  "1833": 3762297160,
  "1834": 3717326582,
  "1835": 3802325190,
  "1836": 3796014956,
  "1837": 3753669217,
  "1838": 3797523177,
  "1839": 3839943597,
  "1840": 3753991450,
  "1841": 3718458206,
  "1842": 3760092425,
  "1843": 3747181787,
  "1844": 3795040794,
  "1845": 3809309866,
  "1846": 3812948946,
  "1847": 3754964260,
  "1848": 3740146296,
  "1849": 3728724533,
  "1850": 3772191495,
  "1851": 3793043470,
  "1852": 3773532036,
  "1853": 3787257159,
  "1854": 3765405660,
  "1855": 3747504757,
  "1856": 3778590766,
  "1857": 3766753893,
  "1858": 3782697726,
  "1859": 3797926157
}