[
  0.472,
  0.706,
  0.508,
  0.748,
  0.621,
  0.587,
  0.88,
  0.733,
  0.552,
  0.516,
  0.602,
  0.85,
  0.532,
  0.809,
  0.609,
  0.634,
  0.281,
  0.206,
  0.235,
  0.271,
  0.18,
  0.332,
  0.246,
  0.225,
  0.282,
  0.278,
  0.433,
  0.274,
  0.429,
  0.371,
  0.254,
  0.501,
  0.508,
  0.494232,
  0.530288,
  0.497,
  0.616,
  0.528,
  0.524883,
  0.565,
  0.729,
  0.712,
  0.563,
  0.6,
  0.734989,
  0.586,
  0.569,
  0.366,
  0.18,
  0.204,
  0.626,
  0.254,
  0.277198,
  0.199,
  0.194,
  0.362,
  0.273783,
  0.289,
  0.68808,
  0.286,
  0.443,
  0.346,
  0.302205,
  0.249,
  0.173,
  0.193,
  0.295,
  0.256,
  0.395,
  0.428,
  0.301,
  0.284,
  0.491,
  0.485,
  0.269,
  0.286,
  0.46,
  0.354,
  0.356,
  0.215,
  0.227,
  0.223,
  0.272,
  0.176,
  0.301,
  0.435,
  0.305,
  0.28,
  0.23,
  0.445,
  0.295,
  0.291,
  0.466,
  0.347,
  0.344,
  0.264,
  0.418,
  0.35,
  0.288,
  0.482,
  0.956,
  0.435,
  0.54,
  0.448,
  0.355,
  0.498,
  0.8,
  0.35,
  0.44,
  0.506,
  0.48774,
  0.455,
  0.572,
  0.439,
  0.514,
  0.7,
  0.436,
  0.754648,
  0.501963,
  0.626568,
  0.493267,
  0.587633,
  0.56889,
  0.53,
  0.419,
  0.197,
  0.226,
  0.384,
  0.458,
  0.466,
  0.219,
  0.261,
  0.231,
  0.293,
  0.352,
  0.259,
  0.358,
  0.473,
  0.585,
  0.294,
  0.534,
  0.513,
  0.592,
  0.532,
  0.638,
  0.496,
  0.555,
  0.699,
  0.693,
  0.534,
  0.58,
  0.714,
  0.665,
  0.577,
  0.197,
  0.269,
  0.481,
  0.25,
  0.259,
  0.351,
  0.255,
  0.276,
  0.292,
  0.259,
  0.39,
  0.368,
  0.293,
  0.452,
  0.44,
  0.369,
  0.349,
  0.36,
  0.248,
  0.374,
  0.21,
  0.507,
  0.265,
  0.448,
  0.266,
  0.325,
  0.471,
  0.303,
  0.385,
  0.542,
  0.326,
  0.339,
  0.455,
  0.33,
  0.161,
  0.383,
  0.241,
  0.247,
  0.435,
  0.258,
  0.274,
  0.255,
  0.42,
  0.342,
  0.221,
  0.478,
  0.317,
  0.362,
  0.223,
  0.196,
  0.223,
  0.277,
  0.26,
  0.369,
  0.462,
  0.211,
  0.211,
  0.452,
  0.345,
  0.274,
  0.258,
  0.417,
  0.343,
  0.489,
  0.168,
  0.497,
  0.197,
  0.252,
  0.224,
  0.308,
  0.497,
  0.184,
  0.311,
  0.316,
  0.675,
  0.58,
  0.286,
  0.505,
  0.457,
  0.339,
  0.206,
  0.475,
  0.261,
  0.311,
  0.416,
  0.5,
  0.197,
  0.206,
  0.266,
  0.294,
  0.404,
  0.275,
  0.31,
  0.469,
  0.412,
  0.412,
  0.682,
  0.394,
  0.697131,
  0.599,
  0.598,
  0.412,
  0.68137,
  0.505,
  0.479,
  0.788498,
  0.529,
  0.534,
  0.823612,
  0.601375,
  0.564,
  0.236,
  0.215,
  0.236,
  0.286,
  0.449,
  0.528,
  0.27,
  0.26,
  0.282,
  0.567,
  0.391,
  0.272,
  0.281,
  0.571,
  0.455,
  0.38,
  0.619,
  0.577,
  0.45,
  0.575,
  0.477,
  0.551,
  0.426,
  0.396,
  0.529,
  0.495,
  0.601,
  0.543,
  0.52,
  0.661,
  1.352,
  0.602,
  0.209561,
  0.236795,
  0.196218,
  0.373,
  0.264944,
  0.295,
  0.275,
  0.28055,
  0.452123,
  0.28046,
  0.383,
  0.324123,
  0.302,
  0.468396,
  0.42,
  0.354178,
  0.378,
  0.145,
  0.225,
  0.296,
  0.452,
  0.357,
  0.331,
  0.265,
  0.56,
  0.464,
  0.4,
  0.504,
  0.337,
  0.429,
  0.397,
  0.425,
  0.609,
  0.467,
  0.471,
  0.491,
  0.373,
  0.432,
  0.366,
  0.458274,
  0.582463,
  0.497642,
  0.535,
  0.823,
  0.448,
  0.658,
  0.575912,
  0.550124,
  0.206,
  0.214576,
  0.23,
  0.29,
  0.26,
  0.302,
  0.233777,
  0.242858,
  0.287103,
  0.239,
  0.378,
  0.262777,
  0.359,
  0.405903,
  0.33,
  0.292,
  0.487,
  0.671,
  0.572,
  0.53,
  0.549,
  0.45,
  0.827,
  0.479,
  0.642,
  0.891,
  0.788,
  0.533,
  0.602,
  0.536,
  0.584,
  0.628,
  0.496,
  0.931,
  0.546,
  0.404,
  0.516,
  0.416,
  0.465,
  0.44,
  0.658,
  0.581,
  0.506,
  0.49,
  0.644,
  0.727,
  0.717,
  0.212,
  0.455,
  0.268,
  0.516,
  0.307,
  0.218,
  0.377,
  0.519,
  0.365,
  0.67,
  0.236,
  0.437,
  0.306,
  0.602,
  0.443103,
  0.737,
  0.487,
  0.453,
  0.521,
  0.481,
  0.652,
  0.48028,
  0.486238,
  0.63,
  0.81,
  0.511,
  0.691337,
  0.588,
  0.54986,
  0.458,
  0.747,
  0.666,
  0.503,
  0.639,
  0.532,
  0.459,
  0.546,
  0.666,
  0.533,
  1.049,
  0.827,
  0.525,
  1.423,
  0.652,
  0.622,
  0.437,
  0.445,
  0.489,
  0.519338,
  0.475,
  0.53825,
  0.519,
  0.51575,
  0.531124,
  0.533,
  0.64925,
  0.631,
  0.575624,
  0.72725,
  0.60925,
  0.502,
  0.517,
  0.536,
  0.404,
  0.451,
  0.383,
  0.536,
  0.519,
  0.405,
  0.743,
  0.404,
  0.605,
  0.489,
  0.45,
  0.715,
  0.539,
  0.637,
  0.416,
  0.484,
  0.48,
  0.523,
  0.451,
  0.498,
  0.724,
  0.684,
  0.793,
  0.547,
  0.6,
  0.522,
  0.685,
  0.717,
  0.596,
  0.622,
  0.396,
  0.483,
  0.578,
  0.45,
  0.6,
  0.516,
  0.441,
  0.893,
  0.505,
  0.951,
  0.651,
  0.42,
  0.477,
  0.646,
  0.573,
  0.507,
  0.193,
  0.176,
  0.213,
  0.517,
  0.205,
  0.379,
  0.25,
  0.26,
  0.287,
  0.273,
  0.4,
  0.35,
  0.265,
  0.706,
  0.359,
  0.351,
  0.499,
  0.561,
  0.44,
  0.567,
  0.454,
  0.541,
  0.443,
  0.481,
  0.515,
  0.581,
  0.593,
  0.588,
  0.519,
  0.695,
  0.616,
  0.488,
  0.18,
  0.218,
  0.238,
  0.312,
  0.228,
  0.308,
  0.433,
  0.226,
  0.353,
  0.469,
  0.352,
  0.525,
  0.381,
  0.564,
  0.387,
  0.443,
  0.441,
  0.257,
  0.457,
  0.271,
  0.23,
  0.339,
  0.166,
  0.244,
  0.346,
  0.511785,
  0.453036,
  0.506,
  0.45,
  0.437,
  0.381,
  0.368,
  0.705,
  0.634472,
  0.557928,
  0.526619,
  0.678,
  0.486,
  0.539,
  0.597928,
  0.708111,
  0.668573,
  0.624836,
  0.731162,
  0.707,
  0.587,
  0.678,
  0.379,
  0.449,
  0.448,
  0.42,
  0.534,
  0.433,
  0.462,
  0.452,
  0.493,
  0.618,
  0.686,
  0.521,
  0.715,
  0.616,
  1.041,
  0.205,
  0.247,
  0.203,
  0.22,
  0.231,
  0.574,
  0.303206,
  0.254,
  0.391842,
  0.291,
  0.33,
  0.464698,
  0.361,
  0.283,
  0.189,
  0.235,
  0.468,
  0.554,
  0.328,
  0.218,
  0.231,
  0.272,
  0.274,
  0.309,
  0.268,
  0.283,
  0.483,
  0.344,
  0.683,
  0.415,
  0.166,
  0.205,
  0.361,
  0.224,
  0.298,
  0.205,
  0.432,
  0.323,
  0.432,
  0.355,
  0.387,
  0.304,
  0.434,
  0.34,
  0.325,
  0.646,
  0.441,
  0.638,
  0.53,
  0.435,
  0.489,
  0.442,
  0.426,
  0.462,
  0.45,
  0.59,
  0.513,
  0.546,
  0.766,
  0.647,
  0.548,
  0.724,
  0.444,
  0.688,
  0.5,
  0.499,
  0.461,
  0.489,
  0.712,
  0.631,
  0.532,
  0.668,
  0.668,
  0.696,
  0.516,
  0.23,
  0.454,
  0.281,
  0.375,
  0.201,
  0.383,
  0.468,
  0.239,
  0.289,
  0.315,
  0.432,
  0.546,
  0.389,
  0.714,
  0.345,
  0.301,
  0.629,
  0.577,
  0.732,
  0.643,
  0.685,
  0.58,
  0.679,
  0.528,
  0.515,
  0.621,
  0.66,
  0.897,
  0.59,
  0.894,
  0.658,
  0.866,
  0.613,
  0.395,
  0.448,
  0.396,
  0.514,
  0.558,
  0.356,
  0.38,
  0.531,
  0.547,
  0.528,
  0.558,
  0.588,
  0.602,
  0.533,
  0.424,
  0.261657,
  0.566,
  0.307,
  0.274,
  0.282,
  0.210576,
  0.335,
  0.402522,
  0.446,
  0.408,
  0.279,
  0.37229,
  0.446,
  0.499546,
  0.315,
  0.476,
  0.469,
  0.443,
  0.589,
  0.691,
  0.576,
  0.447,
  0.429,
  0.661,
  0.725,
  0.603,
  0.84,
  0.485,
  0.665,
  0.608,
  0.593,
  0.621,
  0.616,
  0.458,
  0.53,
  0.48,
  0.602,
  0.7,
  0.506,
  0.542,
  0.632,
  0.558,
  0.611,
  0.654,
  0.592,
  0.784,
  0.388,
  0.444889,
  0.494,
  0.54698,
  0.724,
  0.536,
  0.618,
  0.477,
  0.431,
  0.518,
  0.557,
  0.751,
  0.516,
  0.744,
  0.855,
  0.599,
  0.229,
  0.25,
  0.216,
  0.283,
  0.23,
  0.356,
  0.246,
  0.21,
  0.433,
  0.272,
  0.42,
  0.619,
  0.303,
  0.585,
  0.361,
  0.342,
  0.444,
  0.407,
  0.677,
  0.505,
  0.642,
  0.579,
  0.678,
  0.456,
  0.527,
  0.675,
  0.611,
  0.844,
  0.51,
  0.649,
  0.604,
  0.517,
  0.409,
  0.762,
  0.435,
  0.703,
  0.447,
  0.567,
  0.687,
  0.529,
  0.515,
  0.649,
  0.486,
  0.571,
  0.624,
  0.605,
  0.589,
  0.424388,
  0.198,
  0.254,
  0.312,
  0.454,
  0.181,
  0.209013,
  0.234,
  0.234,
  0.28,
  0.244128,
  0.298,
  0.402,
  0.308,
  0.236,
  0.434,
  0.259,
  0.22,
  0.371,
  0.236,
  0.274,
  0.326,
  0.433,
  0.409,
  0.479,
  0.317,
  0.552,
  0.39,
  0.445,
  0.297812,
  0.27661,
  0.528,
  0.387954,
  0.306486,
  0.414,
  0.259812,
  0.3419,
  0.398129,
  0.353,
  0.449,
  0.402,
  0.489976,
  0.73,
  0.503,
  0.358,
  0.665,
  0.401,
  0.466,
  0.564,
  0.495,
  0.583,
  0.414,
  0.476,
  0.52,
  0.567,
  0.51,
  0.494,
  0.62,
  0.617,
  0.492,
  0.416,
  0.385294,
  0.451,
  0.513,
  0.773,
  0.468954,
  0.401,
  0.497,
  0.445,
  0.447,
  0.59,
  0.781,
  0.572,
  0.595,
  0.579,
  0.551,
  0.353,
  0.52,
  0.444,
  0.425,
  0.74,
  0.506,
  0.411,
  0.608,
  0.818,
  0.461,
  0.781,
  0.506,
  0.529,
  0.749,
  0.56,
  0.495,
  0.18,
  0.468,
  0.256,
  0.284,
  0.321,
  0.434,
  0.168,
  0.222,
  0.215,
  0.481,
  0.35,
  0.265,
  0.273,
  0.454,
  0.337,
  0.542,
  0.463,
  0.644,
  0.688,
  0.601,
  0.636,
  0.896,
  0.640502,
  0.567,
  0.506,
  0.443,
  0.625,
  0.565,
  0.502,
  0.647,
  0.584,
  0.492,
  0.705228,
  0.434696,
  0.521,
  0.561,
  0.462,
  0.648,
  0.756,
  0.495,
  0.54,
  0.530712,
  0.58,
  0.916,
  0.551,
  0.724,
  0.616,
  0.66,
  0.389,
  0.530285,
  0.532,
  0.334,
  0.24,
  0.328,
  0.53,
  0.239,
  0.298,
  0.268,
  0.419,
  0.563,
  0.454,
  0.417129,
  0.335,
  0.362,
  0.439,
  0.703,
  0.658,
  0.714,
  0.623,
  0.504,
  0.501,
  0.59,
  0.712,
  0.514,
  0.543,
  0.714,
  0.667,
  0.872,
  0.477,
  0.506,
  0.71,
  0.554,
  0.571,
  0.584,
  0.5,
  0.438,
  0.499,
  0.56,
  0.612,
  0.517,
  0.664,
  0.664,
  0.583,
  0.575,
  0.443,
  0.442,
  0.663,
  0.663,
  0.489,
  0.64,
  0.537,
  0.414,
  0.544,
  0.72,
  0.646,
  0.528,
  0.573,
  0.782,
  0.645,
  0.526,
  0.48,
  0.456,
  0.5482,
  0.598,
  0.52654,
  0.666,
  0.526,
  1.214,
  0.587,
  0.609,
  0.638,
  0.555,
  0.753,
  0.682,
  0.658,
  0.267,
  0.182,
  0.235,
  0.392,
  0.359,
  0.328,
  0.426,
  0.249,
  0.298,
  0.61,
  0.331,
  0.323,
  0.325,
  0.731,
  0.346,
  0.456,
  0.667322,
  0.385475,
  0.478,
  0.534,
  0.578862,
  0.498,
  0.684,
  0.664713,
  0.516,
  0.500424,
  0.618,
  0.724,
  0.979525,
  0.606,
  0.549525,
  0.542889,
  0.466,
  0.677,
  0.543,
  0.38,
  0.56,
  0.442,
  0.439,
  0.497,
  0.736,
  0.555,
  0.549,
  0.487,
  0.673,
  0.577,
  0.509,
  0.789,
  0.672,
  0.566,
  0.658,
  0.563,
  0.64,
  0.553,
  0.494,
  0.616,
  0.848,
  0.533,
  0.77,
  0.63,
  0.633,
  0.433,
  0.42,
  0.466,
  0.756,
  0.446,
  0.547,
  0.472,
  0.48,
  0.526,
  0.532,
  0.618,
  0.485,
  0.552,
  0.653,
  0.786,
  0.636,
  0.477801,
  0.46518,
  0.58,
  0.517533,
  0.599,
  0.497,
  0.510985,
  0.505692,
  0.586944,
  0.615124,
  0.664026,
  0.577,
  0.702,
  0.660655,
  0.572,
  0.374,
  0.706,
  0.499,
  0.632,
  0.524,
  0.453,
  0.541,
  0.502,
  0.557,
  0.757,
  0.5,
  0.676606,
  0.65,
  0.609,
  0.423,
  0.239,
  0.472,
  0.306,
  0.177,
  0.333,
  0.438,
  0.257,
  0.266,
  0.339,
  0.511,
  0.261,
  0.416,
  0.382,
  0.35,
  0.233,
  0.239,
  0.195,
  0.285,
  0.369,
  0.621,
  0.399,
  0.442,
  0.249,
  0.278,
  0.381,
  0.304,
  0.37,
  0.423,
  0.348,
  0.279,
  0.244,
  0.223,
  0.188,
  0.344,
  0.246,
  0.259,
  0.27,
  0.227,
  0.289,
  0.397,
  0.405,
  0.299302,
  0.291,
  0.475,
  0.405,
  0.368,
  0.211,
  0.215,
  0.294,
  0.292,
  0.363,
  0.305,
  0.377,
  0.247,
  0.25,
  0.656,
  0.378,
  0.524,
  0.291,
  0.46,
  0.349,
  0.259,
  0.751,
  0.494,
  0.555,
  0.669,
  0.551872,
  0.63,
  0.485645,
  0.524,
  0.672552,
  0.726,
  0.636912,
  0.548,
  0.888,
  0.813608,
  0.606,
  0.637881
]