{
  "1200": 3773702849,
  "1201": 3736669212,
  "1202": 3669209585,
  "1203": 3691762527,
  "1204": 3673636654,
  "1205": 3711262992,
  "1206": 3740670288,
  "1207": 3673904247,
  "1208": 3727291254,
  "1209": 3721979934,
  "1210": 3726944260,
  "1211": 3718383222,
  "1212": 3697207572,
  "1213": 3684338701,
  "1214": 3681549206,
  "1215": 3731848153,
  "1216": 3656452436,
  "1217": 3740386545,
  "1218": 3741523146,
  "1219": 3692866519,
  "1220": 3713082095,
  "1221": 3696141948,
  "1222": 3697842856,
  "1223": 3688280970,
  "1224": 3725315385,
  "1225": 3679999029,
  "1226": 3730568437,
  "1227": 3713395200,
  "1228": 3667191583,
  "1229": 3607497040,
  "1230": 3661641199,
  "1231": 3704241217,
  "1232": 3691813082,
  "1233": 3683432991,
  "1234": 3689363365,
  "1235": 3752809493,
  "1236": 3699639034,
  "1237": 3726721039,
  "1238": 3715700861,
  "1239": 3733033267,
  "1240": 3732991481,
  "1241": 3697579933,
  "1242": 3694145598,
  "1243": 3759305057,
  "1244": 3660064976,
  "1245": 3738712122,
  "1246": 3679352475,
  "1247": 3709254640,
  "1248": 3735613506,
  "1249": 3647762221,
  "1250": 3707181961,
  "1251": 3704665473,
  "1252": 3660530056,
  "1253": 3654487905,
  "1254": 3649336022,
  "1255": 3660427047,
  "1256": 3688047252,
  "1257": 3703529433,
  "1258": 3699000500,
  "1259": 3785363996,
  "1260": 3695382695,
  "1261": 3679651112,
  "1262": 3737154242,
  "1263": 3721441006,
  "1264": 3701959768,
  "1265": 3694290428,
  "1266": 3707544003,
  "1267": 3768418292,
  "1268": 3820218663,
  "1269": 3786622561,
  "1270": 3763972359,
  "1271": 3687290533,
  "1272": 3723093777,
  "1273": 3697887151,
  "1274": 3709207591,
  "1275": 3735843478,
  "1276": 3675027574,
  "1277": 3721972358,
  "1278": 3752620805,
  "1279": 3691171580,
  "1280": 3662501933,
  "1281": 3687043773,
  "1282": 3695545725,
  "1283": 3721885702,
  "1284": 3675682118,
  "1285": 3741303734,
  "1286": 3775958333,
  "1287": 3728349610,
  "1288": 3693524401,
  "1289": 3624848224,
  "1290": 3644990995,
  "1291": 3726850545,
  "1292": 3715656332,
  "1293": 3720744852,
  "1294": 3723357331,
  "1295": 3737429600,
  "1296": 3708345239,
  "1297": 3690068456,
  "1298": 3716156811,
  "1299": 3701415458,
  "1300": 3684351137,
  "1301": 3660290208,
  "1302": 3602035053,
  "1303": 3635764809,
  "1304": 3667592032,
  "1305": 3672328105,
  "1306": 3721152460,
  "1307": 3680474557,
  "1308": 3714740959,
  "1309": 3633326867,
  "1310": 3665243221,
  "1311": 3685564973,
  "1312": 3710154142,
  "1313": 3701793840,
  "1314": 3765959953,
  "1315": 3728635013,
  "1316": 3738945225,
  "1317": 3745390078,
  "1318": 3756623501,
  "1319": 3718795869,
  "1320": 3757095711,
  "1321": 3733727115,
  "1322": 3659191961,
  "1323": 3690071126,
  "1324": 3746821675,
  "1325": 3752697156,
  "1326": 3768463918,
  "1327": 3683195063,
  "1328": 3722204614,
  "1329": 3717062614,
  "1330": 3711849132,
  "1331": 3735151867,
  "1332": 3738466147,
  "1333": 3751934438,
  "1334": 3717994473,
  "1335": 3756386977,
  "1336": 3695795372,
  "1337": 3700512132,
  "1338": 3635146817,
  "1339": 3655775237,
  "1340": 3740714500,
  "1341": 3748421445,
  "1342": 3725462775,
  "1343": 3700314139,
  "1344": 3761123884,
  "1345": 3751811382,
  "1346": 3672473412,
  "1347": 3697163585,
  "1348": 3773722890,
  "1349": 3741754954,
  "1350": 3751356004,
  "1351": 3750593236,
  "1352": 3690490287,
  "1353": 3683550852,
  "1354": 3679753178,
  "1355": 3733286039,
  "1356": 3740672056,
  "1357": 3705032460,
  "1358": 3763584416,
  "1359": 3724691917,
  "1360": 3742245032,
  "1361": 3700259515,
  "1362": 3692198600,
  "1363": 3708990819,
  "1364": 3744782521,
  "1365": 3738561037,
  "1366": 3687995499,
  "1367": 3651347515,
  "1368": 3735971161,
  "1369": 3713504258,
  "1370": 3705025273,
  "1371": 3696211220,
  "1372": 3693649487,
  "1373": 3699134816,
  "1374": 3674355278,
  "1375": 3653403294,
  "1376": 3685607976,
  "1377": 3699563908,
  "1378": 3670813790,
  "1379": 3664007238,
  "1380": 3636403566,
  "1381": 3666450774,
  "1382": 3689587177,
  "1383": 3704557293,
  "1384": 3678619697,
  "1385": 3649753017,
  "1386": 3649440490,
  "1387": 3660538384,
  "1388": 3713526328,
  "1389": 3708395931,
  "1390": 3704883975,
  "1391": 3723064728,
  "1392": 3715768807,
  "1393": 3721156957,
  "1394": 3727685457,
  "1395": 3664957630,
  "1396": 3642393050,
  "1397": 3678156117,
  "1398": 3746385315,
  "1399": 3691882118,
  "1400": 3696430332,
  "1401": 3689311523,
  "1402": 3693400031,
  "1403": 3653451716,
  "1404": 3718152963,
  "1405": 3721746945,
  "1406": 3712565638,
  "1407": 3672884629,
  "1408": 3654081480,
  "1409": 3672521958,
  "1410": 3714879663,
  "1411": 3777406217,
  "1412": 3748374902,
  "1413": 3750633064,
  "1414": 3761772998,
  "1415": 3782653306,
  "1416": 3727514841,
  "1417": 3708954295,
  "1418": 3688716006,
  "1419": 3710921561,
  "1420": 3704529599,
  "1421": 3715292841,
  "1422": 3710491393,
  "1423": 3670483809,
  "1424": 3686940980,
  "1425": 3668749470,
  "1426": 3711085939,
  "1427": 3645176684,
  "1428": 3725410921,
  "1429": 3690965210,
  "1430": 3704619423,
  "1431": 3706527117,
  "1432": 3674571749,
  "1433": 3671956300,
  "1434": 3674106029,
  "1435": 3728907346,
  "1436": 3694444022,
  "1437": 3787311645,
  "1438": 3805113286,
  "1439": 3774386429,
  "1440": 3688190052,
  "1441": 3698532068,
  "1442": 3672796539,
  "1443": 3726967983,
  "1444": 3732984767,
  "1445": 3766633132,
  "1446": 3728075414,
  "1447": 3739985955,
  "1448": 3713259775,
  "1449": 3726329547,
  "1450": 3724980975,
  "1451": 3734145170,
  "1452": 3645715934,
  "1453": 3698561307,
  "1454": 3698774191,
  "1455": 3717516223,
  "1456": 3705715269,
  "1457": 3737725842,
  "1458": 3749497747,
  "1459": 3765625884,
  "1460": 3749074178,
  "1461": 3759476070,
  "1462": 3794950537,
  "1463": 3795833154,
  "1464": 3733729967,
  "1465": 3737989635,
  "1466": 3657487345,
  "1467": 3712013493,
  "1468": 3729439782,
  "1469": 3740166327,
  "1470": 3690305410,
  "1471": 3707461078,
  "1472": 3685832379,
  "1473": 3736200115,
  "1474": 3770629398,
  "1475": 3746182904,
  "1476": 3789157661,
  "1477": 3731121745,
  "1478": 3706265129,
  "1479": 3743008373,
  "1480": 3737017452,
  "1481": 3736913211,
  "1482": 3749136506,
  "1483": 3659877669,
  "1484": 3735998241,
  "1485": 3723557559,
  "1486": 3741547991,
  "1487": 3780614279,
  "1488": 3731917383,
  "1489": 3775319433,
  "1490": 3735415874,
  "1491": 3710175077,
  "1492": 3774626254,
  "1493": 3705722499,
  "1494": 3789015204,
  "1495": 3794763025,
  "1496": 3704695961,
  "1497": 3746887370,
  "1498": 3703822283,
  "1499": 3721752370,
  "1500": 3662662506,
  "1501": 3771968615,
  "1502": 3801732448,
  "1503": 3828272794,
  "1504": 3793475556,
  "1505": 3760454026,
  "1506": 3712220683,
  "1507": 3681467182,
  "1508": 3713941651,
  "1509": 3737560479,
  "1510": 3751480347,
  "1511": 3684829521,
  "1512": 3692765196,
  "1513": 3741123632,
  "1514": 3755859155,
  "1515": 3693486112,
  "1516": 3789260211,
  "1517": 3832252069,
  "1518": 3782817954,
  "1519": 3781150676,
  "1520": 3845340957,
  "1521": 3781812150,
  "1522": 3788236928,
  "1523": 3798132259,
  "1524": 3834952829,
  "1525": 3776063219,
  "1526": 3709788077,
  "1527": 3764643500,
  "1528": 3780438719,
  "1529": 3760627027,
  "1530": 3716067711,
  "1531": 3761095780,
  "1532": 3760437854,
  "1533": 3812983319,
  "1534": 3801730430,
  "1535": 3779125035,
  "1536": 3803276068,
  "1537": 3749302119,
  "1538": 3750312659,
  "1539": 3754093981,
  "1540": 3748333646,
  "1541": 3709432198,
  "1542": 3751898607,
  "1543": 3791820158,
  "1544": 3743632399,
  "1545": 3755789976,
  "1546": 3781872327,
  "1547": 3728504588,
  "1548": 3772897594,
  "1549": 3767673728,
  "1550": 3785257587,
  "1551": 3772775899,
  "1552": 3774327359,
  "1553": 3743660799,
  "1554": 3736504678,
  "1555": 3736815595,
  "1556": 3736619909,
  "1557": 3782893310,
  "1558": 3720058531,
  "1559": 3784619654,
  "1560": 3771413640,
  "1561": 3834494471,
  "1562": 3792458021,
  "1563": 3745373692,
  "1564": 3755086156,
  "1565": 3747963178,
  "1566": 3762643469,
  "1567": 3784616435,
  "1568": 3702276795,
  "1569": 3759334625,
  "1570": 3795375069,
  "1571": 3765456834,
  "1572": 3797720697,
  "1573": 3783318254,
  "1574": 3787097507,
  "1575": 3732297999,
  "1576": 3713187901,
  "1577": 3779636332,
  "1578": 3746878809,
  "1579": 3735389481,
  "1580": 3739456624,
  "1581": 3699242291,
  "1582": 3693987925,
  "1583": 3799017623,
  "1584": 3794142939,
  "1585": 3733424527,
  "1586": 3738753187,
  "1587": 3734177720,
  "1588": 3758814577,
  "1589": 3697552945,
  "1590": 3710734974,
  "1591": 3743613859,
  "1592": 3698397094,
  "1593": 3726227518,
  "1594": 3744140109,
  "1595": 3774117173,
  "1596": 3789488081,
  "1597": 3784645143,
  "1598": 3834800555,
  "1599": 3792288196,
  "1600": 3720700961,
  "1601": 3768473466,
  "1602": 3748128083,
  "1603": 3704183390,
  "1604": 3741569483,
  "1605": 3756765408,
  "1606": 3770617227,
  "1607": 3790824578,
  "1608": 3811194193,
  "1609": 3810668192,
  "1610": 3753647178,
  "1611": 3765658989,
  "1612": 3768705453,
  "1613": 3744842878,
  "1614": 3813944543,
  "1615": 3818652179,
  "1616": 3732412650,
  "1617": 3774000735,
  "1618": 3716761270,
  "1619": 3780343114,
  "1620": 3751478663,
  "1621": 3742610525,
  "1622": 3760298211,
  "1623": 3756431603,
  "1624": 3828472662,
  "1625": 3815891218,
  "1626": 3828101215,
  "1627": 3760587493,
  "1628": 3714886095,
  "1629": 3733310286,
  "1630": 3731641480,
  "1631": 3704283436,
  "1632": 3723780983,
  "1633": 3700178676,
  "1634": 3677267741,
  "1635": 3657891756,
  "1636": 3727351502,
  "1637": 3690615586,
  "1638": 3705985399,
  "1639": 3682661995,
  "1640": 3706639850,
  "1641": 3735031272,
  "1642": 3732594933,
  "1643": 3818993339,
  "1644": 3750671753,
  "1645": 3735285813,
  "1646": 3705398835,
  "1647": 3684149020,
  "1648": 3700639938,
  "1649": 3711805876,
  "1650": 3763315938,
  "1651": 3754233698,
  "1652": 3788324545,
  "1653": 3755250278,
  "1654": 3769812039,
  "1655": 3785682701,
  "1656": 3744016912,
  "1657": 3736316591,
  "1658": 3777979416,
  "1659": 3768611501,
  "1660": 3740678211,
  "1661": 3680812956,
  "1662": 3645962849,
  "1663": 3645656710,
  "1664": 3732104522,
  "1665": 3686560949,
  "1666": 3735299783,
  "1667": 3686125340,
  "1668": 3730409956,
  "1669": 3700991782,
  "1670": 3710903211,
  "1671": 3725256695,
  "1672": 3647212140,
  "1673": 3720839451,
  "1674": 3682040558,
  "1675": 3686119282,
  "1676": 3665775380,
  "1677": 3728053509,
  "1678": 3759929334,
  "1679": 3722786975,
  "1680": 3685732974,
  "1681": 3715499513,
  "1682": 3741416220,
  "1683": 3680878134,
  "1684": 3721443650,
  "1685": 3725169781,
  "1686": 3747744124,
  "1687": 3758181836,
  "1688": 3785790453,
  "1689": 3717083510,
  "1690": 3702549088,
  "1691": 3722684748,
  "1692": 3752834438,
  "1693": 3730806366,
  "1694": 3734221872,
  "1695": 3792335336,
  "1696": 3769368083,
  "1697": 3757079894,
  "1698": 3728934207,
  "1699": 3803550148,
  "1700": 3848985590,
  "1701": 3758946218,
  "1702": 3754814949,
  "1703": 3790981961,
  "1704": 3756580690,
  "1705": 3774347079,
  "1706": 3837386855,
  "1707": 3821403658,
  "1708": 3814584215,
  "1709": 3844416944,
  "1710": 3810628988,
  "1711": 3839181637,
  "1712": 3815055720,
  "1713": 3804969517,
  "1714": 3787907111,
  "1715": 3773120870,
  "1716": 3804452126,
  "1717": 3802680925,
  "1718": 3749869777,
  "1719": 3800939790,
  "1720": 3729029319,
  "1721": 3771374688,
  "1722": 3852158378,
  "1723": 3784067348,
  "1724": 3805718379,
  "1725": 3770953224,
  "1726": 3769720876,
  "1727": 3760112279,
  "1728": 3762602866,
  "1729": 3767247815,
  "1730": 3792295587,
  "1731": 3767719266,
  "1732": 3763177755,
  "1733": 3795053590,
  "1734": 3818723443,
  "1735": 3753545565,
  "1736": 3740346358,
  "1737": 3765004437,
  "1738": 3723136334,
  "1739": 3793529102,
  "1740": 3796586670,
  "1741": 3834006226,
  "1742": 3843843467,
  "1743": 3828880384,
  "1744": 3772437828,
  "1745": 3749799580,
  "1746": 3744145468,
  "1747": 3769555891,
  "1748": 3693795593,
  "1749": 3771055962,
  "1750": 3763889498,
  "1751": 3718755654,
  "1752": 3783192451,
  "1753": 3718470006,
  "1754": 3774553404,
  "1755": 3763505900,
  "1756": 3798588994,
  "1757": 3816102886,
  "1758": 3743528756,
  "1759": 3786754491,
  "1760": 3775539015,
  "1761": 3742884990,
  "1762": 3776432689,
  "1763": 3774598321,
  "1764": 3722415795,
  "1765": 3697052573,
  "1766": 3696854184,
  "1767": 3724758144,
  "1768": 3749722639,
  "1769": 3769296569,
  "1770": 3685166663,
  "1771": 3729510406,
  "1772": 3706071225,
  "1773": 3713562036,
  "1774": 3774456244,
  "1775": 3792669193,
  "1776": 3735102923,
  "1777": 3738601964,
  "1778": 3757243988,
  "1779": 3802766329,
  "1780": 3762942780,
  "1781": 3790047033,
  "1782": 3805034492,
  "1783": 3737051350,
  "1784": 3762727361,
  "1785": 3749909907,
  "1786": 3784066038,
  "1787": 3739174126,
  "1788": 3769962239,
  "1789": 3797511117,
  "1790": 3797891027,
  "1791": 3759292083,
  "1792": 3682463294,
  "1793": 3717706240,
  "1794": 3711163245,
  "1795": 3709215343,
  "1796": 3798326381,
  "1797": 3835142301,
  "1798": 3802187282,
  "1799": 3775084018
}