{
  "1048576": [
    4.88,
    3.959,
    4.587577,
    4.318556,
    4.388748,
    2.412,
    3.062,
    3.171,
    3.863,
    2.137,
    3.433,
    3.121,
    5.774,
    4.28276,
    4.060986,
    3.698327,
    4.346,
    4.681,
    4.95,
    6.142,
    1.526,
    3.18,
    6.69,
    6.532,
    11.031,
    10.628,
    4.19,
    3.848,
    4.864,
    1.963043,
    3.91,
    4.198,
    4.853,
    3.473,
    3.483,
    5.503,
    4.429698,
    3.312,
    5.107,
    6.158,
    3.735,
    3.513,
    6.403,
    4.649,
    3.473,
    6.986222,
    5.033,
    4.236852,
    2.447,
    6.401195,
    4.203129,
    4.305616,
    5.2,
    4.182,
    3.866,
    5.22,
    4.058,
    5.14,
    5.163,
    2.986,
    1.639,
    3.949,
    5.725,
    4.126,
    2.328,
    2.675,
    3.661,
    3.705,
    2.415,
    2.936,
    31.987,
    2.766118,
    1.942364,
    5.299377,
    2.957624,
    2.266,
    2.875,
    3.527,
    4.039,
    4.449875,
    4.507,
    4.641,
    3.751,
    3.001,
    1.893522,
    10.821218,
    3.901,
    4.729,
    3.37,
    5.197,
    2.358,
    4.652724,
    4.187,
    3.027,
    2.69,
    4.069,
    11.393,
    8.308,
    8.329,
    3.546,
    7.398,
    7.142,
    4.527098,
    6.761,
    2.202,
    4.251,
    1.714,
    11.68,
    1.881,
    2.5,
    6.348,
    5.051,
    4.307,
    2.217,
    7.504,
    7.809,
    4.907,
    5.805,
    4.247348,
    4.881,
    2.125,
    2.8,
    6.106,
    3.293626,
    4.774876,
    4.953,
    4.877,
    5.706,
    5.482,
    3.52,
    5.206,
    9.052,
    3.351,
    4.576,
    5.054,
    10.602,
    8.062,
    3.827,
    5.154,
    4.052,
    4.679,
    3.995,
    6.431026,
    5.264,
    4.25,
    9.092,
    5.746,
    3.817,
    9.919,
    5.851889,
    4.56863
  ],
  "51200": [
    2.901,
    1.686,
    1.774,
    2.279,
    1.573,
    1.831,
    1.985,
    1.69,
    1.78,
    1.419,
    1.359,
    2.072,
    1.524,
    1.582,
    1.597,
    1.642,
    1.711,
    1.527,
    2.285,
    1.791,
    1.404,
    2.046,
    2.41,
    1.358,
    1.865,
    1.372,
    1.681,
    1.353,
    1.979,
    1.614265,
    2.204432,
    1.945671,
    1.964432,
    2.63632,
    1.988544,
    2.103568,
    1.649077,
    2.238288,
    1.704568,
    1.51207,
    1.792891,
    2.057284,
    0.822,
    1.257,
    1.061,
    0.767,
    1.126,
    2.142,
    0.92,
    0.755,
    0.774,
    0.943,
    0.5,
    1.022,
    1.664,
    0.971,
    0.992,
    1.117,
    0.627,
    1.539,
    1.177,
    1.387,
    0.773,
    0.88,
    1.325,
    1.491276,
    1.875055,
    1.926871,
    2.431001,
    1.732287,
    1.945456,
    2.285025,
    2.407,
    2.353014,
    1.688,
    1.399597,
    2.113041,
    1.707392,
    1.556,
    0.56,
    1.141,
    0.966,
    1.724903,
    0.626,
    1.252,
    1.127,
    1.764,
    0.664,
    0.906,
    0.757,
    1.565,
    1.631371,
    1.420406,
    1.828525,
    1.894,
    2.4931,
    1.801,
    2.413,
    1.823,
    1.359391,
    1.656757,
    1.801808,
    1.452124,
    1.673964,
    1.457259,
    1.874,
    1.538,
    1.821,
    2.339,
    2.287,
    2.008,
    2.857,
    2.271,
    2.347,
    1.719,
    2.346,
    1.633,
    1.601,
    1.769,
    0.98,
    1.832,
    1.759557,
    0.589,
    1.309,
    1.172,
    1.557,
    1.8,
    1.236,
    0.501,
    0.743,
    1.55,
    3.964,
    3.428,
    4.356,
    3.62,
    2.958176,
    2.811,
    2.855,
    2.605,
    2.840129,
    4.081,
    4.803,
    3.095,
    2.903,
    1.722,
    1.59,
    1.603,
    2.243,
    1.601,
    1.91,
    2.043,
    1.658,
    3.144,
    2.191,
    2.173,
    1.39,
    1.2,
    2.152,
    0.989,
    0.637,
    1.289,
    1.18,
    1.65354,
    0.859,
    1.144,
    1.851,
    1.245,
    1.465,
    1.28,
    1.374,
    1.408,
    1.925,
    1.425,
    0.756103,
    1.795,
    0.687,
    1.456,
    1.014,
    0.759,
    1.349,
    0.717,
    0.863,
    1.438,
    0.94,
    1.082,
    1.441,
    1.469,
    2.30424,
    1.899,
    3.033,
    1.445,
    1.081,
    1.697,
    2.148,
    1.1,
    1.846,
    2.027,
    0.759,
    0.549,
    1.206,
    1.039964,
    1.670738,
    0.624,
    1.342,
    1.318,
    1.105,
    1.627,
    0.681,
    1.547,
    0.648,
    0.958,
    0.753,
    2.239,
    1.442,
    1.547,
    1.575,
    2.17,
    2.029,
    2.357,
    1.734,
    1.379,
    1.914,
    1.434,
    1.545,
    1.494,
    1.451,
    2.199,
    2.247,
    1.783,
    1.949,
    1.503,
    1.433,
    1.577,
    1.575,
    1.963,
    1.304,
    2.407,
    2.123,
    1.169,
    2.43,
    2.184,
    1.746,
    2.395,
    2.615,
    1.958,
    2.279,
    2.055,
    2.207,
    2.356,
    2.109,
    1.646,
    1.451,
    1.367889,
    1.813,
    1.948,
    2.371,
    1.4,
    2.023,
    1.327,
    1.503,
    2.16,
    1.614,
    1.465,
    1.278,
    1.538,
    1.639,
    1.84,
    2.715,
    1.174,
    1.247,
    1.299,
    1.614,
    1.674,
    1.251,
    1.659,
    2.154,
    1.387,
    1.783,
    2.033,
    2.458,
    1.484,
    1.373,
    1.634,
    1.433,
    1.418,
    1.802,
    1.445,
    1.519,
    0.544,
    1.309,
    1.634,
    1.308649,
    1.274,
    1.403119,
    1.37,
    0.62,
    1.425,
    1.109,
    0.736,
    0.82,
    1.684,
    0.919,
    1.841286,
    1.618429,
    1.926,
    2.162488,
    1.93427,
    1.869,
    1.641,
    1.398128,
    2.11,
    1.428,
    1.683,
    1.341111,
    4.118,
    2.039,
    1.633,
    2.149,
    1.218,
    1.432,
    1.662127,
    1.602,
    1.622,
    1.534,
    1.514,
    2.081,
    2.67,
    1.607,
    0.899,
    0.796,
    1.072,
    1.779,
    0.678,
    1.341,
    0.993327,
    0.618,
    1.135889,
    0.81,
    1.126,
    0.803,
    1.297,
    1.911511,
    1.51,
    1.759,
    1.806,
    1.989,
    2.655,
    2.137,
    1.73,
    2.237,
    1.544,
    1.936,
    2.448,
    1.48,
    2.082,
    1.618,
    1.459,
    1.86,
    2.263389,
    2.138,
    2.573071,
    1.525574,
    1.645688,
    1.552,
    2.554,
    1.317187,
    1.389,
    1.852866,
    2.035,
    1.837,
    1.583,
    1.738,
    2.097,
    1.097,
    1.887,
    2.275142,
    1.617378,
    2.120716,
    2.302712,
    1.442785,
    1.614,
    1.179088,
    1.235627,
    1.293,
    1.616601,
    1.911,
    1.30965,
    2.039325,
    1.928,
    2.297312,
    2.37017,
    2.017852,
    1.665,
    1.579,
    1.79363,
    1.749,
    2.853636,
    1.453982,
    2.086,
    2.058927,
    1.823,
    1.799428,
    1.934,
    1.648479,
    1.560288,
    2.243408,
    1.675164,
    2.15,
    1.56,
    2.173,
    1.592,
    1.531,
    1.508,
    1.477,
    1.573,
    1.514,
    1.539,
    1.556,
    1.582,
    1.802,
    0.759,
    1.142319,
    1.031,
    1.197,
    0.865,
    2.203063,
    1.669,
    0.695,
    1.645,
    1.511,
    2.402,
    1.241,
    1.722,
    2.304,
    1.277,
    1.811,
    2.252,
    1.659,
    1.521,
    1.47,
    1.877,
    1.357,
    2.003,
    1.399,
    2.534,
    1.366,
    1.549,
    2.789,
    1.47245,
    1.746,
    2.009,
    2.237,
    2.301,
    1.581,
    1.496,
    1.259,
    1.548,
    1.201,
    1.36,
    1.651,
    1.644,
    1.296,
    1.73,
    0.664,
    1.235,
    0.758,
    1.485,
    0.999,
    1.271,
    1.106,
    1.805,
    0.76,
    2.022,
    1.813,
    1.45,
    1.035,
    0.910622,
    1.412193,
    1.000297,
    1.808005,
    1.285,
    1.404,
    0.740303,
    1.271,
    1.128302,
    1.796143,
    0.798882,
    0.61,
    0.977,
    0.919,
    1.790381,
    0.963013,
    1.378,
    2.539,
    1.648,
    2.55,
    0.89,
    0.744,
    0.855182,
    1.664,
    1.79,
    2.453,
    1.751,
    2.097,
    1.836,
    1.842,
    1.47,
    1.644,
    1.682,
    1.607,
    0.858,
    0.933,
    1.031,
    1.736,
    1.218,
    1.182,
    0.569,
    1.226,
    0.55,
    1.322,
    1.339,
    1.448,
    0.715103,
    0.914,
    1.427763,
    2.128,
    1.326,
    2.489522,
    1.773,
    0.678,
    0.651,
    0.733,
    0.632,
    0.866,
    1.971,
    2.191,
    1.739,
    2.419,
    1.674962,
    1.946,
    1.971,
    1.982,
    2.705937,
    1.565,
    2.349278,
    1.649,
    1.49,
    1.569662,
    1.633,
    2.252,
    1.539,
    2.309,
    1.84,
    2.439,
    1.859,
    1.453,
    1.339,
    2.082,
    2.66264,
    1.524,
    2.088,
    2.771,
    1.679,
    1.904,
    1.863,
    3.027,
    2.044,
    2.063,
    1.928,
    2.108,
    1.653,
    2.334,
    1.844,
    1.669,
    1.927,
    1.551,
    1.755,
    1.881,
    1.932,
    2.319,
    2.392,
    1.582,
    2.027,
    2.218,
    1.858,
    1.862,
    2.008,
    1.531,
    2.564,
    1.604,
    1.489,
    1.841,
    1.507,
    2.176,
    1.538,
    1.889,
    2.016,
    1.933,
    1.471,
    1.418,
    1.603,
    2.177,
    1.522,
    1.652,
    3.969,
    1.33,
    1.021,
    1.847,
    1.062,
    1.174,
    2.161,
    1.254,
    0.911,
    1.421,
    0.8,
    0.853,
    0.805,
    2.215,
    2.377,
    1.835,
    3.02,
    2.248,
    1.978,
    1.814,
    1.613,
    1.857,
    1.662,
    2.023,
    2.181,
    1.544,
    0.84,
    1.161,
    1.370612,
    0.916,
    2.474355,
    0.615,
    1.251,
    1.787,
    1.071,
    0.819,
    0.762,
    1.159,
    1.393,
    0.783,
    1.383,
    1.429,
    1.07,
    1.153,
    7.663,
    1.774,
    0.792,
    1.378,
    1.381,
    1.041,
    1.205,
    1.492,
    2.022,
    1.629,
    1.42964,
    3.196,
    1.398,
    3.782,
    2.6,
    1.669,
    2.074,
    2.144,
    2.232028,
    2.481,
    1.929,
    1.363,
    2.276,
    2.293,
    1.627,
    2.235,
    2.307,
    1.979,
    2.364,
    1.824,
    1.622,
    1.303,
    1.171,
    1.51,
    2.055,
    1.131,
    1.922021,
    0.983,
    1.074,
    1.243,
    1.788,
    1.032,
    1.529,
    1.399,
    0.699,
    0.741,
    1.048,
    0.764,
    0.744,
    0.794,
    0.66,
    1.738446,
    1.682027,
    1.463,
    2.297,
    1.379,
    2.047316,
    1.631,
    2.759,
    1.311,
    2.363,
    2.153,
    1.281,
    1.545,
    2.206766,
    1.5,
    1.579,
    1.766,
    1.777,
    2.356,
    1.529,
    1.986,
    2.055,
    1.762,
    2.373,
    2.464,
    1.523,
    1.73119,
    2.158,
    1.545,
    2.351,
    1.611,
    2.347,
    1.315,
    1.847,
    2.075,
    1.758,
    2.095,
    1.771,
    1.376,
    1.471,
    1.56,
    2.061,
    1.931,
    1.241,
    1.928272,
    0.699,
    1.415,
    0.638,
    0.6,
    2.269,
    0.945,
    1.578,
    0.837,
    0.727,
    0.922,
    0.765,
    2.141,
    1.031,
    1.056,
    0.99,
    1.487,
    1.604,
    1.494,
    0.898,
    1.55,
    2.062,
    1.776,
    1.503,
    2.966,
    1.681,
    1.685,
    1.604,
    1.462,
    1.692,
    2.37,
    2.108,
    1.627,
    1.511,
    1.035,
    1.038,
    0.684879,
    2.172,
    1.576,
    1.721,
    1.12,
    1.216,
    1.534,
    1.443,
    1.57,
    0.777,
    1.595,
    0.572,
    0.757,
    0.825,
    1.225,
    0.868,
    0.832,
    1.85,
    1.634,
    1.153,
    1.387,
    1.418,
    0.69,
    0.935,
    1.544,
    0.743,
    0.689,
    0.761,
    2.031,
    1.175,
    2.025,
    1.529,
    2.642,
    1.309,
    1.848,
    1.802,
    1.423,
    1.618,
    1.96,
    1.505,
    1.371,
    1.316,
    2.691,
    1.676,
    2.34,
    1.758,
    2.77,
    1.571,
    2.282,
    2.754,
    2.218,
    1.582,
    2.395,
    2.051,
    1.615,
    1.47,
    3.338,
    1.463,
    1.516,
    1.659,
    1.783,
    2.319,
    1.604,
    2.188,
    2.188,
    2.14,
    1.972,
    2.023,
    1.546,
    1.56,
    1.383,
    2.105,
    1.681,
    1.881,
    2.295,
    1.274,
    2.084,
    1.742119,
    1.378,
    1.337,
    1.529,
    1.531,
    1.826,
    0.963,
    0.805,
    1.092,
    1.908,
    1.415,
    1.28,
    1.499,
    1.321,
    0.697,
    1.187,
    0.586,
    1.219,
    0.523,
    1.466,
    1.555,
    1.413,
    1.925,
    2.918809,
    1.982,
    1.714877,
    2.774,
    2.014,
    1.649124,
    1.719,
    2.264,
    1.703628,
    0.884,
    1.032,
    1.59,
    1.766072,
    1.63,
    0.973,
    1.332,
    1.116,
    0.796,
    0.984,
    1.534,
    1.464,
    1.832,
    0.729,
    1.495,
    1.632,
    1.694,
    2.471,
    1.488,
    2.022,
    1.773,
    1.544,
    1.584,
    1.434,
    8.308,
    1.307,
    1.02,
    1.852,
    2.225,
    1.869,
    0.951,
    0.659,
    1.091,
    2.388,
    2.8,
    1.081,
    1.741344,
    1.747,
    1.715518,
    2.46,
    1.671,
    1.714,
    1.749,
    1.527,
    1.912,
    2.969,
    1.345,
    2.205,
    1.188,
    1.462,
    1.723,
    2.337,
    1.998,
    1.847,
    2.226,
    2.053,
    1.772056,
    1.517,
    1.332,
    3.153,
    1.773,
    1.977,
    2.845,
    2.205,
    1.772,
    2.034,
    2.02,
    2.437,
    1.389,
    1.473,
    1.783842,
    1.889,
    1.861,
    1.882,
    1.359,
    1.414,
    2.06907,
    1.368,
    1.364602,
    1.499139,
    2.346,
    2.09,
    2.272,
    2.123,
    1.927,
    2.393,
    1.984,
    1.405,
    1.944,
    1.404,
    1.297,
    1.849539,
    2.476,
    2.284,
    1.327,
    1.865,
    2.028,
    2.065,
    1.401,
    1.767,
    1.448,
    1.442,
    1.64,
    1.912,
    1.749,
    2.314,
    2.444,
    2.453,
    2.893,
    2.217,
    2.404,
    2.475,
    1.84,
    1.577,
    3.22,
    1.760122,
    1.177,
    1.774889,
    1.779889,
    2.259,
    2.126776,
    2.658147,
    1.434889,
    1.292,
    2.193466,
    1.259717,
    2.895042,
    1.492
  ],
  "5242880": [
    14.862,
    5.409,
    6.084,
    5.742,
    4.379,
    10.171,
    10.065,
    9.878,
    13.738,
    9.801,
    11.266,
    10.099,
    13.235,
    10.114,
    7.678416,
    5.287,
    10.975,
    13.44,
    15.973,
    10.894,
    8.236,
    10.734,
    8.97,
    7.226,
    8.63,
    18.298,
    6.805,
    17.448591,
    7.253,
    5.645092,
    5.509,
    5.181,
    10.65,
    8.59,
    9.254,
    9.158,
    6.55,
    8.816,
    5.728,
    5.242,
    5.044,
    12.848,
    6.332,
    12.522,
    10.206,
    21.084,
    13.489,
    13.559,
    13.886,
    30.191
  ],
  "ALL": [
    2.901,
    1.686,
    1.774,
    2.279,
    1.573,
    1.831,
    1.985,
    1.69,
    1.78,
    1.419,
    1.359,
    2.072,
    1.524,
    1.582,
    4.88,
    3.959,
    1.597,
    1.642,
    1.711,
    1.527,
    2.285,
    1.791,
    1.404,
    2.046,
    2.41,
    1.358,
    1.865,
    1.372,
    1.681,
    1.353,
    1.979,
    1.614265,
    2.204432,
    1.945671,
    1.964432,
    2.63632,
    1.988544,
    2.103568,
    1.649077,
    2.238288,
    1.704568,
    1.51207,
    1.792891,
    2.057284,
    4.587577,
    4.318556,
    4.388748,
    0.822,
    1.257,
    1.061,
    0.767,
    1.126,
    2.142,
    0.92,
    0.755,
    0.774,
    2.412,
    3.062,
    3.171,
    3.863,
    2.137,
    3.433,
    14.862,
    0.943,
    0.5,
    1.022,
    1.664,
    0.971,
    0.992,
    1.117,
    0.627,
    1.539,
    1.177,
    1.387,
    0.773,
    0.88,
    1.325,
    3.121,
    5.774,
    1.491276,
    1.875055,
    1.926871,
    2.431001,
    1.732287,
    1.945456,
    2.285025,
    2.407,
    2.353014,
    1.688,
    1.399597,
    2.113041,
    1.707392,
    4.28276,
    4.060986,
    1.556,
    0.56,
    1.141,
    0.966,
    1.724903,
    0.626,
    1.252,
    1.127,
    1.764,
    0.664,
    0.906,
    0.757,
    1.565,
    5.409,
    6.084,
    1.631371,
    1.420406,
    1.828525,
    1.894,
    2.4931,
    1.801,
    2.413,
    1.823,
    1.359391,
    1.656757,
    1.801808,
    1.452124,
    1.673964,
    1.457259,
    3.698327,
    4.346,
    1.874,
    1.538,
    1.821,
    2.339,
    2.287,
    2.008,
    2.857,
    2.271,
    2.347,
    1.719,
    2.346,
    1.633,
    4.681,
    4.95,
    6.142,
    1.601,
    1.769,
    0.98,
    1.832,
    1.759557,
    0.589,
    1.309,
    1.172,
    1.557,
    1.8,
    1.236,
    0.501,
    0.743,
    1.55,
    1.526,
    3.18,
    3.964,
    3.428,
    4.356,
    3.62,
    2.958176,
    2.811,
    2.855,
    2.605,
    2.840129,
    4.081,
    4.803,
    3.095,
    6.69,
    6.532,
    11.031,
    10.628,
    2.903,
    1.722,
    1.59,
    1.603,
    2.243,
    1.601,
    1.91,
    2.043,
    1.658,
    3.144,
    2.191,
    2.173,
    1.39,
    1.2,
    2.152,
    4.19,
    0.989,
    0.637,
    1.289,
    1.18,
    1.65354,
    0.859,
    1.144,
    1.851,
    1.245,
    1.465,
    1.28,
    1.374,
    1.408,
    1.925,
    3.848,
    5.742,
    1.425,
    0.756103,
    1.795,
    0.687,
    1.456,
    1.014,
    0.759,
    1.349,
    0.717,
    0.863,
    1.438,
    0.94,
    4.864,
    1.963043,
    4.379,
    10.171,
    1.082,
    1.441,
    1.469,
    2.30424,
    1.899,
    3.033,
    1.445,
    1.081,
    1.697,
    2.148,
    1.1,
    1.846,
    2.027,
    3.91,
    10.065,
    9.878,
    0.759,
    0.549,
    1.206,
    1.039964,
    1.670738,
    0.624,
    1.342,
    1.318,
    1.105,
    1.627,
    0.681,
    1.547,
    0.648,
    0.958,
    0.753,
    2.239,
    1.442,
    1.547,
    1.575,
    2.17,
    2.029,
    2.357,
    1.734,
    1.379,
    1.914,
    1.434,
    1.545,
    4.198,
    4.853,
    1.494,
    1.451,
    2.199,
    2.247,
    1.783,
    1.949,
    1.503,
    1.433,
    1.577,
    1.575,
    1.963,
    1.304,
    2.407,
    3.473,
    3.483,
    13.738,
    2.123,
    1.169,
    2.43,
    2.184,
    1.746,
    2.395,
    2.615,
    1.958,
    2.279,
    2.055,
    2.207,
    2.356,
    5.503,
    4.429698,
    9.801,
    11.266,
    2.109,
    1.646,
    1.451,
    1.367889,
    1.813,
    1.948,
    2.371,
    1.4,
    2.023,
    1.327,
    1.503,
    3.312,
    5.107,
    6.158,
    3.735,
    10.099,
    2.16,
    1.614,
    1.465,
    1.278,
    1.538,
    1.639,
    1.84,
    2.715,
    1.174,
    1.247,
    1.299,
    1.614,
    3.513,
    6.403,
    13.235,
    10.114,
    1.674,
    1.251,
    1.659,
    2.154,
    1.387,
    1.783,
    2.033,
    2.458,
    1.484,
    1.373,
    1.634,
    1.433,
    1.418,
    1.802,
    1.445,
    4.649,
    1.519,
    0.544,
    1.309,
    1.634,
    1.308649,
    1.274,
    1.403119,
    1.37,
    0.62,
    1.425,
    1.109,
    0.736,
    0.82,
    1.684,
    0.919,
    3.473,
    1.841286,
    1.618429,
    1.926,
    2.162488,
    1.93427,
    1.869,
    1.641,
    1.398128,
    2.11,
    1.428,
    1.683,
    1.341111,
    4.118,
    6.986222,
    2.039,
    1.633,
    2.149,
    1.218,
    1.432,
    1.662127,
    1.602,
    1.622,
    1.534,
    1.514,
    2.081,
    2.67,
    1.607,
    5.033,
    4.236852,
    0.899,
    0.796,
    1.072,
    1.779,
    0.678,
    1.341,
    0.993327,
    0.618,
    1.135889,
    0.81,
    1.126,
    0.803,
    1.297,
    2.447,
    7.678416,
    5.287,
    1.911511,
    1.51,
    1.759,
    1.806,
    1.989,
    2.655,
    2.137,
    1.73,
    2.237,
    1.544,
    1.936,
    2.448,
    1.48,
    2.082,
    6.401195,
    1.618,
    1.459,
    1.86,
    2.263389,
    2.138,
    2.573071,
    1.525574,
    1.645688,
    1.552,
    2.554,
    1.317187,
    1.389,
    1.852866,
    4.203129,
    4.305616,
    2.035,
    1.837,
    1.583,
    1.738,
    2.097,
    1.097,
    1.887,
    2.275142,
    1.617378,
    2.120716,
    2.302712,
    1.442785,
    1.614,
    1.179088,
    1.235627,
    1.293,
    1.616601,
    1.911,
    1.30965,
    2.039325,
    1.928,
    2.297312,
    2.37017,
    2.017852,
    1.665,
    1.579,
    5.2,
    4.182,
    3.866,
    10.975,
    1.79363,
    1.749,
    2.853636,
    1.453982,
    2.086,
    2.058927,
    1.823,
    1.799428,
    1.934,
    1.648479,
    1.560288,
    2.243408,
    1.675164,
    5.22,
    13.44,
    2.15,
    1.56,
    2.173,
    1.592,
    1.531,
    1.508,
    1.477,
    1.573,
    1.514,
    1.539,
    4.058,
    5.14,
    5.163,
    15.973,
    10.894,
    1.556,
    1.582,
    1.802,
    0.759,
    1.142319,
    1.031,
    1.197,
    0.865,
    2.203063,
    1.669,
    0.695,
    1.645,
    1.511,
    2.986,
    1.639,
    8.236,
    2.402,
    1.241,
    1.722,
    2.304,
    1.277,
    1.811,
    2.252,
    1.659,
    1.521,
    1.47,
    1.877,
    1.357,
    2.003,
    1.399,
    3.949,
    2.534,
    1.366,
    1.549,
    2.789,
    1.47245,
    1.746,
    2.009,
    2.237,
    2.301,
    1.581,
    1.496,
    1.259,
    5.725,
    4.126,
    10.734,
    1.548,
    1.201,
    1.36,
    1.651,
    1.644,
    1.296,
    1.73,
    0.664,
    2.328,
    2.675,
    3.661,
    3.705,
    2.415,
    8.97,
    7.226,
    1.235,
    0.758,
    1.485,
    0.999,
    1.271,
    1.106,
    1.805,
    0.76,
    2.022,
    1.813,
    1.45,
    1.035,
    2.936,
    31.987,
    8.63,
    18.298,
    0.910622,
    1.412193,
    1.000297,
    1.808005,
    1.285,
    1.404,
    0.740303,
    1.271,
    1.128302,
    1.796143,
    0.798882,
    2.766118,
    1.942364,
    5.299377,
    2.957624,
    6.805,
    0.61,
    0.977,
    0.919,
    1.790381,
    0.963013,
    1.378,
    2.539,
    1.648,
    2.55,
    0.89,
    0.744,
    0.855182,
    2.266,
    2.875,
    3.527,
    17.448591,
    1.664,
    1.79,
    2.453,
    1.751,
    2.097,
    1.836,
    1.842,
    1.47,
    1.644,
    1.682,
    4.039,
    4.449875,
    4.507,
    4.641,
    1.607,
    0.858,
    0.933,
    1.031,
    1.736,
    1.218,
    1.182,
    0.569,
    1.226,
    0.55,
    1.322,
    1.339,
    1.448,
    3.751,
    3.001,
    7.253,
    0.715103,
    0.914,
    1.427763,
    2.128,
    1.326,
    2.489522,
    1.773,
    0.678,
    0.651,
    0.733,
    0.632,
    0.866,
    1.893522,
    5.645092,
    5.509,
    5.181,
    1.971,
    2.191,
    1.739,
    2.419,
    1.674962,
    1.946,
    1.971,
    1.982,
    2.705937,
    1.565,
    2.349278,
    1.649,
    1.49,
    1.569662,
    10.821218,
    1.633,
    2.252,
    1.539,
    2.309,
    1.84,
    2.439,
    1.859,
    1.453,
    1.339,
    2.082,
    2.66264,
    1.524,
    2.088,
    3.901,
    4.729,
    3.37,
    2.771,
    1.679,
    1.904,
    1.863,
    3.027,
    2.044,
    2.063,
    1.928,
    2.108,
    1.653,
    2.334,
    1.844,
    1.669,
    1.927,
    1.551,
    5.197,
    1.755,
    1.881,
    1.932,
    2.319,
    2.392,
    1.582,
    2.027,
    2.218,
    1.858,
    1.862,
    2.008,
    1.531,
    2.564,
    1.604,
    1.489,
    1.841,
    1.507,
    2.176,
    1.538,
    1.889,
    2.016,
    1.933,
    1.471,
    1.418,
    1.603,
    2.177,
    1.522,
    1.652,
    10.65,
    3.969,
    1.33,
    1.021,
    1.847,
    1.062,
    1.174,
    2.161,
    1.254,
    0.911,
    1.421,
    0.8,
    0.853,
    0.805,
    2.358,
    8.59,
    9.254,
    2.215,
    2.377,
    1.835,
    3.02,
    2.248,
    1.978,
    1.814,
    1.613,
    1.857,
    1.662,
    2.023,
    2.181,
    1.544,
    4.652724,
    4.187,
    0.84,
    1.161,
    1.370612,
    0.916,
    2.474355,
    0.615,
    1.251,
    1.787,
    1.071,
    0.819,
    0.762,
    1.159,
    1.393,
    0.783,
    1.383,
    1.429,
    1.07,
    1.153,
    7.663,
    1.774,
    0.792,
    1.378,
    1.381,
    1.041,
    1.205,
    1.492,
    2.022,
    1.629,
    3.027,
    2.69,
    4.069,
    1.42964,
    3.196,
    1.398,
    3.782,
    2.6,
    1.669,
    2.074,
    2.144,
    2.232028,
    2.481,
    1.929,
    1.363,
    11.393,
    8.308,
    8.329,
    2.276,
    2.293,
    1.627,
    2.235,
    2.307,
    1.979,
    2.364,
    1.824,
    1.622,
    1.303,
    1.171,
    1.51,
    2.055,
    1.131,
    1.922021,
    3.546,
    0.983,
    1.074,
    1.243,
    1.788,
    1.032,
    1.529,
    1.399,
    0.699,
    0.741,
    1.048,
    0.764,
    0.744,
    0.794,
    0.66,
    9.158,
    6.55,
    1.738446,
    1.682027,
    1.463,
    2.297,
    1.379,
    2.047316,
    1.631,
    2.759,
    1.311,
    2.363,
    2.153,
    1.281,
    1.545,
    2.206766,
    1.5,
    1.579,
    1.766,
    1.777,
    2.356,
    1.529,
    1.986,
    2.055,
    1.762,
    2.373,
    2.464,
    1.523,
    1.73119,
    7.398,
    7.142,
    4.527098,
    6.761,
    2.158,
    1.545,
    2.351,
    1.611,
    2.347,
    1.315,
    1.847,
    2.075,
    1.758,
    2.095,
    1.771,
    1.376,
    1.471,
    1.56,
    2.061,
    1.931,
    1.241,
    1.928272,
    0.699,
    1.415,
    0.638,
    0.6,
    2.269,
    0.945,
    1.578,
    0.837,
    0.727,
    2.202,
    4.251,
    8.816,
    5.728,
    0.922,
    0.765,
    2.141,
    1.031,
    1.056,
    0.99,
    1.487,
    1.604,
    1.494,
    0.898,
    1.714,
    11.68,
    1.881,
    2.5,
    5.242,
    5.044,
    1.55,
    2.062,
    1.776,
    1.503,
    2.966,
    1.681,
    1.685,
    1.604,
    1.462,
    1.692,
    2.37,
    2.108,
    1.627,
    6.348,
    5.051,
    4.307,
    1.511,
    1.035,
    1.038,
    0.684879,
    2.172,
    1.576,
    1.721,
    1.12,
    1.216,
    1.534,
    1.443,
    1.57,
    0.777,
    1.595,
    0.572,
    0.757,
    0.825,
    1.225,
    0.868,
    0.832,
    1.85,
    1.634,
    1.153,
    1.387,
    1.418,
    0.69,
    0.935,
    1.544,
    0.743,
    0.689,
    0.761,
    2.217,
    2.031,
    1.175,
    2.025,
    1.529,
    2.642,
    1.309,
    1.848,
    1.802,
    1.423,
    1.618,
    1.96,
    1.505,
    1.371,
    1.316,
    7.504,
    2.691,
    1.676,
    2.34,
    1.758,
    2.77,
    1.571,
    2.282,
    2.754,
    2.218,
    1.582,
    2.395,
    2.051,
    1.615,
    1.47,
    3.338,
    7.809,
    1.463,
    1.516,
    1.659,
    1.783,
    2.319,
    1.604,
    2.188,
    2.188,
    2.14,
    1.972,
    2.023,
    1.546,
    1.56,
    4.907,
    5.805,
    12.848,
    1.383,
    2.105,
    1.681,
    1.881,
    2.295,
    1.274,
    2.084,
    1.742119,
    1.378,
    1.337,
    1.529,
    1.531,
    1.826,
    4.247348,
    4.881,
    0.963,
    0.805,
    1.092,
    1.908,
    1.415,
    1.28,
    1.499,
    1.321,
    0.697,
    1.187,
    0.586,
    1.219,
    0.523,
    1.466,
    2.125,
    2.8,
    1.555,
    1.413,
    1.925,
    2.918809,
    1.982,
    1.714877,
    2.774,
    2.014,
    1.649124,
    1.719,
    2.264,
    1.703628,
    6.106,
    3.293626,
    4.774876,
    0.884,
    1.032,
    1.59,
    1.766072,
    1.63,
    0.973,
    1.332,
    1.116,
    0.796,
    0.984,
    1.534,
    1.464,
    1.832,
    0.729,
    6.332,
    1.495,
    1.632,
    1.694,
    2.471,
    1.488,
    2.022,
    1.773,
    1.544,
    1.584,
    1.434,
    8.308,
    4.953,
    4.877,
    5.706,
    12.522,
    1.307,
    1.02,
    1.852,
    2.225,
    1.869,
    0.951,
    0.659,
    1.091,
    2.388,
    2.8,
    1.081,
    5.482,
    3.52,
    5.206,
    9.052,
    1.741344,
    1.747,
    1.715518,
    2.46,
    1.671,
    1.714,
    1.749,
    1.527,
    1.912,
    2.969,
    1.345,
    3.351,
    4.576,
    10.206,
    21.084,
    2.205,
    1.188,
    1.462,
    1.723,
    2.337,
    1.998,
    1.847,
    2.226,
    2.053,
    1.772056,
    1.517,
    1.332,
    3.153,
    5.054,
    10.602,
    8.062,
    1.773,
    1.977,
    2.845,
    2.205,
    1.772,
    2.034,
    2.02,
    2.437,
    1.389,
    3.827,
    5.154,
    4.052,
    4.679,
    13.489,
    1.473,
    1.783842,
    1.889,
    1.861,
    1.882,
    1.359,
    1.414,
    2.06907,
    1.368,
    1.364602,
    1.499139,
    3.995,
    6.431026,
    5.264,
    13.559,
    13.886,
    2.346,
    2.09,
    2.272,
    2.123,
    1.927,
    2.393,
    1.984,
    1.405,
    1.944,
    1.404,
    4.25,
    9.092,
    5.746,
    30.191,
    1.297,
    1.849539,
    2.476,
    2.284,
    1.327,
    1.865,
    2.028,
    2.065,
    1.401,
    1.767,
    1.448,
    1.442,
    1.64,
    3.817,
    1.912,
    1.749,
    2.314,
    2.444,
    2.453,
    2.893,
    2.217,
    2.404,
    2.475,
    1.84,
    1.577,
    3.22,
    9.919,
    1.760122,
    1.177,
    1.774889,
    1.779889,
    2.259,
    2.126776,
    2.658147,
    1.434889,
    1.292,
    2.193466,
    1.259717,
    2.895042,
    1.492,
    5.851889,
    4.56863
  ]
}