[
  0.903353,
  0.930148,
  0.953943,
  1.662811,
  0.951665,
  0.926,
  0.902,
  0.913,
  1.227094,
  0.927,
  0.928,
  1.028297,
  1.054,
  1.013221,
  0.938,
  0.229,
  0.864943,
  0.869,
  0.908943,
  1.067,
  0.912,
  0.981,
  0.831297,
  0.875943,
  0.942,
  1.009,
  1.039,
  1.335,
  1.527943,
  1.137,
  0.975497,
  0.926906,
  0.898094,
  0.939,
  0.873316,
  0.905943,
  0.926,
  0.856294,
  1.104,
  1.146,
  0.914,
  1.174,
  1.058943,
  0.239,
  0.971,
  0.968,
  0.922,
  0.93,
  2.789943,
  1.003,
  0.985667,
  0.939943,
  0.913,
  1.197,
  0.954943,
  0.946,
  0.922906,
  1.035094,
  0.9247,
  0.671,
  0.65,
  0.537,
  0.318103,
  0.322,
  0.405,
  0.546643,
  0.34128,
  0.268,
  0.298,
  0.552826,
  0.313,
  0.552,
  0.368,
  0.352897,
  0.374103,
  0.30828,
  0.43,
  0.438103,
  0.373,
  0.305,
  0.43259,
  0.314103,
  0.295358,
  0.392,
  0.311,
  0.309103,
  0.322,
  0.312689,
  0.306,
  0.375103,
  0.289,
  0.418,
  0.328777,
  0.194985,
  0.366,
  0.258388,
  0.614,
  0.321,
  0.35,
  0.427,
  0.419079,
  0.391,
  0.264103,
  0.379,
  0.301,
  0.308,
  0.385103,
  0.309743,
  0.506103,
  0.385889,
  0.357388,
  0.377,
  0.403,
  0.42,
  0.297,
  0.389,
  0.045897,
  1.537,
  1.475,
  1.63,
  1.249,
  1.367,
  1.453077,
  1.277,
  1.277,
  1.212,
  1.337,
  1.359,
  1.277,
  1.29,
  1.207,
  1.302,
  1.609077,
  1.415,
  1.237,
  1.221077,
  1.245,
  1.248,
  1.255,
  1.645,
  1.272693,
  1.216077,
  1.212,
  1.295,
  1.255077,
  1.573154,
  1.217,
  1.199,
  1.432077,
  1.354,
  1.311,
  2.141,
  1.257,
  1.319077,
  1.35,
  1.759,
  1.248077,
  1.269484,
  1.557,
  1.55968,
  6.569022,
  1.306,
  1.376,
  1.419,
  1.223,
  1.355,
  1.315077,
  1.573,
  1.572,
  1.356077,
  1.357,
  1.264,
  1.339077,
  1.279,
  1.233,
  1.275,
  1.283,
  0.365,
  0.282,
  0.517,
  0.325,
  0.434103,
  0.334388,
  0.613,
  0.64,
  0.319,
  0.341,
  0.452,
  0.325,
  0.342,
  0.337,
  0.344897,
  0.315,
  1.554,
  0.342,
  0.608,
  0.373103,
  0.607,
  0.047,
  0.373,
  0.344103,
  0.324,
  0.593,
  0.388,
  1.961103,
  0.307897,
  0.32,
  0.366,
  0.64,
  0.350103,
  0.342,
  0.354,
  0.387103,
  0.597,
  0.357,
  0.500103,
  0.477,
  0.05,
  0.329,
  0.288,
  0.344,
  0.345,
  0.313103,
  0.641506,
  0.325897,
  0.630103,
  0.474,
  0.458681,
  0.340103,
  0.303,
  0.632082,
  0.428,
  0.3428,
  0.777,
  0.424897,
  0.636,
  0.341897,
  0.372,
  0.466,
  0.584,
  0.335,
  0.972111,
  0.413564,
  0.331,
  0.408,
  0.366,
  0.487,
  0.557,
  0.414161,
  0.513,
  0.342279,
  0.525,
  0.433509,
  0.460602,
  0.401,
  0.436,
  0.429111,
  0.399,
  0.075,
  0.423076,
  0.389,
  0.573111,
  0.428,
  0.47429,
  0.582111,
  0.38,
  0.336,
  0.324,
  0.417111,
  0.413,
  0.44567,
  1.529,
  0.388111,
  0.438,
  0.388948,
  0.412111,
  0.582778,
  0.503909,
  0.43,
  0.4,
  0.402111,
  0.4,
  0.464,
  0.426,
  0.532111,
  0.585889,
  0.364542,
  0.076,
  0.544,
  0.553,
  0.388,
  0.455,
  0.411,
  0.397,
  0.329,
  0.414,
  0.407,
  0.39,
  0.201,
  0.333,
  0.329,
  0.647,
  0.322,
  0.446281,
  0.377,
  0.31,
  0.365,
  0.42045,
  0.436768,
  0.329303,
  0.292103,
  0.339,
  0.334,
  0.308,
  0.298,
  0.306103,
  0.292,
  0.293201,
  0.384011,
  0.370103,
  0.639048,
  0.328046,
  0.337103,
  0.347,
  0.317,
  0.32,
  0.29,
  0.393103,
  0.432,
  0.398,
  0.366946,
  0.34,
  0.4,
  0.5,
  0.368103,
  0.276,
  0.73979,
  0.324,
  0.356,
  0.365103,
  0.278048,
  1.0393,
  0.377103,
  0.0431,
  0.446,
  0.275,
  0.377,
  0.292103,
  0.639,
  0.357,
  0.345,
  0.317,
  1.202,
  0.338,
  0.363,
  0.338008,
  0.290992,
  0.302941,
  0.615,
  0.645,
  0.311,
  0.312,
  0.414,
  0.477,
  1.38,
  0.412,
  0.37,
  0.565,
  0.43577,
  0.445103,
  0.384,
  0.347,
  0.685,
  0.362103,
  0.541,
  0.513,
  0.345,
  0.343103,
  0.346008,
  0.43,
  0.362,
  0.499,
  0.319103,
  0.317,
  0.653,
  0.335,
  0.375103,
  0.323,
  0.376,
  0.322103,
  0.641,
  0.326,
  0.381,
  0.320103,
  0.333,
  0.325,
  0.389,
  0.768,
  0.993103,
  0.658,
  0.477,
  0.573103,
  0.351,
  0.373,
  0.316,
  0.326103,
  0.298,
  0.626,
  0.432,
  0.652,
  0.38,
  0.333,
  0.37,
  0.423,
  0.352,
  0.061,
  0.346138,
  0.401365,
  0.325,
  0.343,
  0.540566,
  0.526,
  0.391298,
  0.506,
  0.38,
  2.184,
  0.496,
  0.332,
  0.33941,
  0.385516,
  0.359,
  0.363,
  0.39441,
  0.363675,
  0.407,
  0.424,
  0.57541,
  0.063587,
  0.517,
  0.342072,
  0.64941,
  0.392,
  0.965,
  0.429,
  0.409,
  0.39341,
  0.371,
  0.330863,
  0.41241,
  0.401994,
  0.54,
  0.371,
  0.43741,
  0.40296,
  0.205693,
  0.336186,
  0.385,
  0.401,
  0.39041,
  0.510345,
  0.298,
  0.60141,
  0.395985,
  0.599,
  0.395,
  0.33841,
  0.309473,
  0.362084,
  0.398,
  0.695,
  0.443,
  0.405,
  0.867895,
  0.811581,
  0.848148,
  0.779284,
  0.870129,
  0.813686,
  0.84,
  0.811803,
  0.950629,
  0.806,
  0.934,
  0.830734,
  0.805,
  0.858855,
  0.890716,
  0.797416,
  0.779,
  1.459,
  0.818716,
  0.744341,
  0.838,
  0.819284,
  0.843344,
  0.86,
  0.882483,
  1.019,
  0.403187,
  0.911,
  1.014804,
  0.809,
  1.025,
  0.786716,
  0.874,
  0.794692,
  0.833716,
  0.899,
  0.886406,
  0.884815,
  13.527603,
  0.752,
  0.782,
  0.777,
  0.777196,
  0.942716,
  0.932568,
  0.827813,
  0.776716,
  0.932,
  0.913,
  0.823284,
  0.843141,
  0.800693,
  0.80442,
  0.817,
  0.818,
  0.834,
  0.84623,
  1.113,
  1.133,
  1.47487,
  1.213889,
  1.152,
  1.142531,
  1.074,
  1.138,
  1.159,
  1.165,
  1.598,
  1.621643,
  1.406702,
  1.127,
  1.26,
  1.204,
  1.226,
  1.069,
  1.075531,
  1.156,
  1.14,
  1.145,
  1.136,
  1.126531,
  1.198,
  1.549,
  0.313,
  1.18,
  1.123,
  1.129,
  1.604,
  1.187531,
  1.142,
  1.156,
  1.134,
  1.240291,
  1.185531,
  1.21,
  1.17,
  1.047531,
  1.106,
  1.147,
  1.134889,
  1.354531,
  1.157828,
  1.152,
  1.194,
  1.136,
  1.145531,
  1.168,
  1.282889,
  1.113531,
  1.07,
  1.123889,
  1.124531,
  1.187,
  1.197,
  1.237,
  1.151402,
  1.295,
  0.857,
  0.983284,
  0.822335,
  0.779716,
  0.815568,
  0.794432,
  0.816284,
  0.828716,
  0.826903,
  0.878329,
  1.646458,
  0.830148,
  0.828339,
  0.831042,
  0.821716,
  0.732028,
  1.760527,
  0.830432,
  0.77,
  0.686568,
  0.219387,
  0.833,
  0.774051,
  0.861639,
  0.801568,
  0.833,
  0.818716,
  0.811822,
  0.790059,
  0.794941,
  0.840716,
  0.772,
  0.916716,
  0.778716,
  0.85751,
  0.796422,
  1.417507,
  0.834991,
  0.795716,
  0.817284,
  0.804923,
  0.746432,
  0.933716,
  0.742812,
  0.841021,
  0.787716,
  0.832284,
  0.836864,
  0.871568,
  0.814716,
  0.836173,
  0.832284,
  0.826808,
  0.800476,
  0.830284,
  0.795,
  0.803553,
  1.271,
  1.887876,
  1.258305,
  1.2329,
  1.219229,
  1.183471,
  1.176321,
  1.263,
  1.184814,
  1.081754,
  2.585135,
  1.162181,
  1.0923,
  1.141027,
  1.111533,
  1.220077,
  1.245,
  1.212192,
  1.514533,
  1.062298,
  1.195888,
  1.143,
  1.190533,
  1.186338,
  1.052052,
  0.957833,
  1.109584,
  1.236493,
  1.2803,
  1.231556,
  1.054057,
  1.375947,
  1.073814,
  0.223756,
  1.131,
  1.072597,
  1.113,
  1.16442,
  1.158797,
  1.242672,
  1.215736,
  1.188406,
  1.195772,
  1.110533,
  1.20337,
  1.174516,
  1.212476,
  1.169,
  1.204924,
  1.311247,
  1.139192,
  1.131,
  0.308556,
  1.20663,
  1.200596,
  1.2007,
  1.093319,
  0.415,
  0.447,
  0.451,
  0.558435,
  0.079,
  0.431667,
  0.479,
  0.399,
  0.299,
  0.581,
  0.462,
  0.348889,
  0.383,
  0.56,
  0.479,
  0.361574,
  0.753,
  0.522,
  0.497,
  0.492574,
  0.464,
  0.479889,
  0.539,
  0.554574,
  0.39516,
  0.377889,
  0.41472,
  0.444574,
  0.382,
  0.732858,
  0.38,
  0.205529,
  0.522574,
  0.471889,
  0.513733,
  0.432574,
  0.451331,
  0.563,
  0.49,
  0.365574,
  0.574,
  0.45,
  0.502,
  0.49,
  0.570574,
  0.512,
  0.455,
  0.427574,
  0.403,
  0.463751,
  0.376,
  0.554574,
  0.534,
  0.463,
  0.431,
  0.429,
  0.383,
  0.489,
  0.305,
  0.312,
  0.490103,
  0.421,
  0.333,
  0.335,
  0.361897,
  1.187,
  0.337,
  0.33704,
  0.626897,
  0.36,
  0.437,
  1.221,
  0.361103,
  0.319876,
  0.321,
  0.345,
  0.309697,
  0.304131,
  0.413897,
  0.403,
  0.403,
  0.364103,
  0.395,
  0.284897,
  0.340388,
  0.518103,
  0.353897,
  0.297,
  0.314,
  0.298103,
  0.361,
  0.307837,
  0.366103,
  0.298805,
  0.462,
  0.290612,
  0.556103,
  0.340889,
  0.376897,
  0.323,
  0.33,
  0.485103,
  0.319,
  0.626796,
  0.371103,
  0.26959,
  0.375794,
  0.279897,
  0.283103,
  0.315897,
  0.313,
  0.311,
  0.312,
  0.044,
  0.313,
  0.447,
  0.221,
  0.423,
  0.235645,
  0.311092,
  0.2125,
  0.242,
  0.249,
  0.314,
  0.257,
  0.526239,
  1.444,
  0.397,
  0.268,
  0.254845,
  0.313645,
  0.263777,
  0.278,
  0.23,
  0.223645,
  0.299,
  0.228,
  0.281645,
  0.251314,
  0.262289,
  0.944,
  0.168619,
  0.406767,
  0.263541,
  0.24,
  0.203,
  0.317,
  0.305854,
  0.199,
  0.26,
  0.489645,
  0.251,
  0.289,
  0.217,
  0.253,
  0.258114,
  0.186,
  0.213,
  0.206,
  0.713645,
  0.324,
  0.219,
  0.886233,
  0.248,
  0.306,
  0.351645,
  0.334031,
  0.254,
  0.229,
  0.237,
  0.243,
  0.257,
  0.632,
  0.70116,
  0.432,
  0.47,
  0.354,
  0.32,
  0.316,
  0.521,
  0.308,
  0.422,
  0.523,
  0.389562,
  0.51,
  0.53116,
  0.336678,
  0.348,
  0.442,
  0.30416,
  0.878,
  0.652,
  0.629,
  0.442,
  1.02616,
  0.538,
  0.315926,
  0.497638,
  0.52616,
  0.324091,
  0.441909,
  0.328,
  0.52816,
  0.45,
  0.334,
  0.915,
  0.438,
  0.398,
  0.462,
  0.604,
  0.42116,
  0.308362,
  0.405551,
  0.428,
  0.304,
  0.48116,
  0.474,
  0.319,
  0.35816,
  0.423,
  0.349,
  0.326,
  0.737,
  0.44916,
  0.315819,
  0.356,
  0.44,
  0.514,
  0.344,
  0.332927,
  0.43,
  1.061,
  2.012698,
  1.218,
  1.021,
  1.157,
  1.084352,
  1.256,
  1.276,
  1.108,
  1.152,
  1.08,
  1.059,
  1.385,
  1.146,
  1.342,
  1.132352,
  1.168,
  1.401,
  1.141352,
  1.356897,
  1.344,
  1.147,
  1.076,
  1.332352,
  1.100897,
  1.522,
  1.060352,
  1.046,
  1.332305,
  1.019695,
  1.037897,
  1.077352,
  1.369,
  1.364,
  1.132,
  1.18,
  1.153352,
  1.023,
  1.040401,
  1.099352,
  0.273305,
  1.072393,
  1.099,
  1.208876,
  1.139352,
  1.141612,
  1.066,
  1.055,
  1.059545,
  1.093352,
  1.32267,
  1.069,
  1.046352,
  1.087897,
  1.167388,
  1.283,
  1.022352,
  1.324,
  1.103,
  1.154,
  1.336202,
  0.362,
  0.361,
  0.368,
  0.198105,
  0.293998,
  0.434,
  0.679,
  0.31,
  0.62092,
  0.336,
  0.438,
  0.497,
  0.386,
  0.662,
  0.375,
  0.357065,
  0.330998,
  0.636895,
  0.336,
  0.337998,
  0.615,
  0.322,
  0.316,
  0.371998,
  0.422,
  0.346,
  0.305998,
  0.364,
  0.387,
  0.383,
  0.327,
  0.549998,
  0.376,
  0.058,
  0.809889,
  0.317998,
  0.632,
  0.595,
  0.376998,
  0.415,
  0.489,
  0.344,
  0.344517,
  0.616,
  0.285998,
  0.368,
  0.728,
  0.427998,
  0.387,
  0.405,
  0.480998,
  0.506,
  0.608,
  0.656,
  0.616,
  0.415,
  0.602,
  0.517,
  0.063,
  0.791,
  0.864,
  0.869,
  0.783,
  1.687264,
  0.814,
  0.901588,
  0.814,
  0.882,
  0.83,
  0.885,
  1.516123,
  0.817,
  1.012819,
  0.799077,
  0.843,
  0.852208,
  0.813,
  0.81437,
  0.839208,
  0.869,
  0.879,
  0.919,
  1.608,
  0.847208,
  1.572,
  0.901995,
  1.005208,
  0.216,
  1.012816,
  0.855699,
  0.827889,
  0.857208,
  0.895,
  0.892,
  0.821,
  0.901,
  0.845208,
  2.018,
  0.786316,
  0.860721,
  0.902699,
  0.214,
  0.796,
  0.752588,
  0.832,
  0.888,
  0.868,
  0.876412,
  0.901267,
  1.043208,
  0.866,
  0.866,
  0.935208,
  0.855,
  0.781208,
  0.831,
  0.894,
  0.833,
  1.121,
  1.013,
  0.43,
  1.14295,
  0.548539,
  0.848,
  0.306,
  0.3,
  0.976,
  0.366,
  0.411766,
  0.32516,
  0.232621,
  0.453,
  0.597,
  0.274,
  0.431539,
  0.319006,
  0.3,
  0.799,
  0.997539,
  0.254687,
  0.279461,
  0.358864,
  0.335539,
  0.341,
  0.398227,
  0.271,
  0.321539,
  0.316742,
  0.824,
  0.877,
  0.837,
  0.298539,
  0.263,
  0.236,
  0.304539,
  0.298,
  0.645539,
  0.277702,
  0.508,
  0.318,
  0.859,
  0.327,
  0.319,
  0.727539,
  1.109,
  0.314,
  0.262539,
  0.33,
  0.464539,
  0.294,
  0.894,
  0.334,
  0.782,
  0.688,
  0.487,
  0.247,
  0.349864,
  0.194,
  0.274,
  0.732,
  0.256065,
  0.264974,
  0.311,
  0.361,
  0.283,
  0.342,
  0.38,
  0.280275,
  0.365,
  0.300743,
  0.391,
  0.448181,
  0.297065,
  0.264,
  0.289,
  0.241065,
  0.27,
  0.244237,
  0.376,
  0.285,
  0.349,
  0.409,
  0.281,
  0.621065,
  0.382,
  0.294626,
  0.268,
  0.224065,
  0.268,
  0.529,
  0.250065,
  0.249,
  0.309,
  0.582,
  0.467065,
  0.386,
  0.211,
  0.294746,
  0.462,
  0.251065,
  0.269743,
  0.276359,
  0.515065,
  0.233596,
  0.415359,
  0.243181,
  0.288,
  0.487065,
  0.316,
  0.279,
  0.261,
  0.329,
  0.278837,
  0.267,
  0.273,
  0.316597,
  0.344222,
  0.323569,
  0.30826,
  0.332,
  0.331,
  0.372578,
  0.351328,
  0.367385,
  0.314,
  0.689,
  1.3,
  0.252,
  0.351,
  0.596275,
  0.709639,
  0.756612,
  0.322682,
  0.388738,
  0.243,
  0.335388,
  0.66143,
  1.118569,
  0.403814,
  0.328,
  0.395674,
  0.468569,
  0.368072,
  0.341612,
  0.737083,
  0.497569,
  0.329607,
  0.316,
  0.276773,
  0.14922,
  0.392283,
  0.474269,
  0.412732,
  0.546569,
  0.349223,
  0.709,
  0.334,
  0.324227,
  0.665569,
  0.338571,
  0.247135,
  0.493569,
  0.308135,
  0.333345,
  0.467135,
  0.45188,
  0.421634,
  0.722796,
  0.735,
  0.344,
  0.264,
  0.346,
  0.310103,
  0.435897,
  0.6,
  0.345,
  0.326284,
  0.313,
  0.622,
  0.331,
  0.35,
  0.318,
  0.296,
  0.444,
  1.830103,
  0.347,
  0.348,
  0.63,
  0.413103,
  0.358,
  0.495,
  0.441,
  0.405103,
  0.422,
  0.321,
  0.431,
  0.361103,
  0.202,
  0.601,
  0.331,
  0.648,
  0.320103,
  0.311,
  0.312,
  0.681103,
  0.322,
  0.322,
  0.348698,
  0.750103,
  0.314,
  0.617,
  0.345,
  0.613,
  0.306103,
  0.323,
  0.338,
  0.425103,
  0.339876,
  0.302897,
  0.415876,
  0.486103,
  0.312698,
  0.63059,
  0.342,
  0.34,
  0.326,
  0.361,
  1.685267,
  1.151413,
  1.158587,
  1.198,
  1.048704,
  1.086549,
  1.370926,
  1.037,
  1.303,
  2.853,
  1.168535,
  1.065,
  1.154342,
  1.442,
  1.059284,
  1.722,
  2.958547,
  1.228,
  1.023549,
  1.054488,
  1.134,
  1.4,
  0.298,
  1.111549,
  1.07865,
  1.478,
  1.168026,
  1.069348,
  1.337,
  1.074495,
  1.391,
  1.103549,
  1.073917,
  1.022196,
  1.053,
  1.270898,
  1.111,
  1.418,
  1.177,
  1.252,
  1.090613,
  1.144163,
  1.077568,
  1.027549,
  1.408,
  1.032055,
  1.384,
  1.135,
  1.155783,
  1.141056,
  1.140812,
  1.078549,
  1.029,
  1.266438,
  1.074549,
  1.213472,
  1.039228,
  1.036907,
  1.38,
  1.273908,
  1.028,
  1.064,
  1.009,
  1.067738,
  1.747,
  1.048,
  1.000223,
  1.1,
  1.189,
  1.093,
  0.997,
  1.158,
  1.126,
  1.027,
  1.159,
  0.999,
  1.03461,
  1.115,
  1.15461,
  1.146,
  1.084,
  1.071,
  1.045,
  1.36261,
  1.158897,
  1.028,
  1.279,
  1.05561,
  1.112,
  1.194,
  1.38161,
  1.084,
  1.104,
  1.067,
  0.29,
  1.083,
  1.04961,
  1.092,
  1.031,
  1.03361,
  1.051,
  1.119,
  1.305,
  1.01961,
  1.085,
  1.077,
  1.051,
  1.05,
  1.09861,
  1.056,
  1.069,
  1.15261,
  1.267,
  1.108,
  1.31761,
  1.019,
  1.108,
  1.095,
  1.191,
  1.166,
  1.669411,
  1.226,
  0.294388,
  0.388103,
  0.272,
  0.298,
  0.509,
  0.31761,
  0.589,
  0.324897,
  0.358,
  0.363294,
  0.319,
  0.848764,
  0.787,
  0.382103,
  0.314,
  0.38,
  0.331,
  0.434103,
  0.416,
  0.716,
  0.345,
  0.303826,
  0.385,
  0.35,
  0.415698,
  0.399,
  0.424103,
  0.313,
  0.298,
  0.516,
  0.252103,
  0.419,
  0.421,
  0.456103,
  0.331,
  0.323794,
  0.324897,
  0.276103,
  0.432,
  0.288,
  0.41,
  0.296,
  0.328103,
  0.357,
  0.344,
  0.322103,
  0.340897,
  0.365,
  0.347,
  0.336103,
  0.332,
  0.341,
  0.523,
  0.52,
  0.547,
  0.341698,
  1.108,
  1.164,
  1.15,
  1.44,
  1.458531,
  1.483588,
  1.100174,
  1.218402,
  1.222,
  1.084,
  1.163,
  1.192112,
  1.438951,
  1.247,
  1.144,
  1.267578,
  1.318531,
  1.241247,
  1.092989,
  1.084531,
  1.335,
  1.108,
  1.25592,
  1.147934,
  1.424531,
  1.44,
  1.11,
  1.358386,
  1.397893,
  1.154,
  1.123,
  1.151112,
  1.230531,
  1.112,
  1.132,
  1.086,
  1.351542,
  1.129531,
  1.14692,
  0.311,
  1.331,
  1.116531,
  1.142,
  1.097,
  1.151531,
  1.110731,
  1.158,
  1.198,
  1.266,
  1.07,
  1.158531,
  1.12546,
  1.198402,
  1.337531,
  1.147,
  1.165,
  1.102531,
  1.135214,
  1.157,
  1.099,
  1.095889,
  0.311324,
  1.09,
  1.012,
  1.055392,
  1.179,
  1.04,
  1.411,
  1.097,
  1.021,
  1.076,
  1.334,
  1.159,
  1.168,
  1.073,
  1.057,
  1.011,
  1.115,
  1.023352,
  1.118,
  1.027,
  1.758352,
  1.813,
  1.113,
  1.086,
  1.119,
  1.335352,
  1.04,
  1.084,
  1.050352,
  1.155,
  1.053467,
  1.154,
  1.075352,
  1.042,
  1.053,
  1.137,
  0.979,
  1.053352,
  0.989,
  1.178,
  1.311352,
  1.048,
  1.147,
  1.134,
  1.077352,
  1.063,
  1.2,
  1.191,
  1.046,
  1.110352,
  1.036,
  1.164,
  1.063352,
  1.362361,
  1.179234,
  1.08,
  1.308352,
  1.053,
  1.253,
  1.072,
  1.075,
  1.213,
  1.397,
  1.147,
  1.149,
  1.162,
  1.086,
  1.110696,
  1.105,
  1.12,
  1.161,
  2.608139,
  1.111,
  1.182,
  1.134379,
  1.169254,
  1.1437,
  1.594,
  1.173,
  1.116254,
  1.128,
  1.184,
  1.103,
  1.251,
  1.101254,
  1.096,
  1.098,
  1.154254,
  1.106,
  1.137326,
  1.149905,
  1.118254,
  1.096,
  1.073,
  1.098,
  1.144,
  1.132075,
  1.141254,
  1.137351,
  1.176,
  1.097254,
  1.239,
  1.123936,
  1.163254,
  1.117,
  1.099,
  1.131,
  2.378829,
  1.123715,
  1.178254,
  1.117022,
  1.200747,
  1.206254,
  1.146555,
  1.900987,
  1.173012,
  1.135,
  1.11,
  1.107,
  1.133,
  1.271829,
  1.02,
  1.074,
  1.178097,
  0.945,
  1.08368,
  1.124835,
  1.356,
  0.964389,
  0.952208,
  1.24,
  1.16,
  2.459208,
  1.171,
  1.156,
  1.027,
  0.965835,
  1.113903,
  1.147,
  0.970835,
  0.926466,
  1.016534,
  0.957,
  1.027,
  0.995835,
  1.11,
  1.410517,
  0.943,
  0.963,
  1.033835,
  1.23,
  1.221,
  0.997835,
  0.96241,
  1.085,
  1.215,
  1.312,
  1.154835,
  1.187,
  0.989672,
  1.278835,
  1.044,
  1.029,
  1.144835,
  0.959556,
  0.982,
  1.019,
  1.293326,
  1.018,
  0.974835,
  1.01851,
  1.035,
  1.007835,
  1.219,
  1.047,
  1.005835,
  0.276,
  0.945,
  1.207,
  0.963,
  1.073,
  1.057111,
  0.927938,
  1.003559,
  0.916994,
  0.907584,
  0.89701,
  0.969301,
  0.887719,
  0.941473,
  0.884,
  1.307452,
  1.062743,
  0.95959,
  0.951894,
  1.067121,
  0.895068,
  0.943551,
  0.952512,
  0.952,
  0.946551,
  0.951811,
  0.935,
  1.031,
  0.974538,
  0.245102,
  0.971526,
  1.267342,
  0.978186,
  0.969551,
  1.181596,
  1.022,
  0.937028,
  0.875006,
  0.971,
  0.917,
  1.047,
  0.883,
  1.176551,
  1.129138,
  0.959473,
  0.961413,
  0.927,
  1.25,
  1.092031,
  1.060551,
  0.922,
  0.874,
  0.923,
  1.061357,
  0.954551,
  0.995819,
  1.01903,
  0.917551,
  0.895,
  0.921,
  0.254,
  0.9549,
  1.004551,
  0.87,
  0.942462,
  0.975,
  1.524,
  1.031,
  1.031,
  1.062,
  1.087573,
  1.014889,
  1.076296,
  0.972,
  1.0,
  1.101359,
  1.037,
  1.0,
  1.545,
  0.987,
  0.976689,
  1.076573,
  1.032147,
  1.082209,
  1.062154,
  1.072575,
  1.042,
  1.070429,
  1.07,
  1.029,
  1.121573,
  1.073,
  1.203,
  0.986573,
  1.093494,
  1.049912,
  1.036366,
  1.090573,
  1.08,
  1.009,
  1.055,
  1.132,
  1.023608,
  1.166,
  0.986154,
  1.286236,
  0.993,
  1.046751,
  1.1311,
  1.050147,
  1.036,
  0.997,
  1.092,
  1.09,
  0.985,
  1.058573,
  1.002573,
  1.17217,
  1.096,
  1.571,
  1.073573,
  0.993985,
  1.081,
  1.097,
  1.081251,
  1.186378,
  0.402,
  0.718146,
  1.484561,
  2.068662,
  0.785112,
  0.377435,
  0.304281,
  0.311255,
  0.299163,
  1.566241,
  0.409898,
  0.411976,
  0.754,
  0.95746,
  0.844728,
  0.354,
  1.333903,
  0.811,
  0.308976,
  0.691857,
  4.080903,
  0.354,
  1.154,
  1.083903,
  1.473,
  0.762097,
  0.53492,
  0.381806,
  0.412024,
  0.305595,
  0.905976,
  0.912903,
  0.356903,
  0.329097,
  1.17542,
  0.465879,
  3.873903,
  1.03,
  0.397,
  0.460903,
  0.617097,
  1.062291,
  0.305143,
  0.393903,
  0.336518,
  0.276,
  0.345381,
  0.427097,
  0.609903,
  0.353707,
  0.435934,
  0.480903,
  0.759,
  0.424097,
  0.288903,
  0.586024,
  0.307976,
  0.411978,
  0.363874,
  0.963,
  0.906,
  1.265552,
  0.930585,
  0.924897,
  0.799168,
  0.861169,
  0.898,
  0.877,
  0.78,
  0.895,
  1.402,
  0.93,
  0.831,
  0.926,
  0.235623,
  0.789337,
  0.906,
  1.117232,
  0.90235,
  0.862,
  0.861,
  0.917666,
  0.896,
  0.981232,
  0.791,
  0.895,
  0.866,
  1.029232,
  0.878,
  0.916232,
  0.869,
  0.902,
  0.891,
  0.854433,
  0.847,
  1.008232,
  0.843,
  0.885671,
  0.838,
  0.866,
  0.876,
  1.263329,
  0.861232,
  0.91684,
  0.952,
  0.886,
  0.86618,
  0.797015,
  1.175232,
  1.001,
  0.803,
  0.955232,
  1.238,
  0.860232,
  0.893,
  0.881,
  0.878,
  0.882308,
  0.996,
  0.297418,
  0.314,
  0.331223,
  0.3195,
  0.3145,
  0.307,
  0.481351,
  0.461,
  2.020678,
  0.368,
  0.422,
  0.318589,
  0.437223,
  0.371,
  0.381223,
  0.234079,
  0.286,
  0.293,
  0.343,
  0.299223,
  0.302,
  0.288223,
  0.594,
  0.276223,
  0.321186,
  0.319852,
  0.4267,
  0.539269,
  0.337422,
  0.296,
  0.257,
  0.327223,
  0.332,
  0.469,
  0.344,
  0.527,
  0.365,
  0.302148,
  0.313,
  0.458,
  0.351974,
  0.335777,
  0.331,
  0.269223,
  0.34,
  0.332223,
  0.341142,
  0.342,
  0.448,
  0.525223,
  0.42,
  0.289,
  0.305,
  0.265079,
  0.265,
  0.492714,
  0.350716,
  0.442,
  0.476,
  0.362,
  0.578111,
  0.419578,
  0.457,
  0.332889,
  0.427419,
  0.416,
  0.452,
  0.382,
  0.412,
  0.594,
  0.39066,
  0.584,
  0.624111,
  0.448889,
  0.455,
  0.563111,
  0.39354,
  0.451,
  0.429,
  0.416111,
  0.465,
  0.355,
  0.338,
  0.425111,
  0.577,
  0.394,
  0.448,
  0.449111,
  0.428567,
  0.441681,
  0.077,
  0.479,
  0.545111,
  0.493,
  1.061111,
  0.427,
  0.522,
  0.447,
  0.425,
  0.458111,
  0.469,
  0.356,
  0.445738,
  0.393,
  0.405,
  0.422111,
  0.426,
  0.48,
  0.419,
  0.495,
  0.464,
  0.442,
  0.467,
  0.639998,
  0.555,
  1.061,
  1.203,
  1.195,
  1.083,
  1.077,
  1.01361,
  0.287803,
  1.075,
  1.162,
  1.044,
  2.237,
  1.048,
  1.038,
  1.213,
  1.098,
  1.087,
  1.04761,
  1.088,
  1.019,
  1.12061,
  1.052,
  1.069,
  1.073,
  1.036,
  1.15761,
  1.235,
  1.105,
  1.04161,
  1.065,
  1.089,
  1.083691,
  1.08261,
  1.08,
  1.064,
  1.044,
  1.049,
  1.094,
  1.068,
  1.029,
  1.06561,
  1.039729,
  1.172,
  1.155,
  1.085899,
  1.94261,
  1.044,
  1.024,
  1.046,
  1.375,
  1.12661,
  1.328,
  1.086,
  2.05761,
  1.771,
  1.187,
  1.27761,
  1.175,
  0.213729,
  1.055,
  1.095,
  1.064,
  1.168,
  1.219978,
  1.213,
  1.166,
  1.213115,
  1.152,
  1.153,
  1.15,
  1.197,
  1.247,
  1.521726,
  1.222907,
  1.459,
  1.104335,
  1.201754,
  32.449,
  1.183,
  1.206754,
  1.137254,
  1.166,
  1.185,
  1.219,
  1.182754,
  1.255138,
  1.447,
  1.190754,
  1.228,
  1.33,
  1.199754,
  1.221821,
  1.160463,
  1.166,
  1.123,
  1.269455,
  1.219,
  1.163,
  1.268,
  1.264902,
  1.186066,
  1.292,
  1.452,
  1.169754,
  1.168,
  1.176,
  1.151,
  1.318,
  1.187754,
  1.256,
  1.327,
  1.168754,
  1.179,
  1.174,
  1.232,
  1.190754,
  1.183,
  1.195,
  1.144,
  2.013,
  1.177361,
  1.333164,
  0.361,
  0.472,
  0.705,
  0.364008,
  0.419103,
  0.344743,
  0.558,
  0.622825,
  0.363,
  0.408,
  0.294,
  0.393,
  0.439,
  0.315,
  0.366,
  0.361,
  0.321103,
  0.624,
  0.531,
  0.491103,
  0.325,
  0.414,
  0.311,
  0.858103,
  0.308,
  0.284,
  1.32,
  0.312,
  0.3,
  0.373,
  0.617,
  0.201698,
  0.415103,
  0.339,
  0.542698,
  0.560103,
  0.325897,
  0.326,
  0.329103,
  0.501698,
  0.452,
  0.322,
  0.35,
  0.693,
  0.343103,
  0.354,
  0.298,
  0.284103,
  0.302897,
  0.440698,
  0.323103,
  0.654,
  0.512531,
  0.382,
  0.308,
  0.350897,
  0.358,
  0.297,
  0.301,
  0.427,
  0.049,
  0.310103,
  0.399318,
  0.44,
  0.561,
  0.48,
  0.331,
  0.35,
  0.578,
  0.386897,
  0.484773,
  0.336,
  0.293,
  0.429103,
  0.313794,
  0.421,
  0.677,
  0.370103,
  0.317897,
  0.498,
  0.406,
  0.370103,
  0.2,
  0.332,
  0.37,
  0.32,
  0.381103,
  0.86,
  0.809,
  0.314,
  0.327103,
  0.5,
  0.565,
  0.387103,
  0.486,
  0.817,
  28.928794,
  0.621103,
  0.333,
  0.422461,
  0.33,
  0.358,
  0.627103,
  0.343,
  0.354,
  0.547103,
  0.438,
  0.348,
  0.336,
  0.356103,
  0.699,
  0.448,
  0.409,
  0.796,
  0.207,
  0.544,
  0.362,
  0.730071,
  0.43259,
  0.27541,
  0.637,
  0.364,
  0.465994,
  0.359195,
  0.35,
  0.624,
  0.497381,
  0.374405,
  0.396215,
  0.374985,
  0.21171,
  0.335006,
  0.628612,
  0.6529,
  0.360565,
  0.39141,
  0.386675,
  0.337624,
  0.402442,
  0.333793,
  0.37941,
  0.416,
  0.64275,
  0.36541,
  0.671848,
  0.636,
  0.604,
  0.82741,
  0.376138,
  0.35359,
  0.40226,
  0.372,
  0.560157,
  0.330405,
  0.327672,
  0.32241,
  0.631199,
  0.444477,
  0.39459,
  0.54641,
  0.324006,
  0.40141,
  1.06741,
  0.216241,
  0.342149,
  0.392991,
  0.33,
  1.093,
  0.499248,
  0.391538,
  0.621843,
  0.593157,
  0.285994,
  0.386691,
  0.483258,
  0.972426,
  1.474649,
  1.374046,
  0.967805,
  1.026995,
  4.392852,
  0.904894,
  0.927766,
  0.880496,
  0.859262,
  1.12767,
  1.39555,
  1.02238,
  1.172448,
  1.68764,
  0.947051,
  1.028046,
  1.070807,
  1.208856,
  0.952,
  0.874,
  0.878,
  1.315342,
  0.924973,
  0.871934,
  1.170873,
  1.178085,
  1.286,
  1.085195,
  0.936617,
  0.8281,
  0.899941,
  0.961059,
  0.926193,
  0.927,
  0.957195,
  0.940897,
  1.020562,
  0.929241,
  0.912172,
  0.946636,
  1.600418,
  1.698514,
  1.938274,
  0.925,
  0.891455,
  0.996738,
  1.171909,
  0.962856,
  0.860664,
  0.892102,
  1.388292,
  0.901262,
  0.884725,
  1.025311,
  0.904552,
  0.920161,
  0.957,
  0.915738,
  1.347312,
  2.443766,
  1.325,
  2.331,
  1.34,
  1.333,
  1.295241,
  1.526064,
  1.293149,
  1.309,
  2.702767,
  1.746767,
  1.497,
  1.307109,
  1.310891,
  1.313,
  1.400226,
  1.291,
  1.545103,
  1.338179,
  1.31546,
  1.317,
  1.769,
  1.802,
  1.312073,
  1.724,
  1.256004,
  1.474226,
  1.62,
  1.430534,
  1.366,
  1.319,
  1.784337,
  1.758,
  1.829145,
  1.288234,
  1.338432,
  1.524226,
  1.388646,
  1.439226,
  1.606663,
  1.384,
  1.268226,
  1.789,
  1.834444,
  1.8,
  1.342,
  1.452766,
  1.215449,
  1.269226,
  1.61,
  1.412226,
  1.296852,
  0.344,
  1.456,
  1.876226,
  1.396233,
  1.365444,
  1.770556,
  1.348,
  16.474766,
  1.281,
  0.666542,
  0.456889,
  0.353,
  0.478536,
  0.348,
  0.376,
  0.348,
  0.378,
  0.354,
  0.258,
  0.500588,
  0.264,
  0.35,
  0.253606,
  0.325588,
  0.355355,
  0.352,
  0.355,
  0.354,
  0.297355,
  1.09,
  0.429,
  0.978,
  0.499355,
  0.497,
  0.389909,
  0.440355,
  0.354756,
  0.526,
  0.366,
  0.33,
  0.356,
  0.336139,
  0.384588,
  0.459889,
  0.346355,
  0.408,
  0.27,
  0.377,
  0.322355,
  0.521,
  0.367816,
  0.364,
  0.406,
  0.371355,
  0.557,
  0.386,
  0.459355,
  0.267,
  0.43,
  0.332,
  0.289355,
  0.32866,
  0.343,
  0.387178,
  0.330822,
  0.531208,
  0.380119,
  1.097,
  1.036,
  1.09,
  1.157,
  1.162,
  1.046352,
  1.082897,
  1.06,
  1.04,
  1.105,
  1.179,
  1.067,
  1.211,
  1.111,
  2.754,
  1.108352,
  1.066,
  1.286,
  1.030352,
  1.044749,
  1.045,
  1.035,
  1.033839,
  1.065,
  1.095,
  48.513352,
  1.079352,
  1.115,
  1.087,
  1.022065,
  0.292897,
  1.356,
  1.026,
  1.064,
  1.04,
  1.03,
  1.040352,
  1.397794,
  1.083969,
  1.184352,
  1.114969,
  1.119,
  1.086,
  1.081352,
  1.094,
  1.077,
  1.051,
  1.056,
  1.090352,
  1.12,
  1.083,
  1.351352,
  1.121,
  1.224,
  0.289,
  1.036,
  1.151,
  1.111,
  1.045,
  1.051,
  0.83,
  0.873,
  0.877,
  1.329,
  0.936932,
  0.938461,
  0.866,
  0.83,
  0.837,
  0.999,
  1.176,
  0.828,
  1.746,
  0.977,
  1.018,
  0.855932,
  0.917,
  0.998,
  0.923932,
  1.141,
  1.09,
  1.152994,
  1.39895,
  2.497,
  0.845932,
  0.89,
  0.898,
  0.978932,
  0.985896,
  0.936,
  0.919,
  0.889932,
  1.127,
  0.798,
  0.881,
  0.876,
  0.995932,
  0.898,
  1.416,
  1.010932,
  1.038,
  0.882981,
  0.918,
  0.904932,
  0.851,
  0.836,
  1.083,
  0.916,
  0.852932,
  1.038499,
  0.896,
  1.317932,
  1.39623,
  0.842,
  0.992,
  0.960932,
  0.899,
  1.085,
  1.123,
  0.972,
  0.283433,
  0.483869,
  0.271206,
  0.424298,
  0.234194,
  0.240822,
  0.369983,
  1.185164,
  0.378346,
  0.4124,
  1.645718,
  0.493621,
  0.348703,
  0.259833,
  0.236823,
  0.250279,
  0.195,
  0.210515,
  0.220536,
  0.416383,
  0.279204,
  0.347555,
  0.23068,
  0.279206,
  0.406358,
  0.292,
  0.979,
  0.390103,
  0.404,
  0.265103,
  0.199621,
  0.299206,
  0.352924,
  0.261958,
  0.306103,
  0.24769,
  2.903389,
  1.441119,
  0.261865,
  0.242061,
  0.265621,
  0.243379,
  0.369948,
  0.393206,
  0.189281,
  0.240518,
  0.440309,
  0.282816,
  0.629184,
  0.296658,
  0.273103,
  0.260597,
  0.181724,
  0.205,
  0.366,
  0.663883,
  0.038206,
  1.006,
  1.039989,
  1.026805,
  1.038218,
  0.963257,
  1.158701,
  1.003117,
  1.061883,
  1.066604,
  1.141,
  1.043,
  1.024,
  1.332,
  2.066805,
  1.000805,
  1.109906,
  1.085,
  1.068257,
  1.261,
  1.04,
  1.114,
  1.39,
  1.002257,
  1.04,
  1.074598,
  1.163257,
  0.99276,
  1.011606,
  1.365953,
  1.003,
  0.995257,
  1.030104,
  1.143,
  0.998,
  1.08,
  1.027257,
  1.259805,
  1.0,
  1.025,
  1.329,
  1.103403,
  1.075598,
  1.005257,
  0.999402,
  1.102195,
  0.987,
  1.078,
  1.024257,
  1.028962,
  1.334257,
  1.115597,
  1.003622,
  1.071,
  1.149257,
  1.141531,
  1.066402,
  1.157,
  1.003896,
  0.99693,
  1.121,
  1.059,
  1.061,
  1.029,
  1.084,
  1.806,
  1.173352,
  1.11,
  1.311,
  1.39,
  1.203,
  1.218,
  1.176,
  1.276,
  1.065,
  1.059,
  1.535352,
  1.485,
  1.427258,
  1.092129,
  1.150352,
  1.161,
  1.747,
  1.181,
  1.128,
  1.231352,
  2.266,
  1.103,
  1.159352,
  1.048,
  1.375,
  1.061,
  1.103352,
  1.113,
  1.46,
  1.073,
  1.112352,
  1.215,
  1.121,
  1.178,
  1.113,
  1.376,
  1.148,
  1.137,
  1.173004,
  1.122,
  1.27,
  1.222,
  1.081,
  2.712352,
  1.141,
  1.055,
  1.113352,
  1.077,
  1.062,
  1.042,
  1.339352,
  1.533,
  1.353,
  1.336,
  1.483,
  0.941,
  1.03,
  0.904777,
  0.896,
  0.938356,
  0.943963,
  1.018971,
  0.901,
  0.9,
  1.008,
  1.378617,
  1.538,
  14.518,
  0.911045,
  0.974,
  1.103356,
  0.873,
  1.032,
  1.11292,
  0.904356,
  0.937,
  0.927,
  0.902,
  0.933,
  0.834597,
  0.911,
  1.023,
  1.415356,
  1.101,
  1.004,
  0.892356,
  0.913,
  0.891,
  0.88,
  0.980362,
  1.908,
  1.036356,
  0.854,
  0.928962,
  0.873356,
  0.8756,
  0.91,
  0.901356,
  0.91174,
  0.881,
  0.899,
  1.022777,
  0.898,
  1.111376,
  0.896,
  0.895,
  0.956,
  0.830356,
  0.919019,
  0.857,
  0.897356,
  0.912554,
  0.936,
  0.893,
  0.958901,
  0.358,
  0.447,
  0.395378,
  0.568223,
  0.350653,
  0.394,
  0.363,
  0.374,
  0.465713,
  0.342675,
  0.376,
  0.352,
  0.471,
  0.347614,
  0.443,
  0.367223,
  0.435398,
  0.359,
  0.454,
  0.52,
  41.361223,
  0.472,
  0.053,
  0.386223,
  0.523,
  0.369,
  0.36,
  0.361223,
  0.577,
  0.391726,
  0.345,
  0.394223,
  0.386,
  0.364278,
  0.601,
  18.395223,
  0.384,
  0.369777,
  0.057777,
  0.36,
  0.391,
  0.361,
  0.337,
  0.381,
  0.488223,
  0.368,
  0.349,
  0.344223,
  0.431,
  0.344,
  0.35,
  0.622223,
  0.346,
  0.336,
  0.328,
  0.73,
  0.334,
  0.351,
  1.322,
  1.385,
  2.725,
  0.349,
  1.237,
  1.301,
  7.461,
  1.239,
  1.25,
  1.702,
  1.457,
  1.516,
  1.263,
  1.932,
  1.554,
  1.699,
  1.898077,
  1.23,
  1.346,
  1.303077,
  1.219846,
  2.436846,
  2.469,
  1.549,
  1.280077,
  1.234,
  1.412,
  1.243153,
  1.583077,
  1.185,
  1.396,
  1.83,
  1.283077,
  1.263,
  1.23777,
  1.661,
  32.313,
  1.198,
  1.339077,
  1.338,
  1.208077,
  1.266,
  1.376,
  1.25,
  1.352077,
  1.58,
  1.683,
  1.283,
  1.22,
  1.256,
  1.310077,
  1.347,
  1.260077,
  1.261,
  1.325,
  1.523077,
  3.676,
  1.225,
  1.248,
  1.251,
  0.385,
  0.831,
  0.998461,
  0.828,
  0.956507,
  0.861932,
  0.893018,
  0.794,
  0.886,
  0.843,
  1.615,
  1.213715,
  1.247932,
  1.09703,
  0.901,
  0.888932,
  0.912,
  0.839,
  0.826722,
  1.005,
  0.858932,
  0.916448,
  0.896,
  0.907,
  0.956,
  1.002932,
  0.839932,
  0.859,
  1.18,
  1.023,
  0.886932,
  0.845,
  0.821,
  0.879,
  0.805,
  0.969,
  0.991932,
  0.997932,
  1.150648,
  0.916,
  0.862,
  0.974,
  1.028932,
  0.894,
  0.939,
  1.03,
  0.969,
  0.827,
  0.851932,
  0.950932,
  0.881,
  0.909,
  0.872,
  0.820722,
  0.875,
  0.94,
  0.928,
  0.91,
  0.949,
  1.323,
  0.318539,
  0.406103,
  0.303,
  0.587,
  0.295,
  0.318,
  0.31874,
  0.312,
  0.288,
  0.614586,
  0.586,
  0.376897,
  0.942,
  0.318103,
  0.182085,
  0.435,
  0.344517,
  0.304,
  0.316,
  0.343103,
  0.295,
  0.346897,
  0.525,
  0.420103,
  0.34674,
  0.356,
  0.353103,
  0.369,
  0.591,
  0.625,
  0.326,
  0.454103,
  0.359,
  0.458876,
  0.379103,
  0.309,
  0.314,
  0.332,
  0.421103,
  0.367,
  0.597,
  0.608,
  0.3,
  0.325103,
  0.305,
  0.361,
  0.317103,
  0.305,
  0.329,
  0.331,
  0.469897,
  0.187085,
  37.682103,
  0.351,
  0.332,
  0.622,
  0.346,
  0.354,
  0.130516,
  0.749,
  0.762,
  0.773981,
  0.75,
  0.754045,
  1.091,
  0.8205,
  0.749557,
  0.694292,
  0.899022,
  0.782626,
  1.714,
  0.779794,
  1.498,
  0.788981,
  0.757,
  0.839425,
  0.813484,
  0.763981,
  0.826,
  0.897885,
  0.872,
  0.804981,
  0.768,
  0.802441,
  0.756,
  0.139,
  2.007,
  0.783,
  0.796,
  0.822,
  0.754981,
  0.823,
  0.786626,
  0.789981,
  0.837,
  0.75478,
  0.759,
  0.132516,
  0.828981,
  0.796405,
  0.811,
  0.80678,
  0.838445,
  0.820991,
  1.394,
  0.696,
  0.819718,
  0.792,
  0.76649,
  0.767266,
  0.694701,
  0.783,
  0.706409,
  0.812686,
  0.73,
  0.865,
  0.815,
  0.128962,
  0.369,
  0.356,
  0.419223,
  0.20888,
  0.408,
  0.359,
  0.495,
  0.503627,
  1.381,
  0.431,
  0.346,
  0.417,
  0.358,
  0.393,
  0.373,
  0.402223,
  0.431,
  0.416,
  0.426,
  0.371223,
  0.331,
  0.352,
  0.506777,
  0.404223,
  0.373,
  0.36,
  0.351,
  0.352223,
  0.20188,
  0.427753,
  0.371,
  0.367,
  0.571223,
  0.352957,
  0.37853,
  0.510223,
  0.413,
  0.371,
  0.358,
  0.409223,
  0.294,
  0.448,
  0.459,
  0.507,
  0.374223,
  0.512858,
  0.328,
  0.355223,
  0.352,
  0.371,
  0.701753,
  0.326223,
  0.386,
  0.385,
  0.385,
  0.398,
  0.495,
  0.348,
  1.034,
  3.025,
  1.096,
  1.12,
  1.015889,
  1.153097,
  1.068,
  1.02,
  1.062,
  1.138,
  1.179897,
  0.999341,
  1.203,
  1.088392,
  1.205,
  1.011352,
  1.048,
  1.435392,
  1.048352,
  1.045,
  1.117388,
  1.059,
  1.14,
  1.353352,
  1.103,
  1.114897,
  1.977874,
  1.413137,
  1.150897,
  1.075,
  1.142352,
  1.049,
  1.059,
  1.105,
  1.06,
  1.355352,
  1.008,
  1.139429,
  1.138,
  1.107,
  1.113,
  1.131636,
  0.987352,
  1.035302,
  1.041,
  1.061,
  1.063352,
  1.926,
  1.029,
  1.130897,
  1.053352,
  1.036429,
  1.151743,
  1.053876,
  1.240352,
  1.095,
  1.048,
  1.109,
  1.081352,
  0.288,
  1.126,
  1.605875,
  1.03,
  0.975,
  1.467,
  1.474529,
  1.009,
  1.040658,
  1.06,
  1.156,
  1.174,
  0.993695,
  1.032395,
  1.121,
  1.382414,
  1.069,
  1.479379,
  1.028608,
  1.013556,
  1.454379,
  1.085611,
  1.091999,
  1.032,
  1.029171,
  1.212403,
  1.021,
  1.028,
  1.106392,
  1.371379,
  0.995,
  1.245,
  1.014,
  1.016379,
  1.057,
  1.037,
  1.059595,
  1.038379,
  1.030521,
  1.032,
  1.122118,
  1.095379,
  1.336,
  1.174,
  1.064,
  1.16,
  1.111,
  1.061,
  1.075942,
  0.952379,
  1.103,
  1.244,
  1.136054,
  1.016379,
  1.07,
  1.012405,
  0.272,
  1.062544,
  1.069,
  1.07,
  1.039,
  1.245,
  0.991616,
  1.12,
  1.047,
  0.900561,
  1.0,
  1.063,
  1.237,
  1.049,
  0.966,
  0.997,
  1.253,
  1.133,
  1.354,
  0.928,
  0.933,
  0.973561,
  1.001517,
  0.966561,
  0.948,
  1.15,
  1.07,
  0.978977,
  1.005561,
  1.002,
  0.902,
  0.971,
  1.155561,
  0.937,
  0.986,
  1.001561,
  1.62,
  1.466,
  1.083,
  1.115,
  0.976561,
  0.259,
  0.947,
  0.885,
  0.906,
  0.928,
  0.885,
  1.325,
  0.861561,
  0.986889,
  0.967,
  0.938,
  1.043,
  1.003,
  1.247,
  59.142561,
  1.027561,
  0.953637,
  0.996,
  1.052512,
  1.036561,
  0.910356,
  9.588,
  11.385,
  0.925,
  0.496,
  0.406192,
  0.27703,
  0.314986,
  0.369,
  0.42,
  0.425,
  0.437798,
  0.459,
  0.651,
  0.566,
  0.441438,
  0.446889,
  0.426369,
  0.495111,
  0.397,
  0.406,
  0.446,
  0.497708,
  0.576111,
  0.583,
  0.512,
  0.537,
  0.489111,
  0.366,
  0.471,
  0.578111,
  0.42692,
  0.412,
  0.389,
  0.569111,
  0.329214,
  0.559,
  0.412583,
  0.702111,
  0.495,
  0.358334,
  0.384,
  0.387111,
  0.42,
  0.428,
  0.518,
  0.463111,
  0.343,
  0.367,
  0.714,
  0.626111,
  0.336,
  0.394,
  0.071,
  0.391,
  0.566111,
  0.386452,
  0.369,
  0.38,
  0.387,
  0.511,
  0.202004,
  0.366,
  1.148,
  1.163,
  1.167889,
  1.130531,
  1.199076,
  1.126,
  1.217,
  1.129,
  1.124607,
  1.158,
  1.419821,
  1.230889,
  1.123,
  1.790989,
  1.086,
  1.47,
  1.362,
  1.219,
  1.173611,
  1.127,
  1.162322,
  1.190016,
  1.119,
  1.045531,
  1.597,
  1.186481,
  1.321531,
  1.075,
  1.155889,
  1.185531,
  1.13892,
  1.151,
  1.147,
  1.081,
  1.186989,
  1.149381,
  1.113112,
  1.163,
  1.166,
  1.232,
  1.194,
  1.255531,
  1.140294,
  1.149,
  1.159,
  1.307889,
  0.308,
  1.151,
  1.235531,
  1.156531,
  1.177,
  1.103889,
  1.148,
  1.242531,
  1.156,
  1.122,
  1.158,
  1.115,
  1.1,
  1.105,
  1.681166,
  0.950097,
  1.054897,
  1.009,
  1.016,
  1.004519,
  1.026,
  1.192,
  1.064,
  1.036,
  1.018,
  0.996,
  0.987,
  1.022889,
  1.252,
  1.168519,
  3.598,
  1.108,
  1.424839,
  1.065519,
  1.002897,
  1.045,
  1.013,
  1.431897,
  0.285,
  1.136519,
  1.033388,
  1.055897,
  1.344519,
  1.14,
  0.993,
  1.002,
  1.304519,
  1.113,
  1.015,
  1.069,
  1.017698,
  1.049519,
  0.955173,
  1.039889,
  1.229519,
  1.043,
  1.477,
  1.024519,
  1.071,
  1.006,
  1.052,
  1.073,
  1.067,
  1.066519,
  1.054,
  1.317,
  1.012519,
  1.148,
  1.179734,
  1.048519,
  1.146,
  1.107,
  1.475,
  1.03,
  1.041,
  0.35,
  0.433537,
  0.337506,
  0.503903,
  0.372914,
  0.36972,
  0.382032,
  0.428276,
  0.437,
  0.342648,
  0.496143,
  0.329,
  0.360225,
  0.314665,
  1.11679,
  0.320881,
  0.35437,
  0.367,
  0.317903,
  0.368365,
  0.60992,
  0.677,
  0.428903,
  0.540256,
  0.72492,
  0.367177,
  0.387257,
  0.813903,
  0.349542,
  0.400782,
  0.551,
  0.409903,
  0.394,
  0.353539,
  0.598903,
  0.913,
  0.443,
  0.745974,
  0.342565,
  0.354,
  0.644339,
  0.355,
  0.37,
  0.737903,
  0.387216,
  0.392422,
  0.397627,
  0.496065,
  0.364781,
  0.326927,
  0.320903,
  0.396,
  0.38755,
  0.380726,
  0.523447,
  0.361,
  0.379,
  1.193091,
  1.151,
  1.083,
  1.031,
  1.097,
  1.319352,
  1.073464,
  1.06,
  1.06,
  1.115,
  1.162,
  1.046,
  1.017,
  1.059993,
  1.066352,
  1.065,
  1.291,
  1.259,
  1.181352,
  1.079,
  1.158,
  1.296,
  1.002,
  1.049352,
  1.055,
  1.111,
  1.051352,
  1.158,
  1.064897,
  1.114,
  1.370352,
  1.084,
  1.062,
  1.06,
  1.044,
  0.291,
  1.059352,
  1.048897,
  1.026,
  1.008352,
  1.067,
  1.152,
  1.097352,
  1.106,
  1.065,
  1.101,
  1.054,
  1.069,
  1.093352,
  1.131,
  1.065,
  1.211352,
  1.008443,
  1.109,
  1.062352,
  1.067,
  1.12,
  1.096,
  1.029897,
  1.249,
  1.131,
  1.041,
  1.0,
  1.36,
  1.036,
  1.073,
  1.049,
  1.069897,
  1.021,
  1.026,
  1.066,
  1.084,
  1.059814,
  1.035,
  1.007,
  1.154,
  1.044352,
  1.028,
  1.039,
  0.288,
  1.02,
  1.077,
  1.034,
  1.056,
  51.224352,
  1.163352,
  1.064,
  1.361352,
  1.184897,
  1.048,
  1.063897,
  1.013752,
  1.038352,
  1.059,
  1.043,
  1.041,
  1.074,
  1.140776,
  1.313478,
  1.706725,
  1.201352,
  1.167,
  1.055897,
  1.053,
  1.162352,
  1.051897,
  1.053,
  1.043,
  1.036,
  1.310352,
  1.019,
  1.071,
  1.075352,
  1.094,
  1.129897,
  1.086352,
  1.214,
  1.04,
  1.041,
  1.041,
  1.352,
  1.121,
  1.028,
  1.046,
  1.030248,
  1.170752,
  1.765892,
  1.07,
  1.245897,
  1.303,
  1.038,
  1.054,
  1.192008,
  1.201897,
  1.079,
  1.343897,
  1.010352,
  1.370248,
  1.212698,
  1.999496,
  1.063352,
  1.349,
  1.341,
  1.103,
  1.069352,
  1.310889,
  1.669,
  1.061352,
  1.134,
  1.005248,
  1.086752,
  1.066,
  1.072352,
  1.327,
  1.344877,
  1.153,
  1.013352,
  1.143,
  1.757781,
  1.076897,
  1.899,
  1.086,
  1.007752,
  1.091352,
  1.118541,
  1.064752,
  1.421,
  1.035103,
  1.145463,
  1.021352,
  1.023,
  1.098352,
  1.091889,
  1.102352,
  1.054,
  1.085883,
  1.103591,
  1.319716,
  1.079897,
  1.067,
  1.093897,
  0.993399,
  0.905889,
  0.968796,
  0.934,
  1.009561,
  1.012,
  1.005,
  0.994,
  1.01,
  0.949889,
  0.89946,
  0.976,
  1.508,
  0.996889,
  1.41,
  0.998561,
  0.941146,
  0.965561,
  1.021,
  1.002,
  6.567337,
  1.0,
  1.048561,
  0.993,
  0.974,
  0.257,
  0.915,
  0.926,
  1.018,
  1.118476,
  0.925561,
  1.105,
  0.958,
  1.217,
  0.952,
  1.038561,
  1.119,
  0.965,
  0.917641,
  0.989,
  1.028596,
  1.003,
  0.963561,
  1.019,
  0.999,
  1.085,
  1.366,
  1.019561,
  1.035,
  2.890424,
  0.979561,
  0.951992,
  0.917624,
  1.551561,
  1.007,
  0.995,
  0.956,
  0.98,
  1.012,
  0.43,
  0.437798,
  0.382438,
  0.391111,
  0.481821,
  0.457,
  0.482271,
  0.578,
  0.582206,
  0.461,
  0.543,
  0.73,
  0.50377,
  0.47868,
  0.45,
  0.482111,
  0.483,
  0.481,
  0.404111,
  0.485,
  0.48,
  0.354111,
  0.472,
  0.449,
  0.355,
  0.368,
  0.372111,
  0.33,
  0.521,
  0.491,
  0.464111,
  0.465407,
  0.339,
  0.941062,
  0.305411,
  0.427899,
  23.531789,
  0.583,
  0.480452,
  0.426,
  0.625,
  0.472,
  0.465,
  0.408111,
  0.438,
  0.567,
  0.439111,
  0.46,
  0.326821,
  0.556111,
  0.625,
  0.482,
  0.476,
  0.466,
  0.374,
  0.357,
  0.476,
  1.408504,
  1.156,
  1.017,
  1.184,
  1.090109,
  1.229,
  1.045083,
  1.086,
  1.034642,
  1.036979,
  1.91207,
  1.195959,
  1.219,
  1.207,
  1.07968,
  1.208109,
  1.06,
  1.103,
  1.158109,
  1.143044,
  1.103,
  1.114,
  1.235,
  1.046109,
  0.283,
  1.312,
  1.101343,
  1.068109,
  1.121,
  1.079,
  1.09,
  1.461871,
  1.069,
  1.087,
  1.114288,
  1.032,
  1.100109,
  1.063729,
  1.848,
  1.022109,
  1.039,
  1.008,
  1.125,
  1.426109,
  1.072,
  1.095,
  1.047,
  1.113,
  1.527109,
  1.09,
  1.15,
  1.260109,
  1.402139,
  0.285,
  1.163,
  1.082,
  1.068,
  1.083,
  1.105,
  1.241,
  0.820586,
  0.945135,
  0.873,
  1.003239,
  1.06727,
  0.860208,
  0.88,
  0.815,
  0.782,
  0.798,
  0.824,
  0.782,
  0.871,
  0.992,
  0.910208,
  0.799,
  0.782,
  0.843039,
  1.068208,
  0.84,
  0.826,
  0.798,
  0.875995,
  0.790208,
  0.755606,
  0.782564,
  0.805208,
  1.385,
  1.372505,
  0.881582,
  0.963,
  0.866208,
  0.818,
  0.835,
  0.977,
  0.766606,
  0.87147,
  0.766,
  0.869216,
  0.832928,
  0.988208,
  0.814,
  45.816531,
  0.818208,
  0.795,
  0.837,
  0.807,
  0.919,
  1.595889,
  0.981208,
  0.857,
  1.932928,
  1.042208,
  0.77,
  0.859208,
  0.836,
  0.796,
  0.824,
  0.811074,
  0.814822,
  1.319,
  1.089361,
  1.133949,
  0.987,
  1.010146,
  1.100186,
  0.978368,
  1.003608,
  0.966,
  1.051239,
  1.378526,
  0.997392,
  1.165051,
  1.257392,
  1.113189,
  1.501781,
  0.968905,
  1.021918,
  1.001702,
  2.541189,
  1.032,
  1.161949,
  0.976683,
  0.973392,
  1.031189,
  1.024,
  0.955,
  1.042189,
  1.027601,
  1.114392,
  1.182928,
  1.103189,
  1.01269,
  1.006,
  0.969517,
  1.082565,
  1.019189,
  1.062483,
  1.246938,
  0.965131,
  1.054019,
  0.964599,
  1.145401,
  0.994797,
  1.046,
  0.98,
  0.987,
  1.023,
  0.955443,
  1.213189,
  0.97364,
  1.234,
  0.962189,
  1.324936,
  1.931,
  1.002408,
  0.956,
  1.117,
  1.065,
  0.991918,
  1.083347,
  1.13,
  1.137,
  1.114978,
  1.163,
  1.117826,
  1.113623,
  1.091509,
  1.253853,
  1.069085,
  1.064072,
  1.13557,
  1.324977,
  1.940474,
  1.059382,
  1.264124,
  1.106826,
  1.096895,
  1.127826,
  1.087752,
  1.112,
  1.425526,
  1.186,
  1.173053,
  1.030894,
  1.119056,
  1.224623,
  1.094,
  1.152074,
  1.16608,
  1.224135,
  1.590124,
  1.077003,
  1.096626,
  1.132876,
  1.184189,
  1.055826,
  1.708478,
  1.105,
  1.075826,
  1.093,
  1.23,
  1.147537,
  0.251,
  1.178826,
  1.156248,
  1.120524,
  1.104129,
  1.132388,
  1.128025,
  1.134216,
  1.075008,
  1.476826,
  1.081978,
  1.15828,
  1.063377,
  1.101532,
  1.072291,
  1.108752,
  1.224407,
  1.261098,
  1.394902,
  1.05292,
  1.029302,
  1.008447,
  1.076259,
  1.129,
  1.145,
  1.025982,
  1.300434,
  0.985302,
  1.123265,
  1.912302,
  1.923,
  1.115,
  0.985657,
  1.02,
  0.968936,
  1.002657,
  1.198,
  1.02,
  1.093635,
  0.983,
  0.983657,
  1.08292,
  0.994,
  1.415959,
  1.01008,
  1.081222,
  1.067698,
  1.128959,
  1.035314,
  1.055,
  1.064,
  1.463,
  0.272,
  1.005657,
  0.99,
  0.98946,
  1.138959,
  1.12,
  0.979,
  1.01,
  1.023737,
  0.989888,
  1.03481,
  1.023,
  1.125,
  1.287845,
  1.054,
  1.402,
  3.600778,
  1.019,
  1.096,
  1.287657,
  0.984364,
  1.014698,
  1.078856,
  1.053144,
  0.269317,
  1.025,
  1.026,
  1.237,
  1.162966,
  1.090379,
  1.313,
  1.31,
  1.022,
  2.116,
  1.081,
  1.070359,
  1.057,
  1.041,
  1.028994,
  0.978,
  0.997379,
  1.181996,
  1.017379,
  1.109966,
  1.047,
  1.063,
  1.021,
  1.065379,
  1.419973,
  1.048027,
  1.217,
  1.289392,
  1.134379,
  1.082,
  1.025,
  1.240379,
  1.318,
  1.324,
  1.049,
  1.028,
  1.017379,
  1.313,
  1.002,
  1.050379,
  1.014,
  1.294027,
  1.025,
  1.014379,
  1.307534,
  1.017,
  1.059,
  1.01,
  0.974379,
  1.054949,
  1.075671,
  1.031379,
  1.047,
  1.059,
  0.97142,
  1.069379,
  1.062392,
  1.358,
  1.314,
  1.412973,
  0.484,
  0.412,
  0.424903,
  0.467252,
  0.412,
  0.43,
  1.711,
  0.675,
  0.52,
  52.599015,
  0.437097,
  0.438,
  0.402,
  0.498903,
  0.458097,
  0.404,
  0.4,
  0.374,
  0.418903,
  0.405,
  0.41584,
  0.501097,
  0.504903,
  0.349,
  0.528,
  0.433903,
  0.067,
  0.449,
  0.359,
  0.365,
  0.38,
  0.694903,
  0.337,
  0.65292,
  0.527903,
  0.453,
  0.41,
  0.429903,
  0.454949,
  0.441,
  0.407,
  0.436,
  0.425,
  0.414,
  0.433,
  0.541097,
  2.686903,
  3.437097,
  0.46,
  0.399903,
  0.401,
  0.539,
  0.382216,
  0.405,
  0.398,
  0.45,
  0.501,
  0.446925,
  0.382,
  0.059,
  0.396777,
  0.311,
  0.383,
  0.386496,
  0.332862,
  0.355496,
  0.359496,
  0.34,
  0.343,
  0.453,
  0.598,
  0.364496,
  0.445093,
  0.421,
  0.405,
  0.628223,
  0.408,
  0.532,
  0.375,
  0.391223,
  0.808,
  0.357,
  0.51,
  0.326223,
  0.053,
  0.365055,
  0.378362,
  0.411,
  0.294223,
  0.367,
  0.557,
  0.318223,
  0.452543,
  0.335457,
  0.405,
  0.462532,
  0.424,
  0.353701,
  0.425767,
  0.384,
  0.499223,
  0.459,
  0.366,
  0.579223,
  0.354496,
  0.411,
  0.396073,
  0.392223,
  0.411862,
  0.408,
  0.407,
  0.42,
  0.391,
  0.514384,
  1.418,
  0.838,
  0.130444,
  0.912474,
  0.822,
  1.316,
  0.794572,
  0.89,
  0.716,
  0.768922,
  0.808876,
  0.812922,
  0.767116,
  0.718,
  0.757124,
  0.930474,
  0.821,
  0.798,
  0.841,
  0.743474,
  0.132876,
  1.016,
  0.765512,
  0.767253,
  0.814474,
  0.836,
  0.741626,
  0.788474,
  0.833,
  0.802,
  0.795,
  0.725474,
  0.803,
  0.770587,
  0.942626,
  0.784,
  0.730572,
  0.985752,
  0.708,
  0.78,
  0.135,
  1.039,
  1.085,
  0.823738,
  0.797474,
  0.814,
  0.815468,
  0.782474,
  0.872,
  1.295432,
  0.782,
  0.793474,
  0.782,
  0.79476,
  0.783,
  0.916,
  0.724906,
  0.787,
  0.325,
  0.622678,
  0.427,
  0.242611,
  0.345612,
  0.528,
  0.398,
  0.347,
  0.34885,
  0.341,
  0.321,
  0.29,
  0.450611,
  0.361,
  0.426,
  0.294,
  0.725612,
  0.382,
  0.368,
  0.470612,
  0.318,
  0.495,
  0.347,
  0.377612,
  0.245611,
  0.333389,
  0.362678,
  0.686,
  0.487612,
  0.358,
  0.292,
  0.334,
  0.574612,
  0.376,
  0.66,
  0.310612,
  0.359,
  0.377,
  0.29,
  0.359612,
  0.41,
  0.34,
  0.443,
  0.469,
  0.480612,
  0.387,
  0.389,
  0.297612,
  0.414,
  0.372,
  0.293224,
  0.485,
  0.640084,
  0.306,
  0.362,
  0.507,
  0.392,
  0.339,
  0.974,
  0.850576,
  0.87,
  0.23605,
  0.878,
  0.828,
  0.939,
  0.838337,
  0.934,
  0.842,
  0.884844,
  1.060646,
  1.102,
  0.898,
  0.778,
  1.135902,
  0.914232,
  0.903,
  0.873,
  0.859232,
  1.027,
  0.925,
  0.855,
  0.876,
  0.865232,
  0.848,
  0.997,
  0.908232,
  0.933,
  0.831,
  0.882036,
  0.846232,
  0.957576,
  1.011,
  0.84,
  0.804897,
  1.41512,
  0.972232,
  0.812,
  1.032,
  0.921232,
  1.028,
  0.971,
  0.903897,
  0.949232,
  0.864,
  0.821,
  0.934,
  0.8573,
  0.909232,
  0.826,
  0.947768,
  0.938232,
  0.901,
  0.891,
  0.945232,
  0.836,
  0.841,
  1.084,
  0.943,
  0.872055
]