{
  "ram": {
    "bytes_used_max": 144589742080,
    "gib_used_max": 134.6596908569336,
    "gib_used_per_minute": {
      "0": 2.141842333475749,
      "1": 3.5261294266273238,
      "2": 3.6288353871490995,
      "3": 4.935795670848782,
      "4": 5.914222458661613,
      "5": 6.401286367642677,
      "6": 6.757392689333123,
      "7": 7.077738487114341,
      "8": 7.476869874081369,
      "9": 7.915472838838221,
      "10": 10.492005687648968,
      "11": 11.50998978695627,
      "12": 12.572817010394598,
      "13": 13.496851258358713,
      "14": 14.11656854920468,
      "15": 14.843501847365808,
      "16": 15.685072236141917,
      "17": 16.57068905587924,
      "18": 17.32891115091615,
      "19": 18.15589975906631,
      "20": 19.045124118610964,
      "21": 19.981003324864275,
      "22": 21.09091348163152,
      "23": 22.07877175282624,
      "24": 22.88354427531614,
      "25": 23.774683418920485,
      "26": 24.61402615046097,
      "27": 25.45100564471746,
      "28": 26.303203264872234,
      "29": 27.05701944383524,
      "30": 27.745986938476562,
      "31": 28.373715222892116,
      "32": 29.011045100325244,
      "33": 29.668591256869043,
      "34": 30.363639958699544,
      "35": 30.840885808912375,
      "36": 31.276608353954252,
      "37": 31.730632650441137,
      "38": 32.151566133660786,
      "39": 32.58976810261355,
      "40": 33.066701634724936,
      "41": 33.446585315769,
      "42": 33.78801397549904,
      "43": 34.15200147957638,
      "44": 34.48864978854939,
      "45": 34.805664127155886,
      "46": 35.24632883880098,
      "47": 35.57925550816423,
      "48": 35.87269469438973,
      "49": 36.25145992990267,
      "50": 36.60774819325592,
      "51": 36.951087628380726,
      "52": 37.35708462989936,
      "53": 37.68036218416893,
      "54": 37.976213422872256,
      "55": 38.27319025589248,
      "56": 38.57932714688576,
      "57": 38.88195199481512,
      "58": 39.20358981116343,
      "59": 39.47713147179555,
      "60": 39.70620126239324,
      "61": 39.97282480789443,
      "62": 40.230349071955274,
      "63": 40.53272421885345,
      "64": 40.9045734728797,
      "65": 41.290116778874804,
      "66": 41.67165536395574,
      "67": 41.875947661319024,
      "68": 42.055116127277245,
      "69": 42.26279080924341,
      "70": 42.57963620202016,
      "71": 42.848940186581366,
      "72": 43.093351525775454,
      "73": 43.40469993979244,
      "74": 43.658129029354804,
      "75": 43.91741167488745,
      "76": 44.19841035745912,
      "77": 44.479957903845836,
      "78": 44.68696807602704,
      "79": 44.91218948364258,
      "80": 45.169028718592756,
      "81": 45.39989988682634,
      "82": 45.723146600238344,
      "83": 46.0444381843179,
      "84": 46.25597801208496,
      "85": 46.49644942202811,
      "86": 46.72253301588155,
      "87": 46.992538322836666,
      "88": 47.26693201873262,
      "89": 47.52945638107041,
      "90": 47.70021774809239,
      "91": 47.89877015453274,
      "92": 48.11071680359921,
      "93": 48.330645286430745,
      "94": 48.60522351022494,
      "95": 48.86387123495845,
      "96": 49.0769349437649,
      "97": 49.250582290908035,
      "98": 49.42664860870879,
      "99": 49.62820214740301,
      "100": 49.906539335089214,
      "101": 50.18654897657491,
      "102": 50.3721402701685,
      "103": 50.607832633842854,
      "104": 50.81331970732091,
      "105": 51.0183174003989,
      "106": 51.25836385091146,
      "107": 51.51118598550053,
      "108": 51.7121577505338,
      "109": 51.94487536155572,
      "110": 52.17186316797289,
      "111": 52.42300486160537,
      "112": 52.678854279598944,
      "113": 52.96808878580729,
      "114": 53.219164185604804,
      "115": 53.44536933252367,
      "116": 53.66109376034494,
      "117": 53.90944768614688,
      "118": 54.16780943789725,
      "119": 54.50240542093913,
      "120": 54.718172622939285,
      "121": 54.95950233330161,
      "122": 55.20042703919491,
      "123": 55.43747284452794,
      "124": 55.692747665663894,
      "125": 56.00419356028239,
      "126": 56.19826126098633,
      "127": 56.43256067825576,
      "128": 56.69958690061407,
      "129": 56.95814158552784,
      "130": 57.216404672396386,
      "131": 57.54206492537159,
      "132": 57.77521896362305,
      "133": 58.00451446791827,
      "134": 58.150380280058265,
      "135": 58.370311478437,
      "136": 58.647502381922834,
      "137": 58.98940296496375,
      "138": 59.21883444058693,
      "139": 59.44911258503542,
      "140": 59.70781048273636,
      "141": 59.94979974779032,
      "142": 60.14242922249487,
      "143": 60.490940999176544,
      "144": 60.70680682942019,
      "145": 60.92109337499586,
      "146": 61.1730074478408,
      "147": 61.424537335411976,
      "148": 61.729044186866886,
      "149": 62.081524800446076,
      "150": 62.370672322935974,
      "151": 62.61412138858084,
      "152": 62.904472739009535,
      "153": 63.19641598200394,
      "154": 63.50675699266337,
      "155": 63.888932696843554,
      "156": 64.21141239748162,
      "157": 64.43795013427734,
      "158": 64.65507714223054,
      "159": 64.91070886385643,
      "160": 65.16376741053695,
      "161": 65.47718675257796,
      "162": 65.76414819491112,
      "163": 66.03911105657028,
      "164": 66.31752602528718,
      "165": 66.6442999112404,
      "166": 66.97052764892578,
      "167": 67.32397208779545,
      "168": 67.66716805150953,
      "169": 67.9714826163599,
      "170": 68.24308143227788,
      "171": 68.57005174281234,
      "172": 68.89881604512533,
      "173": 69.24092871455822,
      "174": 69.58542141671909,
      "175": 69.84473593760345,
      "176": 70.15688175266072,
      "177": 70.44554332151252,
      "178": 70.79823316153833,
      "179": 71.2340727983895,
      "180": 71.71823630898686,
      "181": 72.08405058262711,
      "182": 72.48391939798991,
      "183": 72.88896224458338,
      "184": 73.2697360798464,
      "185": 73.69723782296909,
      "186": 74.18463328733283,
      "187": 74.54897185503427,
      "188": 74.87589399693375,
      "189": 75.23915837174755,
      "190": 75.59251908124503,
      "191": 75.98560835520426,
      "192": 76.43896885241492,
      "193": 76.80956643314686,
      "194": 77.22027859445346,
      "195": 77.61484398276119,
      "196": 77.99817909628658,
      "197": 78.34546040680449,
      "198": 78.80803178151449,
      "199": 79.14418327202232,
      "200": 79.51237384343551,
      "201": 79.86909872798596,
      "202": 80.22620036238331,
      "203": 80.66443614636438,
      "204": 81.179099519374,
      "205": 81.5707384109497,
      "206": 81.96303564815197,
      "207": 82.41196823120117,
      "208": 82.73604596894363,
      "209": 82.95282182855121,
      "210": 83.31919937133789,
      "211": 83.60384310706188,
      "212": 83.88486286745233,
      "213": 84.19171750343452,
      "214": 84.4790030010676,
      "215": 84.78306017083636,
      "216": 85.15912854469428,
      "217": 85.47018717103086,
      "218": 85.69212638725669,
      "219": 85.96560966362388,
      "220": 86.3179332280563,
      "221": 86.59449651685811,
      "222": 86.91150393728482,
      "223": 87.22613389613265,
      "224": 87.48364406521037,
      "225": 87.80443689378642,
      "226": 88.14235823033219,
      "227": 88.49150997097209,
      "228": 88.8828518107786,
      "229": 89.27138655064469,
      "230": 89.58505410663152,
      "231": 89.8865998478259,
      "232": 90.16107863086765,
      "233": 90.48019422110865,
      "234": 90.8681050963321,
      "235": 91.26114214880992,
      "236": 91.47888170662573,
      "237": 91.76391252420716,
      "238": 92.05705565113132,
      "239": 92.36207593497583,
      "240": 92.71847689353814,
      "241": 93.12663928533004,
      "242": 93.4214520858506,
      "243": 93.77167213569253,
      "244": 94.11400436142743,
      "245": 94.46702310594462,
      "246": 94.80900774163715,
      "247": 95.21083997090658,
      "248": 95.5602213972706,
      "249": 95.86025962183031,
      "250": 96.19862404516188,
      "251": 96.55483071278718,
      "252": 96.86103814335193,
      "253": 97.28453755782823,
      "254": 97.60274324578754,
      "255": 97.91977678719213,
      "256": 98.3041694770425,
      "257": 98.68242121550996,
      "258": 99.08889033430714,
      "259": 99.54317372639974,
      "260": 99.92691680132333,
      "261": 100.3065340721001,
      "262": 100.69493083630579,
      "263": 101.04462090185133,
      "264": 101.3883271298166,
      "265": 101.81094056468899,
      "266": 102.14757143440893,
      "267": 102.43591884031134,
      "268": 102.85579573313395,
      "269": 103.26613151420982,
      "270": 103.62829046734309,
      "271": 104.0583926055391,
      "272": 104.48062450602903,
      "273": 104.83210476374222,
      "274": 105.22907114837129,
      "275": 105.6177955886065,
      "276": 106.0520486831665,
      "277": 106.48410978155621,
      "278": 106.87251637345653,
      "279": 107.21709183515128,
      "280": 107.60161260831154,
      "281": 108.02466492733713,
      "282": 108.44069451800847,
      "283": 108.8454841355146,
      "284": 109.30978291829427,
      "285": 109.67524137335309,
      "286": 110.03201701277393,
      "287": 110.31595993041992,
      "288": 110.61004829406738,
      "289": 110.91887684191687,
      "290": 111.33449185689291,
      "291": 111.71340063062765,
      "292": 112.09635110628807,
      "293": 112.4579831139516,
      "294": 112.79386500988977,
      "295": 113.15521466529975,
      "296": 113.5256764040155,
      "297": 113.75186312400689,
      "298": 114.04284506329036,
      "299": 114.37184718503791,
      "300": 114.66440187874487,
      "301": 114.93777511079432,
      "302": 115.32568883087676,
      "303": 115.60968838707875,
      "304": 115.90417144258143,
      "305": 116.24941085556806,
      "306": 116.5190974090059,
      "307": 116.85434153928595,
      "308": 117.26421104043217,
      "309": 117.57307427616443,
      "310": 117.87593072147693,
      "311": 118.21579147597491,
      "312": 118.54985098111428,
      "313": 118.84677770582296,
      "314": 119.22546561289641,
      "315": 119.55210857068079,
      "316": 119.83397816803496,
      "317": 120.20651070546296,
      "318": 120.512446645963,
      "319": 120.85572827872583,
      "320": 121.24033058295815,
      "321": 121.60509490966797,
      "322": 121.93340799363993,
      "323": 122.26777073488397,
      "324": 122.58123242653022,
      "325": 122.91711826647742,
      "326": 123.28042285725222,
      "327": 123.7191120147705,
      "328": 124.06207404702397,
      "329": 124.4204064708645,
      "330": 124.83116369732356,
      "331": 125.1015323057013,
      "332": 125.36866042573573,
      "333": 125.74395027807203,
      "334": 126.004508390265,
      "335": 126.31622598939023,
      "336": 126.73167141413285,
      "337": 127.08399504322117,
      "338": 127.46381520416777,
      "339": 127.97097059885661,
      "340": 128.37046193268338,
      "341": 128.7754309056169,
      "342": 129.14749998965505,
      "343": 129.57606958938857,
      "344": 129.98703694747667,
      "345": 130.44008694664907,
      "346": 130.80387658587958,
      "347": 131.10241038004557,
      "348": 131.4326852701478,
      "349": 131.80042131068342,
      "350": 132.15294007123526,
      "351": 132.5968378357968,
      "352": 132.97077967756886,
      "353": 133.12735521995415,
      "354": 133.17857483686026,
      "355": 133.2261215209961,
      "356": 133.2781169050831,
      "357": 133.3602339534436,
      "358": 133.40099063162077,
      "359": 133.40993370444087,
      "360": 133.4481287164203,
      "361": 133.48954921657756,
      "362": 133.5360899456477,
      "363": 133.6094088236491,
      "364": 133.68515072838736,
      "365": 133.69855738494357,
      "366": 133.7348769236419,
      "367": 133.87593427755064,
      "368": 133.96887355739787,
      "369": 134.03974836963718,
      "370": 134.1027014134294,
      "371": 134.1071512254618,
      "372": 134.13435719376903,
      "373": 134.1748074030472,
      "374": 134.2052382129734,
      "375": 134.27375580092607,
      "376": 134.37062208531268,
      "377": 134.36171774136818,
      "378": 134.3791321576652,
      "379": 134.41787383515955,
      "380": 134.4521933086848,
      "381": 134.4982525453729,
      "382": 134.60593950950494,
      "383": 134.6024330268472,
      "384": 128.49722231848764,
      "385": 20.27590847015381
    }
  },
  "run_time": {
    "hours": 6.411375735277777,
    "human": "6:24:40.952647",
    "minutes": 384.68254411666663,
    "real_seconds_per_sim_second": {
      "2.0": 33.319251,
      "3.002": 34.542261,
      "4.002868": 37.945212,
      "5.004092": 40.583272,
      "6.005046": 44.67013,
      "7.006024": 49.257566,
      "8.00662": 50.817185,
      "9.008058": 51.750891,
      "10.008071": 52.517296,
      "11.010232": 53.288313,
      "12.012174": 54.059907,
      "13.014188": 54.903579,
      "14.015321": 55.671318,
      "15.016625": 56.435052,
      "16.018495": 57.185082,
      "17.01872": 57.950834,
      "18.01986": 58.746057,
      "19.020442": 59.486477,
      "20.021199": 60.215888,
      "21.022057": 60.941781,
      "22.02207": 61.644474,
      "23.022404": 62.472443,
      "24.024466": 63.253456,
      "25.024612": 64.039689,
      "26.026612": 64.739482,
      "27.026643": 65.481602,
      "28.028217": 66.219595,
      "29.028951": 66.933798,
      "30.029": 67.668106,
      "31.029407": 68.379539,
      "32.031354": 69.11767,
      "33.032307": 69.930885,
      "34.033129": 70.661087,
      "35.034356": 71.336658,
      "36.03508": 72.078032,
      "37.036386": 72.8169,
      "38.037879": 73.538894,
      "39.038665": 74.192097,
      "40.039866": 74.890165,
      "41.041776": 75.712792,
      "42.042647": 76.561759,
      "43.044587": 77.388598,
      "44.046464": 78.1321,
      "45.046739": 78.85778,
      "46.046976": 79.623745,
      "47.047808": 80.419288,
      "48.049266": 81.217161,
      "49.049908": 81.980812,
      "50.051003": 82.718136,
      "51.051025": 83.475954,
      "52.051602": 84.180822,
      "53.053457": 85.045977,
      "54.054552": 85.856945,
      "55.055993": 86.565872,
      "56.057848": 87.249491,
      "57.059145": 87.91394,
      "58.059984": 88.651638,
      "59.060536": 89.382919,
      "60.060838": 90.126642,
      "61.061962": 90.965104,
      "62.063572": 91.754833,
      "63.063945": 92.683847,
      "64.064832": 93.762448,
      "65.066128": 94.627968,
      "66.066325": 96.375376,
      "67.066544": 98.356779,
      "68.066554": 99.162492,
      "69.068388": 99.933844,
      "70.068887": 100.744336,
      "71.068925": 101.477576,
      "72.069393": 102.178804,
      "73.070885": 103.001532,
      "74.071955": 103.734987,
      "75.072129": 104.466341,
      "76.072373": 105.169051,
      "77.073353": 105.925784,
      "78.074331": 106.608381,
      "79.075658": 107.275588,
      "80.07675": 107.949176,
      "81.078281": 108.619744,
      "82.079072": 109.368655,
      "83.079621": 110.270482,
      "84.080988": 110.976861,
      "85.081563": 111.685381,
      "86.083564": 112.453932,
      "87.083937": 113.190756,
      "88.084415": 113.890762,
      "89.085932": 114.705408,
      "90.087906": 115.507363,
      "91.089652": 116.262727,
      "92.090027": 117.024404,
      "93.09118": 117.80044,
      "94.09215": 118.566634,
      "95.093788": 119.320642,
      "96.093964": 120.126637,
      "97.095909": 120.998896,
      "98.096893": 121.803183,
      "99.098415": 122.62492,
      "100.098703": 123.474387,
      "101.099839": 124.217652,
      "102.100914": 125.021395,
      "103.10129": 125.915892,
      "104.102002": 126.710818,
      "105.1028": 127.482526,
      "106.103669": 128.296532,
      "107.104239": 129.045638,
      "108.104434": 129.765311,
      "109.104583": 130.542117,
      "110.105571": 131.462855,
      "111.106316": 132.417082,
      "112.107866": 133.265986,
      "113.108374": 134.154431,
      "114.110119": 134.900068,
      "115.110828": 135.632896,
      "116.112572": 136.381066,
      "117.11259": 137.102349,
      "118.11455": 137.809917,
      "119.11491": 138.505989,
      "120.115276": 139.201181,
      "121.117062": 139.900305,
      "122.117786": 140.633733,
      "123.118368": 141.572295,
      "124.119418": 142.605654,
      "125.120798": 143.779111,
      "126.121348": 145.320654,
      "127.122327": 146.929604,
      "128.1227": 147.702963,
      "129.124226": 148.367055,
      "130.12502": 149.256498,
      "131.125361": 150.076268,
      "132.127363": 150.762355,
      "133.127679": 151.541022,
      "134.127924": 152.187983,
      "135.12836": 152.883203,
      "136.129107": 153.563834,
      "137.130574": 154.248336,
      "138.132238": 154.858157,
      "139.133842": 155.550084,
      "140.13536": 156.341105,
      "141.135762": 157.051499,
      "142.135923": 157.753487,
      "143.137845": 158.518531,
      "144.139531": 159.238979,
      "145.140488": 159.936903,
      "146.141016": 160.694775,
      "147.142472": 161.367475,
      "148.143322": 161.968058,
      "149.143514": 162.522515,
      "150.143973": 164.224183,
      "151.144064": 201.386686,
      "152.144565": 244.860349,
      "153.145752": 281.973624,
      "154.147444": 312.404524,
      "155.147543": 337.985773,
      "156.147881": 358.380849,
      "157.14873": 375.318075,
      "158.150093": 389.22405,
      "159.15091": 400.291311,
      "160.152475": 410.221607,
      "161.153443": 418.666823,
      "162.155216": 427.97934,
      "163.155312": 435.334974,
      "164.155677": 442.00795,
      "165.155981": 448.791976,
      "166.156963": 455.017608,
      "167.158419": 460.624398,
      "168.158767": 466.089962,
      "169.159866": 470.815595,
      "170.160992": 475.55119,
      "171.162681": 479.426339,
      "172.163941": 483.292543,
      "173.164811": 486.772813,
      "174.16606": 490.19665,
      "175.166432": 493.169974,
      "176.166579": 495.894395,
      "177.166962": 498.771318,
      "178.168859": 501.333367,
      "179.170361": 503.731083,
      "180.170462": 505.838167,
      "181.171004": 508.164728,
      "182.172015": 510.308669,
      "183.172283": 512.155583,
      "184.173828": 514.357205,
      "185.175287": 517.226283,
      "186.176308": 520.332455,
      "187.177548": 524.018892,
      "188.179241": 527.466382,
      "189.180991": 531.426533,
      "190.181968": 534.768338,
      "191.182465": 537.851759,
      "192.184338": 540.655082,
      "193.184849": 542.973258,
      "194.18553": 545.184087,
      "195.185858": 547.247277,
      "196.186738": 549.170571,
      "197.187091": 550.897834,
      "198.187673": 552.600682,
      "199.189085": 554.257661,
      "200.190694": 555.946981,
      "201.191194": 557.503787,
      "202.191408": 559.046197,
      "203.19227": 560.483256,
      "204.193572": 561.879078,
      "205.195636": 563.091768,
      "206.196635": 564.092467,
      "207.196737": 565.195065,
      "208.19757": 566.463893,
      "209.199438": 567.760025,
      "210.200835": 569.175746,
      "211.20256": 570.676067,
      "212.204543": 572.167564,
      "213.205415": 573.700071,
      "214.205455": 575.52706,
      "215.206021": 577.36847,
      "216.206468": 579.012506,
      "217.207146": 580.649033,
      "218.208717": 582.055442,
      "219.210271": 583.466658,
      "220.211409": 584.814578,
      "221.213621": 586.328047,
      "222.214292": 587.855803,
      "223.215532": 589.220944,
      "224.215565": 590.625227,
      "225.217124": 591.948198,
      "226.218698": 593.208642,
      "227.218996": 594.30881,
      "228.219757": 595.274095,
      "229.2213": 596.221841,
      "230.221865": 597.211311,
      "231.223418": 598.221659,
      "232.224223": 599.324302,
      "233.225712": 600.335799,
      "234.225791": 601.373733,
      "235.226733": 602.186923,
      "236.228838": 603.077404,
      "237.229566": 603.585357,
      "238.230541": 604.296324,
      "239.230784": 604.840814,
      "240.23088": 606.456805,
      "241.231986": 610.264797,
      "242.232601": 625.483831,
      "243.233325": 640.985137,
      "244.234017": 652.048725,
      "245.235944": 659.472094,
      "246.237084": 667.323024,
      "247.238803": 673.057886,
      "248.240026": 676.344894,
      "249.240199": 678.72226,
      "250.241307": 680.579284,
      "251.243257": 682.170293,
      "252.243311": 683.592011,
      "253.244987": 684.75183,
      "254.246153": 685.707259,
      "255.24652": 686.57764,
      "256.247629": 687.433923,
      "257.248703": 688.49859,
      "258.250244": 689.836499,
      "259.250294": 691.611334,
      "260.250591": 693.472928,
      "261.251274": 695.137809,
      "262.251813": 696.583415,
      "263.253662": 697.881358,
      "264.253979": 698.947877,
      "265.254662": 699.861752,
      "266.256575": 700.729265,
      "267.258065": 701.443985,
      "268.258236": 702.272197,
      "269.258564": 703.500274,
      "270.258578": 705.202436,
      "271.258773": 706.855767,
      "272.260517": 708.415257,
      "273.261851": 709.814241,
      "274.263822": 711.731536,
      "275.264087": 713.431307,
      "276.26439": 714.924757,
      "277.266015": 716.160931,
      "278.267508": 717.228846,
      "279.268753": 718.309439,
      "280.269386": 719.986721,
      "281.269597": 721.694946,
      "282.270662": 723.391392,
      "283.271061": 724.927991,
      "284.272305": 726.39857,
      "285.273608": 727.723007,
      "286.273825": 728.739752,
      "287.275031": 729.636918,
      "288.275717": 730.512384,
      "289.276886": 731.259937,
      "290.277367": 732.247667,
      "291.279275": 733.614052,
      "292.2803": 735.363737,
      "293.281469": 737.084514,
      "294.282318": 738.53732,
      "295.282483": 739.759437,
      "296.284329": 741.137768,
      "297.284365": 742.276556,
      "298.285309": 743.180118,
      "299.287202": 744.08845,
      "300.288": 747.211049,
      "301.29": 762.045213,
      "302.292": 774.237485,
      "303.294": 785.766155,
      "304.296": 794.41301,
      "305.298": 800.182821,
      "306.3": 804.156756,
      "307.302": 807.782395,
      "308.304": 811.171843,
      "309.306": 814.709812,
      "310.308": 818.038892,
      "311.31": 821.561266,
      "312.312": 825.161163,
      "313.314": 828.982815,
      "314.316": 832.992758,
      "315.318": 837.262567,
      "316.32": 841.674248,
      "317.322": 846.045287,
      "318.324": 850.62244,
      "319.326": 855.829292,
      "320.328": 860.711142,
      "321.33": 865.695033,
      "322.332": 871.11248,
      "323.334": 876.334593,
      "324.336": 881.950882,
      "325.338": 887.484315,
      "326.34": 893.461507,
      "327.342": 898.945521,
      "328.344": 903.912655,
      "329.346": 910.148744,
      "330.348": 916.263982,
      "331.35": 922.826922,
      "332.352": 929.672319,
      "333.354": 937.441994,
      "334.356": 945.348818,
      "335.358": 954.602245,
      "336.36": 965.184071,
      "337.362": 973.702199,
      "338.364": 979.731583,
      "339.366": 984.923631,
      "340.368": 990.044018,
      "341.37": 994.995152,
      "342.372": 1000.430775,
      "343.374": 1006.141475,
      "344.376": 1012.52405,
      "345.378": 1020.376631,
      "346.38": 1029.467902,
      "347.382": 1039.106857,
      "348.384": 1048.725207,
      "349.386": 1058.235935,
      "350.388": 1067.722731,
      "351.39": 1077.384683,
      "352.392": 1086.885023,
      "353.394": 1096.120349,
      "354.396": 1105.995269,
      "355.398": 1115.372832,
      "356.4": 1125.093598,
      "357.402": 1134.563272,
      "358.404": 1144.1979,
      "359.406": 1153.667048,
      "360.408": 1163.024643,
      "361.41": 1173.050669,
      "362.412": 1183.109406,
      "363.414": 1192.236028,
      "364.416": 1202.016185,
      "365.418": 1212.649683,
      "366.42": 1222.402193,
      "367.422": 1231.836657,
      "368.424": 1240.863698,
      "369.426": 1250.581058,
      "370.428": 1259.19654,
      "371.43": 1266.949944,
      "372.432": 1274.844967,
      "373.434": 1282.069215,
      "374.436": 1290.201603,
      "375.438": 1298.697748,
      "376.44": 1306.963511,
      "377.442": 1315.80758,
      "378.444": 1323.404218,
      "379.446": 1329.61998,
      "380.448": 1335.794067,
      "381.45": 1342.098057,
      "382.452": 1348.156059,
      "383.454": 1354.311949,
      "384.456": 1360.65715,
      "385.458": 1367.070015,
      "386.46": 1373.539969,
      "387.462": 1381.177335,
      "388.464": 1389.173337,
      "389.466": 1397.773896,
      "390.468": 1405.921347,
      "391.47": 1413.219049,
      "392.472": 1420.393574,
      "393.474": 1429.191001,
      "394.476": 1438.675055,
      "395.478": 1448.290555,
      "396.48": 1460.172909,
      "397.482": 1470.714205,
      "398.484": 1479.838257,
      "399.486": 1487.31105,
      "400.488": 1494.862113,
      "401.49": 1502.911778,
      "402.492": 1510.077646,
      "403.494": 1517.594416,
      "404.496": 1525.585381,
      "405.498": 1533.033972,
      "406.5": 1540.834669,
      "407.502": 1548.391352,
      "408.504": 1556.034533,
      "409.506": 1563.758127,
      "410.508": 1572.120716,
      "411.51": 1579.551083,
      "412.512": 1587.64005,
      "413.514": 1595.680355,
      "414.516": 1603.800083,
      "415.518": 1611.881756,
      "416.52": 1620.293492,
      "417.522": 1628.215384,
      "418.524": 1635.951062,
      "419.526": 1643.945922,
      "420.528": 1651.904919,
      "421.53": 1659.952406,
      "422.532": 1667.76678,
      "423.534": 1675.966061,
      "424.536": 1685.176832,
      "425.538": 1693.144637,
      "426.54": 1700.858807,
      "427.542": 1708.474089,
      "428.544": 1716.532982,
      "429.546": 1724.36633,
      "430.548": 1732.581315,
      "431.55": 1740.56731,
      "432.552": 1748.490895,
      "433.554": 1756.908847,
      "434.556": 1765.316276,
      "435.558": 1773.550629,
      "436.56": 1781.746709,
      "437.562": 1790.325288,
      "438.564": 1798.832368,
      "439.566": 1807.278383,
      "440.568": 1815.832222,
      "441.57": 1824.987108,
      "442.572": 1833.931011,
      "443.574": 1842.657676,
      "444.576": 1851.319022,
      "445.578": 1860.097474,
      "446.58": 1868.605364,
      "447.582": 1877.761288,
      "448.584": 1886.912098,
      "449.586": 1895.83173,
      "450.588": 1904.084837,
      "451.59": 1912.364249,
      "452.592": 1920.862819,
      "453.594": 1930.164403,
      "454.596": 1938.914529,
      "455.598": 1948.078321,
      "456.6": 1956.911466,
      "457.602": 1964.999324,
      "458.604": 1973.540178,
      "459.606": 1982.26882,
      "460.608": 1990.820893,
      "461.61": 1999.385299,
      "462.612": 2008.060582,
      "463.614": 2017.224149,
      "464.616": 2026.300357,
      "465.618": 2035.090988,
      "466.62": 2044.811324,
      "467.622": 2053.589333,
      "468.624": 2062.847878,
      "469.626": 2072.451864,
      "470.628": 2081.753807,
      "471.63": 2092.475661,
      "472.632": 2105.138337,
      "473.634": 2120.507933,
      "474.636": 2133.232918,
      "475.638": 2146.327673,
      "476.64": 2158.748599,
      "477.642": 2172.19565,
      "478.644": 2184.259336,
      "479.646": 2197.039929,
      "480.648": 2209.42964,
      "481.65": 2223.31967,
      "482.652": 2236.312051,
      "483.654": 2249.726998,
      "484.656": 2263.868174,
      "485.658": 2277.479936,
      "486.66": 2290.514971,
      "487.662": 2303.815874,
      "488.664": 2315.467978,
      "489.666": 2328.156012,
      "490.668": 2342.027019,
      "491.67": 2354.981911,
      "492.672": 2367.415425,
      "493.674": 2381.180698,
      "494.676": 2393.96297,
      "495.678": 2406.642514,
      "496.68": 2417.176076,
      "497.682": 2427.842684,
      "498.684": 2438.637517,
      "499.686": 2449.662163,
      "500.688": 2461.73441,
      "501.69": 2475.871143,
      "502.692": 2488.400849,
      "503.694": 2502.166829,
      "504.696": 2515.817352,
      "505.698": 2530.007173,
      "506.7": 2543.839551,
      "507.702": 2559.384401,
      "508.704": 2572.587055,
      "509.706": 2587.026362,
      "510.708": 2602.819479,
      "511.71": 2618.120583,
      "512.712": 2632.685297,
      "513.714": 2648.977254,
      "514.716": 2664.452453,
      "515.718": 2681.727349,
      "516.72": 2698.963799,
      "517.722": 2715.207284,
      "518.724": 2731.427216,
      "519.726": 2747.130958,
      "520.728": 2763.617674,
      "521.73": 2776.165862,
      "522.732": 2787.009533,
      "523.734": 2799.490548,
      "524.736": 2812.167123,
      "525.738": 2826.999563,
      "526.74": 2845.12817,
      "527.742": 2863.617468,
      "528.744": 2880.909689,
      "529.746": 2895.878503,
      "530.748": 2908.795303,
      "531.75": 2921.752451,
      "532.752": 2934.739299,
      "533.754": 2948.750044,
      "534.756": 2961.368573,
      "535.758": 2974.198737,
      "536.76": 2986.70639,
      "537.762": 3003.382346,
      "538.764": 3020.438265,
      "539.766": 3036.203662,
      "540.768": 3051.265877,
      "541.77": 3066.125515,
      "542.772": 3081.321427,
      "543.774": 3097.27274,
      "544.776": 3111.45877,
      "545.778": 3126.078791,
      "546.78": 3136.622293,
      "547.782": 3148.915583,
      "548.784": 3161.08987,
      "549.786": 3173.362127,
      "550.788": 3185.282635,
      "551.79": 3199.766145,
      "552.792": 3216.272894,
      "553.794": 3232.239305,
      "554.796": 3248.753703,
      "555.798": 3263.187287,
      "556.8": 3278.028975,
      "557.802": 3295.579578,
      "558.804": 3310.630963,
      "559.806": 3325.989498,
      "560.808": 3340.961905,
      "561.81": 3355.799239,
      "562.812": 3371.849093,
      "563.814": 3386.354976,
      "564.816": 3401.879257,
      "565.818": 3415.886579,
      "566.82": 3430.840004,
      "567.822": 3445.605246,
      "568.824": 3459.83498,
      "569.826": 3476.168525,
      "570.828": 3489.511469,
      "571.83": 3501.423423,
      "572.832": 3513.062722,
      "573.834": 3524.381654,
      "574.836": 3535.351539,
      "575.838": 3550.662845,
      "576.84": 3571.850668,
      "577.842": 3592.679244,
      "578.844": 3610.469164,
      "579.846": 3624.570112,
      "580.848": 3639.835018,
      "581.85": 3653.53764,
      "582.852": 3667.781562,
      "583.854": 3683.395533,
      "584.856": 3700.033769,
      "585.858": 3720.78426,
      "586.86": 3739.919931,
      "587.862": 3759.051441,
      "588.864": 3774.903235,
      "589.866": 3790.777421,
      "590.868": 3806.579602,
      "591.87": 3822.76174,
      "592.872": 3837.864506,
      "593.874": 3852.206919,
      "594.876": 3863.586919,
      "595.878": 3874.57387,
      "596.88": 3886.117102,
      "597.882": 3897.074907,
      "598.884": 3909.817481,
      "599.886": 3921.562678,
      "600.888": 3948.197041,
      "601.89": 3984.938046,
      "602.892": 4016.96251,
      "603.894": 4045.968125,
      "604.896": 4072.794495,
      "605.898": 4098.06553,
      "606.9": 4118.720736,
      "607.902": 4139.452349,
      "608.904": 4157.178167,
      "609.906": 4172.248481,
      "610.908": 4190.448511,
      "611.91": 4207.253358,
      "612.912": 4220.441007,
      "613.914": 4232.371562,
      "614.916": 4244.759254,
      "615.918": 4258.041054,
      "616.92": 4271.142807,
      "617.922": 4286.64892,
      "618.924": 4300.869439,
      "619.926": 4316.272098,
      "620.928": 4331.297024,
      "621.93": 4345.520598,
      "622.932": 4358.815521,
      "623.934": 4372.521547,
      "624.936": 4386.963937,
      "625.938": 4401.643562,
      "626.94": 4415.634788,
      "627.942": 4428.40335,
      "628.944": 4444.102348,
      "629.946": 4459.277913,
      "630.948": 4474.440204,
      "631.95": 4488.848155,
      "632.952": 4502.669539,
      "633.954": 4517.704179,
      "634.956": 4535.467293,
      "635.958": 4556.689965,
      "636.96": 4579.497441,
      "637.962": 4595.063735,
      "638.964": 4608.603668,
      "639.966": 4620.824274,
      "640.968": 4633.276276,
      "641.97": 4648.434558,
      "642.972": 4663.333835,
      "643.974": 4679.406387,
      "644.976": 4696.53841,
      "645.978": 4715.07529,
      "646.98": 4735.342328,
      "647.982": 4753.171632,
      "648.984": 4769.848795,
      "649.986": 4784.958668,
      "650.988": 4798.492756,
      "651.99": 4810.711807,
      "652.992": 4824.458762,
      "653.994": 4839.639727,
      "654.996": 4852.042137,
      "655.998": 4866.333799,
      "657.0": 4882.106103,
      "658.002": 4897.184805,
      "659.004": 4910.225228,
      "660.006": 4924.649703,
      "661.008": 4939.755459,
      "662.01": 4951.030909,
      "663.012": 4962.226761,
      "664.014": 4973.084233,
      "665.016": 4984.532706,
      "666.018": 4995.593155,
      "667.02": 5009.789727,
      "668.022": 5022.648946,
      "669.024": 5035.696266,
      "670.026": 5048.164691,
      "671.028": 5059.906509,
      "672.03": 5071.776474,
      "673.032": 5086.033414,
      "674.034": 5099.266646,
      "675.036": 5113.061661,
      "676.038": 5126.56272,
      "677.04": 5141.653598,
      "678.042": 5154.981008,
      "679.044": 5171.072085,
      "680.046": 5184.084423,
      "681.048": 5196.601384,
      "682.05": 5209.36491,
      "683.052": 5222.822492,
      "684.054": 5236.498772,
      "685.056": 5249.709678,
      "686.058": 5262.169572,
      "687.06": 5277.004546,
      "688.062": 5290.484063,
      "689.064": 5304.048757,
      "690.066": 5314.874491,
      "691.068": 5325.578568,
      "692.07": 5337.13797,
      "693.072": 5349.399937,
      "694.074": 5362.580702,
      "695.076": 5377.660915,
      "696.078": 5398.316512,
      "697.08": 5418.377892,
      "698.082": 5436.133095,
      "699.084": 5452.447016,
      "700.086": 5466.98368,
      "701.088": 5483.002807,
      "702.09": 5497.01081,
      "703.092": 5511.107292,
      "704.094": 5524.048995,
      "705.096": 5537.167168,
      "706.098": 5551.320441,
      "707.1": 5568.771088,
      "708.102": 5584.335396,
      "709.104": 5598.990822,
      "710.106": 5612.854931,
      "711.108": 5627.281772,
      "712.11": 5639.756695,
      "713.112": 5653.074949,
      "714.114": 5666.392511,
      "715.116": 5677.44444,
      "716.118": 5689.790461,
      "717.12": 5702.091574,
      "718.122": 5714.323016,
      "719.124": 5727.512084,
      "720.126": 5742.080609,
      "721.128": 5755.624334,
      "722.13": 5768.6735,
      "723.132": 5781.526839,
      "724.134": 5795.088482,
      "725.136": 5810.248097,
      "726.138": 5827.476208,
      "727.14": 5843.734181,
      "728.142": 5857.959224,
      "729.144": 5873.42623,
      "730.146": 5888.682549,
      "731.148": 5902.789422,
      "732.15": 5918.613874,
      "733.152": 5932.971245,
      "734.154": 5947.790632,
      "735.156": 5962.538454,
      "736.158": 5976.379648,
      "737.16": 5990.53108,
      "738.162": 6003.222851,
      "739.164": 6016.804562,
      "740.166": 6030.39058,
      "741.168": 6041.374734,
      "742.17": 6052.041633,
      "743.172": 6064.182903,
      "744.174": 6076.139647,
      "745.176": 6090.403932,
      "746.178": 6104.093657,
      "747.18": 6118.049613,
      "748.182": 6131.787978,
      "749.184": 6144.919301,
      "750.186": 6155.230183,
      "751.188": 6167.072856,
      "752.19": 6179.461559,
      "753.192": 6194.462487,
      "754.194": 6209.799248,
      "755.196": 6225.902485,
      "756.198": 6247.107116,
      "757.2": 6264.856838,
      "758.202": 6279.884397,
      "759.204": 6296.129538,
      "760.206": 6309.550166,
      "761.208": 6323.291899,
      "762.21": 6335.474777,
      "763.212": 6349.888296,
      "764.214": 6363.602468,
      "765.216": 6377.637908,
      "766.218": 6392.273516,
      "767.22": 6404.281681,
      "768.222": 6415.013263,
      "769.224": 6425.739729,
      "770.226": 6435.903514,
      "771.228": 6446.271099,
      "772.23": 6456.978351,
      "773.232": 6467.934836,
      "774.234": 6480.118828,
      "775.236": 6491.959814,
      "776.238": 6502.570871,
      "777.24": 6513.952077,
      "778.242": 6527.117728,
      "779.244": 6538.191218,
      "780.246": 6549.3417,
      "781.248": 6560.579101,
      "782.25": 6570.917955,
      "783.252": 6581.681516,
      "784.254": 6592.743982,
      "785.256": 6603.692232,
      "786.258": 6614.489551,
      "787.26": 6625.57474,
      "788.262": 6637.021633,
      "789.264": 6648.846421,
      "790.266": 6660.95312,
      "791.268": 6672.554927,
      "792.27": 6684.376754,
      "793.272": 6695.80714,
      "794.274": 6707.958723,
      "795.276": 6719.337072,
      "796.278": 6731.090765,
      "797.28": 6743.638455,
      "798.282": 6756.285363,
      "799.284": 6767.077078,
      "800.286": 6777.708123,
      "801.288": 6788.503275,
      "802.29": 6798.67222,
      "803.292": 6808.765298,
      "804.294": 6819.840228,
      "805.296": 6831.338351,
      "806.298": 6842.412683,
      "807.3": 6854.314767,
      "808.302": 6865.525749,
      "809.304": 6876.090831,
      "810.306": 6886.962383,
      "811.308": 6897.349507,
      "812.31": 6908.316332,
      "813.312": 6919.913284,
      "814.314": 6931.128108,
      "815.316": 6942.763782,
      "816.318": 6956.25662,
      "817.32": 6970.98908,
      "818.322": 6984.117023,
      "819.324": 6995.057494,
      "820.326": 7007.465293,
      "821.328": 7019.146016,
      "822.33": 7032.324501,
      "823.332": 7044.188695,
      "824.334": 7057.113492,
      "825.336": 7069.415744,
      "826.338": 7081.852009,
      "827.34": 7095.503798,
      "828.342": 7106.930701,
      "829.344": 7119.562293,
      "830.346": 7130.915042,
      "831.348": 7141.854347,
      "832.35": 7152.685502,
      "833.352": 7163.750357,
      "834.354": 7175.093218,
      "835.356": 7186.753303,
      "836.358": 7197.262664,
      "837.36": 7208.32404,
      "838.362": 7219.163119,
      "839.364": 7230.177681,
      "840.366": 7242.188124,
      "841.368": 7252.986334,
      "842.37": 7263.884817,
      "843.372": 7275.508559,
      "844.374": 7286.407153,
      "845.376": 7296.880276,
      "846.378": 7308.016292,
      "847.38": 7318.682626,
      "848.382": 7329.516782,
      "849.384": 7340.674711,
      "850.386": 7351.43494,
      "851.388": 7362.573233,
      "852.39": 7373.821593,
      "853.392": 7384.42982,
      "854.394": 7395.440888,
      "855.396": 7407.694338,
      "856.398": 7419.403476,
      "857.4": 7431.889013,
      "858.402": 7443.581521,
      "859.404": 7454.502113,
      "860.406": 7466.933141,
      "861.408": 7479.955342,
      "862.41": 7493.025551,
      "863.412": 7503.876615,
      "864.414": 7514.761912,
      "865.416": 7525.544019,
      "866.418": 7536.505773,
      "867.42": 7547.711624,
      "868.422": 7559.423862,
      "869.424": 7572.383227,
      "870.426": 7584.436322,
      "871.428": 7596.955778,
      "872.43": 7611.242465,
      "873.432": 7624.992745,
      "874.434": 7636.861959,
      "875.436": 7647.905539,
      "876.438": 7659.641435,
      "877.44": 7671.860547,
      "878.442": 7682.945683,
      "879.444": 7694.276981,
      "880.446": 7706.938199,
      "881.448": 7718.741808,
      "882.45": 7730.418629,
      "883.452": 7742.33108,
      "884.454": 7754.638398,
      "885.456": 7765.563346,
      "886.458": 7776.698672,
      "887.46": 7788.166826,
      "888.462": 7799.990461,
      "889.464": 7811.324301,
      "890.466": 7822.916848,
      "891.468": 7834.316006,
      "892.47": 7845.706178,
      "893.472": 7857.801301,
      "894.474": 7868.050701,
      "895.476": 7878.668621,
      "896.478": 7889.318135,
      "897.48": 7900.349736,
      "898.482": 7911.193508,
      "899.484": 7922.425118,
      "900.486": 7936.421317,
      "901.488": 7969.445927,
      "902.49": 7999.816436,
      "903.492": 8025.075558,
      "904.494": 8048.462204,
      "905.496": 8067.629137,
      "906.498": 8084.425424,
      "907.5": 8098.550868,
      "908.502": 8113.251424,
      "909.504": 8126.053671,
      "910.506": 8138.219658,
      "911.508": 8150.273988,
      "912.51": 8161.212931,
      "913.512": 8172.823024,
      "914.514": 8186.322129,
      "915.516": 8197.79579,
      "916.518": 8209.990093,
      "917.52": 8222.101828,
      "918.522": 8233.182243,
      "919.524": 8245.247224,
      "920.526": 8256.58744,
      "921.528": 8268.891887,
      "922.53": 8281.781604,
      "923.532": 8296.025702,
      "924.534": 8309.461708,
      "925.536": 8327.612063,
      "926.538": 8341.970373,
      "927.54": 8359.260623,
      "928.542": 8374.243092,
      "929.544": 8392.814524,
      "930.546": 8407.583154,
      "931.548": 8423.971728,
      "932.55": 8438.007791,
      "933.552": 8456.056733,
      "934.554": 8473.243286,
      "935.556": 8494.622589,
      "936.558": 8517.222039,
      "937.56": 8537.48913,
      "938.562": 8556.046802,
      "939.564": 8575.478152,
      "940.566": 8589.073439,
      "941.568": 8601.977419,
      "942.57": 8613.784426,
      "943.572": 8626.630289,
      "944.574": 8640.684668,
      "945.576": 8658.254356,
      "946.578": 8676.492461,
      "947.58": 8695.815324,
      "948.582": 8713.503074,
      "949.584": 8732.113142,
      "950.586": 8747.654028,
      "951.588": 8761.904073,
      "952.59": 8778.546152,
      "953.592": 8794.893971,
      "954.594": 8811.345223,
      "955.596": 8827.953772,
      "956.598": 8844.398902,
      "957.6": 8861.508013,
      "958.602": 8879.29102,
      "959.604": 8896.602522,
      "960.606": 8910.59218,
      "961.608": 8926.381967,
      "962.61": 8943.877674,
      "963.612": 8956.632072,
      "964.614": 8969.547568,
      "965.616": 8982.66433,
      "966.618": 8996.790164,
      "967.62": 9013.956068,
      "968.622": 9033.029405,
      "969.624": 9051.749931,
      "970.626": 9068.480829,
      "971.628": 9085.279119,
      "972.63": 9099.435892,
      "973.632": 9116.26708,
      "974.634": 9131.22832,
      "975.636": 9148.847633,
      "976.638": 9163.375682,
      "977.64": 9181.583803,
      "978.642": 9197.632457,
      "979.644": 9215.480129,
      "980.646": 9231.282659,
      "981.648": 9249.664731,
      "982.65": 9266.653641,
      "983.652": 9284.179488,
      "984.654": 9300.093205,
      "985.656": 9316.689459,
      "986.658": 9329.312196,
      "987.66": 9343.293837,
      "988.662": 9355.940025,
      "989.664": 9371.035756,
      "990.666": 9386.32683,
      "991.668": 9403.37635,
      "992.67": 9418.286457,
      "993.672": 9436.723471,
      "994.674": 9455.120005,
      "995.676": 9474.938479,
      "996.678": 9497.253953,
      "997.68": 9519.896284,
      "998.682": 9540.004889,
      "999.684": 9559.192787,
      "1000.686": 9574.357074,
      "1001.688": 9590.611692,
      "1002.69": 9608.810579,
      "1003.692": 9624.816656,
      "1004.694": 9642.07027,
      "1005.696": 9661.791562,
      "1006.698": 9679.124908,
      "1007.7": 9694.013891,
      "1008.702": 9707.283987,
      "1009.704": 9721.476939,
      "1010.706": 9734.940311,
      "1011.708": 9752.213962,
      "1012.71": 9769.006691,
      "1013.712": 9786.817189,
      "1014.714": 9803.810294,
      "1015.716": 9822.062022,
      "1016.718": 9839.935454,
      "1017.72": 9856.835197,
      "1018.722": 9871.821382,
      "1019.724": 9890.532438,
      "1020.726": 9908.077344,
      "1021.728": 9924.456989,
      "1022.73": 9940.998366,
      "1023.732": 9957.047414,
      "1024.734": 9973.793008,
      "1025.736": 9991.440365,
      "1026.738": 10007.182054,
      "1027.74": 10024.492508,
      "1028.742": 10042.21217,
      "1029.744": 10056.075804,
      "1030.746": 10069.37197,
      "1031.748": 10083.423667,
      "1032.75": 10096.871211,
      "1033.752": 10111.373071,
      "1034.754": 10126.476846,
      "1035.756": 10141.95946,
      "1036.758": 10156.053282,
      "1037.76": 10172.493145,
      "1038.762": 10189.55963,
      "1039.764": 10206.941027,
      "1040.766": 10222.408526,
      "1041.768": 10238.198228,
      "1042.77": 10253.942944,
      "1043.772": 10269.400241,
      "1044.774": 10284.290525,
      "1045.776": 10300.012135,
      "1046.778": 10316.026935,
      "1047.78": 10330.294634,
      "1048.782": 10344.663667,
      "1049.784": 10359.46542,
      "1050.786": 10375.225212,
      "1051.788": 10391.256915,
      "1052.79": 10407.39794,
      "1053.792": 10420.702547,
      "1054.794": 10433.842361,
      "1055.796": 10448.171392,
      "1056.798": 10463.667706,
      "1057.8": 10483.329955,
      "1058.802": 10501.578325,
      "1059.804": 10518.368955,
      "1060.806": 10533.45237,
      "1061.808": 10549.394156,
      "1062.81": 10565.159325,
      "1063.812": 10580.890334,
      "1064.814": 10596.904782,
      "1065.816": 10613.597549,
      "1066.818": 10628.625959,
      "1067.82": 10645.656533,
      "1068.822": 10658.945579,
      "1069.824": 10674.64863,
      "1070.826": 10689.058727,
      "1071.828": 10702.973713,
      "1072.83": 10715.55555,
      "1073.832": 10728.09172,
      "1074.834": 10740.935683,
      "1075.836": 10753.549456,
      "1076.838": 10767.786587,
      "1077.84": 10781.521135,
      "1078.842": 10793.613006,
      "1079.844": 10805.303695,
      "1080.846": 10816.942054,
      "1081.848": 10828.976483,
      "1082.85": 10842.22414,
      "1083.852": 10856.20047,
      "1084.854": 10868.933854,
      "1085.856": 10882.3343,
      "1086.858": 10895.082434,
      "1087.86": 10907.215828,
      "1088.862": 10919.44097,
      "1089.864": 10932.248342,
      "1090.866": 10946.458953,
      "1091.868": 10959.764997,
      "1092.87": 10973.586637,
      "1093.872": 10987.424093,
      "1094.874": 11001.159658,
      "1095.876": 11014.272828,
      "1096.878": 11028.468538,
      "1097.88": 11042.593175,
      "1098.882": 11056.324533,
      "1099.884": 11070.062226,
      "1100.886": 11084.03459,
      "1101.888": 11097.032375,
      "1102.89": 11109.546233,
      "1103.892": 11121.488325,
      "1104.894": 11136.660278,
      "1105.896": 11148.243734,
      "1106.898": 11160.219927,
      "1107.9": 11172.17472,
      "1108.902": 11183.823403,
      "1109.904": 11196.136478,
      "1110.906": 11208.604189,
      "1111.908": 11220.466859,
      "1112.91": 11233.196685,
      "1113.912": 11246.12048,
      "1114.914": 11259.440104,
      "1115.916": 11274.238098,
      "1116.918": 11289.878255,
      "1117.92": 11303.890741,
      "1118.922": 11316.87627,
      "1119.924": 11331.401273,
      "1120.926": 11345.240659,
      "1121.928": 11359.146974,
      "1122.93": 11373.027856,
      "1123.932": 11386.165506,
      "1124.934": 11399.573633,
      "1125.936": 11414.248246,
      "1126.938": 11427.508374,
      "1127.94": 11441.838422,
      "1128.942": 11455.93013,
      "1129.944": 11470.446949,
      "1130.946": 11484.779393,
      "1131.948": 11501.372931,
      "1132.95": 11514.104931,
      "1133.952": 11526.335201,
      "1134.954": 11538.781982,
      "1135.956": 11551.218445,
      "1136.958": 11564.544008,
      "1137.96": 11578.784542,
      "1138.962": 11593.285401,
      "1139.964": 11606.250407,
      "1140.966": 11619.164959,
      "1141.968": 11632.078935,
      "1142.97": 11644.903965,
      "1143.972": 11658.014382,
      "1144.974": 11669.939532,
      "1145.976": 11682.226296,
      "1146.978": 11694.856755,
      "1147.98": 11706.940827,
      "1148.982": 11720.160603,
      "1149.984": 11733.571381,
      "1150.986": 11746.444713,
      "1151.988": 11759.44858,
      "1152.99": 11772.067079,
      "1153.992": 11786.142727,
      "1154.994": 11801.063512,
      "1155.996": 11815.514163,
      "1156.998": 11829.143138,
      "1158.0": 11842.736669,
      "1159.002": 11856.934352,
      "1160.004": 11873.052897,
      "1161.006": 11885.866918,
      "1162.008": 11899.333045,
      "1163.01": 11912.851193,
      "1164.012": 11926.138287,
      "1165.014": 11940.702057,
      "1166.016": 11955.464632,
      "1167.018": 11969.397556,
      "1168.02": 11983.169182,
      "1169.022": 11997.241494,
      "1170.024": 12011.320176,
      "1171.026": 12024.191478,
      "1172.028": 12038.111087,
      "1173.03": 12051.98462,
      "1174.032": 12065.741626,
      "1175.034": 12079.872002,
      "1176.036": 12094.829106,
      "1177.038": 12107.658493,
      "1178.04": 12121.448384,
      "1179.042": 12134.61982,
      "1180.044": 12148.188021,
      "1181.046": 12161.45292,
      "1182.048": 12174.636579,
      "1183.05": 12188.537956,
      "1184.052": 12200.969154,
      "1185.054": 12213.843532,
      "1186.056": 12228.378101,
      "1187.058": 12243.541057,
      "1188.06": 12255.885101,
      "1189.062": 12268.019576,
      "1190.064": 12280.20075,
      "1191.066": 12292.873796,
      "1192.068": 12305.885736,
      "1193.07": 12318.978113,
      "1194.072": 12332.27084,
      "1195.074": 12344.469438,
      "1196.076": 12357.39667,
      "1197.078": 12369.970317,
      "1198.08": 12384.506768,
      "1199.082": 12398.077497,
      "1200.084": 12411.885248,
      "1201.086": 12440.633277,
      "1202.088": 12481.41726,
      "1203.09": 12514.988112,
      "1204.092": 12543.0802,
      "1205.094": 12566.753897,
      "1206.096": 12588.768388,
      "1207.098": 12607.321361,
      "1208.1": 12622.011428,
      "1209.102": 12635.337685,
      "1210.104": 12650.215123,
      "1211.106": 12665.754832,
      "1212.108": 12682.773059,
      "1213.11": 12700.187038,
      "1214.112": 12717.70348,
      "1215.114": 12734.418179,
      "1216.116": 12750.297832,
      "1217.118": 12766.536466,
      "1218.12": 12783.31894,
      "1219.122": 12802.079363,
      "1220.124": 12821.010704,
      "1221.126": 12840.917185,
      "1222.128": 12859.232493,
      "1223.13": 12877.822549,
      "1224.132": 12896.878242,
      "1225.134": 12915.995502,
      "1226.136": 12933.487609,
      "1227.138": 12950.044132,
      "1228.14": 12970.448592,
      "1229.142": 12985.107348,
      "1230.144": 13000.445491,
      "1231.146": 13015.333139,
      "1232.148": 13031.906813,
      "1233.15": 13051.524187,
      "1234.152": 13071.681942,
      "1235.154": 13093.079379,
      "1236.156": 13116.613697,
      "1237.158": 13141.577396,
      "1238.16": 13161.405861,
      "1239.162": 13179.487713,
      "1240.164": 13196.494427,
      "1241.166": 13212.052525,
      "1242.168": 13227.570973,
      "1243.17": 13245.045866,
      "1244.172": 13263.810262,
      "1245.174": 13282.33264,
      "1246.176": 13302.231468,
      "1247.178": 13323.139475,
      "1248.18": 13342.292013,
      "1249.182": 13357.957058,
      "1250.184": 13371.801462,
      "1251.186": 13387.105019,
      "1252.188": 13403.402971,
      "1253.19": 13421.137294,
      "1254.192": 13437.850994,
      "1255.194": 13457.237297,
      "1256.196": 13474.728313,
      "1257.198": 13495.125383,
      "1258.2": 13512.597224,
      "1259.202": 13531.373114,
      "1260.204": 13548.597002,
      "1261.206": 13565.437715,
      "1262.208": 13582.420962,
      "1263.21": 13598.285076,
      "1264.212": 13615.563647,
      "1265.214": 13631.722682,
      "1266.216": 13648.175255,
      "1267.218": 13665.412463,
      "1268.22": 13682.957334,
      "1269.222": 13702.32535,
      "1270.224": 13716.488523,
      "1271.226": 13731.224595,
      "1272.228": 13745.656925,
      "1273.23": 13759.458736,
      "1274.232": 13774.287504,
      "1275.234": 13792.224528,
      "1276.236": 13807.346484,
      "1277.238": 13824.251245,
      "1278.24": 13841.472427,
      "1279.242": 13859.22509,
      "1280.244": 13877.200446,
      "1281.246": 13897.221663,
      "1282.248": 13915.015628,
      "1283.25": 13932.707799,
      "1284.252": 13950.997038,
      "1285.254": 13967.375448,
      "1286.256": 13983.883708,
      "1287.258": 14001.675807,
      "1288.26": 14017.395437,
      "1289.262": 14035.196242,
      "1290.264": 14052.212414,
      "1291.266": 14071.694691,
      "1292.268": 14085.123864,
      "1293.27": 14098.686387,
      "1294.272": 14112.677452,
      "1295.274": 14127.747529,
      "1296.276": 14149.35093,
      "1297.278": 14171.156626,
      "1298.28": 14189.213368,
      "1299.282": 14208.676422,
      "1300.284": 14225.432931,
      "1301.286": 14240.625734,
      "1302.288": 14254.884489,
      "1303.29": 14270.403331,
      "1304.292": 14286.878875,
      "1305.294": 14305.113737,
      "1306.296": 14322.744515,
      "1307.298": 14342.274129,
      "1308.3": 14360.548779,
      "1309.302": 14376.616955,
      "1310.304": 14391.45011,
      "1311.306": 14406.385069,
      "1312.308": 14421.608625,
      "1313.31": 14439.029238,
      "1314.312": 14453.191702,
      "1315.314": 14467.867694,
      "1316.316": 14482.040941,
      "1317.318": 14499.227786,
      "1318.32": 14517.483893,
      "1319.322": 14535.866557,
      "1320.324": 14553.42612,
      "1321.326": 14570.919273,
      "1322.328": 14586.034133,
      "1323.33": 14603.976837,
      "1324.332": 14619.929449,
      "1325.334": 14636.524715,
      "1326.336": 14653.091631,
      "1327.338": 14669.831761,
      "1328.34": 14685.282061,
      "1329.342": 14704.007454,
      "1330.344": 14719.975948,
      "1331.346": 14738.046036,
      "1332.348": 14755.635725,
      "1333.35": 14773.075625,
      "1334.352": 14789.746841,
      "1335.354": 14807.927027,
      "1336.356": 14821.186254,
      "1337.358": 14834.725187,
      "1338.36": 14847.925658,
      "1339.362": 14861.728573,
      "1340.364": 14876.558727,
      "1341.366": 14892.193115,
      "1342.368": 14906.367593,
      "1343.37": 14923.65782,
      "1344.372": 14940.576922,
      "1345.374": 14959.024851,
      "1346.376": 14974.055285,
      "1347.378": 14990.224288,
      "1348.38": 15005.971159,
      "1349.382": 15022.697758,
      "1350.384": 15037.793954,
      "1351.386": 15053.316608,
      "1352.388": 15069.405714,
      "1353.39": 15086.151459,
      "1354.392": 15102.654488,
      "1355.394": 15119.790102,
      "1356.396": 15138.156552,
      "1357.398": 15157.460276,
      "1358.4": 15175.50482,
      "1359.402": 15189.575426,
      "1360.404": 15202.571215,
      "1361.406": 15216.18236,
      "1362.408": 15229.190406,
      "1363.41": 15246.336693,
      "1364.412": 15262.10024,
      "1365.414": 15279.383625,
      "1366.416": 15296.537918,
      "1367.418": 15313.369328,
      "1368.42": 15327.255593,
      "1369.422": 15340.703165,
      "1370.424": 15354.135162,
      "1371.426": 15367.190745,
      "1372.428": 15380.3259,
      "1373.43": 15393.196253,
      "1374.432": 15406.487525,
      "1375.434": 15420.119106,
      "1376.436": 15435.55084,
      "1377.438": 15449.330009,
      "1378.44": 15462.189866,
      "1379.442": 15475.786771,
      "1380.444": 15489.696521,
      "1381.446": 15503.470014,
      "1382.448": 15517.442674,
      "1383.45": 15530.604244,
      "1384.452": 15547.609999,
      "1385.454": 15560.047565,
      "1386.456": 15572.536982,
      "1387.458": 15584.952755,
      "1388.46": 15597.872348,
      "1389.462": 15612.619592,
      "1390.464": 15625.742331,
      "1391.466": 15637.749634,
      "1392.468": 15650.945162,
      "1393.47": 15663.724036,
      "1394.472": 15677.367389,
      "1395.474": 15690.750933,
      "1396.476": 15705.360647,
      "1397.478": 15719.332084,
      "1398.48": 15734.584001,
      "1399.482": 15749.147704,
      "1400.484": 15764.071452,
      "1401.486": 15777.382946,
      "1402.488": 15791.688891,
      "1403.49": 15806.515811,
      "1404.492": 15821.070256,
      "1405.494": 15835.742628,
      "1406.496": 15851.383156,
      "1407.498": 15866.146032,
      "1408.5": 15880.460971,
      "1409.502": 15894.137245,
      "1410.504": 15911.739441,
      "1411.506": 15925.875486,
      "1412.508": 15938.639577,
      "1413.51": 15953.969251,
      "1414.512": 15967.700147,
      "1415.514": 15984.963538,
      "1416.516": 16003.909187,
      "1417.518": 16022.161608,
      "1418.52": 16037.875748,
      "1419.522": 16052.868803,
      "1420.524": 16066.741047,
      "1421.526": 16080.349765,
      "1422.528": 16092.852034,
      "1423.53": 16105.288699,
      "1424.532": 16118.493598,
      "1425.534": 16132.890843,
      "1426.536": 16147.392288,
      "1427.538": 16161.712143,
      "1428.54": 16175.742477,
      "1429.542": 16189.517113,
      "1430.544": 16203.661354,
      "1431.546": 16217.532584,
      "1432.548": 16231.594416,
      "1433.55": 16244.921635,
      "1434.552": 16258.787401,
      "1435.554": 16276.083239,
      "1436.556": 16288.940799,
      "1437.558": 16301.658938,
      "1438.56": 16314.507037,
      "1439.562": 16327.600195,
      "1440.564": 16341.820869,
      "1441.566": 16356.985453,
      "1442.568": 16371.26381,
      "1443.57": 16386.392959,
      "1444.572": 16400.032346,
      "1445.574": 16413.361645,
      "1446.576": 16426.643597,
      "1447.578": 16440.331734,
      "1448.58": 16453.876117,
      "1449.582": 16467.406186,
      "1450.584": 16481.903498,
      "1451.586": 16496.395829,
      "1452.588": 16510.423498,
      "1453.59": 16524.389791,
      "1454.592": 16538.439754,
      "1455.594": 16552.052378,
      "1456.596": 16566.340271,
      "1457.598": 16581.284066,
      "1458.6": 16596.325244,
      "1459.602": 16610.322066,
      "1460.604": 16627.079476,
      "1461.606": 16644.308358,
      "1462.608": 16658.220739,
      "1463.61": 16671.77299,
      "1464.612": 16685.451053,
      "1465.614": 16699.288249,
      "1466.616": 16713.733845,
      "1467.618": 16727.24658,
      "1468.62": 16742.171296,
      "1469.622": 16757.296689,
      "1470.624": 16773.174053,
      "1471.626": 16789.059895,
      "1472.628": 16804.54876,
      "1473.63": 16819.976567,
      "1474.632": 16832.857165,
      "1475.634": 16847.078763,
      "1476.636": 16862.63054,
      "1477.638": 16875.855928,
      "1478.64": 16888.65092,
      "1479.642": 16902.312475,
      "1480.644": 16915.305085,
      "1481.646": 16928.218817,
      "1482.648": 16940.945457,
      "1483.65": 16954.097586,
      "1484.652": 16967.655453,
      "1485.654": 16981.892127,
      "1486.656": 16994.983734,
      "1487.658": 17012.146355,
      "1488.66": 17024.0848,
      "1489.662": 17036.620707,
      "1490.664": 17048.839567,
      "1491.666": 17061.192797,
      "1492.668": 17074.225421,
      "1493.67": 17087.579792,
      "1494.672": 17101.224198,
      "1495.674": 17116.18334,
      "1496.676": 17129.853462,
      "1497.678": 17143.393244,
      "1498.68": 17157.016655,
      "1499.682": 17170.837632,
      "1500.684": 17186.133638,
      "1501.686": 17223.539901,
      "1502.688": 17255.6521,
      "1503.69": 17284.324888,
      "1504.692": 17308.756702,
      "1505.694": 17331.104384,
      "1506.696": 17348.863054,
      "1507.698": 17366.533504,
      "1508.7": 17384.587806,
      "1509.702": 17397.716947,
      "1510.704": 17410.520353,
      "1511.706": 17422.995926,
      "1512.708": 17436.60175,
      "1513.71": 17451.023519,
      "1514.712": 17466.208312,
      "1515.714": 17479.502482,
      "1516.716": 17492.597242,
      "1517.718": 17506.313032,
      "1518.72": 17519.616165,
      "1519.722": 17538.095565,
      "1520.724": 17553.959237,
      "1521.726": 17571.582254,
      "1522.728": 17587.934616,
      "1523.73": 17606.542019,
      "1524.732": 17622.246504,
      "1525.734": 17639.792912,
      "1526.736": 17656.085809,
      "1527.738": 17676.619208,
      "1528.74": 17693.151404,
      "1529.742": 17708.284017,
      "1530.744": 17724.797755,
      "1531.746": 17746.347028,
      "1532.748": 17761.215597,
      "1533.75": 17777.835468,
      "1534.752": 17792.570372,
      "1535.754": 17812.1963,
      "1536.756": 17836.619768,
      "1537.758": 17860.660132,
      "1538.76": 17878.583323,
      "1539.762": 17898.443292,
      "1540.764": 17917.531584,
      "1541.766": 17937.536425,
      "1542.768": 17954.379575,
      "1543.77": 17973.745113,
      "1544.772": 17991.956546,
      "1545.774": 18012.798247,
      "1546.776": 18032.274365,
      "1547.778": 18055.041364,
      "1548.78": 18073.252764,
      "1549.782": 18095.987366,
      "1550.784": 18116.992263,
      "1551.786": 18131.64839,
      "1552.788": 18145.517072,
      "1553.79": 18161.777887,
      "1554.792": 18176.519263,
      "1555.794": 18195.680525,
      "1556.796": 18216.166025,
      "1557.798": 18235.392779,
      "1558.8": 18251.299599,
      "1559.802": 18270.639186,
      "1560.804": 18288.229091,
      "1561.806": 18306.318267,
      "1562.808": 18323.326526,
      "1563.81": 18341.813373,
      "1564.812": 18359.671938,
      "1565.814": 18378.68131,
      "1566.816": 18394.532056,
      "1567.818": 18413.276815,
      "1568.82": 18429.837092,
      "1569.822": 18448.453489,
      "1570.824": 18466.467397,
      "1571.826": 18487.744712,
      "1572.828": 18502.116743,
      "1573.83": 18516.532004,
      "1574.832": 18530.349543,
      "1575.834": 18546.219064,
      "1576.836": 18563.467121,
      "1577.838": 18582.403827,
      "1578.84": 18599.984508,
      "1579.842": 18618.613513,
      "1580.844": 18635.706455,
      "1581.846": 18654.644322,
      "1582.848": 18671.016253,
      "1583.85": 18688.486224,
      "1584.852": 18704.955539,
      "1585.854": 18721.331274,
      "1586.856": 18739.057524,
      "1587.858": 18756.751235,
      "1588.86": 18774.134291,
      "1589.862": 18795.09812,
      "1590.864": 18813.816184,
      "1591.866": 18833.348994,
      "1592.868": 18853.580798,
      "1593.87": 18869.113462,
      "1594.872": 18883.077883,
      "1595.874": 18899.672681,
      "1596.876": 18917.24627,
      "1597.878": 18936.917138,
      "1598.88": 18954.837324,
      "1599.882": 18973.397364,
      "1600.884": 18989.306695,
      "1601.886": 19007.388259,
      "1602.888": 19022.773515,
      "1603.89": 19039.82887,
      "1604.892": 19057.248559,
      "1605.894": 19076.914862,
      "1606.896": 19095.440117,
      "1607.898": 19115.639562,
      "1608.9": 19132.655756,
      "1609.902": 19150.276413,
      "1610.904": 19167.320456,
      "1611.906": 19185.160674,
      "1612.908": 19200.027439,
      "1613.91": 19219.575797,
      "1614.912": 19233.442266,
      "1615.914": 19248.110978,
      "1616.916": 19263.012113,
      "1617.918": 19278.1687,
      "1618.92": 19294.990187,
      "1619.922": 19313.736687,
      "1620.924": 19330.981689,
      "1621.926": 19347.798613,
      "1622.928": 19365.324803,
      "1623.93": 19383.544519,
      "1624.932": 19398.868991,
      "1625.934": 19416.091344,
      "1626.936": 19432.907539,
      "1627.938": 19449.630866,
      "1628.94": 19466.001746,
      "1629.942": 19483.119031,
      "1630.944": 19499.668882,
      "1631.946": 19515.918386,
      "1632.948": 19531.219881,
      "1633.95": 19547.14379,
      "1634.952": 19561.436935,
      "1635.954": 19578.086377,
      "1636.956": 19596.457905,
      "1637.958": 19609.916715,
      "1638.96": 19623.208525,
      "1639.962": 19636.33833,
      "1640.964": 19650.050701,
      "1641.966": 19666.845344,
      "1642.968": 19682.757767,
      "1643.97": 19698.652262,
      "1644.972": 19713.094366,
      "1645.974": 19727.568844,
      "1646.976": 19742.022412,
      "1647.978": 19756.538009,
      "1648.98": 19772.672208,
      "1649.982": 19788.630316,
      "1650.984": 19802.93586,
      "1651.986": 19817.941671,
      "1652.988": 19834.21591,
      "1653.99": 19851.860317,
      "1654.992": 19870.591835,
      "1655.994": 19894.518514,
      "1656.996": 19920.925009,
      "1657.998": 19945.959444,
      "1659.0": 19967.349886,
      "1660.002": 19982.392279,
      "1661.004": 19996.83609,
      "1662.006": 20010.979159,
      "1663.008": 20027.067409,
      "1664.01": 20046.856281,
      "1665.012": 20065.019684,
      "1666.014": 20085.210295,
      "1667.016": 20104.845499,
      "1668.018": 20123.959315,
      "1669.02": 20138.816028,
      "1670.022": 20152.871911,
      "1671.024": 20166.6705,
      "1672.026": 20181.523611,
      "1673.028": 20194.629888,
      "1674.03": 20209.172491,
      "1675.032": 20224.118359,
      "1676.034": 20239.445758,
      "1677.036": 20256.793338,
      "1678.038": 20272.94933,
      "1679.04": 20289.121366,
      "1680.042": 20304.147078,
      "1681.044": 20318.841895,
      "1682.046": 20335.162749,
      "1683.048": 20347.963121,
      "1684.05": 20360.650235,
      "1685.052": 20373.381485,
      "1686.054": 20385.876578,
      "1687.056": 20399.462656,
      "1688.058": 20412.576772,
      "1689.06": 20425.88073,
      "1690.062": 20440.019073,
      "1691.064": 20454.399134,
      "1692.066": 20468.915207,
      "1693.068": 20483.159113,
      "1694.07": 20497.650456,
      "1695.072": 20512.915823,
      "1696.074": 20528.086809,
      "1697.076": 20542.461248,
      "1698.078": 20556.908267,
      "1699.08": 20570.380301,
      "1700.082": 20583.98867,
      "1701.084": 20598.449879,
      "1702.086": 20612.701957,
      "1703.088": 20625.706632,
      "1704.09": 20638.766651,
      "1705.092": 20652.678335,
      "1706.094": 20665.259633,
      "1707.096": 20679.471695,
      "1708.098": 20698.108678,
      "1709.1": 20710.956555,
      "1710.102": 20723.490339,
      "1711.104": 20735.839963,
      "1712.106": 20748.473756,
      "1713.108": 20761.169496,
      "1714.11": 20774.300585,
      "1715.112": 20787.719346,
      "1716.114": 20803.423413,
      "1717.116": 20819.593339,
      "1718.118": 20835.873214,
      "1719.12": 20851.533765,
      "1720.122": 20866.720911,
      "1721.124": 20882.087746,
      "1722.126": 20895.768282,
      "1723.128": 20910.929106,
      "1724.13": 20925.498734,
      "1725.132": 20939.382008,
      "1726.134": 20955.413017,
      "1727.136": 20971.042578,
      "1728.138": 20985.693551,
      "1729.14": 21001.801595,
      "1730.142": 21016.53417,
      "1731.144": 21030.795063,
      "1732.146": 21044.369792,
      "1733.148": 21060.771429,
      "1734.15": 21075.914551,
      "1735.152": 21089.183636,
      "1736.154": 21101.726584,
      "1737.156": 21114.424247,
      "1738.158": 21127.833936,
      "1739.16": 21142.525993,
      "1740.162": 21157.438768,
      "1741.164": 21171.36966,
      "1742.166": 21185.337903,
      "1743.168": 21198.744439,
      "1744.17": 21212.787396,
      "1745.172": 21226.711009,
      "1746.174": 21240.051345,
      "1747.176": 21253.49247,
      "1748.178": 21266.758068,
      "1749.18": 21281.882724,
      "1750.182": 21296.324119,
      "1751.184": 21309.907756,
      "1752.186": 21324.32813,
      "1753.188": 21337.887113,
      "1754.19": 21352.159787,
      "1755.192": 21366.241108,
      "1756.194": 21380.417832,
      "1757.196": 21395.030721,
      "1758.198": 21408.227594,
      "1759.2": 21421.154541,
      "1760.202": 21437.283278,
      "1761.204": 21450.328557,
      "1762.206": 21462.873663,
      "1763.208": 21476.014507,
      "1764.21": 21488.767509,
      "1765.212": 21501.828721,
      "1766.214": 21515.682963,
      "1767.216": 21528.734198,
      "1768.218": 21542.432028,
      "1769.22": 21556.592038,
      "1770.222": 21571.19912,
      "1771.224": 21584.768668,
      "1772.226": 21598.047801,
      "1773.228": 21611.386035,
      "1774.23": 21626.299878,
      "1775.232": 21639.765623,
      "1776.234": 21655.634034,
      "1777.236": 21670.291177,
      "1778.238": 21685.276678,
      "1779.24": 21700.14994,
      "1780.242": 21715.458596,
      "1781.244": 21729.655539,
      "1782.246": 21742.916301,
      "1783.248": 21757.007287,
      "1784.25": 21770.667473,
      "1785.252": 21785.609877,
      "1786.254": 21802.859572,
      "1787.256": 21815.893629,
      "1788.258": 21828.307389,
      "1789.26": 21840.916424,
      "1790.262": 21853.197717,
      "1791.264": 21865.073157,
      "1792.266": 21878.936753,
      "1793.268": 21893.152751,
      "1794.27": 21907.336592,
      "1795.272": 21921.333066,
      "1796.274": 21935.529719,
      "1797.276": 21950.584613,
      "1798.278": 21964.124657,
      "1799.28": 21979.193704,
      "1800.282": 21995.903237,
      "1801.284": 22026.06182,
      "1802.286": 22064.877219,
      "1803.288": 22097.751689,
      "1804.29": 22125.785094,
      "1805.292": 22150.965242,
      "1806.294": 22172.593774,
      "1807.296": 22187.254385,
      "1808.298": 22200.424117,
      "1809.3": 22213.378771,
      "1810.302": 22226.246162,
      "1811.304": 22239.244496,
      "1812.306": 22253.449556,
      "1813.308": 22267.016317,
      "1814.31": 22281.143246,
      "1815.312": 22294.886214,
      "1816.314": 22309.320244,
      "1817.316": 22323.112715,
      "1818.318": 22338.21252,
      "1819.32": 22354.748802,
      "1820.322": 22370.942569,
      "1821.324": 22388.610214,
      "1822.326": 22407.19599,
      "1823.328": 22423.885618,
      "1824.33": 22440.347164,
      "1825.332": 22456.801992,
      "1826.334": 22471.043599,
      "1827.336": 22486.531746,
      "1828.338": 22504.126644,
      "1829.34": 22522.399455,
      "1830.342": 22542.410016,
      "1831.344": 22557.500614,
      "1832.346": 22572.165079,
      "1833.348": 22587.612433,
      "1834.35": 22603.214083,
      "1835.352": 22621.056443,
      "1836.354": 22644.875605,
      "1837.356": 22671.599253,
      "1838.358": 22694.510806,
      "1839.36": 22714.480051,
      "1840.362": 22732.347414,
      "1841.364": 22750.61557,
      "1842.366": 22767.904416,
      "1843.368": 22786.899592,
      "1844.37": 22806.782318,
      "1845.372": 22826.673805,
      "1846.374": 22849.206332,
      "1847.376": 22869.084348,
      "1848.378": 22886.905612,
      "1849.38": 22904.992383,
      "1850.382": 22922.615194,
      "1851.384": 22939.076363,
      "1852.386": 22953.390918,
      "1853.388": 22968.614389,
      "1854.39": 22985.882485,
      "1855.392": 23005.11378,
      "1856.394": 23024.400937,
      "1857.396": 23044.373232,
      "1858.398": 23061.120564,
      "1859.4": 23080.952647
    },
    "seconds": 23080.952647
  }
}