{
  "1048576": [
    0.602,
    0.766074,
    0.287,
    0.479,
    0.555,
    0.248712,
    0.372,
    0.369,
    0.188,
    0.64,
    0.409,
    0.517,
    0.383,
    0.583,
    0.678568,
    0.714245,
    0.519,
    0.812,
    0.722,
    0.719755,
    0.77,
    0.746,
    0.507,
    0.303,
    0.377,
    0.327,
    0.331,
    0.477075,
    0.372,
    0.746,
    1.096,
    0.309,
    0.294,
    0.604,
    0.850662,
    0.242,
    0.662,
    0.226,
    0.338,
    0.318,
    0.513,
    0.431228,
    0.79,
    0.632,
    0.531,
    0.607,
    0.629,
    0.901,
    0.58492,
    0.63,
    1.0,
    0.632,
    0.548,
    0.574,
    0.463,
    0.582,
    0.986,
    0.936488,
    0.458487,
    1.155,
    0.626,
    0.577914,
    0.431,
    0.566,
    0.616,
    0.482,
    0.745,
    0.27,
    0.456,
    1.65,
    0.637,
    0.924,
    0.641,
    0.686276,
    0.579,
    0.672,
    0.857,
    0.5,
    0.536,
    0.386,
    0.46741,
    0.685,
    0.856757,
    0.818233,
    0.892,
    0.338,
    0.549,
    0.597,
    0.498,
    0.633,
    1.771,
    0.700306,
    0.672402,
    0.631011,
    0.519,
    0.629,
    0.926,
    0.875,
    0.494,
    0.876,
    0.635,
    0.554,
    0.392,
    0.529,
    0.422,
    0.544,
    1.066,
    0.859,
    0.677,
    0.804,
    0.884,
    0.465,
    0.502,
    0.577,
    0.761,
    0.715,
    0.917,
    0.269,
    0.507,
    0.589,
    0.594,
    1.039,
    0.855,
    0.528,
    0.606897,
    0.608,
    0.52,
    0.429,
    0.666,
    0.659,
    0.299,
    0.483,
    0.746,
    0.543,
    0.986,
    0.471,
    0.903,
    0.823876,
    0.601,
    0.729679,
    0.833993,
    0.599,
    0.626,
    0.687,
    0.363,
    0.533,
    0.562,
    0.801,
    0.369,
    0.514,
    1.115,
    0.553
  ],
  "51200": [
    0.392,
    0.412,
    0.483,
    0.588,
    0.687,
    0.655,
    0.409,
    0.547,
    0.64,
    0.698,
    0.554,
    1.248,
    0.715,
    0.61,
    0.445,
    0.443,
    0.473,
    0.527,
    0.583,
    0.392,
    0.446,
    0.283,
    0.806,
    0.41,
    0.345,
    0.722,
    0.588,
    0.363,
    1.027,
    0.557,
    0.567,
    0.867,
    0.576,
    0.79,
    0.755,
    0.815,
    1.108,
    1.011,
    1.271,
    0.724,
    1.048,
    0.745,
    0.831,
    0.541,
    0.353,
    0.654,
    0.249,
    0.747,
    0.316,
    0.648,
    0.401,
    0.644,
    0.488,
    0.375,
    0.587,
    0.531,
    0.278,
    0.246,
    0.351,
    0.454,
    0.257,
    0.284,
    0.324,
    0.441,
    0.716,
    0.599,
    0.852,
    0.456,
    0.804,
    0.449,
    0.565,
    0.316,
    0.595,
    0.506,
    0.247,
    0.344,
    0.367,
    0.467851,
    0.549568,
    0.373,
    0.759,
    0.572,
    1.006,
    0.282,
    0.4,
    0.525,
    0.379,
    0.612,
    0.313,
    0.378,
    0.339,
    0.597,
    0.738,
    0.511,
    0.428,
    0.238,
    0.295,
    0.292,
    0.637,
    0.52,
    0.284,
    0.376,
    0.439,
    0.342,
    0.72,
    0.611,
    0.562,
    0.37,
    0.433716,
    0.502,
    0.573919,
    0.500287,
    0.599,
    0.436,
    0.886,
    0.589,
    0.78,
    0.658,
    0.934197,
    0.706568,
    0.88,
    0.598,
    0.925,
    0.708,
    0.551,
    0.957,
    0.968,
    0.938,
    0.829,
    0.623,
    0.847,
    0.985,
    0.776,
    0.409525,
    0.869,
    0.481716,
    0.595,
    0.43111,
    0.680284,
    0.432,
    0.465,
    0.554,
    0.614326,
    0.879698,
    0.597,
    0.683,
    0.911,
    0.772284,
    0.631432,
    0.488095,
    0.980228,
    0.523936,
    0.719014,
    0.612,
    0.531,
    0.773,
    0.739891,
    1.075299,
    0.786,
    0.699,
    0.269,
    0.314,
    0.367,
    0.472,
    0.664,
    0.584,
    0.624,
    0.379,
    0.435,
    0.693,
    0.961,
    0.607,
    0.966,
    0.584,
    0.4,
    0.26,
    0.245,
    0.658,
    0.391,
    0.624,
    0.325,
    0.492,
    0.594,
    0.379,
    0.717,
    0.548,
    0.284,
    0.292,
    0.362,
    0.199,
    0.402012,
    0.301,
    0.361,
    0.371,
    0.411237,
    0.646,
    0.5034,
    0.378,
    0.259,
    0.42,
    0.495,
    0.377,
    0.477,
    0.477,
    0.378,
    0.758,
    0.659,
    0.46,
    0.347,
    0.621,
    0.4,
    0.824,
    0.559,
    0.655,
    0.607,
    0.735,
    0.502,
    0.619,
    0.575,
    0.935,
    0.798,
    0.62,
    0.769,
    0.814,
    0.23,
    0.479,
    0.243,
    0.308,
    0.394,
    0.699,
    0.597,
    0.457,
    0.377,
    0.726,
    0.541,
    0.473,
    0.428,
    0.761412,
    0.679588,
    0.472,
    0.759,
    0.538,
    0.761,
    1.066,
    0.509455,
    0.564,
    0.265,
    0.646,
    0.33,
    0.711,
    0.518,
    0.388,
    0.325,
    0.571,
    0.373,
    0.672,
    0.493,
    0.42,
    0.218,
    0.265,
    0.239,
    0.401,
    0.259,
    0.558,
    0.449,
    0.514,
    0.832,
    0.894702,
    0.451,
    0.633,
    0.518,
    0.278,
    0.230416,
    0.336951,
    0.396,
    0.217,
    0.50881,
    0.258268,
    0.348,
    0.368388,
    0.549447,
    0.35,
    0.677,
    0.374686,
    0.246,
    0.347,
    0.247,
    0.548,
    0.716,
    0.974,
    0.634,
    0.357,
    0.274,
    0.386,
    0.58,
    0.385,
    0.395,
    0.73,
    0.528,
    0.813575,
    0.481547,
    0.614391,
    1.182535,
    0.453,
    0.579,
    0.718311,
    0.700963,
    0.618,
    0.998073,
    0.763724,
    0.83412,
    0.51,
    0.405,
    0.655,
    0.494,
    0.511,
    0.732,
    0.669,
    0.747,
    0.595,
    0.594,
    0.956,
    0.916,
    0.711,
    0.221,
    0.184,
    0.363,
    0.372,
    0.526,
    0.719,
    0.588,
    0.435,
    0.612,
    0.405,
    1.151,
    0.542,
    0.76,
    0.524,
    0.732,
    0.603,
    0.566,
    0.529,
    0.634,
    0.778297,
    0.709,
    0.759,
    0.748,
    0.783,
    0.794,
    0.55,
    0.563,
    0.55,
    0.496,
    0.531,
    0.581,
    0.708805,
    0.584,
    0.757,
    0.919,
    0.789,
    0.732,
    0.601,
    0.709,
    0.532,
    1.54,
    0.548,
    1.071,
    0.789,
    0.585,
    0.657,
    0.837,
    0.871,
    0.638,
    0.973,
    0.876,
    0.461,
    0.54,
    0.691,
    0.764,
    0.614,
    0.482,
    0.542,
    0.813,
    0.819,
    0.672,
    0.796,
    0.732,
    0.469,
    0.540211,
    0.426339,
    0.509,
    0.561,
    0.605138,
    0.554,
    0.565,
    0.965162,
    0.67,
    0.526,
    0.502,
    0.585,
    0.493,
    0.644,
    0.703366,
    0.456,
    0.601,
    0.623,
    1.004,
    0.749,
    1.235154,
    0.806,
    0.729578,
    0.261976,
    0.628745,
    0.550442,
    0.426,
    0.966,
    0.903903,
    0.638,
    0.485713,
    0.39076,
    0.412903,
    0.595903,
    0.768582,
    0.761024,
    0.568976,
    0.779,
    0.489,
    0.5,
    0.59,
    0.553,
    0.688,
    0.437,
    0.478,
    0.665,
    0.552,
    0.809,
    0.565,
    0.886,
    1.005,
    0.811,
    0.412,
    0.242,
    0.325,
    0.719,
    0.261,
    0.278777,
    0.641,
    0.56,
    0.524878,
    0.406,
    0.400122,
    0.522,
    0.457,
    0.282,
    0.474,
    0.297,
    0.356,
    0.495,
    0.427,
    0.466,
    0.758,
    0.586,
    0.569,
    0.875,
    0.56,
    0.619,
    0.548,
    0.702,
    0.486,
    0.579,
    0.598,
    0.944,
    1.145,
    0.665,
    0.695,
    0.525097,
    0.610775,
    0.553,
    0.769,
    0.569,
    0.826,
    0.605488,
    0.669,
    0.594,
    0.884,
    0.657,
    1.260097,
    0.856,
    0.781,
    0.599,
    0.623,
    0.317,
    0.457,
    0.287,
    0.352,
    0.547,
    0.682,
    0.818,
    0.462,
    0.251,
    0.269,
    0.361,
    0.322,
    0.416,
    0.608,
    0.308,
    0.459,
    0.917,
    0.405,
    0.477,
    0.767,
    0.802,
    0.416,
    0.259006,
    0.279198,
    0.568,
    0.284473,
    0.481,
    0.277668,
    0.355,
    0.49831,
    0.397006,
    0.541,
    0.418,
    0.353883,
    0.712,
    0.552044,
    0.728,
    0.482,
    0.992026,
    0.641992,
    0.467655,
    0.621,
    0.807883,
    0.604576,
    0.587,
    0.669,
    0.646,
    0.787859,
    0.816,
    0.590132,
    0.634363,
    0.7633,
    0.607,
    0.864677,
    0.892,
    0.600327,
    0.634943,
    0.754,
    0.953,
    1.012,
    0.873,
    0.731983,
    0.227,
    0.537,
    0.377588,
    0.327545,
    0.204,
    0.388,
    0.442,
    0.51,
    0.549,
    0.536,
    0.629,
    0.546245,
    0.544,
    0.484,
    0.483,
    0.673,
    0.484,
    0.703,
    0.507,
    0.589,
    0.657,
    0.805,
    0.653,
    0.634,
    0.823,
    0.752,
    0.763,
    0.564,
    0.881,
    2.015,
    0.452,
    0.473,
    1.295,
    0.562,
    0.598,
    1.027,
    0.816,
    0.627,
    0.565,
    0.205199,
    0.176,
    0.325,
    0.284,
    0.376,
    0.340117,
    0.246,
    0.409753,
    0.388849,
    0.888929,
    0.391691,
    0.291508,
    0.507552,
    0.427,
    0.471837,
    0.504,
    0.513,
    0.632011,
    0.567,
    0.744195,
    0.69,
    0.722,
    0.638195,
    0.604038,
    1.199,
    0.581805,
    0.517,
    0.48,
    0.5,
    0.529,
    0.69,
    0.613,
    0.755,
    0.693,
    0.941,
    0.661,
    1.568,
    0.992,
    0.466,
    0.52,
    0.607,
    0.489,
    0.622,
    0.466,
    0.812,
    0.823,
    0.564,
    0.593,
    0.748,
    0.592,
    0.259,
    0.599,
    0.714,
    0.406,
    0.637,
    0.492,
    0.599,
    0.298,
    0.543,
    0.421,
    0.509,
    0.442,
    0.857,
    0.721,
    0.68,
    0.578,
    0.699,
    0.933,
    0.655,
    0.876,
    0.846,
    1.018,
    0.692,
    0.927,
    0.655,
    0.754,
    0.896,
    0.695,
    0.41,
    0.446167,
    0.773,
    0.72,
    0.876,
    0.426,
    0.793,
    0.645,
    0.549,
    0.779,
    0.591,
    0.851,
    0.736,
    0.278,
    0.192,
    0.288,
    0.364,
    0.367897,
    0.442,
    0.28,
    0.418,
    0.474,
    1.503,
    0.698,
    0.409,
    0.479,
    0.677,
    0.542,
    0.421,
    0.463484,
    0.439314,
    0.60578,
    0.776,
    0.596,
    0.666,
    0.583,
    0.934,
    0.779,
    0.816378,
    0.258,
    0.271,
    0.594,
    0.437,
    0.3,
    0.472,
    0.292,
    0.298,
    0.439,
    0.53,
    0.381,
    0.722,
    0.572,
    0.403,
    0.473,
    0.597,
    1.005,
    0.476,
    0.616,
    0.948,
    0.66,
    0.606,
    1.082,
    0.594,
    0.832,
    0.470991,
    0.556,
    0.621,
    0.756,
    0.643,
    0.487,
    0.623,
    0.546,
    0.637,
    0.84,
    0.639,
    1.02,
    0.666,
    0.916,
    0.822,
    0.574,
    0.63,
    0.541,
    0.71,
    0.517,
    0.643,
    0.672,
    0.766,
    0.563,
    0.567,
    0.902,
    0.779,
    0.77,
    0.369,
    0.276,
    0.653,
    0.308,
    0.327,
    0.395,
    0.547,
    0.374,
    0.562,
    0.434,
    0.377,
    0.823,
    0.601,
    0.424,
    0.868,
    0.513,
    0.887,
    0.684,
    1.317,
    0.77,
    0.54,
    0.687,
    0.771436,
    0.786,
    0.623,
    0.739621,
    0.914,
    0.694,
    0.84,
    0.525,
    0.563,
    0.573,
    0.64,
    0.807,
    0.593,
    0.65,
    0.565,
    0.589,
    0.642,
    0.318,
    0.28,
    0.272,
    0.483,
    0.285,
    0.437,
    0.319,
    0.477,
    0.355002,
    0.512,
    0.624,
    0.601,
    0.537,
    0.72,
    0.628,
    0.509,
    0.905,
    0.47,
    0.628,
    0.843,
    0.635,
    0.638,
    0.802,
    0.66,
    0.411,
    0.56,
    0.767,
    0.462,
    0.738,
    0.619,
    0.806,
    0.994,
    0.615,
    0.822,
    0.554,
    0.708,
    0.539,
    0.566,
    0.748,
    1.029,
    0.734,
    0.656,
    0.724,
    0.95,
    0.815,
    0.637,
    0.702335,
    0.542,
    0.642,
    0.531,
    0.499,
    0.608,
    0.5,
    0.759,
    0.678,
    0.98,
    0.737,
    0.316,
    0.323,
    0.574,
    0.46,
    0.314,
    0.288,
    0.309,
    0.384,
    0.659,
    0.451,
    0.41,
    1.066,
    0.457,
    0.738,
    0.908762,
    0.810366,
    0.63,
    0.755,
    0.637,
    0.583,
    0.679,
    0.635156,
    0.944288,
    0.694,
    0.669,
    0.67,
    0.607,
    0.764,
    0.464,
    0.594,
    0.745,
    0.596,
    0.477,
    0.398,
    0.59,
    0.44,
    0.699,
    0.596,
    0.602,
    0.926,
    0.885,
    0.471164,
    0.69987,
    0.72569,
    0.45864,
    0.53746,
    0.682,
    0.649918,
    1.022,
    0.7,
    1.005,
    0.861608,
    0.603664,
    0.62417,
    0.695468,
    0.592872,
    0.672469,
    0.902871,
    0.73,
    0.647189,
    0.982537,
    0.566124,
    1.019909,
    0.81,
    0.675,
    0.517302,
    0.834,
    0.639,
    0.70846,
    0.706,
    0.45962,
    0.541,
    1.021691,
    0.658,
    0.984,
    0.739319,
    0.598302,
    0.783,
    0.537,
    0.549,
    0.72,
    0.809,
    0.526,
    0.916,
    0.68,
    0.654,
    0.64,
    1.225,
    0.755,
    0.686,
    0.313,
    0.306,
    0.583,
    0.553,
    0.294,
    0.739,
    0.462,
    0.491,
    0.408,
    0.741,
    0.568,
    0.255,
    0.598,
    0.315,
    0.417891,
    0.704,
    0.414,
    0.628878,
    0.319,
    0.705537,
    0.698063,
    0.485,
    0.403,
    0.726,
    0.604,
    0.573,
    0.43,
    0.498,
    0.867,
    0.483,
    0.512,
    0.564,
    0.596,
    0.621,
    0.653,
    0.546,
    0.708,
    0.784,
    0.678,
    0.459,
    0.291,
    0.438,
    0.413,
    0.464,
    0.598,
    0.521,
    0.56,
    0.39,
    0.56,
    0.763,
    0.443,
    1.264,
    0.394,
    0.421,
    0.633,
    0.374,
    0.692,
    0.692,
    0.795,
    0.589,
    2.168,
    1.06,
    0.71,
    0.595
  ],
  "5242880": [
    0.279,
    0.668,
    0.326,
    0.296,
    0.539,
    0.285,
    0.388,
    0.247,
    0.763,
    0.61,
    0.396,
    0.346,
    0.579923,
    0.780889,
    0.484,
    0.689,
    0.532,
    0.662,
    0.745,
    0.778,
    0.686,
    1.595,
    0.60662,
    0.829545,
    0.346,
    0.462,
    0.623,
    0.344,
    0.707767,
    0.367,
    0.366,
    0.904,
    0.8,
    0.651,
    0.642,
    0.623,
    0.503,
    0.702,
    0.378,
    0.401,
    0.708,
    0.984,
    0.922,
    0.981,
    0.731,
    0.642,
    0.662082,
    0.844,
    0.608764,
    0.906623,
    0.874,
    0.472,
    0.413,
    0.252
  ],
  "ALL": [
    0.392,
    0.412,
    0.483,
    0.588,
    0.687,
    0.655,
    0.409,
    0.547,
    0.64,
    0.698,
    0.554,
    1.248,
    0.715,
    0.61,
    0.602,
    0.766074,
    0.445,
    0.443,
    0.473,
    0.527,
    0.583,
    0.392,
    0.446,
    0.283,
    0.806,
    0.41,
    0.345,
    0.722,
    0.588,
    0.363,
    0.287,
    0.279,
    1.027,
    0.557,
    0.567,
    0.867,
    0.576,
    0.79,
    0.755,
    0.815,
    1.108,
    1.011,
    1.271,
    0.724,
    1.048,
    0.745,
    0.831,
    0.541,
    0.353,
    0.654,
    0.249,
    0.747,
    0.316,
    0.648,
    0.401,
    0.644,
    0.488,
    0.375,
    0.587,
    0.531,
    0.479,
    0.555,
    0.278,
    0.246,
    0.351,
    0.454,
    0.257,
    0.284,
    0.324,
    0.441,
    0.716,
    0.599,
    0.852,
    0.456,
    0.804,
    0.449,
    0.668,
    0.565,
    0.316,
    0.595,
    0.506,
    0.247,
    0.344,
    0.367,
    0.467851,
    0.549568,
    0.373,
    0.759,
    0.572,
    1.006,
    0.248712,
    0.372,
    0.369,
    0.282,
    0.4,
    0.525,
    0.379,
    0.612,
    0.313,
    0.378,
    0.339,
    0.597,
    0.738,
    0.511,
    0.428,
    0.188,
    0.64,
    0.409,
    0.326,
    0.238,
    0.295,
    0.292,
    0.637,
    0.52,
    0.284,
    0.376,
    0.439,
    0.342,
    0.72,
    0.611,
    0.562,
    0.517,
    0.383,
    0.583,
    0.296,
    0.37,
    0.433716,
    0.502,
    0.573919,
    0.500287,
    0.599,
    0.436,
    0.886,
    0.589,
    0.78,
    0.658,
    0.934197,
    0.706568,
    0.678568,
    0.714245,
    0.539,
    0.88,
    0.598,
    0.925,
    0.708,
    0.551,
    0.957,
    0.968,
    0.938,
    0.829,
    0.623,
    0.847,
    0.985,
    0.776,
    0.519,
    0.812,
    0.409525,
    0.869,
    0.481716,
    0.595,
    0.43111,
    0.680284,
    0.432,
    0.465,
    0.554,
    0.614326,
    0.879698,
    0.597,
    0.683,
    0.911,
    0.772284,
    0.631432,
    0.488095,
    0.980228,
    0.523936,
    0.719014,
    0.612,
    0.531,
    0.773,
    0.739891,
    1.075299,
    0.786,
    0.699,
    0.722,
    0.719755,
    0.77,
    0.269,
    0.314,
    0.367,
    0.472,
    0.664,
    0.584,
    0.624,
    0.379,
    0.435,
    0.693,
    0.961,
    0.607,
    0.966,
    0.584,
    0.4,
    0.746,
    0.26,
    0.245,
    0.658,
    0.391,
    0.624,
    0.325,
    0.492,
    0.594,
    0.379,
    0.717,
    0.548,
    0.507,
    0.303,
    0.377,
    0.285,
    0.388,
    0.284,
    0.292,
    0.362,
    0.199,
    0.402012,
    0.301,
    0.361,
    0.371,
    0.411237,
    0.646,
    0.5034,
    0.378,
    0.327,
    0.331,
    0.477075,
    0.247,
    0.259,
    0.42,
    0.495,
    0.377,
    0.477,
    0.477,
    0.378,
    0.758,
    0.659,
    0.46,
    0.347,
    0.621,
    0.4,
    0.372,
    0.763,
    0.824,
    0.559,
    0.655,
    0.607,
    0.735,
    0.502,
    0.619,
    0.575,
    0.935,
    0.798,
    0.62,
    0.769,
    0.814,
    0.746,
    1.096,
    0.61,
    0.23,
    0.479,
    0.243,
    0.308,
    0.394,
    0.699,
    0.597,
    0.457,
    0.377,
    0.726,
    0.541,
    0.309,
    0.294,
    0.396,
    0.346,
    0.473,
    0.428,
    0.761412,
    0.679588,
    0.472,
    0.759,
    0.538,
    0.761,
    1.066,
    0.509455,
    0.564,
    0.604,
    0.850662,
    0.579923,
    0.780889,
    0.265,
    0.646,
    0.33,
    0.711,
    0.518,
    0.388,
    0.325,
    0.571,
    0.373,
    0.672,
    0.493,
    0.42,
    0.242,
    0.662,
    0.484,
    0.218,
    0.265,
    0.239,
    0.401,
    0.259,
    0.558,
    0.449,
    0.514,
    0.832,
    0.894702,
    0.451,
    0.633,
    0.518,
    0.226,
    0.338,
    0.689,
    0.278,
    0.230416,
    0.336951,
    0.396,
    0.217,
    0.50881,
    0.258268,
    0.348,
    0.368388,
    0.549447,
    0.35,
    0.677,
    0.374686,
    0.318,
    0.513,
    0.431228,
    0.246,
    0.347,
    0.247,
    0.548,
    0.716,
    0.974,
    0.634,
    0.357,
    0.274,
    0.386,
    0.58,
    0.385,
    0.395,
    0.73,
    0.528,
    0.532,
    0.813575,
    0.481547,
    0.614391,
    1.182535,
    0.453,
    0.579,
    0.718311,
    0.700963,
    0.618,
    0.998073,
    0.763724,
    0.83412,
    0.79,
    0.632,
    0.51,
    0.405,
    0.655,
    0.494,
    0.511,
    0.732,
    0.669,
    0.747,
    0.595,
    0.594,
    0.956,
    0.916,
    0.711,
    0.531,
    0.221,
    0.184,
    0.363,
    0.372,
    0.526,
    0.719,
    0.588,
    0.435,
    0.612,
    0.405,
    1.151,
    0.542,
    0.76,
    0.607,
    0.629,
    0.901,
    0.524,
    0.732,
    0.603,
    0.566,
    0.529,
    0.634,
    0.778297,
    0.709,
    0.759,
    0.748,
    0.783,
    0.794,
    0.58492,
    0.63,
    1.0,
    0.662,
    0.55,
    0.563,
    0.55,
    0.496,
    0.531,
    0.581,
    0.708805,
    0.584,
    0.757,
    0.919,
    0.789,
    0.732,
    0.632,
    0.548,
    0.574,
    0.745,
    0.601,
    0.709,
    0.532,
    1.54,
    0.548,
    1.071,
    0.789,
    0.585,
    0.657,
    0.837,
    0.871,
    0.638,
    0.973,
    0.876,
    0.778,
    0.686,
    0.461,
    0.54,
    0.691,
    0.764,
    0.614,
    0.482,
    0.542,
    0.813,
    0.819,
    0.672,
    0.796,
    0.732,
    0.463,
    0.582,
    0.986,
    1.595,
    0.469,
    0.540211,
    0.426339,
    0.509,
    0.561,
    0.605138,
    0.554,
    0.565,
    0.965162,
    0.67,
    0.526,
    0.936488,
    0.458487,
    1.155,
    0.60662,
    0.829545,
    0.502,
    0.585,
    0.493,
    0.644,
    0.703366,
    0.456,
    0.601,
    0.623,
    1.004,
    0.749,
    1.235154,
    0.806,
    0.729578,
    0.626,
    0.261976,
    0.628745,
    0.550442,
    0.426,
    0.966,
    0.903903,
    0.638,
    0.485713,
    0.39076,
    0.412903,
    0.595903,
    0.768582,
    0.761024,
    0.568976,
    0.577914,
    0.431,
    0.779,
    0.489,
    0.5,
    0.59,
    0.553,
    0.688,
    0.437,
    0.478,
    0.665,
    0.552,
    0.809,
    0.565,
    0.886,
    1.005,
    0.811,
    0.566,
    0.412,
    0.242,
    0.325,
    0.719,
    0.261,
    0.278777,
    0.641,
    0.56,
    0.524878,
    0.406,
    0.400122,
    0.522,
    0.457,
    0.616,
    0.482,
    0.745,
    0.282,
    0.474,
    0.297,
    0.356,
    0.495,
    0.427,
    0.466,
    0.758,
    0.586,
    0.569,
    0.27,
    0.456,
    1.65,
    0.346,
    0.462,
    0.623,
    0.875,
    0.56,
    0.619,
    0.548,
    0.702,
    0.486,
    0.579,
    0.598,
    0.944,
    1.145,
    0.665,
    0.695,
    0.637,
    0.924,
    0.641,
    0.525097,
    0.610775,
    0.553,
    0.769,
    0.569,
    0.826,
    0.605488,
    0.669,
    0.594,
    0.884,
    0.657,
    1.260097,
    0.856,
    0.781,
    0.686276,
    0.599,
    0.623,
    0.317,
    0.457,
    0.287,
    0.352,
    0.547,
    0.682,
    0.818,
    0.462,
    0.579,
    0.672,
    0.857,
    0.5,
    0.344,
    0.251,
    0.269,
    0.361,
    0.322,
    0.416,
    0.608,
    0.308,
    0.459,
    0.917,
    0.405,
    0.477,
    0.767,
    0.802,
    0.416,
    0.536,
    0.386,
    0.259006,
    0.279198,
    0.568,
    0.284473,
    0.481,
    0.277668,
    0.355,
    0.49831,
    0.397006,
    0.541,
    0.418,
    0.353883,
    0.712,
    0.552044,
    0.46741,
    0.728,
    0.482,
    0.992026,
    0.641992,
    0.467655,
    0.621,
    0.807883,
    0.604576,
    0.587,
    0.669,
    0.646,
    0.787859,
    0.816,
    0.590132,
    0.685,
    0.856757,
    0.634363,
    0.7633,
    0.607,
    0.864677,
    0.892,
    0.600327,
    0.634943,
    0.754,
    0.953,
    1.012,
    0.873,
    0.731983,
    0.818233,
    0.892,
    0.707767,
    0.227,
    0.537,
    0.377588,
    0.327545,
    0.204,
    0.388,
    0.442,
    0.51,
    0.549,
    0.536,
    0.629,
    0.546245,
    0.544,
    0.338,
    0.367,
    0.366,
    0.484,
    0.483,
    0.673,
    0.484,
    0.703,
    0.507,
    0.589,
    0.657,
    0.805,
    0.653,
    0.634,
    0.823,
    0.752,
    0.549,
    0.597,
    0.904,
    0.763,
    0.564,
    0.881,
    2.015,
    0.452,
    0.473,
    1.295,
    0.562,
    0.598,
    1.027,
    0.816,
    0.627,
    0.498,
    0.633,
    1.771,
    0.565,
    0.205199,
    0.176,
    0.325,
    0.284,
    0.376,
    0.340117,
    0.246,
    0.409753,
    0.388849,
    0.888929,
    0.391691,
    0.291508,
    0.507552,
    0.427,
    0.700306,
    0.471837,
    0.504,
    0.513,
    0.632011,
    0.567,
    0.744195,
    0.69,
    0.722,
    0.638195,
    0.604038,
    1.199,
    0.581805,
    0.672402,
    0.631011,
    0.517,
    0.48,
    0.5,
    0.529,
    0.69,
    0.613,
    0.755,
    0.693,
    0.941,
    0.661,
    1.568,
    0.992,
    0.8,
    0.651,
    0.466,
    0.52,
    0.607,
    0.489,
    0.622,
    0.466,
    0.812,
    0.823,
    0.564,
    0.593,
    0.748,
    0.592,
    0.519,
    0.629,
    0.926,
    0.875,
    0.259,
    0.599,
    0.714,
    0.406,
    0.637,
    0.492,
    0.599,
    0.298,
    0.543,
    0.421,
    0.509,
    0.442,
    0.857,
    0.721,
    0.494,
    0.876,
    0.68,
    0.578,
    0.699,
    0.933,
    0.655,
    0.876,
    0.846,
    1.018,
    0.692,
    0.927,
    0.655,
    0.754,
    0.896,
    0.695,
    0.41,
    0.446167,
    0.773,
    0.72,
    0.876,
    0.426,
    0.793,
    0.645,
    0.549,
    0.779,
    0.591,
    0.851,
    0.736,
    0.635,
    0.642,
    0.278,
    0.192,
    0.288,
    0.364,
    0.367897,
    0.442,
    0.28,
    0.418,
    0.474,
    1.503,
    0.698,
    0.409,
    0.479,
    0.677,
    0.542,
    0.554,
    0.421,
    0.463484,
    0.439314,
    0.60578,
    0.776,
    0.596,
    0.666,
    0.583,
    0.934,
    0.779,
    0.816378,
    0.392,
    0.529,
    0.623,
    0.503,
    0.258,
    0.271,
    0.594,
    0.437,
    0.3,
    0.472,
    0.292,
    0.298,
    0.439,
    0.53,
    0.381,
    0.722,
    0.572,
    0.403,
    0.422,
    0.544,
    0.473,
    0.597,
    1.005,
    0.476,
    0.616,
    0.948,
    0.66,
    0.606,
    1.082,
    0.594,
    1.066,
    0.859,
    0.677,
    0.804,
    0.832,
    0.470991,
    0.556,
    0.621,
    0.756,
    0.643,
    0.487,
    0.623,
    0.546,
    0.637,
    0.84,
    0.639,
    1.02,
    0.666,
    0.884,
    0.916,
    0.822,
    0.574,
    0.63,
    0.541,
    0.71,
    0.517,
    0.643,
    0.672,
    0.766,
    0.563,
    0.567,
    0.902,
    0.779,
    0.77,
    0.465,
    0.369,
    0.276,
    0.653,
    0.308,
    0.327,
    0.395,
    0.547,
    0.374,
    0.562,
    0.434,
    0.377,
    0.823,
    0.601,
    0.424,
    0.502,
    0.868,
    0.513,
    0.887,
    0.684,
    1.317,
    0.77,
    0.54,
    0.687,
    0.771436,
    0.786,
    0.623,
    0.739621,
    0.914,
    0.694,
    0.84,
    0.525,
    0.563,
    0.573,
    0.64,
    0.807,
    0.593,
    0.65,
    0.565,
    0.589,
    0.642,
    0.577,
    0.761,
    0.715,
    0.917,
    0.702,
    0.318,
    0.28,
    0.272,
    0.483,
    0.285,
    0.437,
    0.319,
    0.477,
    0.355002,
    0.512,
    0.624,
    0.601,
    0.537,
    0.269,
    0.378,
    0.401,
    0.72,
    0.628,
    0.509,
    0.905,
    0.47,
    0.628,
    0.843,
    0.635,
    0.638,
    0.802,
    0.66,
    0.507,
    0.589,
    0.594,
    1.039,
    0.411,
    0.56,
    0.767,
    0.462,
    0.738,
    0.619,
    0.806,
    0.994,
    0.615,
    0.822,
    0.855,
    0.528,
    0.708,
    0.984,
    0.922,
    0.554,
    0.708,
    0.539,
    0.566,
    0.748,
    1.029,
    0.734,
    0.656,
    0.724,
    0.95,
    0.815,
    0.637,
    0.606897,
    0.608,
    0.981,
    0.702335,
    0.542,
    0.642,
    0.531,
    0.499,
    0.608,
    0.5,
    0.759,
    0.678,
    0.98,
    0.737,
    0.52,
    0.429,
    0.666,
    0.659,
    0.731,
    0.316,
    0.323,
    0.574,
    0.46,
    0.314,
    0.288,
    0.309,
    0.384,
    0.659,
    0.451,
    0.41,
    1.066,
    0.457,
    0.299,
    0.483,
    0.746,
    0.738,
    0.908762,
    0.810366,
    0.63,
    0.755,
    0.637,
    0.583,
    0.679,
    0.635156,
    0.944288,
    0.694,
    0.669,
    0.67,
    0.543,
    0.986,
    0.607,
    0.764,
    0.464,
    0.594,
    0.745,
    0.596,
    0.477,
    0.398,
    0.59,
    0.44,
    0.699,
    0.596,
    0.602,
    0.926,
    0.885,
    0.642,
    0.471164,
    0.69987,
    0.72569,
    0.45864,
    0.53746,
    0.682,
    0.649918,
    1.022,
    0.7,
    1.005,
    0.861608,
    0.471,
    0.903,
    0.662082,
    0.844,
    0.603664,
    0.62417,
    0.695468,
    0.592872,
    0.672469,
    0.902871,
    0.73,
    0.647189,
    0.982537,
    0.566124,
    1.019909,
    0.81,
    0.675,
    0.823876,
    0.608764,
    0.906623,
    0.517302,
    0.834,
    0.639,
    0.70846,
    0.706,
    0.45962,
    0.541,
    1.021691,
    0.658,
    0.984,
    0.739319,
    0.598302,
    0.601,
    0.729679,
    0.833993,
    0.783,
    0.537,
    0.549,
    0.72,
    0.809,
    0.526,
    0.916,
    0.68,
    0.654,
    0.64,
    1.225,
    0.755,
    0.686,
    0.599,
    0.626,
    0.874,
    0.313,
    0.306,
    0.583,
    0.553,
    0.294,
    0.739,
    0.462,
    0.491,
    0.408,
    0.741,
    0.568,
    0.687,
    0.363,
    0.533,
    0.472,
    0.255,
    0.598,
    0.315,
    0.417891,
    0.704,
    0.414,
    0.628878,
    0.319,
    0.705537,
    0.698063,
    0.485,
    0.403,
    0.726,
    0.604,
    0.573,
    0.413,
    0.43,
    0.498,
    0.867,
    0.483,
    0.512,
    0.564,
    0.596,
    0.621,
    0.653,
    0.546,
    0.708,
    0.784,
    0.678,
    0.562,
    0.801,
    0.459,
    0.291,
    0.438,
    0.413,
    0.464,
    0.598,
    0.521,
    0.56,
    0.39,
    0.56,
    0.763,
    0.443,
    1.264,
    0.369,
    0.252,
    0.394,
    0.421,
    0.633,
    0.374,
    0.692,
    0.692,
    0.795,
    0.589,
    2.168,
    1.06,
    0.71,
    0.595,
    0.514,
    1.115,
    0.553
  ]
}