{
  "1048576": [
    0.904,
    0.941,
    0.836,
    0.686,
    0.571,
    0.582,
    0.676,
    0.533,
    0.829,
    0.436,
    1.866228,
    0.69,
    0.695,
    0.616,
    0.619,
    0.271,
    1.086721,
    0.826,
    0.694723,
    0.634251,
    0.678,
    0.248,
    1.061,
    0.558859,
    0.583419,
    0.293,
    0.234,
    0.52,
    0.557,
    0.794,
    1.132,
    0.582881,
    0.764,
    0.781,
    0.45081,
    0.931,
    0.974,
    1.061705,
    0.68,
    0.698,
    0.893,
    0.599,
    0.531,
    0.667,
    0.937,
    0.555,
    0.757,
    0.658,
    0.638,
    0.414061,
    0.659,
    0.609,
    0.793,
    0.442,
    0.715,
    0.425,
    0.302,
    0.493,
    0.339,
    0.305,
    0.536,
    0.515,
    0.606,
    0.98,
    0.853,
    0.678,
    0.536103,
    0.456,
    0.644,
    0.61,
    0.919,
    0.75,
    0.666,
    0.633,
    0.615,
    0.842,
    0.762,
    0.253777,
    0.388,
    0.5612,
    0.435,
    0.232897,
    0.508,
    0.683,
    0.569,
    0.711,
    0.588,
    0.456,
    0.821,
    0.589,
    0.758,
    0.316,
    0.252,
    0.89,
    0.71,
    0.233,
    0.27,
    0.653,
    1.241,
    0.61,
    0.896928,
    0.919,
    0.856,
    0.598,
    0.717,
    0.372,
    0.561,
    0.737,
    1.023,
    0.712,
    0.965,
    0.637,
    0.967,
    0.728,
    0.677,
    0.757,
    0.850385,
    0.654,
    0.948147,
    0.198,
    0.837,
    0.37,
    0.367,
    0.652,
    0.767,
    0.542,
    0.384,
    0.487,
    0.791,
    0.235,
    0.564,
    0.814,
    0.56,
    0.583,
    0.931,
    0.591,
    0.173,
    0.341,
    1.025,
    0.946,
    0.366,
    0.543111,
    0.607,
    0.319,
    0.83,
    0.304,
    0.78,
    1.027,
    0.651,
    0.847,
    0.575,
    0.722,
    1.001,
    0.562,
    0.633,
    0.842,
    0.511,
    0.468,
    0.928,
    0.765,
    0.474,
    0.473,
    0.512,
    0.72,
    0.468,
    0.836
  ],
  "51200": [
    0.835,
    0.631,
    0.677,
    1.171,
    0.447,
    0.896,
    0.533,
    0.551,
    0.608,
    0.505,
    0.581,
    0.861,
    0.457,
    0.69,
    0.622,
    1.082,
    0.904,
    0.752,
    0.579,
    0.529,
    0.514,
    0.8,
    0.536,
    0.489,
    0.58,
    0.449,
    0.839,
    0.91,
    0.562,
    0.777,
    1.056,
    0.674,
    0.827,
    0.793,
    0.547,
    0.631,
    0.236,
    0.466,
    0.411,
    0.714,
    0.566,
    0.51,
    0.406,
    0.688,
    0.743,
    1.006,
    0.314,
    0.313,
    0.369,
    0.521,
    0.644319,
    0.474008,
    0.368027,
    1.852159,
    0.254674,
    0.5,
    0.601,
    0.488631,
    0.619,
    0.73,
    0.242025,
    0.288,
    0.324225,
    0.557,
    0.589,
    0.599,
    0.689,
    0.975,
    0.502,
    0.975,
    0.848,
    0.477,
    0.545,
    0.678,
    0.559,
    0.722,
    0.911,
    0.295,
    0.272695,
    0.724,
    0.393,
    1.046,
    0.343,
    0.457,
    0.32,
    0.277,
    0.362,
    0.312,
    0.309,
    0.341,
    0.487,
    0.457749,
    0.553,
    0.924,
    0.893585,
    0.751585,
    0.925,
    0.692183,
    0.869519,
    0.617,
    0.786,
    0.762551,
    0.509,
    0.526585,
    0.908,
    0.46108,
    0.872,
    0.772,
    1.023,
    0.756,
    0.830889,
    0.53,
    0.837,
    0.644,
    0.534,
    0.347,
    0.242,
    0.466,
    0.332,
    0.701,
    0.284,
    0.42,
    0.569,
    0.451,
    0.385,
    0.426,
    0.344,
    0.268,
    0.331,
    0.594,
    0.45,
    0.631,
    0.77,
    0.605,
    0.73,
    0.701,
    0.740237,
    0.541,
    0.891,
    0.624,
    0.502,
    0.773,
    0.901,
    0.873,
    0.461,
    0.570655,
    1.033,
    0.43,
    0.761,
    1.367805,
    0.499,
    0.467,
    0.632,
    0.813,
    0.513,
    0.556,
    0.238,
    0.618,
    0.364,
    0.330656,
    0.285,
    0.46785,
    0.568,
    0.476,
    0.311,
    0.305,
    0.639,
    0.611,
    0.3,
    0.344,
    0.536,
    0.633,
    0.685,
    0.508,
    0.389,
    0.56,
    0.278,
    0.282,
    0.233,
    0.604,
    0.57,
    0.867,
    0.944,
    0.501,
    0.757,
    0.801,
    0.57,
    0.831,
    0.611,
    0.808,
    0.518,
    0.564,
    0.575,
    0.682,
    0.384,
    0.607,
    0.444,
    0.779889,
    0.451,
    0.499,
    0.608,
    0.535,
    0.284,
    0.46,
    0.52,
    0.67,
    0.859,
    0.55635,
    0.971,
    0.391588,
    0.664,
    0.617,
    0.519928,
    0.81,
    0.583,
    0.795412,
    0.763,
    0.658,
    0.87,
    1.029,
    1.072111,
    0.711,
    0.714,
    0.62,
    0.577,
    0.538,
    0.854,
    1.161,
    0.787,
    0.675,
    0.929,
    0.518,
    0.713,
    0.724,
    0.764,
    0.501,
    0.812,
    0.663,
    0.886,
    0.502,
    0.597,
    0.648,
    0.641,
    0.614,
    0.775,
    0.781,
    0.74,
    0.592,
    0.699,
    0.518,
    0.702,
    0.793,
    0.644,
    0.542,
    1.451033,
    1.129,
    0.52,
    0.738,
    0.587,
    0.586,
    0.655,
    0.699,
    0.53,
    0.633,
    0.489698,
    0.371,
    0.656,
    0.699897,
    0.851,
    0.568651,
    0.6402,
    0.618889,
    0.432,
    0.460184,
    0.482897,
    0.50308,
    0.615,
    0.889,
    0.758,
    1.156052,
    0.636,
    0.489,
    0.466,
    0.66,
    0.474,
    0.493,
    0.595,
    0.579,
    0.654,
    0.577,
    0.894,
    0.382,
    0.606,
    0.678,
    0.441,
    1.035,
    0.435,
    0.447,
    0.518,
    0.788,
    0.31,
    0.333,
    0.372,
    0.63,
    1.062,
    0.405,
    0.525,
    0.624,
    0.683,
    0.336,
    0.556989,
    0.208,
    0.514,
    0.372,
    0.926,
    0.693,
    0.513,
    0.435,
    0.308,
    0.531,
    0.486,
    0.322,
    0.3,
    0.656,
    0.323,
    0.482,
    0.72,
    0.993,
    0.55,
    1.496,
    0.818,
    0.894,
    0.757,
    0.577,
    0.888,
    0.547,
    0.674,
    0.459,
    0.39,
    0.419,
    0.408257,
    0.744165,
    0.455111,
    0.505805,
    0.492,
    0.678716,
    0.703,
    0.358713,
    0.259903,
    0.267413,
    0.299,
    0.476,
    0.402,
    0.61,
    0.383,
    0.319,
    0.512,
    0.551,
    0.403,
    0.376,
    0.399,
    0.592,
    0.337,
    0.334,
    0.333,
    0.537,
    0.65,
    0.712,
    0.891,
    0.581,
    0.72,
    0.786,
    0.642,
    0.849,
    0.859,
    0.721,
    0.849,
    0.491,
    0.668,
    0.549,
    1.027,
    0.781,
    0.621,
    0.993,
    0.991,
    0.673,
    0.651,
    0.829,
    0.742,
    0.528,
    0.519,
    0.552,
    0.616,
    0.409,
    0.523,
    0.857,
    0.571,
    0.479928,
    0.938,
    0.388,
    0.707,
    0.499,
    0.424,
    0.368,
    0.80678,
    0.842522,
    0.245,
    0.487284,
    0.366897,
    0.555429,
    0.634,
    0.585103,
    0.328,
    0.349,
    0.663,
    0.849,
    0.95,
    0.598,
    0.817,
    0.823,
    0.828,
    0.556,
    0.683,
    0.582,
    0.853,
    0.65,
    0.684,
    0.659,
    1.002,
    0.498,
    0.793,
    1.45,
    0.944,
    0.554,
    0.537,
    0.8,
    0.591,
    0.508,
    0.541,
    0.605,
    0.498,
    0.495722,
    0.467,
    0.813436,
    0.323,
    0.907619,
    0.633544,
    0.548614,
    0.463935,
    0.669,
    0.359,
    0.378741,
    0.596601,
    0.376,
    0.349,
    0.724,
    0.613,
    0.659,
    0.55,
    0.61,
    0.371,
    0.39,
    0.551,
    0.342,
    0.253,
    0.255,
    0.35,
    0.215,
    0.356,
    0.505,
    0.717,
    0.272,
    0.476,
    0.464,
    0.27,
    0.523,
    0.338,
    0.225,
    0.453,
    0.768,
    0.208,
    0.418,
    0.826,
    0.465,
    0.495,
    0.571,
    0.798,
    0.298,
    0.371,
    0.526,
    0.551,
    0.353,
    0.574,
    0.606,
    0.81,
    0.631,
    0.486,
    0.651,
    0.545,
    0.755,
    0.512,
    0.609,
    0.496,
    0.651,
    0.411,
    0.518534,
    0.42362,
    0.456976,
    0.673405,
    0.292411,
    0.54341,
    0.516843,
    0.45,
    0.281,
    0.478121,
    0.334,
    0.33859,
    0.286,
    0.644,
    0.37,
    0.409,
    0.36,
    0.826,
    0.412,
    0.429,
    0.407,
    0.482,
    0.336,
    0.606,
    0.567,
    0.623,
    0.735,
    0.836,
    1.025,
    0.726,
    0.836,
    0.865,
    0.752,
    0.541,
    1.129,
    0.852,
    0.546,
    0.671074,
    0.466,
    0.736,
    0.631,
    0.934992,
    0.674,
    0.753098,
    0.923827,
    0.712716,
    0.549,
    0.919124,
    0.82737,
    0.620437,
    0.525,
    0.878693,
    0.478,
    0.838295,
    0.56,
    0.875136,
    0.449,
    0.534064,
    0.857,
    0.5978,
    0.429,
    0.414008,
    0.604738,
    0.568671,
    0.476,
    0.469228,
    0.658,
    0.649,
    0.727,
    1.177,
    0.508,
    1.063,
    0.991,
    1.026,
    0.796,
    0.716,
    0.899,
    0.595,
    0.612,
    0.535,
    0.507,
    0.597,
    0.85,
    0.479,
    0.829,
    0.711,
    0.668,
    0.847,
    0.671,
    0.773,
    0.623,
    0.811,
    0.487,
    0.563,
    0.66,
    0.591,
    0.543,
    0.367,
    0.329,
    0.358,
    0.671,
    0.499,
    0.267503,
    0.224,
    0.295,
    0.798,
    0.93,
    0.69,
    0.724,
    1.058,
    0.635,
    0.741,
    0.75,
    0.58,
    0.651,
    0.797,
    0.868,
    0.638,
    0.602,
    0.629,
    0.393,
    0.251,
    0.53,
    0.728,
    0.263714,
    0.45,
    0.489988,
    0.551,
    0.269,
    0.483,
    0.297,
    0.265,
    0.517,
    0.376,
    0.319,
    0.555,
    0.559,
    0.454,
    0.898,
    0.671,
    0.801,
    0.569,
    0.498,
    0.373,
    0.474,
    0.275,
    0.369,
    0.429,
    0.382,
    0.806,
    0.815,
    0.596,
    0.893,
    0.547,
    0.846,
    0.656,
    0.464,
    0.496,
    0.646,
    0.506,
    0.749,
    0.825,
    0.564,
    0.545,
    0.658,
    0.709,
    0.672,
    1.382,
    0.777,
    0.745,
    0.913,
    0.615,
    0.783,
    0.542586,
    0.897424,
    0.605166,
    0.506,
    0.867323,
    0.62397,
    0.75019,
    0.63048,
    0.464271,
    0.41417,
    0.453954,
    0.622965,
    0.812431,
    0.615,
    0.551299,
    0.954034,
    0.856129,
    0.611,
    0.632474,
    0.688025,
    0.52,
    0.481,
    0.653,
    0.511,
    0.514,
    0.485,
    0.673,
    0.715,
    0.824,
    0.714,
    0.754,
    1.056,
    0.507,
    0.645,
    0.621,
    0.69,
    0.511,
    0.642,
    0.667,
    0.715,
    0.564,
    0.6,
    0.538244,
    0.93,
    0.476,
    0.694111,
    0.902,
    0.516213,
    0.536,
    0.636,
    0.709,
    0.543,
    0.903432,
    0.464,
    0.562,
    0.494,
    0.842,
    0.691,
    0.524,
    0.493,
    0.432,
    0.301,
    0.367,
    0.597,
    0.263,
    0.315,
    0.315,
    0.463,
    0.541,
    0.339,
    0.51,
    0.405,
    0.429,
    0.319,
    0.346,
    0.623,
    0.244,
    0.338,
    0.639,
    0.547,
    0.722,
    0.64,
    0.955,
    1.759,
    0.592,
    0.49,
    0.661,
    0.702,
    0.824,
    0.572,
    0.365,
    0.222,
    0.406,
    0.572,
    0.731,
    0.44,
    0.522,
    0.55,
    0.392,
    0.415,
    0.473,
    0.341,
    0.635,
    0.354,
    0.345,
    0.278,
    0.383,
    0.403,
    0.348244,
    0.588,
    0.353,
    0.45,
    0.564,
    0.880254,
    0.324244,
    0.58689,
    0.582,
    0.603,
    0.757,
    0.951,
    0.702,
    0.819,
    1.058,
    0.535,
    0.796,
    0.893,
    0.742,
    0.935,
    0.592,
    0.68,
    0.857,
    0.888,
    0.658,
    0.700111,
    0.618177,
    0.878153,
    0.551,
    0.787722,
    0.710128,
    0.735673,
    0.491128,
    0.708744,
    0.445872,
    0.830431,
    0.449,
    0.888,
    0.762,
    0.624,
    0.949,
    0.889,
    0.956,
    0.787,
    0.686,
    0.565,
    0.436,
    0.942,
    0.527,
    0.538,
    0.905,
    0.551,
    0.700737,
    0.609678,
    0.81,
    0.819,
    1.012,
    0.610156,
    0.799071,
    0.824,
    0.984976,
    0.621711,
    0.79078,
    0.728,
    0.362,
    0.766,
    0.253,
    0.326109,
    0.482535,
    0.38,
    8.690132,
    0.467,
    0.494,
    0.606482,
    0.602286,
    0.437461,
    0.806,
    0.554,
    0.728,
    0.709,
    0.786,
    0.609,
    0.918,
    0.572,
    0.885,
    0.524,
    0.434,
    0.772,
    0.54,
    0.297,
    0.27988,
    0.42334,
    0.681,
    0.253,
    0.502888,
    0.564,
    0.448,
    0.602897,
    0.593897,
    0.291,
    0.407,
    0.307223,
    0.36,
    1.056008,
    0.674184,
    1.01,
    0.861,
    0.73,
    0.835242,
    0.71,
    1.016,
    0.879,
    0.454961,
    0.716517,
    0.414,
    0.523,
    0.679,
    0.329,
    0.455,
    0.507,
    0.284,
    0.557,
    0.283,
    0.321,
    0.551,
    0.922,
    0.941,
    0.878,
    0.834,
    0.645,
    0.53,
    0.635,
    0.572,
    1.02,
    0.691,
    0.707,
    1.012,
    0.549,
    1.039,
    0.938,
    0.999,
    0.725,
    0.564,
    0.519,
    0.781,
    0.688,
    0.641,
    1.011,
    0.683,
    0.735,
    0.637,
    0.501,
    0.703,
    0.454,
    0.402,
    0.528,
    0.577,
    0.997,
    0.827,
    0.663,
    1.124,
    0.757,
    0.627,
    0.671,
    0.736,
    0.642,
    0.476,
    0.648,
    0.858,
    1.04,
    0.913,
    0.938,
    0.824,
    1.677,
    0.583,
    0.813,
    0.721,
    0.726,
    0.611,
    0.724,
    1.588,
    0.54,
    0.539,
    0.794689,
    0.483,
    0.483,
    0.548,
    0.707,
    0.908,
    0.616,
    0.636,
    0.619,
    0.768,
    0.453,
    0.622,
    0.891,
    0.574,
    0.81,
    0.693,
    1.045,
    1.756,
    0.696776,
    0.687,
    0.738,
    0.761,
    0.473,
    0.717,
    0.494,
    0.547,
    0.559,
    0.498,
    0.972,
    0.623,
    0.9,
    0.644,
    0.559,
    0.915,
    1.038,
    0.49,
    0.538,
    0.524
  ],
  "5242880": [
    1.012,
    0.673,
    0.596,
    0.71,
    0.526,
    0.713351,
    0.319,
    0.272,
    0.324,
    1.199,
    0.765876,
    0.643,
    0.811,
    0.561,
    0.581998,
    0.283,
    0.623,
    0.915,
    0.507,
    0.53,
    0.597,
    0.442,
    0.276,
    0.766,
    0.914,
    0.488658,
    0.365,
    0.44,
    0.585,
    0.943,
    0.634,
    0.509,
    0.291,
    0.317,
    0.952,
    0.582673,
    0.582409,
    0.977,
    0.953,
    0.301,
    0.341,
    0.833,
    0.610096,
    0.587,
    0.414,
    0.693,
    0.796,
    0.713,
    0.363,
    0.478,
    0.494,
    0.807,
    0.708,
    0.85,
    1.194
  ],
  "ALL": [
    0.835,
    0.631,
    0.677,
    1.171,
    0.447,
    0.896,
    0.533,
    0.551,
    0.608,
    0.505,
    0.581,
    0.861,
    0.904,
    0.941,
    0.836,
    0.686,
    0.457,
    0.69,
    0.622,
    1.082,
    0.904,
    0.752,
    0.579,
    0.529,
    0.514,
    0.8,
    0.536,
    0.489,
    0.58,
    0.571,
    0.582,
    0.449,
    0.839,
    0.91,
    0.562,
    0.777,
    1.056,
    0.674,
    0.827,
    0.793,
    0.547,
    0.676,
    0.533,
    0.829,
    1.012,
    0.673,
    0.631,
    0.236,
    0.466,
    0.411,
    0.714,
    0.566,
    0.51,
    0.406,
    0.688,
    0.743,
    1.006,
    0.314,
    0.313,
    0.369,
    0.436,
    0.521,
    0.644319,
    0.474008,
    0.368027,
    1.852159,
    0.254674,
    0.5,
    0.601,
    0.488631,
    0.619,
    0.73,
    0.242025,
    0.288,
    0.324225,
    0.557,
    1.866228,
    0.589,
    0.599,
    0.689,
    0.975,
    0.502,
    0.975,
    0.848,
    0.477,
    0.545,
    0.678,
    0.559,
    0.722,
    0.911,
    0.69,
    0.695,
    0.596,
    0.295,
    0.272695,
    0.724,
    0.393,
    1.046,
    0.343,
    0.457,
    0.32,
    0.277,
    0.362,
    0.312,
    0.309,
    0.341,
    0.616,
    0.619,
    0.271,
    0.487,
    0.457749,
    0.553,
    0.924,
    0.893585,
    0.751585,
    0.925,
    0.692183,
    0.869519,
    0.617,
    0.786,
    0.762551,
    0.509,
    0.526585,
    1.086721,
    0.908,
    0.46108,
    0.872,
    0.772,
    1.023,
    0.756,
    0.830889,
    0.53,
    0.837,
    0.644,
    0.534,
    0.826,
    0.694723,
    0.634251,
    0.71,
    0.347,
    0.242,
    0.466,
    0.332,
    0.701,
    0.284,
    0.42,
    0.569,
    0.451,
    0.385,
    0.426,
    0.344,
    0.268,
    0.331,
    0.678,
    0.248,
    0.594,
    0.45,
    0.631,
    0.77,
    0.605,
    0.73,
    0.701,
    0.740237,
    0.541,
    0.891,
    0.624,
    0.502,
    0.773,
    0.901,
    0.873,
    1.061,
    0.461,
    0.570655,
    1.033,
    0.43,
    0.761,
    1.367805,
    0.499,
    0.467,
    0.632,
    0.813,
    0.513,
    0.556,
    0.558859,
    0.583419,
    0.526,
    0.238,
    0.618,
    0.364,
    0.330656,
    0.285,
    0.46785,
    0.568,
    0.476,
    0.311,
    0.305,
    0.639,
    0.611,
    0.3,
    0.293,
    0.234,
    0.713351,
    0.344,
    0.536,
    0.633,
    0.685,
    0.508,
    0.389,
    0.56,
    0.278,
    0.282,
    0.233,
    0.52,
    0.557,
    0.319,
    0.272,
    0.324,
    0.604,
    0.57,
    0.867,
    0.944,
    0.501,
    0.757,
    0.801,
    0.57,
    0.831,
    0.611,
    0.808,
    0.518,
    0.564,
    0.575,
    0.794,
    1.132,
    0.682,
    0.384,
    0.607,
    0.444,
    0.779889,
    0.451,
    0.499,
    0.608,
    0.535,
    0.284,
    0.46,
    0.52,
    0.67,
    1.199,
    0.859,
    0.55635,
    0.971,
    0.391588,
    0.664,
    0.617,
    0.519928,
    0.81,
    0.583,
    0.795412,
    0.763,
    0.582881,
    0.764,
    0.781,
    0.45081,
    0.765876,
    0.658,
    0.87,
    1.029,
    1.072111,
    0.711,
    0.714,
    0.62,
    0.577,
    0.538,
    0.854,
    0.931,
    0.974,
    1.061705,
    0.68,
    0.698,
    0.893,
    1.161,
    0.787,
    0.675,
    0.929,
    0.518,
    0.713,
    0.724,
    0.764,
    0.501,
    0.812,
    0.663,
    0.886,
    0.502,
    0.597,
    0.599,
    0.531,
    0.648,
    0.641,
    0.614,
    0.775,
    0.781,
    0.74,
    0.592,
    0.699,
    0.518,
    0.702,
    0.793,
    0.644,
    0.667,
    0.937,
    0.542,
    1.451033,
    1.129,
    0.52,
    0.738,
    0.587,
    0.586,
    0.655,
    0.699,
    0.53,
    0.633,
    0.555,
    0.757,
    0.643,
    0.811,
    0.561,
    0.489698,
    0.371,
    0.656,
    0.699897,
    0.851,
    0.568651,
    0.6402,
    0.618889,
    0.432,
    0.460184,
    0.482897,
    0.658,
    0.638,
    0.414061,
    0.659,
    0.50308,
    0.615,
    0.889,
    0.758,
    1.156052,
    0.636,
    0.489,
    0.466,
    0.66,
    0.474,
    0.493,
    0.609,
    0.793,
    0.442,
    0.581998,
    0.595,
    0.579,
    0.654,
    0.577,
    0.894,
    0.382,
    0.606,
    0.678,
    0.441,
    1.035,
    0.435,
    0.447,
    0.518,
    0.788,
    0.715,
    0.425,
    0.31,
    0.333,
    0.372,
    0.63,
    1.062,
    0.405,
    0.525,
    0.624,
    0.683,
    0.336,
    0.556989,
    0.208,
    0.302,
    0.493,
    0.339,
    0.283,
    0.514,
    0.372,
    0.926,
    0.693,
    0.513,
    0.435,
    0.308,
    0.531,
    0.486,
    0.322,
    0.3,
    0.656,
    0.323,
    0.305,
    0.536,
    0.515,
    0.482,
    0.72,
    0.993,
    0.55,
    1.496,
    0.818,
    0.894,
    0.757,
    0.577,
    0.888,
    0.547,
    0.674,
    0.606,
    0.98,
    0.853,
    0.678,
    0.459,
    0.39,
    0.419,
    0.408257,
    0.744165,
    0.455111,
    0.505805,
    0.492,
    0.678716,
    0.703,
    0.358713,
    0.259903,
    0.267413,
    0.299,
    0.536103,
    0.456,
    0.476,
    0.402,
    0.61,
    0.383,
    0.319,
    0.512,
    0.551,
    0.403,
    0.376,
    0.399,
    0.592,
    0.337,
    0.334,
    0.333,
    0.537,
    0.644,
    0.65,
    0.712,
    0.891,
    0.581,
    0.72,
    0.786,
    0.642,
    0.849,
    0.859,
    0.721,
    0.849,
    0.491,
    0.668,
    0.61,
    0.623,
    0.549,
    1.027,
    0.781,
    0.621,
    0.993,
    0.991,
    0.673,
    0.651,
    0.829,
    0.742,
    0.528,
    0.519,
    0.552,
    0.616,
    0.919,
    0.409,
    0.523,
    0.857,
    0.571,
    0.479928,
    0.938,
    0.388,
    0.707,
    0.499,
    0.424,
    0.75,
    0.666,
    0.633,
    0.615,
    0.842,
    0.762,
    0.368,
    0.80678,
    0.842522,
    0.245,
    0.487284,
    0.366897,
    0.555429,
    0.634,
    0.585103,
    0.328,
    0.349,
    0.253777,
    0.388,
    0.5612,
    0.435,
    0.232897,
    0.663,
    0.849,
    0.95,
    0.598,
    0.817,
    0.823,
    0.828,
    0.556,
    0.683,
    0.582,
    0.853,
    0.508,
    0.683,
    0.569,
    0.711,
    0.588,
    0.65,
    0.684,
    0.659,
    1.002,
    0.498,
    0.793,
    1.45,
    0.944,
    0.554,
    0.537,
    0.8,
    0.591,
    0.508,
    0.541,
    0.605,
    0.456,
    0.498,
    0.495722,
    0.467,
    0.813436,
    0.323,
    0.907619,
    0.633544,
    0.548614,
    0.463935,
    0.669,
    0.359,
    0.378741,
    0.596601,
    0.821,
    0.915,
    0.376,
    0.349,
    0.724,
    0.613,
    0.659,
    0.55,
    0.61,
    0.371,
    0.39,
    0.551,
    0.342,
    0.253,
    0.255,
    0.589,
    0.507,
    0.53,
    0.35,
    0.215,
    0.356,
    0.505,
    0.717,
    0.272,
    0.476,
    0.464,
    0.27,
    0.523,
    0.338,
    0.225,
    0.453,
    0.758,
    0.316,
    0.597,
    0.768,
    0.208,
    0.418,
    0.826,
    0.465,
    0.495,
    0.571,
    0.798,
    0.298,
    0.371,
    0.526,
    0.551,
    0.353,
    0.252,
    0.442,
    0.276,
    0.574,
    0.606,
    0.81,
    0.631,
    0.486,
    0.651,
    0.545,
    0.755,
    0.512,
    0.609,
    0.496,
    0.651,
    0.89,
    0.71,
    0.766,
    0.914,
    0.411,
    0.518534,
    0.42362,
    0.456976,
    0.673405,
    0.292411,
    0.54341,
    0.516843,
    0.45,
    0.281,
    0.478121,
    0.334,
    0.33859,
    0.286,
    0.644,
    0.488658,
    0.37,
    0.409,
    0.36,
    0.826,
    0.412,
    0.429,
    0.407,
    0.482,
    0.336,
    0.606,
    0.567,
    0.233,
    0.27,
    0.365,
    0.44,
    0.585,
    0.623,
    0.735,
    0.836,
    1.025,
    0.726,
    0.836,
    0.865,
    0.752,
    0.541,
    1.129,
    0.852,
    0.546,
    0.653,
    1.241,
    0.61,
    0.671074,
    0.466,
    0.736,
    0.631,
    0.934992,
    0.674,
    0.753098,
    0.923827,
    0.712716,
    0.549,
    0.919124,
    0.82737,
    0.620437,
    0.525,
    0.878693,
    0.896928,
    0.478,
    0.838295,
    0.56,
    0.875136,
    0.449,
    0.534064,
    0.857,
    0.5978,
    0.429,
    0.414008,
    0.604738,
    0.568671,
    0.476,
    0.469228,
    0.919,
    0.658,
    0.649,
    0.727,
    1.177,
    0.508,
    1.063,
    0.991,
    1.026,
    0.796,
    0.716,
    0.899,
    0.595,
    0.612,
    0.856,
    0.943,
    0.535,
    0.507,
    0.597,
    0.85,
    0.479,
    0.829,
    0.711,
    0.668,
    0.847,
    0.671,
    0.773,
    0.623,
    0.811,
    0.487,
    0.563,
    0.598,
    0.66,
    0.591,
    0.543,
    0.367,
    0.329,
    0.358,
    0.671,
    0.499,
    0.267503,
    0.224,
    0.295,
    0.717,
    0.634,
    0.509,
    0.291,
    0.317,
    0.798,
    0.93,
    0.69,
    0.724,
    1.058,
    0.635,
    0.741,
    0.75,
    0.58,
    0.651,
    0.797,
    0.868,
    0.638,
    0.602,
    0.629,
    0.393,
    0.251,
    0.53,
    0.728,
    0.263714,
    0.45,
    0.489988,
    0.551,
    0.269,
    0.483,
    0.297,
    0.265,
    0.517,
    0.376,
    0.372,
    0.561,
    0.319,
    0.555,
    0.559,
    0.454,
    0.898,
    0.671,
    0.801,
    0.569,
    0.498,
    0.373,
    0.474,
    0.275,
    0.369,
    0.429,
    0.382,
    0.737,
    0.806,
    0.815,
    0.596,
    0.893,
    0.547,
    0.846,
    0.656,
    0.464,
    0.496,
    0.646,
    0.506,
    0.749,
    0.825,
    1.023,
    0.712,
    0.965,
    0.564,
    0.545,
    0.658,
    0.709,
    0.672,
    1.382,
    0.777,
    0.745,
    0.913,
    0.615,
    0.783,
    0.637,
    0.967,
    0.728,
    0.677,
    0.952,
    0.542586,
    0.897424,
    0.605166,
    0.506,
    0.867323,
    0.62397,
    0.75019,
    0.63048,
    0.464271,
    0.41417,
    0.453954,
    0.622965,
    0.582673,
    0.582409,
    0.977,
    0.812431,
    0.615,
    0.551299,
    0.954034,
    0.856129,
    0.611,
    0.632474,
    0.688025,
    0.52,
    0.481,
    0.653,
    0.511,
    0.514,
    0.485,
    0.673,
    0.715,
    0.824,
    0.714,
    0.754,
    1.056,
    0.507,
    0.645,
    0.621,
    0.69,
    0.511,
    0.642,
    0.667,
    0.715,
    0.757,
    0.953,
    0.564,
    0.6,
    0.538244,
    0.93,
    0.476,
    0.694111,
    0.902,
    0.516213,
    0.536,
    0.636,
    0.709,
    0.543,
    0.903432,
    0.850385,
    0.654,
    0.948147,
    0.464,
    0.562,
    0.494,
    0.842,
    0.691,
    0.524,
    0.493,
    0.432,
    0.301,
    0.367,
    0.597,
    0.263,
    0.315,
    0.198,
    0.301,
    0.315,
    0.463,
    0.541,
    0.339,
    0.51,
    0.405,
    0.429,
    0.319,
    0.346,
    0.623,
    0.244,
    0.338,
    0.837,
    0.37,
    0.367,
    0.341,
    0.639,
    0.547,
    0.722,
    0.64,
    0.955,
    1.759,
    0.592,
    0.49,
    0.661,
    0.702,
    0.824,
    0.572,
    0.652,
    0.767,
    0.542,
    0.833,
    0.365,
    0.222,
    0.406,
    0.572,
    0.731,
    0.44,
    0.522,
    0.55,
    0.392,
    0.415,
    0.473,
    0.341,
    0.635,
    0.354,
    0.345,
    0.384,
    0.278,
    0.383,
    0.403,
    0.348244,
    0.588,
    0.353,
    0.45,
    0.564,
    0.880254,
    0.324244,
    0.58689,
    0.582,
    0.603,
    0.487,
    0.791,
    0.235,
    0.757,
    0.951,
    0.702,
    0.819,
    1.058,
    0.535,
    0.796,
    0.893,
    0.742,
    0.935,
    0.592,
    0.68,
    0.857,
    0.888,
    0.658,
    0.564,
    0.700111,
    0.618177,
    0.878153,
    0.551,
    0.787722,
    0.710128,
    0.735673,
    0.491128,
    0.708744,
    0.445872,
    0.830431,
    0.449,
    0.814,
    0.56,
    0.610096,
    0.888,
    0.762,
    0.624,
    0.949,
    0.889,
    0.956,
    0.787,
    0.686,
    0.565,
    0.436,
    0.942,
    0.527,
    0.538,
    0.905,
    0.551,
    0.583,
    0.700737,
    0.609678,
    0.81,
    0.819,
    1.012,
    0.610156,
    0.799071,
    0.824,
    0.984976,
    0.621711,
    0.79078,
    0.728,
    0.931,
    0.591,
    0.362,
    0.766,
    0.253,
    0.326109,
    0.482535,
    0.38,
    8.690132,
    0.467,
    0.494,
    0.606482,
    0.602286,
    0.437461,
    0.173,
    0.341,
    0.587,
    0.414,
    0.806,
    0.554,
    0.728,
    0.709,
    0.786,
    0.609,
    0.918,
    0.572,
    0.885,
    0.524,
    0.434,
    0.772,
    0.54,
    1.025,
    0.946,
    0.693,
    0.297,
    0.27988,
    0.42334,
    0.681,
    0.253,
    0.502888,
    0.564,
    0.448,
    0.602897,
    0.593897,
    0.291,
    0.407,
    0.307223,
    0.36,
    0.366,
    0.543111,
    1.056008,
    0.674184,
    1.01,
    0.861,
    0.73,
    0.835242,
    0.71,
    1.016,
    0.879,
    0.454961,
    0.716517,
    0.607,
    0.796,
    0.713,
    0.414,
    0.523,
    0.679,
    0.329,
    0.455,
    0.507,
    0.284,
    0.557,
    0.283,
    0.321,
    0.319,
    0.83,
    0.304,
    0.363,
    0.478,
    0.494,
    0.551,
    0.922,
    0.941,
    0.878,
    0.834,
    0.645,
    0.53,
    0.635,
    0.572,
    0.78,
    1.027,
    0.651,
    0.847,
    0.575,
    0.807,
    0.708,
    1.02,
    0.691,
    0.707,
    1.012,
    0.549,
    1.039,
    0.938,
    0.999,
    0.725,
    0.564,
    0.519,
    0.722,
    1.001,
    0.562,
    0.781,
    0.688,
    0.641,
    1.011,
    0.683,
    0.735,
    0.637,
    0.501,
    0.703,
    0.454,
    0.633,
    0.842,
    0.511,
    0.85,
    1.194,
    0.402,
    0.528,
    0.577,
    0.997,
    0.827,
    0.663,
    1.124,
    0.757,
    0.627,
    0.671,
    0.736,
    0.642,
    0.476,
    0.648,
    0.858,
    0.468,
    1.04,
    0.913,
    0.938,
    0.824,
    1.677,
    0.583,
    0.813,
    0.721,
    0.726,
    0.611,
    0.724,
    1.588,
    0.54,
    0.539,
    0.794689,
    0.928,
    0.483,
    0.483,
    0.548,
    0.707,
    0.908,
    0.616,
    0.636,
    0.619,
    0.768,
    0.453,
    0.622,
    0.765,
    0.474,
    0.473,
    0.891,
    0.574,
    0.81,
    0.693,
    1.045,
    1.756,
    0.696776,
    0.687,
    0.738,
    0.761,
    0.473,
    0.717,
    0.494,
    0.547,
    0.512,
    0.559,
    0.498,
    0.972,
    0.623,
    0.9,
    0.644,
    0.559,
    0.915,
    1.038,
    0.49,
    0.538,
    0.524,
    0.72,
    0.468,
    0.836
  ]
}