{
  "1048576": [
    5.821,
    6.256,
    4.728,
    4.192,
    3.989,
    4.47,
    5.33165,
    4.598,
    5.656,
    2.733,
    4.063884,
    4.311,
    5.724,
    5.375,
    3.88,
    1.742206,
    6.359499,
    5.382,
    5.545,
    5.17714,
    3.741,
    1.545,
    5.688,
    4.173874,
    4.761,
    3.027,
    1.72,
    2.909,
    2.507,
    5.082,
    8.905,
    4.308587,
    4.176,
    5.448,
    3.663,
    6.567,
    7.438,
    7.352,
    5.285,
    4.391,
    7.962,
    4.225103,
    4.153,
    4.467,
    5.209,
    4.172,
    6.208,
    3.514637,
    4.139167,
    3.312916,
    5.370312,
    4.078,
    5.262,
    3.872,
    3.804,
    3.408,
    2.809,
    2.54,
    2.210958,
    1.721,
    4.365,
    3.068,
    4.435,
    6.411,
    5.531,
    5.494,
    4.331,
    3.188,
    2.925,
    6.109,
    5.518873,
    4.307,
    4.031,
    3.631,
    4.24,
    5.045,
    4.543,
    1.926777,
    2.056,
    3.863097,
    2.911612,
    1.983897,
    4.197,
    4.958,
    4.301,
    6.056,
    4.513,
    10.148,
    5.298311,
    3.159,
    4.289,
    2.055,
    1.593,
    4.718,
    5.473,
    1.577,
    1.698,
    10.184,
    9.953,
    11.836,
    6.212974,
    7.684628,
    6.825,
    4.008,
    4.308,
    2.623,
    2.728,
    7.139,
    5.227,
    3.999,
    5.897,
    4.203,
    5.644,
    4.98,
    7.404,
    6.16,
    15.075385,
    3.913,
    6.591347,
    1.272,
    4.913,
    1.932,
    2.468,
    4.954,
    6.332,
    5.581,
    2.508,
    2.636,
    5.398,
    1.94,
    4.665,
    4.542388,
    4.627226,
    3.938,
    5.539649,
    6.02,
    1.332,
    2.353,
    5.458,
    9.438,
    2.094,
    3.886,
    4.396,
    2.404,
    4.707,
    2.174,
    5.579,
    5.828,
    5.263,
    9.916,
    5.269,
    4.081,
    6.75,
    4.631,
    4.721,
    5.173,
    3.78,
    3.295,
    7.312,
    6.25,
    3.43,
    4.029,
    5.807,
    4.554,
    4.104,
    6.401
  ],
  "51200": [
    2.151,
    1.675,
    1.888,
    2.952,
    1.277,
    2.39,
    1.481,
    1.496,
    1.689,
    1.419,
    1.825,
    2.224,
    1.287,
    1.77,
    1.563,
    2.692,
    3.056,
    1.821,
    1.782,
    1.509,
    1.401,
    2.134,
    1.466,
    1.331,
    1.585,
    1.309,
    2.28,
    2.255,
    1.541,
    2.018,
    2.722,
    1.786,
    2.133,
    1.985,
    1.505,
    1.53,
    0.651,
    1.151,
    1.001,
    1.772937,
    1.308,
    1.317,
    1.113,
    1.705,
    1.777,
    2.734,
    0.799,
    0.836,
    0.852,
    9.438,
    1.597319,
    1.030111,
    0.89,
    2.980064,
    0.702674,
    1.165,
    1.429245,
    1.303631,
    1.497,
    1.913689,
    0.618,
    0.729,
    0.890225,
    1.397,
    1.531,
    1.634,
    1.763,
    2.328,
    1.392,
    2.584,
    2.095,
    1.303,
    1.511,
    1.663,
    1.552,
    1.997,
    2.412,
    0.692,
    0.75,
    1.871,
    1.01,
    2.581,
    0.87,
    1.074,
    0.864,
    0.73,
    0.847,
    0.81,
    0.791,
    0.829,
    1.353,
    1.252749,
    1.571,
    2.243,
    2.085585,
    1.954585,
    2.405,
    2.011183,
    2.221519,
    1.586195,
    2.015,
    1.943551,
    1.747,
    1.397585,
    2.415,
    1.336,
    2.373,
    2.11,
    2.488,
    1.912,
    2.087889,
    1.499,
    2.186,
    1.797,
    1.516,
    0.826,
    0.622,
    1.062,
    0.754,
    1.757103,
    0.706,
    0.963,
    1.371,
    1.09,
    0.995,
    1.154,
    0.919,
    0.661,
    0.815,
    1.615,
    1.244,
    1.677,
    2.112,
    1.683,
    1.918,
    1.98,
    2.206,
    1.486,
    2.293,
    1.692,
    1.399,
    2.128,
    2.351,
    2.249,
    1.254,
    1.634655,
    2.452,
    1.204,
    1.905,
    3.689805,
    1.421,
    1.292,
    1.682,
    2.106,
    1.363,
    1.464089,
    0.549,
    1.508,
    0.818841,
    0.727656,
    0.725,
    1.07985,
    1.380167,
    1.118,
    0.723,
    0.803,
    1.715,
    1.493,
    0.82,
    0.838,
    1.332,
    1.723,
    1.738,
    1.171,
    0.978,
    1.434,
    0.674,
    0.748,
    0.62,
    1.63,
    1.554,
    2.256,
    2.267,
    1.429,
    1.91,
    1.984,
    1.636,
    2.2,
    1.634,
    2.067,
    1.416,
    1.554,
    1.535,
    1.645,
    1.088,
    1.527,
    1.049,
    1.837889,
    1.214,
    1.346,
    1.438111,
    1.412,
    0.667,
    1.08684,
    1.288,
    1.608397,
    2.212,
    1.51135,
    2.258,
    1.113,
    1.676,
    1.537,
    1.411928,
    2.851,
    1.642,
    1.969,
    1.892,
    1.784,
    2.275,
    2.506,
    2.349,
    1.966,
    1.968,
    1.717,
    1.704,
    1.521,
    2.23,
    3.43,
    2.133,
    1.695,
    2.232,
    1.422,
    1.831,
    1.871,
    2.0,
    1.42,
    1.82,
    1.753,
    2.341,
    1.4,
    1.61,
    1.739,
    1.691,
    1.709,
    1.966,
    2.04,
    2.037,
    1.694,
    1.801,
    1.482,
    1.978,
    2.249,
    1.687,
    1.476,
    2.479,
    2.832,
    1.451,
    1.900403,
    1.595,
    1.557,
    1.802,
    1.972,
    1.499,
    1.598,
    1.329698,
    1.146,
    1.665,
    1.674,
    2.016,
    1.611,
    1.781597,
    1.602,
    1.162,
    1.258184,
    1.323897,
    1.28008,
    1.58892,
    2.122,
    1.829,
    2.1,
    1.68,
    1.437,
    1.32,
    1.578,
    1.223,
    1.253,
    1.611,
    1.503,
    1.632,
    1.506,
    2.143,
    1.036,
    1.496,
    1.694,
    1.154,
    2.744,
    1.195,
    1.222,
    1.469,
    2.032,
    0.728,
    0.788,
    0.86,
    1.613,
    2.645,
    0.969,
    1.28,
    1.524,
    2.495,
    0.821,
    1.350989,
    0.556,
    1.337,
    0.893,
    2.194,
    1.755,
    1.308,
    1.086,
    0.845,
    1.345,
    1.133,
    0.856,
    0.719,
    1.574,
    0.948,
    1.347,
    1.88,
    1.916,
    1.525,
    2.676,
    2.102,
    2.41,
    2.075,
    1.602,
    2.263,
    1.505,
    1.918,
    1.236,
    1.083539,
    0.987,
    1.091,
    1.794045,
    1.218,
    1.230805,
    1.176,
    1.592,
    1.687,
    0.849713,
    0.643,
    0.644,
    0.734,
    1.263,
    0.977,
    1.502,
    1.034,
    0.863,
    1.331,
    1.354,
    0.920006,
    0.923,
    0.99,
    1.52,
    0.798,
    0.913,
    0.886,
    1.394,
    1.63,
    1.796,
    2.108,
    1.597,
    1.784,
    2.181,
    1.781,
    2.12,
    2.262,
    2.063,
    2.217,
    1.331,
    1.828,
    1.423,
    2.995,
    2.108,
    1.552,
    2.442,
    2.497,
    1.838,
    1.693,
    2.518,
    1.863,
    1.405,
    1.411,
    1.571,
    1.585,
    1.145,
    1.516,
    2.425,
    1.602,
    1.238928,
    2.367,
    1.055,
    1.967,
    1.343,
    1.133,
    0.909103,
    6.861478,
    1.944302,
    0.627539,
    1.199284,
    0.929199,
    1.371973,
    1.62,
    1.456,
    0.882,
    0.836,
    1.785,
    2.245,
    2.301,
    1.722,
    2.048,
    2.1,
    2.292,
    1.661,
    1.86,
    1.611,
    2.414,
    2.253,
    1.736,
    1.821,
    2.334,
    1.885,
    2.106,
    3.147,
    2.927,
    1.934704,
    1.542,
    2.046,
    1.54,
    2.217,
    1.467,
    1.675,
    1.227,
    1.252,
    1.166103,
    1.894,
    0.896,
    2.347821,
    1.502557,
    1.494925,
    1.157935,
    1.698,
    1.006,
    1.072396,
    1.526995,
    0.945,
    0.889,
    1.748,
    1.528,
    1.479,
    1.296,
    1.574,
    0.978,
    0.927,
    1.522,
    0.872,
    0.662,
    0.633,
    0.83,
    0.535,
    0.815,
    1.127,
    1.814,
    0.723,
    1.117,
    1.193,
    0.629,
    1.231,
    0.96,
    0.549,
    1.188,
    1.876,
    0.545,
    0.972,
    1.963,
    1.139,
    1.122,
    1.443,
    1.617,
    0.789,
    0.976,
    1.484,
    1.283,
    0.865,
    1.523,
    1.6,
    2.207,
    1.65,
    1.351,
    1.679,
    1.49,
    2.137,
    1.402,
    1.622,
    1.446,
    1.64,
    1.03,
    1.360342,
    1.079,
    1.171976,
    1.675405,
    0.867411,
    1.374,
    1.275,
    1.246,
    0.721,
    1.25641,
    0.837,
    0.87659,
    0.76,
    1.532,
    0.979,
    1.154,
    0.904,
    1.947,
    1.094,
    1.125,
    0.956,
    1.342,
    0.934,
    1.482,
    1.322,
    1.662,
    2.364,
    2.28,
    2.586,
    1.923,
    2.173,
    2.547,
    2.268,
    1.452,
    2.84,
    3.007,
    1.869,
    1.787974,
    1.317,
    1.869787,
    1.716,
    2.309401,
    1.812536,
    2.125268,
    2.354827,
    1.84627,
    1.529094,
    2.4231,
    2.217638,
    1.731437,
    1.453,
    2.322763,
    1.297302,
    1.791295,
    1.559,
    2.067383,
    1.246,
    1.366,
    3.503,
    1.526,
    1.222,
    1.179008,
    1.499,
    1.566,
    1.301,
    1.271924,
    1.729,
    1.72,
    2.001,
    2.973,
    1.427,
    2.726,
    2.47,
    2.704,
    2.087,
    2.074,
    2.363,
    1.648,
    1.646,
    1.463,
    1.39,
    1.547,
    2.053,
    1.3,
    2.15,
    1.887,
    1.768,
    2.204,
    1.91,
    2.052,
    1.777,
    2.176,
    1.34,
    1.434,
    1.556,
    1.41,
    1.257,
    0.973,
    0.824,
    0.894,
    1.553,
    1.241,
    0.665503,
    0.605,
    0.698,
    2.198,
    2.437,
    2.311,
    1.884,
    2.583,
    1.757,
    2.057,
    1.949,
    1.57,
    1.788,
    2.049,
    2.241,
    1.749,
    1.692,
    1.735,
    1.03,
    0.642,
    1.435,
    1.781108,
    0.742714,
    1.089,
    2.222281,
    1.348,
    0.723,
    1.065,
    0.745,
    0.591,
    1.295,
    0.904,
    0.812,
    1.431,
    1.295,
    1.163,
    2.068,
    1.629,
    2.061,
    1.409,
    1.281,
    1.059,
    1.269,
    0.77,
    1.02,
    1.414,
    0.945,
    2.13,
    2.089,
    1.588,
    2.447,
    1.441,
    2.31,
    1.67,
    1.25,
    1.395,
    1.612,
    1.368,
    2.093,
    2.169,
    1.52,
    1.483,
    1.734,
    1.911,
    1.85,
    3.272,
    2.213,
    1.903,
    2.294,
    2.385,
    2.209,
    1.469424,
    2.095532,
    1.657166,
    1.336876,
    2.219142,
    1.609,
    1.95119,
    1.59577,
    1.244379,
    1.118046,
    1.24292,
    1.677315,
    2.06563,
    1.650001,
    1.595299,
    2.28475,
    2.231,
    1.601,
    1.700474,
    1.788025,
    1.434929,
    1.342,
    1.688,
    1.461,
    1.653161,
    1.363,
    1.715,
    1.901,
    2.12,
    1.807,
    2.029,
    2.593,
    1.392,
    1.757,
    1.72,
    1.745,
    1.396,
    1.658,
    1.9,
    1.964,
    1.538629,
    1.548,
    1.405284,
    2.204,
    1.281,
    1.872,
    2.425494,
    1.413,
    1.394,
    1.645,
    1.949757,
    1.376,
    2.307566,
    1.238,
    1.475,
    1.172,
    1.939,
    1.601,
    1.208,
    1.179,
    1.036,
    0.679,
    0.916,
    1.396,
    0.66,
    0.764,
    0.759,
    1.156,
    1.393,
    0.852,
    1.096248,
    0.96,
    1.144,
    0.812,
    0.825,
    1.504,
    0.63,
    0.906,
    1.739,
    1.461,
    1.879,
    1.704,
    2.201,
    3.177,
    1.55,
    1.379,
    1.724,
    2.007,
    2.171,
    1.453,
    0.897,
    0.61,
    1.257,
    1.474,
    1.727,
    1.101,
    1.288,
    2.183,
    0.959,
    1.032,
    1.234,
    1.189,
    2.021,
    0.777,
    0.894,
    0.694,
    0.98,
    0.942,
    0.821244,
    1.422,
    0.789,
    1.083,
    1.266,
    2.372254,
    0.753244,
    1.458787,
    2.187,
    1.546,
    2.133,
    2.496,
    1.961,
    2.254,
    2.614,
    1.57,
    2.004,
    2.259,
    1.933,
    2.406,
    1.618,
    1.767,
    2.231,
    2.289,
    1.726,
    1.837111,
    1.596,
    2.069153,
    1.533431,
    2.725722,
    1.846128,
    1.959673,
    1.409,
    1.862707,
    1.227,
    2.365431,
    1.278,
    2.296,
    1.963,
    1.832,
    2.29,
    2.249,
    2.704,
    1.951,
    2.226,
    1.525,
    1.404,
    2.526,
    1.479,
    1.534,
    2.316,
    1.46,
    1.930389,
    1.671736,
    2.11478,
    2.125,
    2.509,
    1.730156,
    2.244071,
    2.162,
    2.562976,
    1.776711,
    2.116,
    1.994,
    0.873,
    1.823342,
    0.666,
    0.802,
    1.243535,
    0.91,
    9.228,
    1.119,
    1.371,
    1.480482,
    1.521,
    0.997,
    2.072,
    1.5,
    1.938,
    1.807,
    2.145,
    1.637,
    2.478,
    1.584,
    2.323,
    1.428,
    1.233,
    2.252,
    1.428,
    0.755,
    0.696777,
    0.997117,
    1.737316,
    0.665111,
    1.165777,
    1.354111,
    1.054403,
    1.457,
    1.471,
    0.671,
    0.935,
    0.740103,
    0.878,
    2.632008,
    1.795184,
    2.601,
    2.23,
    1.865,
    2.045242,
    2.600998,
    2.716,
    2.357,
    1.281,
    1.986517,
    1.165,
    1.287,
    1.735,
    0.802,
    1.1,
    1.211,
    0.744,
    1.167,
    0.745,
    0.787,
    1.519,
    2.349,
    2.982,
    1.903,
    2.887,
    1.685,
    1.616,
    1.778,
    1.6,
    2.622,
    1.879,
    1.898,
    2.524,
    1.559,
    2.734,
    2.517,
    2.584,
    1.889,
    1.595,
    1.466,
    2.123,
    1.831,
    1.725,
    2.452,
    1.991,
    1.876,
    1.683,
    1.419,
    1.912,
    1.308,
    1.144,
    1.424,
    1.444,
    2.427,
    2.112,
    1.693,
    2.873,
    1.812,
    1.73,
    1.8,
    1.918,
    1.783,
    1.28,
    1.819,
    2.233,
    2.752,
    2.383,
    2.584,
    2.258,
    4.304,
    1.532,
    2.093,
    1.967,
    2.005,
    1.671,
    2.023,
    3.047,
    1.536,
    1.488,
    2.025,
    1.5,
    1.297,
    1.449,
    1.751,
    2.106,
    1.583,
    1.62,
    1.751,
    2.022,
    1.255,
    1.776,
    2.347,
    1.662,
    2.182,
    2.083,
    2.515,
    3.743,
    1.859776,
    2.039,
    1.97,
    2.09,
    1.33,
    1.763,
    1.449,
    1.471,
    1.531,
    1.381,
    2.356,
    1.642,
    2.358,
    1.706,
    1.572,
    2.362,
    2.813,
    1.417,
    1.469,
    1.451
  ],
  "5242880": [
    15.647,
    13.148,
    10.874,
    14.454,
    9.366,
    9.833351,
    5.92,
    5.646,
    6.633,
    25.716,
    11.794876,
    11.206,
    11.799,
    11.766,
    10.875,
    4.844,
    11.642,
    15.344566,
    6.757,
    18.45,
    13.872,
    7.024,
    5.139,
    14.02,
    13.055,
    8.445658,
    7.18,
    5.54,
    8.037,
    16.637,
    5.709,
    12.101,
    6.475,
    5.307,
    11.385,
    8.329126,
    10.671548,
    15.698248,
    17.695,
    4.999,
    5.986,
    10.954,
    8.892096,
    7.63,
    5.023,
    10.694,
    14.089,
    22.107,
    11.298,
    5.927,
    10.264,
    14.028,
    14.21,
    18.082,
    20.663
  ],
  "ALL": [
    2.151,
    1.675,
    1.888,
    2.952,
    1.277,
    2.39,
    1.481,
    1.496,
    1.689,
    1.419,
    1.825,
    2.224,
    5.821,
    6.256,
    4.728,
    4.192,
    1.287,
    1.77,
    1.563,
    2.692,
    3.056,
    1.821,
    1.782,
    1.509,
    1.401,
    2.134,
    1.466,
    1.331,
    1.585,
    3.989,
    4.47,
    1.309,
    2.28,
    2.255,
    1.541,
    2.018,
    2.722,
    1.786,
    2.133,
    1.985,
    1.505,
    5.33165,
    4.598,
    5.656,
    15.647,
    13.148,
    1.53,
    0.651,
    1.151,
    1.001,
    1.772937,
    1.308,
    1.317,
    1.113,
    1.705,
    1.777,
    2.734,
    0.799,
    0.836,
    0.852,
    2.733,
    9.438,
    1.597319,
    1.030111,
    0.89,
    2.980064,
    0.702674,
    1.165,
    1.429245,
    1.303631,
    1.497,
    1.913689,
    0.618,
    0.729,
    0.890225,
    1.397,
    4.063884,
    1.531,
    1.634,
    1.763,
    2.328,
    1.392,
    2.584,
    2.095,
    1.303,
    1.511,
    1.663,
    1.552,
    1.997,
    2.412,
    4.311,
    5.724,
    10.874,
    0.692,
    0.75,
    1.871,
    1.01,
    2.581,
    0.87,
    1.074,
    0.864,
    0.73,
    0.847,
    0.81,
    0.791,
    0.829,
    5.375,
    3.88,
    1.742206,
    1.353,
    1.252749,
    1.571,
    2.243,
    2.085585,
    1.954585,
    2.405,
    2.011183,
    2.221519,
    1.586195,
    2.015,
    1.943551,
    1.747,
    1.397585,
    6.359499,
    2.415,
    1.336,
    2.373,
    2.11,
    2.488,
    1.912,
    2.087889,
    1.499,
    2.186,
    1.797,
    1.516,
    5.382,
    5.545,
    5.17714,
    14.454,
    0.826,
    0.622,
    1.062,
    0.754,
    1.757103,
    0.706,
    0.963,
    1.371,
    1.09,
    0.995,
    1.154,
    0.919,
    0.661,
    0.815,
    3.741,
    1.545,
    1.615,
    1.244,
    1.677,
    2.112,
    1.683,
    1.918,
    1.98,
    2.206,
    1.486,
    2.293,
    1.692,
    1.399,
    2.128,
    2.351,
    2.249,
    5.688,
    1.254,
    1.634655,
    2.452,
    1.204,
    1.905,
    3.689805,
    1.421,
    1.292,
    1.682,
    2.106,
    1.363,
    1.464089,
    4.173874,
    4.761,
    9.366,
    0.549,
    1.508,
    0.818841,
    0.727656,
    0.725,
    1.07985,
    1.380167,
    1.118,
    0.723,
    0.803,
    1.715,
    1.493,
    0.82,
    3.027,
    1.72,
    9.833351,
    0.838,
    1.332,
    1.723,
    1.738,
    1.171,
    0.978,
    1.434,
    0.674,
    0.748,
    0.62,
    2.909,
    2.507,
    5.92,
    5.646,
    6.633,
    1.63,
    1.554,
    2.256,
    2.267,
    1.429,
    1.91,
    1.984,
    1.636,
    2.2,
    1.634,
    2.067,
    1.416,
    1.554,
    1.535,
    5.082,
    8.905,
    1.645,
    1.088,
    1.527,
    1.049,
    1.837889,
    1.214,
    1.346,
    1.438111,
    1.412,
    0.667,
    1.08684,
    1.288,
    1.608397,
    25.716,
    2.212,
    1.51135,
    2.258,
    1.113,
    1.676,
    1.537,
    1.411928,
    2.851,
    1.642,
    1.969,
    1.892,
    4.308587,
    4.176,
    5.448,
    3.663,
    11.794876,
    1.784,
    2.275,
    2.506,
    2.349,
    1.966,
    1.968,
    1.717,
    1.704,
    1.521,
    2.23,
    6.567,
    7.438,
    7.352,
    5.285,
    4.391,
    7.962,
    3.43,
    2.133,
    1.695,
    2.232,
    1.422,
    1.831,
    1.871,
    2.0,
    1.42,
    1.82,
    1.753,
    2.341,
    1.4,
    1.61,
    4.225103,
    4.153,
    1.739,
    1.691,
    1.709,
    1.966,
    2.04,
    2.037,
    1.694,
    1.801,
    1.482,
    1.978,
    2.249,
    1.687,
    4.467,
    5.209,
    1.476,
    2.479,
    2.832,
    1.451,
    1.900403,
    1.595,
    1.557,
    1.802,
    1.972,
    1.499,
    1.598,
    4.172,
    6.208,
    11.206,
    11.799,
    11.766,
    1.329698,
    1.146,
    1.665,
    1.674,
    2.016,
    1.611,
    1.781597,
    1.602,
    1.162,
    1.258184,
    1.323897,
    3.514637,
    4.139167,
    3.312916,
    5.370312,
    1.28008,
    1.58892,
    2.122,
    1.829,
    2.1,
    1.68,
    1.437,
    1.32,
    1.578,
    1.223,
    1.253,
    4.078,
    5.262,
    3.872,
    10.875,
    1.611,
    1.503,
    1.632,
    1.506,
    2.143,
    1.036,
    1.496,
    1.694,
    1.154,
    2.744,
    1.195,
    1.222,
    1.469,
    2.032,
    3.804,
    3.408,
    0.728,
    0.788,
    0.86,
    1.613,
    2.645,
    0.969,
    1.28,
    1.524,
    2.495,
    0.821,
    1.350989,
    0.556,
    2.809,
    2.54,
    2.210958,
    4.844,
    1.337,
    0.893,
    2.194,
    1.755,
    1.308,
    1.086,
    0.845,
    1.345,
    1.133,
    0.856,
    0.719,
    1.574,
    0.948,
    1.721,
    4.365,
    3.068,
    1.347,
    1.88,
    1.916,
    1.525,
    2.676,
    2.102,
    2.41,
    2.075,
    1.602,
    2.263,
    1.505,
    1.918,
    4.435,
    6.411,
    5.531,
    5.494,
    1.236,
    1.083539,
    0.987,
    1.091,
    1.794045,
    1.218,
    1.230805,
    1.176,
    1.592,
    1.687,
    0.849713,
    0.643,
    0.644,
    0.734,
    4.331,
    3.188,
    1.263,
    0.977,
    1.502,
    1.034,
    0.863,
    1.331,
    1.354,
    0.920006,
    0.923,
    0.99,
    1.52,
    0.798,
    0.913,
    0.886,
    1.394,
    2.925,
    1.63,
    1.796,
    2.108,
    1.597,
    1.784,
    2.181,
    1.781,
    2.12,
    2.262,
    2.063,
    2.217,
    1.331,
    1.828,
    6.109,
    11.642,
    1.423,
    2.995,
    2.108,
    1.552,
    2.442,
    2.497,
    1.838,
    1.693,
    2.518,
    1.863,
    1.405,
    1.411,
    1.571,
    1.585,
    5.518873,
    1.145,
    1.516,
    2.425,
    1.602,
    1.238928,
    2.367,
    1.055,
    1.967,
    1.343,
    1.133,
    4.307,
    4.031,
    3.631,
    4.24,
    5.045,
    4.543,
    0.909103,
    6.861478,
    1.944302,
    0.627539,
    1.199284,
    0.929199,
    1.371973,
    1.62,
    1.456,
    0.882,
    0.836,
    1.926777,
    2.056,
    3.863097,
    2.911612,
    1.983897,
    1.785,
    2.245,
    2.301,
    1.722,
    2.048,
    2.1,
    2.292,
    1.661,
    1.86,
    1.611,
    2.414,
    4.197,
    4.958,
    4.301,
    6.056,
    4.513,
    2.253,
    1.736,
    1.821,
    2.334,
    1.885,
    2.106,
    3.147,
    2.927,
    1.934704,
    1.542,
    2.046,
    1.54,
    2.217,
    1.467,
    1.675,
    10.148,
    1.227,
    1.252,
    1.166103,
    1.894,
    0.896,
    2.347821,
    1.502557,
    1.494925,
    1.157935,
    1.698,
    1.006,
    1.072396,
    1.526995,
    5.298311,
    15.344566,
    0.945,
    0.889,
    1.748,
    1.528,
    1.479,
    1.296,
    1.574,
    0.978,
    0.927,
    1.522,
    0.872,
    0.662,
    0.633,
    3.159,
    6.757,
    18.45,
    0.83,
    0.535,
    0.815,
    1.127,
    1.814,
    0.723,
    1.117,
    1.193,
    0.629,
    1.231,
    0.96,
    0.549,
    1.188,
    4.289,
    2.055,
    13.872,
    1.876,
    0.545,
    0.972,
    1.963,
    1.139,
    1.122,
    1.443,
    1.617,
    0.789,
    0.976,
    1.484,
    1.283,
    0.865,
    1.593,
    7.024,
    5.139,
    1.523,
    1.6,
    2.207,
    1.65,
    1.351,
    1.679,
    1.49,
    2.137,
    1.402,
    1.622,
    1.446,
    1.64,
    4.718,
    5.473,
    14.02,
    13.055,
    1.03,
    1.360342,
    1.079,
    1.171976,
    1.675405,
    0.867411,
    1.374,
    1.275,
    1.246,
    0.721,
    1.25641,
    0.837,
    0.87659,
    0.76,
    1.532,
    8.445658,
    0.979,
    1.154,
    0.904,
    1.947,
    1.094,
    1.125,
    0.956,
    1.342,
    0.934,
    1.482,
    1.322,
    1.577,
    1.698,
    7.18,
    5.54,
    8.037,
    1.662,
    2.364,
    2.28,
    2.586,
    1.923,
    2.173,
    2.547,
    2.268,
    1.452,
    2.84,
    3.007,
    1.869,
    10.184,
    9.953,
    11.836,
    1.787974,
    1.317,
    1.869787,
    1.716,
    2.309401,
    1.812536,
    2.125268,
    2.354827,
    1.84627,
    1.529094,
    2.4231,
    2.217638,
    1.731437,
    1.453,
    2.322763,
    6.212974,
    1.297302,
    1.791295,
    1.559,
    2.067383,
    1.246,
    1.366,
    3.503,
    1.526,
    1.222,
    1.179008,
    1.499,
    1.566,
    1.301,
    1.271924,
    7.684628,
    1.729,
    1.72,
    2.001,
    2.973,
    1.427,
    2.726,
    2.47,
    2.704,
    2.087,
    2.074,
    2.363,
    1.648,
    1.646,
    6.825,
    16.637,
    1.463,
    1.39,
    1.547,
    2.053,
    1.3,
    2.15,
    1.887,
    1.768,
    2.204,
    1.91,
    2.052,
    1.777,
    2.176,
    1.34,
    1.434,
    4.008,
    1.556,
    1.41,
    1.257,
    0.973,
    0.824,
    0.894,
    1.553,
    1.241,
    0.665503,
    0.605,
    0.698,
    4.308,
    5.709,
    12.101,
    6.475,
    5.307,
    2.198,
    2.437,
    2.311,
    1.884,
    2.583,
    1.757,
    2.057,
    1.949,
    1.57,
    1.788,
    2.049,
    2.241,
    1.749,
    1.692,
    1.735,
    1.03,
    0.642,
    1.435,
    1.781108,
    0.742714,
    1.089,
    2.222281,
    1.348,
    0.723,
    1.065,
    0.745,
    0.591,
    1.295,
    0.904,
    2.623,
    2.728,
    0.812,
    1.431,
    1.295,
    1.163,
    2.068,
    1.629,
    2.061,
    1.409,
    1.281,
    1.059,
    1.269,
    0.77,
    1.02,
    1.414,
    0.945,
    7.139,
    2.13,
    2.089,
    1.588,
    2.447,
    1.441,
    2.31,
    1.67,
    1.25,
    1.395,
    1.612,
    1.368,
    2.093,
    2.169,
    5.227,
    3.999,
    5.897,
    1.52,
    1.483,
    1.734,
    1.911,
    1.85,
    3.272,
    2.213,
    1.903,
    2.294,
    2.385,
    2.209,
    4.203,
    5.644,
    4.98,
    7.404,
    11.385,
    1.469424,
    2.095532,
    1.657166,
    1.336876,
    2.219142,
    1.609,
    1.95119,
    1.59577,
    1.244379,
    1.118046,
    1.24292,
    1.677315,
    8.329126,
    10.671548,
    15.698248,
    2.06563,
    1.650001,
    1.595299,
    2.28475,
    2.231,
    1.601,
    1.700474,
    1.788025,
    1.434929,
    1.342,
    1.688,
    1.461,
    1.653161,
    1.363,
    1.715,
    1.901,
    2.12,
    1.807,
    2.029,
    2.593,
    1.392,
    1.757,
    1.72,
    1.745,
    1.396,
    1.658,
    1.9,
    1.964,
    6.16,
    17.695,
    1.538629,
    1.548,
    1.405284,
    2.204,
    1.281,
    1.872,
    2.425494,
    1.413,
    1.394,
    1.645,
    1.949757,
    1.376,
    2.307566,
    15.075385,
    3.913,
    6.591347,
    1.238,
    1.475,
    1.172,
    1.939,
    1.601,
    1.208,
    1.179,
    1.036,
    0.679,
    0.916,
    1.396,
    0.66,
    0.764,
    1.272,
    4.999,
    0.759,
    1.156,
    1.393,
    0.852,
    1.096248,
    0.96,
    1.144,
    0.812,
    0.825,
    1.504,
    0.63,
    0.906,
    4.913,
    1.932,
    2.468,
    5.986,
    1.739,
    1.461,
    1.879,
    1.704,
    2.201,
    3.177,
    1.55,
    1.379,
    1.724,
    2.007,
    2.171,
    1.453,
    4.954,
    6.332,
    5.581,
    10.954,
    0.897,
    0.61,
    1.257,
    1.474,
    1.727,
    1.101,
    1.288,
    2.183,
    0.959,
    1.032,
    1.234,
    1.189,
    2.021,
    0.777,
    0.894,
    2.508,
    0.694,
    0.98,
    0.942,
    0.821244,
    1.422,
    0.789,
    1.083,
    1.266,
    2.372254,
    0.753244,
    1.458787,
    2.187,
    1.546,
    2.636,
    5.398,
    1.94,
    2.133,
    2.496,
    1.961,
    2.254,
    2.614,
    1.57,
    2.004,
    2.259,
    1.933,
    2.406,
    1.618,
    1.767,
    2.231,
    2.289,
    1.726,
    4.665,
    1.837111,
    1.596,
    2.069153,
    1.533431,
    2.725722,
    1.846128,
    1.959673,
    1.409,
    1.862707,
    1.227,
    2.365431,
    1.278,
    4.542388,
    4.627226,
    8.892096,
    2.296,
    1.963,
    1.832,
    2.29,
    2.249,
    2.704,
    1.951,
    2.226,
    1.525,
    1.404,
    2.526,
    1.479,
    1.534,
    2.316,
    1.46,
    3.938,
    1.930389,
    1.671736,
    2.11478,
    2.125,
    2.509,
    1.730156,
    2.244071,
    2.162,
    2.562976,
    1.776711,
    2.116,
    1.994,
    5.539649,
    6.02,
    0.873,
    1.823342,
    0.666,
    0.802,
    1.243535,
    0.91,
    9.228,
    1.119,
    1.371,
    1.480482,
    1.521,
    0.997,
    1.332,
    2.353,
    7.63,
    5.023,
    2.072,
    1.5,
    1.938,
    1.807,
    2.145,
    1.637,
    2.478,
    1.584,
    2.323,
    1.428,
    1.233,
    2.252,
    1.428,
    5.458,
    9.438,
    10.694,
    0.755,
    0.696777,
    0.997117,
    1.737316,
    0.665111,
    1.165777,
    1.354111,
    1.054403,
    1.457,
    1.471,
    0.671,
    0.935,
    0.740103,
    0.878,
    2.094,
    3.886,
    2.632008,
    1.795184,
    2.601,
    2.23,
    1.865,
    2.045242,
    2.600998,
    2.716,
    2.357,
    1.281,
    1.986517,
    4.396,
    14.089,
    22.107,
    1.165,
    1.287,
    1.735,
    0.802,
    1.1,
    1.211,
    0.744,
    1.167,
    0.745,
    0.787,
    2.404,
    4.707,
    2.174,
    11.298,
    5.927,
    10.264,
    1.519,
    2.349,
    2.982,
    1.903,
    2.887,
    1.685,
    1.616,
    1.778,
    1.6,
    5.579,
    5.828,
    5.263,
    9.916,
    5.269,
    14.028,
    14.21,
    2.622,
    1.879,
    1.898,
    2.524,
    1.559,
    2.734,
    2.517,
    2.584,
    1.889,
    1.595,
    1.466,
    4.081,
    6.75,
    4.631,
    2.123,
    1.831,
    1.725,
    2.452,
    1.991,
    1.876,
    1.683,
    1.419,
    1.912,
    1.308,
    4.721,
    5.173,
    3.78,
    18.082,
    20.663,
    1.144,
    1.424,
    1.444,
    2.427,
    2.112,
    1.693,
    2.873,
    1.812,
    1.73,
    1.8,
    1.918,
    1.783,
    1.28,
    1.819,
    2.233,
    3.295,
    2.752,
    2.383,
    2.584,
    2.258,
    4.304,
    1.532,
    2.093,
    1.967,
    2.005,
    1.671,
    2.023,
    3.047,
    1.536,
    1.488,
    2.025,
    7.312,
    1.5,
    1.297,
    1.449,
    1.751,
    2.106,
    1.583,
    1.62,
    1.751,
    2.022,
    1.255,
    1.776,
    6.25,
    3.43,
    4.029,
    2.347,
    1.662,
    2.182,
    2.083,
    2.515,
    3.743,
    1.859776,
    2.039,
    1.97,
    2.09,
    1.33,
    1.763,
    1.449,
    1.471,
    5.807,
    1.531,
    1.381,
    2.356,
    1.642,
    2.358,
    1.706,
    1.572,
    2.362,
    2.813,
    1.417,
    1.469,
    1.451,
    4.554,
    4.104,
    6.401
  ]
}