{
  "ALL": [
    [
      6.25,
      6.25
    ],
    [
      6.25,
      6.25
    ],
    [
      0.0,
      6.25
    ],
    [
      0.0,
      6.25
    ],
    [
      0.0,
      6.666666666666667
    ],
    [
      0.0,
      6.666666666666667
    ],
    [
      0.0,
      6.25
    ],
    [
      0.0,
      6.25
    ],
    [
      0.0,
      6.25
    ],
    [
      0.0,
      6.25
    ],
    [
      0.0,
      6.25
    ],
    [
      0.0,
      6.25
    ],
    [
      0.0,
      6.25
    ],
    [
      0.0,
      6.25
    ],
    [
      6.666666666666667,
      6.666666666666667
    ],
    [
      6.666666666666667,
      6.666666666666667
    ],
    [
      6.25,
      6.25
    ],
    [
      6.25,
      6.25
    ],
    [
      0.0,
      6.666666666666667
    ],
    [
      0.0,
      6.666666666666667
    ],
    [
      6.666666666666667,
      6.666666666666667
    ],
    [
      6.666666666666667,
      6.666666666666667
    ],
    [
      6.25,
      6.25
    ],
    [
      6.25,
      6.25
    ],
    [
      0.0,
      6.25
    ],
    [
      0.0,
      6.25
    ],
    [
      6.25,
      6.25
    ],
    [
      6.25,
      6.25
    ],
    [
      5.882352941176471,
      5.882352941176471
    ],
    [
      5.882352941176471,
      5.882352941176471
    ],
    [
      0.0,
      6.25
    ],
    [
      0.0,
      6.25
    ],
    [
      6.25,
      6.25
    ],
    [
      6.25,
      6.25
    ],
    [
      0.0,
      6.666666666666667
    ],
    [
      0.0,
      6.666666666666667
    ],
    [
      0.0,
      6.25
    ],
    [
      0.0,
      6.25
    ],
    [
      0.0,
      6.25
    ],
    [
      0.0,
      6.25
    ],
    [
      6.25,
      6.25
    ],
    [
      6.25,
      6.25
    ],
    [
      11.764705882352942,
      5.882352941176471
    ],
    [
      11.764705882352942,
      5.882352941176471
    ],
    [
      0.0,
      6.25
    ],
    [
      0.0,
      6.25
    ],
    [
      6.25,
      6.25
    ],
    [
      6.25,
      6.25
    ],
    [
      12.5,
      6.25
    ],
    [
      12.5,
      6.25
    ],
    [
      0.0,
      6.25
    ],
    [
      0.0,
      6.25
    ],
    [
      0.0,
      6.25
    ],
    [
      0.0,
      6.25
    ],
    [
      0.0,
      6.25
    ],
    [
      0.0,
      6.25
    ],
    [
      0.0,
      6.25
    ],
    [
      0.0,
      6.25
    ],
    [
      0.0,
      6.25
    ],
    [
      0.0,
      6.25
    ],
    [
      12.5,
      6.25
    ],
    [
      12.5,
      6.25
    ],
    [
      6.25,
      6.25
    ],
    [
      6.25,
      6.25
    ],
    [
      6.25,
      6.25
    ],
    [
      6.25,
      6.25
    ],
    [
      0.0,
      6.25
    ],
    [
      0.0,
      6.25
    ],
    [
      0.0,
      6.25
    ],
    [
      0.0,
      6.25
    ],
    [
      0.0,
      6.25
    ],
    [
      0.0,
      6.25
    ],
    [
      6.25,
      6.25
    ],
    [
      6.25,
      6.25
    ],
    [
      0.0,
      6.25
    ],
    [
      0.0,
      6.25
    ],
    [
      6.25,
      6.25
    ],
    [
      6.25,
      6.25
    ],
    [
      6.25,
      6.25
    ],
    [
      6.25,
      6.25
    ],
    [
      0.0,
      6.25
    ],
    [
      0.0,
      6.25
    ],
    [
      0.0,
      6.25
    ],
    [
      0.0,
      6.25
    ],
    [
      0.0,
      6.25
    ],
    [
      0.0,
      6.25
    ],
    [
      0.0,
      6.25
    ],
    [
      0.0,
      6.25
    ],
    [
      18.75,
      6.25
    ],
    [
      18.75,
      6.25
    ],
    [
      12.5,
      6.25
    ],
    [
      12.5,
      6.25
    ],
    [
      0.0,
      6.666666666666667
    ],
    [
      0.0,
      6.666666666666667
    ],
    [
      6.25,
      6.25
    ],
    [
      6.25,
      6.25
    ],
    [
      0.0,
      6.25
    ],
    [
      0.0,
      6.25
    ],
    [
      6.25,
      6.25
    ],
    [
      6.25,
      6.25
    ],
    [
      6.25,
      6.25
    ],
    [
      6.25,
      6.25
    ],
    [
      12.5,
      6.25
    ],
    [
      12.5,
      6.25
    ],
    [
      0.0,
      6.25
    ],
    [
      0.0,
      6.25
    ],
    [
      0.0,
      6.25
    ],
    [
      0.0,
      6.25
    ],
    [
      12.5,
      6.25
    ],
    [
      12.5,
      6.25
    ],
    [
      0.0,
      6.666666666666667
    ],
    [
      0.0,
      6.666666666666667
    ],
    [
      0.0,
      6.25
    ],
    [
      0.0,
      6.25
    ],
    [
      0.0,
      6.25
    ],
    [
      0.0,
      6.25
    ],
    [
      0.0,
      6.25
    ],
    [
      0.0,
      6.25
    ],
    [
      6.25,
      6.25
    ],
    [
      6.25,
      6.25
    ],
    [
      0.0,
      6.25
    ],
    [
      0.0,
      6.25
    ],
    [
      0.0,
      6.25
    ],
    [
      0.0,
      6.25
    ],
    [
      0.0,
      6.25
    ],
    [
      0.0,
      6.25
    ],
    [
      5.882352941176471,
      5.882352941176471
    ],
    [
      5.882352941176471,
      5.882352941176471
    ],
    [
      0.0,
      6.25
    ],
    [
      0.0,
      6.25
    ],
    [
      12.5,
      6.25
    ],
    [
      12.5,
      6.25
    ],
    [
      6.25,
      6.25
    ],
    [
      6.25,
      6.25
    ],
    [
      6.25,
      6.25
    ],
    [
      6.25,
      6.25
    ],
    [
      0.0,
      6.25
    ],
    [
      0.0,
      6.25
    ],
    [
      0.0,
      6.25
    ],
    [
      0.0,
      6.25
    ],
    [
      0.0,
      6.25
    ],
    [
      0.0,
      6.25
    ],
    [
      13.333333333333334,
      6.666666666666667
    ],
    [
      13.333333333333334,
      6.666666666666667
    ],
    [
      6.25,
      6.25
    ],
    [
      6.25,
      6.25
    ],
    [
      0.0,
      6.25
    ],
    [
      0.0,
      6.25
    ],
    [
      0.0,
      6.25
    ],
    [
      0.0,
      6.25
    ],
    [
      0.0,
      6.666666666666667
    ],
    [
      0.0,
      6.666666666666667
    ],
    [
      12.5,
      6.25
    ],
    [
      12.5,
      6.25
    ],
    [
      6.25,
      6.25
    ],
    [
      6.25,
      6.25
    ],
    [
      12.5,
      6.25
    ],
    [
      12.5,
      6.25
    ]
  ],
  "TIMEOUT": [
    [
      6.25,
      6.25
    ],
    [
      6.666666666666667,
      6.666666666666667
    ],
    [
      6.25,
      6.25
    ],
    [
      6.666666666666667,
      6.666666666666667
    ],
    [
      6.25,
      6.25
    ],
    [
      6.25,
      6.25
    ],
    [
      5.882352941176471,
      5.882352941176471
    ],
    [
      6.25,
      6.25
    ],
    [
      6.25,
      6.25
    ],
    [
      11.764705882352942,
      5.882352941176471
    ],
    [
      6.25,
      6.25
    ],
    [
      12.5,
      6.25
    ],
    [
      12.5,
      6.25
    ],
    [
      6.25,
      6.25
    ],
    [
      6.25,
      6.25
    ],
    [
      6.25,
      6.25
    ],
    [
      6.25,
      6.25
    ],
    [
      6.25,
      6.25
    ],
    [
      18.75,
      6.25
    ],
    [
      12.5,
      6.25
    ],
    [
      6.25,
      6.25
    ],
    [
      6.25,
      6.25
    ],
    [
      6.25,
      6.25
    ],
    [
      12.5,
      6.25
    ],
    [
      12.5,
      6.25
    ],
    [
      6.25,
      6.25
    ],
    [
      5.882352941176471,
      5.882352941176471
    ],
    [
      12.5,
      6.25
    ],
    [
      6.25,
      6.25
    ],
    [
      6.25,
      6.25
    ],
    [
      13.333333333333334,
      6.666666666666667
    ],
    [
      6.25,
      6.25
    ],
    [
      12.5,
      6.25
    ],
    [
      6.25,
      6.25
    ],
    [
      12.5,
      6.25
    ]
  ]
}