{
  "900": 3378689969,
  "901": 3420514625,
  "902": 3403214826,
  "903": 3437029647,
  "904": 3412588697,
  "905": 3374355379,
  "906": 3376879908,
  "907": 3386423496,
  "908": 3355205017,
  "909": 3328017380,
  "910": 3367461843,
  "911": 3364780055,
  "912": 3393783836,
  "913": 3403503108,
  "914": 3397581774,
  "915": 3378173438,
  "916": 3383687779,
  "917": 3373189820,
  "918": 3329372893,
  "919": 3427819690,
  "920": 3379633127,
  "921": 3335719963,
  "922": 3374813630,
  "923": 3340457267,
  "924": 3349898464,
  "925": 3336181277,
  "926": 3397305392,
  "927": 3382842120,
  "928": 3346814626,
  "929": 3320808495,
  "930": 3397317304,
  "931": 3407366430,
  "932": 3443871349,
  "933": 3430173114,
  "934": 3372127009,
  "935": 3377402955,
  "936": 3460772730,
  "937": 3444933141,
  "938": 3397721378,
  "939": 3375233130,
  "940": 3385070917,
  "941": 3420003334,
  "942": 3471239662,
  "943": 3415683363,
  "944": 3362956248,
  "945": 3435486282,
  "946": 3376077004,
  "947": 3423880892,
  "948": 3333600957,
  "949": 3426320332,
  "950": 3449527219,
  "951": 3434956786,
  "952": 3386797476,
  "953": 3389319395,
  "954": 3382388698,
  "955": 3419474688,
  "956": 3448222270,
  "957": 3496952908,
  "958": 3472021214,
  "959": 3474342229,
  "960": 3484905576,
  "961": 3514361373,
  "962": 3505811192,
  "963": 3410301072,
  "964": 3480834276,
  "965": 3516172341,
  "966": 3494418404,
  "967": 3459202837,
  "968": 3414647822,
  "969": 3457651122,
  "970": 3492817786,
  "971": 3457079375,
  "972": 3459333993,
  "973": 3474529841,
  "974": 3484594344,
  "975": 3484700652,
  "976": 3497539885,
  "977": 3443931247,
  "978": 3395524160,
  "979": 3475805176,
  "980": 3520161155,
  "981": 3531551553,
  "982": 3509764376,
  "983": 3477782937,
  "984": 3498790897,
  "985": 3540613632,
  "986": 3507376128,
  "987": 3573519377,
  "988": 3556647973,
  "989": 3536793295,
  "990": 3503159615,
  "991": 3471206055,
  "992": 3439190108,
  "993": 3432335686,
  "994": 3506345800,
  "995": 3512913262,
  "996": 3535483092,
  "997": 3529064917,
  "998": 3500757589,
  "999": 3519758130,
  "1000": 3533269104,
  "1001": 3517588910,
  "1002": 3495237792,
  "1003": 3489243381,
  "1004": 3431552056,
  "1005": 3473001559,
  "1006": 3495624308,
  "1007": 3550258554,
  "1008": 3547761221,
  "1009": 3527949116,
  "1010": 3557521586,
  "1011": 3577792259,
  "1012": 3583388488,
  "1013": 3615592930,
  "1014": 3526439059,
  "1015": 3549718622,
  "1016": 3538370536,
  "1017": 3578067178,
  "1018": 3556003490,
  "1019": 3543468223,
  "1020": 3567508319,
  "1021": 3539885847,
  "1022": 3534808470,
  "1023": 3581927870,
  "1024": 3594216185,
  "1025": 3470881023,
  "1026": 3492281063,
  "1027": 3543334032,
  "1028": 3522841762,
  "1029": 3531532422,
  "1030": 3444342124,
  "1031": 3483060062,
  "1032": 3545399391,
  "1033": 3525652247,
  "1034": 3582260202,
  "1035": 3612123700,
  "1036": 3578509831,
  "1037": 3582194908,
  "1038": 3544180861,
  "1039": 3563362795,
  "1040": 3588868845,
  "1041": 3600389023,
  "1042": 3585387645,
  "1043": 3610627633,
  "1044": 3557793789,
  "1045": 3572702034,
  "1046": 3601108774,
  "1047": 3518030679,
  "1048": 3548038088,
  "1049": 3605131148,
  "1050": 3544877553,
  "1051": 3507723842,
  "1052": 3528082169,
  "1053": 3551871382,
  "1054": 3548350954,
  "1055": 3612285177,
  "1056": 3586826172,
  "1057": 3603204148,
  "1058": 3547356983,
  "1059": 3571801221,
  "1060": 3548567907,
  "1061": 3544280106,
  "1062": 3529944774,
  "1063": 3523711871,
  "1064": 3544526156,
  "1065": 3598287844,
  "1066": 3598617676,
  "1067": 3586441083,
  "1068": 3593238131,
  "1069": 3538002577,
  "1070": 3608480151,
  "1071": 3561448799,
  "1072": 3600464451,
  "1073": 3691525855,
  "1074": 3648788635,
  "1075": 3615467415,
  "1076": 3615577658,
  "1077": 3665783904,
  "1078": 3632363371,
  "1079": 3664039839,
  "1080": 3592225775,
  "1081": 3601005475,
  "1082": 3538959815,
  "1083": 3524043999,
  "1084": 3536569493,
  "1085": 3593693562,
  "1086": 3562492082,
  "1087": 3577052313,
  "1088": 3627128265,
  "1089": 3648085291,
  "1090": 3572329626,
  "1091": 3618202407,
  "1092": 3601687348,
  "1093": 3643698263,
  "1094": 3603625274,
  "1095": 3620162931,
  "1096": 3601643509,
  "1097": 3600765798,
  "1098": 3630783030,
  "1099": 3634467541,
  "1100": 3653246838,
  "1101": 3590515981,
  "1102": 3599424547,
  "1103": 3627851098,
  "1104": 3649657759,
  "1105": 3626463451,
  "1106": 3623868898,
  "1107": 3627290947,
  "1108": 3632513887,
  "1109": 3612767953,
  "1110": 3577576378,
  "1111": 3634451644,
  "1112": 3580991452,
  "1113": 3612149492,
  "1114": 3618565505,
  "1115": 3735130447,
  "1116": 3613431481,
  "1117": 3658616484,
  "1118": 3697886133,
  "1119": 3646450526,
  "1120": 3666436875,
  "1121": 3639734365,
  "1122": 3629819312,
  "1123": 3651837438,
  "1124": 3631462685,
  "1125": 3683009520,
  "1126": 3635437038,
  "1127": 3620354428,
  "1128": 3622174950,
  "1129": 3661244630,
  "1130": 3717149652,
  "1131": 3687252720,
  "1132": 3707329972,
  "1133": 3684508085,
  "1134": 3681983800,
  "1135": 3620178030,
  "1136": 3623174293,
  "1137": 3675669815,
  "1138": 3647757242,
  "1139": 3689188785,
  "1140": 3684042917,
  "1141": 3679021710,
  "1142": 3721356444,
  "1143": 3746657273,
  "1144": 3753205431,
  "1145": 3661516320,
  "1146": 3687647217,
  "1147": 3682631600,
  "1148": 3626611667,
  "1149": 3670784675,
  "1150": 3665287463,
  "1151": 3689851134,
  "1152": 3746510240,
  "1153": 3692230102,
  "1154": 3700820165,
  "1155": 3678784164,
  "1156": 3651737372,
  "1157": 3650209066,
  "1158": 3577756011,
  "1159": 3611507735,
  "1160": 3635755453,
  "1161": 3612081781,
  "1162": 3565326627,
  "1163": 3592613867,
  "1164": 3572048310,
  "1165": 3563988314,
  "1166": 3546891963,
  "1167": 3584157241,
  "1168": 3603326706,
  "1169": 3630228358,
  "1170": 3627140922,
  "1171": 3622802682,
  "1172": 3636500805,
  "1173": 3686610336,
  "1174": 3643007657,
  "1175": 3643022937,
  "1176": 3639072913,
  "1177": 3690442359,
  "1178": 3677283555,
  "1179": 3664192979,
  "1180": 3701495142,
  "1181": 3612771630,
  "1182": 3606980613,
  "1183": 3663671038,
  "1184": 3695824618,
  "1185": 3671854034,
  "1186": 3585759689,
  "1187": 3674783306,
  "1188": 3633810247,
  "1189": 3647479854,
  "1190": 3603978166,
  "1191": 3608093798,
  "1192": 3564997878,
  "1193": 3589108731,
  "1194": 3617069886,
  "1195": 3658065811,
  "1196": 3647568520,
  "1197": 3635580336,
  "1198": 3628296855,
  "1199": 3635542052,
  "1200": 3684438257,
  "1201": 3750160592,
  "1202": 3685917084,
  "1203": 3673786236,
  "1204": 3742957198,
  "1205": 3720117525,
  "1206": 3704729137,
  "1207": 3671547042,
  "1208": 3623753350,
  "1209": 3678340780,
  "1210": 3664732572,
  "1211": 3673100747,
  "1212": 3650244088,
  "1213": 3687436560,
  "1214": 3648732078,
  "1215": 3630556534,
  "1216": 3655865603,
  "1217": 3622496895,
  "1218": 3668681342,
  "1219": 3661270847,
  "1220": 3662908343,
  "1221": 3631272070,
  "1222": 3601355843,
  "1223": 3651447232,
  "1224": 3659354515,
  "1225": 3604587918,
  "1226": 3647405464,
  "1227": 3676846160,
  "1228": 3675955758,
  "1229": 3653557186,
  "1230": 3602393997,
  "1231": 3605969494,
  "1232": 3627788991,
  "1233": 3561794242,
  "1234": 3592780976,
  "1235": 3612388343,
  "1236": 3644369216,
  "1237": 3693260009,
  "1238": 3720655139,
  "1239": 3678694896,
  "1240": 3720245095,
  "1241": 3642260364,
  "1242": 3622938773,
  "1243": 3632838226,
  "1244": 3684147741,
  "1245": 3677832932,
  "1246": 3718635086,
  "1247": 3691741529,
  "1248": 3712937744,
  "1249": 3691370933,
  "1250": 3635500634,
  "1251": 3685378403,
  "1252": 3645389766,
  "1253": 3651840766,
  "1254": 3707948559,
  "1255": 3679437991,
  "1256": 3656369735,
  "1257": 3692462308,
  "1258": 3660115056,
  "1259": 3645011192,
  "1260": 3694540059,
  "1261": 3669871283,
  "1262": 3716661424,
  "1263": 3689635602,
  "1264": 3728963016,
  "1265": 3670517469,
  "1266": 3706303256,
  "1267": 3615382135,
  "1268": 3614327883,
  "1269": 3610007819,
  "1270": 3619079611,
  "1271": 3678852109,
  "1272": 3640352513,
  "1273": 3702000604,
  "1274": 3645574349,
  "1275": 3630215559,
  "1276": 3742783746,
  "1277": 3697433846,
  "1278": 3691198294,
  "1279": 3659725090,
  "1280": 3692999000,
  "1281": 3689934382,
  "1282": 3684573454,
  "1283": 3734453996,
  "1284": 3770153909,
  "1285": 3691810195,
  "1286": 3696400287,
  "1287": 3642817932,
  "1288": 3622808858,
  "1289": 3690440676,
  "1290": 3671290121,
  "1291": 3686279600,
  "1292": 3728992105,
  "1293": 3721517619,
  "1294": 3743281132,
  "1295": 3759804686,
  "1296": 3702680076,
  "1297": 3748533886,
  "1298": 3740825295,
  "1299": 3705604117,
  "1300": 3727674854,
  "1301": 3690452788,
  "1302": 3684407280,
  "1303": 3738715330,
  "1304": 3711411241,
  "1305": 3661397594,
  "1306": 3681842849,
  "1307": 3701168920,
  "1308": 3688438201,
  "1309": 3617676382,
  "1310": 3700521518,
  "1311": 3693155716,
  "1312": 3706660941,
  "1313": 3681000355,
  "1314": 3717672386,
  "1315": 3650041817,
  "1316": 3647437765,
  "1317": 3667808487,
  "1318": 3638508654,
  "1319": 3624771051,
  "1320": 3651257243,
  "1321": 3646900165,
  "1322": 3650475530,
  "1323": 3733154104,
  "1324": 3744873485,
  "1325": 3806131075,
  "1326": 3813473127,
  "1327": 3735282527,
  "1328": 3727886560,
  "1329": 3728133367,
  "1330": 3725013966,
  "1331": 3753282883,
  "1332": 3707919194,
  "1333": 3682271433,
  "1334": 3718771749,
  "1335": 3723853940,
  "1336": 3631476714,
  "1337": 3670008910,
  "1338": 3667308003,
  "1339": 3693843723,
  "1340": 3695252181,
  "1341": 3683706619,
  "1342": 3679679299,
  "1343": 3612901654,
  "1344": 3662930721,
  "1345": 3675540631,
  "1346": 3643991448,
  "1347": 3645985006,
  "1348": 3636990941,
  "1349": 3660771399,
  "1350": 3666776736,
  "1351": 3696518165,
  "1352": 3660776867,
  "1353": 3692381057,
  "1354": 3745718975,
  "1355": 3744981328,
  "1356": 3719217678,
  "1357": 3706662754,
  "1358": 3731772783,
  "1359": 3716448016,
  "1360": 3709338764,
  "1361": 3703271938,
  "1362": 3735176087,
  "1363": 3684825604,
  "1364": 3687654497,
  "1365": 3689610451,
  "1366": 3676431066,
  "1367": 3642761695,
  "1368": 3660982120,
  "1369": 3647361645,
  "1370": 3644611794,
  "1371": 3681710708,
  "1372": 3707559569,
  "1373": 3722345853,
  "1374": 3703765390,
  "1375": 3716382398,
  "1376": 3699269150,
  "1377": 3739312447,
  "1378": 3736474225,
  "1379": 3725932909,
  "1380": 3706747614,
  "1381": 3687969979,
  "1382": 3681595334,
  "1383": 3675556678,
  "1384": 3711940378,
  "1385": 3687806689,
  "1386": 3771383918,
  "1387": 3665860829,
  "1388": 3734604271,
  "1389": 3746914006,
  "1390": 3680422945,
  "1391": 3710448304,
  "1392": 3716088241,
  "1393": 3746297137,
  "1394": 3764327224,
  "1395": 3748588389,
  "1396": 3727979608,
  "1397": 3757774610,
  "1398": 3716215058,
  "1399": 3679550290,
  "1400": 3646899525,
  "1401": 3692083202,
  "1402": 3673321491,
  "1403": 3642822541,
  "1404": 3646397642,
  "1405": 3668323759,
  "1406": 3738930496,
  "1407": 3743002705,
  "1408": 3681951915,
  "1409": 3668116978,
  "1410": 3688492118,
  "1411": 3686090871,
  "1412": 3714936930,
  "1413": 3751363428,
  "1414": 3813361919,
  "1415": 3814415142,
  "1416": 3772884660,
  "1417": 3716146269,
  "1418": 3716562526,
  "1419": 3681532553,
  "1420": 3701601993,
  "1421": 3729772665,
  "1422": 3740149833,
  "1423": 3685630998,
  "1424": 3714624348,
  "1425": 3739225668,
  "1426": 3772107242,
  "1427": 3733274845,
  "1428": 3627543104,
  "1429": 3645138704,
  "1430": 3689905345,
  "1431": 3688264910,
  "1432": 3714588728,
  "1433": 3712180912,
  "1434": 3763425032,
  "1435": 3736335196,
  "1436": 3740317636,
  "1437": 3663103331,
  "1438": 3684874084,
  "1439": 3693568462,
  "1440": 3637379364,
  "1441": 3677755162,
  "1442": 3639711088,
  "1443": 3698247610,
  "1444": 3697642748,
  "1445": 3774491271,
  "1446": 3807098897,
  "1447": 3799737440,
  "1448": 3725419883,
  "1449": 3760370513,
  "1450": 3722568148,
  "1451": 3775264714,
  "1452": 3861402349,
  "1453": 3759963871,
  "1454": 3811820967,
  "1455": 3769431846,
  "1456": 3763106180,
  "1457": 3738951756,
  "1458": 3720371221,
  "1459": 3740652093,
  "1460": 3801927196,
  "1461": 3805682906,
  "1462": 3780651986,
  "1463": 3734845932,
  "1464": 3756532018,
  "1465": 3784126608,
  "1466": 3744822388,
  "1467": 3731557231,
  "1468": 3714664820,
  "1469": 3740087479,
  "1470": 3783296668,
  "1471": 3697107724,
  "1472": 3763270433,
  "1473": 3727482547,
  "1474": 3739233431,
  "1475": 3749362949,
  "1476": 3729865893,
  "1477": 3729025611,
  "1478": 3766625572,
  "1479": 3740663494,
  "1480": 3690928884,
  "1481": 3682171453,
  "1482": 3638993864,
  "1483": 3649687933,
  "1484": 3693055562,
  "1485": 3684840804,
  "1486": 3747842997,
  "1487": 3703066894,
  "1488": 3739175359,
  "1489": 3699798180,
  "1490": 3700586229,
  "1491": 3703652864,
  "1492": 3785124258,
  "1493": 3752706637,
  "1494": 3651954749,
  "1495": 3714307918,
  "1496": 3689541806,
  "1497": 3739739662,
  "1498": 3679298971,
  "1499": 3689826012,
  "1500": 3737208239,
  "1501": 3812217699,
  "1502": 3832714384,
  "1503": 3813767418,
  "1504": 3695762465,
  "1505": 3761907634,
  "1506": 3740589340,
  "1507": 3751050456,
  "1508": 3723603496,
  "1509": 3725870611,
  "1510": 3784509707,
  "1511": 3714696701,
  "1512": 3700009130,
  "1513": 3662604829,
  "1514": 3695331679,
  "1515": 3664684797,
  "1516": 3613595122,
  "1517": 3673475919,
  "1518": 3620886732,
  "1519": 3658627584,
  "1520": 3725657356,
  "1521": 3675813491,
  "1522": 3615787807,
  "1523": 3722904286,
  "1524": 3743148672,
  "1525": 3749977783,
  "1526": 3723392431,
  "1527": 3745083219,
  "1528": 3698590797,
  "1529": 3760642873,
  "1530": 3749030320,
  "1531": 3728103551,
  "1532": 3678907614,
  "1533": 3705690562,
  "1534": 3741550230,
  "1535": 3732969514,
  "1536": 3705574235,
  "1537": 3686759056,
  "1538": 3769621751,
  "1539": 3738481953,
  "1540": 3729271698,
  "1541": 3733821002,
  "1542": 3672828122,
  "1543": 3658815142,
  "1544": 3673023559,
  "1545": 3698878682,
  "1546": 3755200789,
  "1547": 3787260227,
  "1548": 3762874346,
  "1549": 3682862924,
  "1550": 3737891862,
  "1551": 3671820907,
  "1552": 3726706255,
  "1553": 3750695142,
  "1554": 3828901088,
  "1555": 3779959815,
  "1556": 3722863505,
  "1557": 3697988638,
  "1558": 3708529992,
  "1559": 3771130649,
  "1560": 3796139136,
  "1561": 3753233344,
  "1562": 3810701563,
  "1563": 3765128611,
  "1564": 3768878125,
  "1565": 3809445897,
  "1566": 3710622456,
  "1567": 3749383579,
  "1568": 3682217451,
  "1569": 3721678503,
  "1570": 3704728059,
  "1571": 3801281865,
  "1572": 3740184226,
  "1573": 3735870098,
  "1574": 3771505253,
  "1575": 3752619439,
  "1576": 3688184404,
  "1577": 3693038198,
  "1578": 3747004531,
  "1579": 3747921519,
  "1580": 3753685301,
  "1581": 3817805154,
  "1582": 3788354638,
  "1583": 3730334648,
  "1584": 3724030122,
  "1585": 3667577659,
  "1586": 3684313055,
  "1587": 3722053516,
  "1588": 3717875920,
  "1589": 3705497410,
  "1590": 3737394681,
  "1591": 3691488409,
  "1592": 3698114672,
  "1593": 3703051084,
  "1594": 3706558847,
  "1595": 3790446392,
  "1596": 3653230329,
  "1597": 3723467721,
  "1598": 3710126268,
  "1599": 3740683204,
  "1600": 3736066065,
  "1601": 3715269613,
  "1602": 3681819985,
  "1603": 3766754957,
  "1604": 3785090085,
  "1605": 3836787348,
  "1606": 3778982364,
  "1607": 3749467311,
  "1608": 3764299920,
  "1609": 3779025497,
  "1610": 3753904950,
  "1611": 3764455599,
  "1612": 3847579369,
  "1613": 3811088534,
  "1614": 3787855676,
  "1615": 3662042660,
  "1616": 3675462450,
  "1617": 3739147345,
  "1618": 3761400977,
  "1619": 3735943821,
  "1620": 3696501081,
  "1621": 3670205332,
  "1622": 3776818731,
  "1623": 3721602964,
  "1624": 3726829514,
  "1625": 3771997599,
  "1626": 3720778054,
  "1627": 3745990521,
  "1628": 3715059641,
  "1629": 3759436610,
  "1630": 3761096142,
  "1631": 3777095859,
  "1632": 3808465249,
  "1633": 3741718941,
  "1634": 3717566827,
  "1635": 3790739366,
  "1636": 3748261106,
  "1637": 3764024370,
  "1638": 3756436682,
  "1639": 3699103594,
  "1640": 3730166832,
  "1641": 3758098305,
  "1642": 3779928475,
  "1643": 3804194373,
  "1644": 3760041342,
  "1645": 3799195241,
  "1646": 3795265780,
  "1647": 3746275119,
  "1648": 3792257188,
  "1649": 3860632507,
  "1650": 3874811199,
  "1651": 3855538509,
  "1652": 3843508136,
  "1653": 3729443043,
  "1654": 3814450622,
  "1655": 3791665858,
  "1656": 3719574754,
  "1657": 3698287335,
  "1658": 3795822404,
  "1659": 3802447897,
  "1660": 3804538175,
  "1661": 3760100421,
  "1662": 3763176261,
  "1663": 3779764186,
  "1664": 3778903249,
  "1665": 3842140370,
  "1666": 3789875146,
  "1667": 3789598197,
  "1668": 3760630809,
  "1669": 3774587976,
  "1670": 3755280780,
  "1671": 3770070230,
  "1672": 3812753691,
  "1673": 3822494744,
  "1674": 3869867177,
  "1675": 3831343306,
  "1676": 3831072188,
  "1677": 3810005417,
  "1678": 3753356148,
  "1679": 3766046437,
  "1680": 3819163339,
  "1681": 3806790776,
  "1682": 3807628565,
  "1683": 3790686011,
  "1684": 3828574652,
  "1685": 3834635346,
  "1686": 3734015405,
  "1687": 3730171020,
  "1688": 3739824128,
  "1689": 3810126236,
  "1690": 3753094783,
  "1691": 3807117879,
  "1692": 3796813324,
  "1693": 3793083783,
  "1694": 3822911209,
  "1695": 3789395656,
  "1696": 3765973778,
  "1697": 3803255900,
  "1698": 3744522984,
  "1699": 3770019453,
  "1700": 3788225054,
  "1701": 3781232706,
  "1702": 3790075508,
  "1703": 3771188313,
  "1704": 3771750254,
  "1705": 3743009254,
  "1706": 3732871525,
  "1707": 3786601747,
  "1708": 3804069235,
  "1709": 3775135790,
  "1710": 3818721112,
  "1711": 3805409005,
  "1712": 3806549169,
  "1713": 3823090397,
  "1714": 3787864964,
  "1715": 3802775058,
  "1716": 3779478544,
  "1717": 3763962232,
  "1718": 3753389219,
  "1719": 3759631557,
  "1720": 3780264175,
  "1721": 3716185091,
  "1722": 3752110768,
  "1723": 3758383896,
  "1724": 3795957264,
  "1725": 3848019242,
  "1726": 3801715491,
  "1727": 3776625171,
  "1728": 3855779298,
  "1729": 3824473925,
  "1730": 3755023156,
  "1731": 3786765190,
  "1732": 3786527261,
  "1733": 3791204038,
  "1734": 3762370470,
  "1735": 3720438292,
  "1736": 3781707408,
  "1737": 3757525914,
  "1738": 3765531502,
  "1739": 3738037655,
  "1740": 3783494499,
  "1741": 3836840947,
  "1742": 3848945582,
  "1743": 3772600217,
  "1744": 3768359773,
  "1745": 3744518750,
  "1746": 3727292535,
  "1747": 3755896603,
  "1748": 3793497099,
  "1749": 3811674431,
  "1750": 3752766635,
  "1751": 3777401299,
  "1752": 3780990584,
  "1753": 3743422495,
  "1754": 3800265587,
  "1755": 3806840806,
  "1756": 3721005997,
  "1757": 3675049414,
  "1758": 3727468364,
  "1759": 3792075354,
  "1760": 3734699142,
  "1761": 3804843030,
  "1762": 3832090192,
  "1763": 3814086008,
  "1764": 3789488617,
  "1765": 3680021646,
  "1766": 3772809058,
  "1767": 3764450298,
  "1768": 3774938871,
  "1769": 3796594209,
  "1770": 3751560223,
  "1771": 3730076272,
  "1772": 3719597102,
  "1773": 3790289768,
  "1774": 3811327866,
  "1775": 3761270890,
  "1776": 3781888268,
  "1777": 3795954288,
  "1778": 3828986074,
  "1779": 3768083282,
  "1780": 3795176382,
  "1781": 3816243237,
  "1782": 3807451561,
  "1783": 3803318762,
  "1784": 3734201231,
  "1785": 3779444897,
  "1786": 3820983028,
  "1787": 3754151628,
  "1788": 3752230856,
  "1789": 3775197486,
  "1790": 3753985717,
  "1791": 3756089955,
  "1792": 3776868906,
  "1793": 3734864834,
  "1794": 3727606582,
  "1795": 3768273785,
  "1796": 3771830736,
  "1797": 3732912495,
  "1798": 3784675439,
  "1799": 3785320523,
  "1800": 3859408985,
  "1801": 3879392193,
  "1802": 3844209562,
  "1803": 3798916748,
  "1804": 3791010575,
  "1805": 3802330217,
  "1806": 3819661426,
  "1807": 3788756122,
  "1808": 3781542894,
  "1809": 3817761075,
  "1810": 3719707052,
  "1811": 3652957610,
  "1812": 3741947019,
  "1813": 3787234854,
  "1814": 3800054747,
  "1815": 3760066479,
  "1816": 3704783687,
  "1817": 3737411874,
  "1818": 3715560491,
  "1819": 3728800099,
  "1820": 3755666399,
  "1821": 3832094743,
  "1822": 3833852578,
  "1823": 3829676112,
  "1824": 3782013061,
  "1825": 3779016086,
  "1826": 3767467257,
  "1827": 3738637745,
  "1828": 3753881545,
  "1829": 3829926214,
  "1830": 3763590095,
  "1831": 3801145694,
  "1832": 3794689026,
  "1833": 3792934140,
  "1834": 3807923615,
  "1835": 3838476551,
  "1836": 3806131965,
  "1837": 3777751281,
  "1838": 3800594391,
  "1839": 3826031403,
  "1840": 3784189885,
  "1841": 3816971876,
  "1842": 3804249942,
  "1843": 3755168014,
  "1844": 3811460968,
  "1845": 3797036421,
  "1846": 3744267219,
  "1847": 3796332417,
  "1848": 3715914673,
  "1849": 3713259764,
  "1850": 3776755080,
  "1851": 3805978265,
  "1852": 3811061089,
  "1853": 3770777138,
  "1854": 3809446887,
  "1855": 3747133209,
  "1856": 3767475936,
  "1857": 3751412691,
  "1858": 3778408133,
  "1859": 3768601748
}