[
  2.7810801630434776,
  5.487600536193029,
  5.557493843484683,
  4.579138702460852,
  4.401881720430107,
  4.233453981385731,
  4.055217324978057,
  3.706421536583908,
  3.30407586763519,
  4.069499850391514,
  4.440075921908895,
  4.474043715846994,
  3.632431233362911,
  2.436905357888014,
  10.288673474260417,
  3.344359337165339,
  7.933624031007752,
  6.804804545235433,
  8.803763440860218,
  12.104201839690843,
  8.18389908440286,
  8.337576374745415,
  7.606952592077809,
  7.265661882940097,
  3.231057616416734,
  2.014640748031496,
  3.8500423210758963,
  4.425675675675676,
  10.07610458719661,
  8.15730166922054,
  10.45561583098361,
  4.5842665173572215,
  3.2464314036479003,
  3.330960130187144,
  3.638888888888889,
  4.065292949354518,
  5.474091417828126,
  2.068139611485292,
  2.723719228210246,
  2.4650660622650844,
  3.180159996519789,
  3.3832644628099175,
  2.981609613983977,
  2.5933412814954373,
  6.156015037593985,
  7.954651442961629,
  6.926818950930624,
  3.3983689489316977,
  3.29609500805153,
  2.9033687943262407,
  4.570845736259271,
  4.574548802823119,
  3.0780075187969924,
  2.742151668869319,
  2.850800835654596,
  12.116633418377921,
  11.276833699242193,
  5.0895132715857505,
  2.376085163535602,
  12.75311526479751,
  3.6620100062885945,
  9.953584384512892,
  6.174585218702863,
  7.567005545286501,
  5.873385939741754,
  10.260025062656636,
  3.7182107175295185,
  7.258421985815602,
  3.4546413502109714,
  3.076941000149573,
  1.4843183466279912,
  5.323472041612483,
  8.92388079548155,
  7.3496409335727115,
  6.663926487225609,
  8.841792656587476,
  6.9034569983136596,
  4.888754342408052,
  3.8366916588566067,
  3.730479624632875,
  2.121997972212258,
  3.508259997309086,
  3.388865894039736,
  4.657281001137659,
  2.281800000891818,
  4.568917410714284,
  4.49000162325555,
  4.389487318603597,
  2.2190042707870896,
  3.6473507426117475,
  3.7462754586585065,
  3.550520381613183,
  3.2310576164167326,
  4.9144657863145245,
  4.089660339660342,
  4.040771445577038,
  2.206873315363882,
  5.060866383237543,
  3.066479400749064,
  3.7333373459585113,
  6.288402457757294,
  7.107204861111111,
  5.8067375886524815,
  3.2438589540412033,
  8.728678038379533,
  4.069333996023856,
  3.822758474501091,
  4.420896328293736,
  3.156516978687969,
  9.199169462465134,
  11.169331845453275,
  12.524551946105042,
  8.224725105828977,
  6.064814814814812,
  2.092919222903885,
  2.9946964155084137,
  2.805860178204249,
  8.618421052631577,
  8.582285115303993,
  2.6826671035386633,
  2.5332611386138617,
  3.215828750981933,
  4.255457380457382,
  9.053623992905273,
  4.596331243487946,
  9.994994872796521,
  7.146835054102082,
  10.083128078817737,
  7.902992277992277,
  9.817146282973626,
  3.847509398496242,
  3.36657072368421,
  2.8020191649555093,
  4.558472606850598,
  2.1090932509015974,
  3.801067780872795,
  2.3676980913823007,
  4.0056262230919755,
  3.0482129560685034,
  4.558741648106904,
  4.089660339660342,
  4.662585421412298,
  2.5866083348971447,
  5.189430864421322,
  4.926293622141998,
  4.685329011671689,
  3.5620685274550095,
  4.491888540815151,
  3.924976030680728,
  3.658400357462019,
  3.784128797647671,
  2.639955529445298,
  4.332808368948357,
  5.023006134969325,
  3.9553140096618353,
  10.390228426395941,
  4.8332349468713085,
  4.694667431192661,
  3.8223622782446323,
  4.459422657952069,
  2.602018180916776,
  8.208991138801382,
  12.293543543543544,
  7.797619047619049,
  5.358311518324606,
  6.396484374999999,
  3.402950955943474,
  2.9729484386347136,
  2.4528160575194735,
  1.3049888428434808,
  8.938318777292581,
  9.72387173396675,
  3.4751697792869245,
  1.3330348420709868,
  1.1817984988452657,
  7.996027134243411,
  4.037228796844181,
  9.564836448598133,
  4.340093719519953,
  10.203916309815206,
  9.261877828054295,
  11.499297752808985,
  12.74271466902404,
  12.887287586020186,
  9.658487672525656,
  7.245575221238939,
  9.68377950669791,
  3.3005861437866337,
  3.158316623990014,
  4.30015756302521,
  2.1277286902286896,
  4.968143203883496,
  2.071852214370342,
  3.0234490398818314,
  3.2828789093825184,
  3.36657072368421,
  3.314777327935224,
  4.78568322313354,
  4.749129930394431,
  3.547443674176775,
  2.702145214521453,
  2.747687915005749,
  2.3076381059751974,
  3.075694966190833,
  4.7054597701149445,
  4.694667431192658,
  3.772770252461114,
  2.3391974931231174,
  9.346461187214608,
  9.97456258116705,
  10.129910300030929,
  10.260025062656641,
  4.4352654387865655,
  4.6295772736525445,
  3.1226163234172377,
  5.831552706552707,
  5.967565597667639,
  4.160315040650406,
  5.393610013175228,
  10.390228426395936,
  9.261877828054299,
  12.570741608502194,
  3.215828750981933,
  6.656504065040653,
  8.528645833333337,
  8.371676891615545,
  9.60974178403756,
  3.0614160250312583,
  8.677335594298128,
  3.2438589540412046,
  3.213304552590267,
  3.239423356924908,
  3.9920991786149274,
  2.5959099556119214,
  5.1429020100502525,
  4.160526449514711,
  4.980231143552314,
  5.878378766470231,
  7.258421985815602,
  5.898775216138329,
  2.4038461538461546,
  1.4984443631039532,
  5.856580829756795,
  4.821849234393403,
  4.57913870246085,
  4.68853792060838,
  3.5753275109170293,
  5.359868967160616,
  2.0967128152623795,
  4.313751317175972,
  4.32286166842661,
  3.5536024305555554,
  3.1857976653696496,
  3.600483729111696,
  2.6826671035386633,
  3.8402908067542203,
  2.8468358831710705,
  2.659235854976401,
  5.072800495662947,
  9.964971982454351,
  4.440075921908891,
  5.0540123456790145,
  7.336469534050181,
  11.97002923976608,
  2.7382943143812706,
  9.003386922958503,
  7.402802893309223,
  9.389334862385327,
  10.183457711442788,
  3.18332037325039,
  4.870108626471739,
  3.498931623931624,
  5.4949664429530225,
  4.850414691943128,
  2.2654952960708363,
  3.6913886384129846,
  3.6913886384129846,
  5.502352150537636,
  5.823257467994312,
  5.915823699421968,
  9.036975717439292,
  7.363137816356373,
  10.091131389920085,
  5.638774104683196,
  4.246628630705392,
  7.130428269851114,
  6.845735785953178,
  3.422867892976589,
  3.4781223449447736,
  2.922019985724483,
  3.127387318563789,
  4.636183465458666,
  4.832738549877402,
  4.938178528347403,
  2.680910281597904,
  4.309677786117863,
  2.080157520325203,
  3.3808168631635285,
  5.23497442455243,
  5.0351275094153,
  3.127456605226549,
  4.869720479531414,
  8.959896869535145,
  10.975201072386053,
  3.1709914794732756,
  9.747023809523812,
  6.53169036556724,
  5.494966442953026,
  11.597025495750701,
  5.289082687338501,
  4.049208704253214,
  5.386513157894738,
  3.025683665927568,
  4.873511904761906,
  4.006014281226852,
  2.2419222343921135,
  3.2513922908545636,
  4.469627821256375,
  3.455845792668667,
  5.195114213197971,
  4.581203831257268,
  3.1083902809415336,
  7.94902912621359,
  3.9706595538312315,
  3.724977252047317,
  4.359691160809374,
  4.118460764587522,
  3.274596569702612,
  3.3067447495961217,
  4.574022346368713,
  2.9707910014513788,
  4.716301843317971,
  3.6259964570416283,
  3.3174635332252835,
  3.434354026845637,
  3.1960548874364103,
  4.873511904761906,
  3.658400357462019,
  5.195114213197971,
  2.8232758620689653,
  2.460338590669976,
  5.165667287493122,
  4.017419038272816,
  3.457559121621621,
  3.9514961389961405,
  2.491631162507607,
  2.8468358831710696,
  3.745425434583715,
  6.800249169435218,
  6.436713836477982,
  4.291142557651993,
  4.463609114866996,
  4.735938528530162,
  3.380470685383979,
  4.700057405281286,
  3.2789005801301228,
  5.13716464902891,
  5.119574501611378
]