{
  "1048576": [
    0.543,
    0.759,
    0.81,
    0.719311,
    0.62,
    0.494,
    0.422,
    0.489,
    0.923,
    0.551,
    0.329929,
    0.387,
    0.263,
    0.524,
    1.142,
    0.645,
    0.913,
    0.563,
    0.763,
    0.904,
    0.617,
    0.474,
    0.583,
    1.225738,
    0.556,
    0.54,
    0.6,
    0.586,
    0.452,
    0.648,
    0.475,
    0.406,
    0.207,
    0.711,
    0.637,
    0.538,
    0.545137,
    0.499953,
    0.330672,
    0.467,
    0.491,
    0.613,
    0.847,
    0.642,
    0.598058,
    0.698,
    0.7,
    0.742,
    0.626,
    0.774,
    0.635,
    0.312,
    0.422,
    0.784,
    0.45,
    0.649,
    0.945,
    0.871,
    0.281,
    0.29,
    0.69,
    0.867,
    0.842,
    1.054,
    0.501131,
    0.477,
    0.869,
    0.692,
    0.507273,
    0.493,
    1.003,
    0.514,
    0.557,
    0.932,
    0.51,
    0.253,
    0.86,
    0.743,
    0.529,
    0.269,
    0.253,
    0.475,
    0.64,
    1.192,
    0.633,
    0.599,
    0.479,
    0.428,
    0.593,
    0.283,
    0.273,
    0.23,
    0.384,
    0.824,
    0.691,
    0.846231,
    0.746,
    0.556,
    1.09,
    0.556,
    0.644,
    0.528,
    0.471,
    0.305272,
    0.299,
    0.647,
    0.596,
    0.61,
    0.522,
    0.28,
    0.449,
    0.308,
    0.275,
    0.529,
    0.677,
    0.705,
    0.507,
    0.816,
    0.517674,
    0.609,
    0.514,
    0.45,
    0.945,
    0.545,
    0.774,
    0.76,
    0.714,
    0.725,
    0.992,
    0.555,
    0.849,
    0.677,
    0.189,
    0.817,
    0.475,
    0.365,
    0.284,
    0.853,
    0.778,
    0.629,
    0.49,
    0.709,
    4.206,
    0.515361,
    0.435,
    0.392793,
    0.36,
    0.845,
    0.772,
    0.455698,
    0.721287,
    0.581992,
    0.829124,
    0.752,
    0.48,
    0.667,
    0.721,
    0.579,
    1.353903,
    0.565,
    0.818,
    0.597124,
    0.772,
    1.003,
    0.742,
    0.657,
    0.588,
    0.385,
    1.093382,
    0.707052,
    0.772127,
    0.655,
    0.478,
    0.676451,
    0.813,
    0.671,
    0.879,
    0.753,
    0.603,
    0.803,
    0.373,
    0.606,
    0.747,
    0.662,
    0.59
  ],
  "51200": [
    0.533,
    0.582,
    0.525,
    0.916,
    0.471,
    0.595,
    0.622,
    0.815,
    0.787,
    0.668,
    0.779,
    0.558,
    0.797,
    0.722,
    0.965,
    0.961,
    0.64,
    0.994,
    0.577974,
    0.818503,
    0.711,
    0.528,
    0.535374,
    0.812,
    0.564,
    1.487,
    0.466,
    0.667,
    0.505,
    0.683,
    0.842,
    0.817,
    0.789,
    0.575,
    0.816,
    0.482,
    0.581,
    0.56,
    0.573,
    0.309,
    0.196,
    0.415,
    0.755,
    0.602,
    0.519,
    0.653,
    0.595,
    0.472,
    0.948,
    0.242,
    0.271,
    0.246,
    0.305,
    0.949,
    0.443,
    0.407,
    0.861,
    0.313,
    0.499,
    0.267,
    0.304,
    0.573,
    0.739,
    0.282,
    0.597,
    0.677,
    0.596,
    0.787716,
    0.639897,
    0.944,
    0.502,
    0.75,
    0.69,
    0.492,
    0.829,
    0.821111,
    0.547,
    0.571,
    0.664,
    0.627,
    0.529,
    0.416,
    0.675,
    0.537004,
    0.48,
    0.430636,
    0.504,
    0.251,
    0.625,
    0.385829,
    0.35,
    0.545221,
    0.726208,
    0.672111,
    0.499,
    0.905,
    0.715103,
    0.465,
    0.668461,
    0.687117,
    0.636,
    0.513,
    0.852,
    0.546,
    1.098,
    0.633,
    0.857,
    0.836,
    0.735,
    0.612,
    0.956,
    0.717,
    0.681,
    0.364,
    0.197284,
    0.545698,
    0.824,
    0.422,
    0.437,
    0.64,
    0.433,
    0.282,
    0.441,
    0.497,
    0.223,
    0.334,
    0.298,
    0.316,
    0.87,
    0.654903,
    0.944,
    0.7,
    0.697,
    0.632,
    0.477,
    0.506,
    0.778,
    0.846,
    0.717,
    0.616,
    1.01,
    0.532,
    0.836,
    0.748,
    0.8,
    0.896,
    1.673121,
    0.733,
    0.743,
    0.58,
    0.575,
    0.633,
    0.556,
    0.197,
    0.375,
    0.796,
    0.594,
    0.526,
    0.405,
    0.266,
    0.322,
    0.338,
    0.459,
    0.322897,
    0.401,
    0.279,
    0.478,
    0.467684,
    0.363876,
    0.32,
    0.52,
    0.759,
    0.579,
    0.242763,
    0.270111,
    0.635,
    0.502,
    0.907,
    0.931,
    0.916,
    0.72,
    0.722,
    0.675,
    0.584,
    0.508,
    0.734,
    0.741,
    0.583,
    0.848,
    0.366186,
    0.569508,
    0.52179,
    0.809193,
    0.26213,
    0.678059,
    0.234,
    0.328013,
    0.669,
    0.257365,
    0.56,
    0.89,
    0.571,
    0.98,
    0.628,
    0.613,
    0.537,
    0.487,
    0.724,
    0.565,
    0.527,
    0.519,
    0.596,
    0.585,
    0.96032,
    0.539,
    0.732712,
    0.783459,
    0.686,
    0.569,
    0.604,
    0.525,
    0.588,
    0.847,
    0.638,
    0.584,
    0.928,
    0.473,
    0.979,
    0.672,
    0.543,
    0.84,
    0.798,
    0.547,
    0.827,
    0.57,
    0.568,
    0.624,
    0.54,
    0.955,
    0.701,
    1.236,
    0.463,
    0.728,
    0.989,
    0.757,
    0.706,
    0.741,
    0.823,
    0.556,
    0.503,
    0.643,
    0.823,
    0.542,
    0.607,
    0.932,
    0.872,
    0.822,
    1.011,
    0.699,
    0.521,
    0.73,
    0.495,
    0.682,
    0.528,
    0.607,
    0.434,
    0.916,
    0.585,
    0.662,
    0.729,
    0.684777,
    0.522,
    0.489,
    0.842,
    0.469,
    0.526,
    0.562684,
    0.927,
    0.435,
    0.49,
    0.871,
    0.337,
    1.532101,
    0.634,
    0.462,
    0.439,
    0.491,
    0.38,
    0.652,
    0.508,
    0.438,
    0.912,
    0.967,
    0.948,
    0.605,
    0.794,
    0.772,
    0.56,
    0.749,
    0.776,
    0.614,
    0.54,
    0.679,
    0.394,
    0.335,
    0.436,
    0.737,
    0.237,
    0.459,
    0.729,
    0.248,
    0.522,
    0.236,
    0.307,
    0.338,
    0.549,
    0.362,
    0.221897,
    0.394,
    0.499111,
    0.656,
    0.255103,
    0.620777,
    0.474889,
    0.458,
    0.517,
    0.299,
    0.741111,
    0.249,
    0.937,
    0.727,
    0.771,
    0.824,
    0.858,
    0.766,
    0.688,
    0.553,
    0.681,
    0.859,
    0.658,
    0.925,
    0.908,
    0.407,
    0.206,
    0.547,
    0.464,
    0.958,
    0.189,
    0.464,
    0.465,
    0.316,
    0.329,
    0.474,
    0.765,
    0.373,
    0.325,
    0.491587,
    0.443,
    0.446959,
    0.823,
    0.817,
    0.421,
    0.399,
    0.499,
    0.321,
    0.41,
    0.282,
    0.242,
    0.85,
    0.375,
    0.569,
    0.897,
    0.734,
    0.646,
    0.657,
    0.775,
    0.745,
    0.804,
    0.571,
    0.644,
    0.435,
    0.701,
    0.901,
    0.856,
    0.659,
    0.99,
    0.596,
    0.745,
    0.556,
    1.138,
    0.548,
    0.601,
    0.725,
    0.733,
    0.546305,
    0.881704,
    0.505549,
    0.694351,
    0.748,
    0.633,
    0.501,
    0.827798,
    0.778876,
    0.419,
    0.843,
    0.467,
    0.754376,
    0.608119,
    0.99,
    0.561606,
    0.791,
    0.894811,
    0.635,
    0.895,
    0.645681,
    0.696788,
    0.548419,
    0.831,
    0.646,
    0.767,
    0.841,
    0.62,
    0.714,
    0.559,
    0.71,
    0.789,
    0.737,
    0.499,
    0.659,
    0.802,
    0.524,
    0.572,
    0.509,
    0.628,
    0.528,
    1.048,
    0.49,
    0.646,
    0.731,
    0.667,
    0.459,
    0.884,
    0.785,
    0.499,
    0.499,
    0.329,
    0.383,
    0.631,
    0.4,
    0.67,
    0.514,
    0.465,
    0.849,
    0.421,
    0.612,
    0.271,
    0.494,
    0.579,
    0.255,
    0.473,
    0.65,
    0.620876,
    0.541,
    0.907,
    0.65,
    0.91,
    0.474,
    0.499,
    0.661,
    0.659,
    0.512,
    0.925361,
    0.289,
    0.288,
    0.39,
    0.409,
    0.757,
    0.283,
    0.485,
    0.513,
    0.546,
    0.444,
    0.263,
    0.271,
    0.281,
    0.395,
    1.191,
    0.325,
    0.891,
    0.708,
    0.399,
    0.327,
    0.618,
    0.709,
    0.387,
    0.665,
    0.663,
    0.687,
    0.911,
    0.498,
    0.827,
    0.825,
    1.062,
    0.649,
    0.536,
    0.686,
    0.682,
    0.656,
    0.489,
    0.33,
    0.196,
    0.433,
    0.365,
    0.703,
    0.764,
    0.524,
    0.554,
    0.44,
    0.296,
    0.245,
    0.586,
    0.431,
    0.262,
    0.65,
    0.304,
    0.728,
    0.726,
    0.572,
    0.469,
    0.45,
    0.275,
    0.548359,
    0.214,
    0.385,
    0.689422,
    0.629,
    0.97,
    0.579,
    0.738,
    0.755,
    0.862,
    0.705,
    0.573,
    0.837,
    0.625927,
    1.218,
    0.589,
    0.981,
    0.643,
    0.921,
    0.768,
    1.247,
    0.985,
    0.589,
    0.714,
    0.59,
    0.61,
    0.609,
    0.737,
    0.594,
    0.66,
    0.971,
    1.304,
    0.688,
    0.838,
    0.793,
    0.583,
    0.672,
    0.585,
    0.534,
    0.583,
    1.139088,
    1.557,
    0.956,
    1.771016,
    0.864111,
    1.589,
    1.438868,
    0.981,
    0.914889,
    0.773,
    1.565881,
    0.803955,
    1.156,
    0.942627,
    0.587082,
    0.558461,
    0.683,
    1.081883,
    0.563,
    0.744,
    1.199,
    0.512,
    0.746038,
    0.499,
    0.633,
    0.217177,
    0.373,
    0.335,
    0.236,
    0.365,
    0.627,
    0.468,
    0.247,
    0.388,
    0.218,
    0.243,
    0.238,
    0.598,
    0.525,
    0.597,
    1.1,
    0.811,
    0.62,
    0.776,
    0.667,
    0.844,
    0.759,
    0.739,
    0.495,
    0.49,
    0.56,
    0.511,
    0.275,
    0.427,
    0.416,
    0.738,
    0.43,
    0.444,
    0.532,
    0.726,
    0.367,
    0.376,
    0.297,
    0.832,
    0.574,
    0.566,
    0.48,
    0.787,
    0.302,
    0.508,
    0.458,
    0.659,
    0.354,
    0.629,
    0.68993,
    0.813,
    0.604293,
    1.280449,
    0.529,
    0.803,
    0.878,
    0.553,
    0.739,
    0.566,
    0.882,
    0.868,
    0.50791,
    0.773889,
    0.57132,
    0.976388,
    0.610367,
    0.713612,
    0.554,
    0.565889,
    0.501,
    0.589,
    0.529,
    0.496073,
    0.696515,
    0.34,
    0.439,
    0.784,
    0.652,
    1.807,
    0.468,
    0.43,
    0.335,
    0.343,
    0.471,
    0.522,
    0.827,
    0.942,
    0.715,
    0.786,
    0.531,
    0.541,
    0.68,
    0.895,
    2.446,
    0.507,
    0.596,
    0.584,
    0.756897,
    0.727858,
    1.023,
    0.522,
    0.8,
    0.476,
    0.522,
    0.551,
    0.734,
    0.656,
    0.703,
    1.038,
    0.533,
    0.727,
    0.816,
    0.548,
    0.619,
    0.554,
    0.809,
    0.479,
    0.521,
    0.401,
    0.52,
    0.497,
    0.478,
    0.431,
    0.363,
    0.343,
    0.423,
    0.567,
    0.291,
    0.303,
    0.628,
    0.43,
    0.437,
    0.379,
    0.704,
    0.252,
    0.503,
    0.673,
    0.55,
    0.47,
    0.335,
    0.342,
    0.604,
    0.949,
    0.55,
    0.895,
    0.574,
    0.765,
    0.605,
    0.437,
    0.566,
    0.798,
    0.494,
    0.335,
    0.181,
    0.392,
    0.679,
    0.284897,
    0.433,
    0.596,
    0.331,
    0.254,
    0.398759,
    0.221,
    0.471777,
    0.553,
    0.927,
    0.267806,
    0.58073,
    0.799,
    0.51,
    0.506,
    0.32812,
    0.436,
    0.399,
    0.444,
    0.344,
    0.399,
    0.684379,
    0.822,
    0.697,
    0.958,
    0.551,
    0.748,
    0.695,
    0.523,
    0.495,
    0.769,
    0.512,
    0.595,
    0.993,
    0.627186,
    0.599103,
    0.957154,
    0.476478,
    0.742104,
    0.628085,
    0.627698,
    0.807097,
    0.724,
    0.88,
    0.568,
    1.557496,
    0.553,
    1.122,
    0.518,
    0.784,
    0.688,
    0.661,
    0.465,
    0.778,
    0.673,
    0.46,
    1.125,
    0.467,
    0.742,
    0.527,
    0.558,
    0.626,
    0.642,
    1.098,
    0.502,
    0.597,
    0.7,
    0.927,
    0.755,
    0.7,
    0.502,
    0.801,
    0.428,
    0.547,
    0.304,
    0.397403,
    0.448,
    0.571,
    0.489,
    0.576,
    0.305,
    0.428,
    0.345,
    0.326,
    0.804,
    0.623,
    0.72,
    0.936,
    0.8,
    0.714,
    0.729,
    0.709,
    0.488,
    0.599,
    0.727,
    0.812,
    0.494,
    0.545,
    1.018685,
    0.782,
    0.486977,
    0.769,
    0.635902,
    0.834,
    0.548,
    0.656362,
    0.59853,
    1.020901,
    0.534,
    0.873,
    0.677,
    1.065,
    0.5,
    0.755,
    0.522,
    0.713,
    0.805,
    0.464,
    0.709,
    0.555,
    0.611,
    0.563,
    1.001,
    0.325,
    0.406,
    1.103,
    0.533,
    0.704,
    0.52,
    0.28,
    0.326,
    0.411,
    0.481508,
    0.599,
    0.994,
    0.599,
    0.801,
    0.645,
    0.647154,
    0.525,
    0.709387,
    0.825,
    0.572111,
    0.697,
    0.581027,
    0.814,
    0.703,
    0.609,
    0.554,
    0.543,
    0.439,
    0.705876,
    0.456,
    0.692,
    0.856,
    1.11,
    0.453,
    0.668,
    0.725,
    0.547,
    0.48,
    0.761,
    0.627,
    0.843,
    0.687,
    0.901,
    0.692244,
    0.741559,
    1.025,
    0.677755,
    0.859338,
    0.868517,
    0.676,
    0.868352,
    0.644036,
    0.721874,
    0.725648,
    0.582597,
    0.581054,
    0.656,
    0.514,
    1.061,
    1.062,
    1.456,
    0.894,
    0.754,
    0.591,
    0.536,
    0.609,
    0.542,
    0.493,
    0.657,
    0.54,
    0.898,
    0.617,
    0.626,
    0.888,
    0.545,
    0.404,
    0.677,
    0.41,
    0.505,
    0.812,
    1.012,
    0.553,
    0.588,
    0.903,
    0.524,
    0.69,
    0.664,
    0.972,
    0.858,
    0.839,
    0.519,
    0.544,
    0.852,
    0.81,
    0.445,
    0.65,
    1.21,
    0.599,
    0.954,
    0.861,
    0.647,
    0.809,
    0.682,
    0.428,
    0.457,
    0.495,
    0.819
  ],
  "5242880": [
    0.939,
    0.967,
    0.389,
    0.479,
    0.956,
    1.074,
    0.389,
    0.448,
    0.286,
    0.462925,
    0.584,
    0.823,
    0.658,
    0.688,
    0.334,
    0.503,
    0.410103,
    1.019,
    0.487,
    0.203,
    0.281,
    0.471,
    0.458,
    0.533,
    0.708,
    0.631,
    0.462,
    0.657,
    0.612,
    0.49,
    0.654,
    1.059,
    0.530111,
    0.457,
    0.852,
    0.81,
    0.7903,
    0.428,
    0.664,
    0.459,
    0.994223,
    0.746897,
    0.97,
    0.849
  ],
  "ALL": [
    0.533,
    0.582,
    0.525,
    0.916,
    0.471,
    0.595,
    0.622,
    0.815,
    0.787,
    0.668,
    0.779,
    0.558,
    0.797,
    0.722,
    0.939,
    0.965,
    0.961,
    0.64,
    0.994,
    0.577974,
    0.818503,
    0.711,
    0.528,
    0.535374,
    0.812,
    0.564,
    0.543,
    0.759,
    0.81,
    0.719311,
    1.487,
    0.466,
    0.667,
    0.505,
    0.683,
    0.842,
    0.817,
    0.789,
    0.575,
    0.816,
    0.482,
    0.581,
    0.56,
    0.573,
    0.62,
    0.967,
    0.309,
    0.196,
    0.415,
    0.755,
    0.602,
    0.519,
    0.653,
    0.595,
    0.472,
    0.948,
    0.242,
    0.271,
    0.246,
    0.305,
    0.494,
    0.389,
    0.949,
    0.443,
    0.407,
    0.861,
    0.313,
    0.499,
    0.267,
    0.304,
    0.573,
    0.739,
    0.282,
    0.597,
    0.677,
    0.422,
    0.489,
    0.479,
    0.596,
    0.787716,
    0.639897,
    0.944,
    0.502,
    0.75,
    0.69,
    0.492,
    0.829,
    0.821111,
    0.547,
    0.571,
    0.664,
    0.923,
    0.551,
    0.627,
    0.529,
    0.416,
    0.675,
    0.537004,
    0.48,
    0.430636,
    0.504,
    0.251,
    0.625,
    0.385829,
    0.35,
    0.329929,
    0.387,
    0.263,
    0.545221,
    0.726208,
    0.672111,
    0.499,
    0.905,
    0.715103,
    0.465,
    0.668461,
    0.687117,
    0.636,
    0.513,
    0.524,
    1.142,
    0.645,
    0.913,
    0.563,
    0.852,
    0.546,
    1.098,
    0.633,
    0.857,
    0.836,
    0.735,
    0.612,
    0.956,
    0.717,
    0.681,
    0.763,
    0.904,
    0.617,
    0.956,
    1.074,
    0.364,
    0.197284,
    0.545698,
    0.824,
    0.422,
    0.437,
    0.64,
    0.433,
    0.282,
    0.441,
    0.497,
    0.223,
    0.334,
    0.298,
    0.316,
    0.474,
    0.87,
    0.654903,
    0.944,
    0.7,
    0.697,
    0.632,
    0.477,
    0.506,
    0.778,
    0.583,
    1.225738,
    0.556,
    0.54,
    0.6,
    0.586,
    0.846,
    0.717,
    0.616,
    1.01,
    0.532,
    0.836,
    0.748,
    0.8,
    0.896,
    1.673121,
    0.733,
    0.743,
    0.58,
    0.575,
    0.633,
    0.556,
    0.197,
    0.375,
    0.796,
    0.594,
    0.526,
    0.405,
    0.266,
    0.322,
    0.338,
    0.459,
    0.452,
    0.648,
    0.475,
    0.406,
    0.207,
    0.322897,
    0.401,
    0.279,
    0.478,
    0.467684,
    0.363876,
    0.32,
    0.52,
    0.759,
    0.579,
    0.242763,
    0.270111,
    0.711,
    0.389,
    0.448,
    0.286,
    0.635,
    0.502,
    0.907,
    0.931,
    0.916,
    0.72,
    0.722,
    0.675,
    0.584,
    0.508,
    0.734,
    0.741,
    0.583,
    0.848,
    0.637,
    0.538,
    0.366186,
    0.569508,
    0.52179,
    0.809193,
    0.26213,
    0.678059,
    0.234,
    0.328013,
    0.669,
    0.257365,
    0.545137,
    0.499953,
    0.330672,
    0.467,
    0.462925,
    0.584,
    0.56,
    0.89,
    0.571,
    0.98,
    0.628,
    0.613,
    0.537,
    0.487,
    0.724,
    0.565,
    0.527,
    0.519,
    0.823,
    0.596,
    0.585,
    0.96032,
    0.539,
    0.732712,
    0.783459,
    0.686,
    0.569,
    0.604,
    0.525,
    0.588,
    0.491,
    0.613,
    0.847,
    0.642,
    0.598058,
    0.847,
    0.638,
    0.584,
    0.928,
    0.473,
    0.979,
    0.672,
    0.543,
    0.84,
    0.798,
    0.547,
    0.827,
    0.57,
    0.568,
    0.698,
    0.7,
    0.624,
    0.54,
    0.955,
    0.701,
    1.236,
    0.463,
    0.728,
    0.989,
    0.757,
    0.706,
    0.741,
    0.823,
    0.556,
    0.503,
    0.643,
    0.823,
    0.542,
    0.607,
    0.932,
    0.872,
    0.822,
    1.011,
    0.699,
    0.521,
    0.73,
    0.495,
    0.682,
    0.528,
    0.742,
    0.658,
    0.607,
    0.434,
    0.916,
    0.585,
    0.662,
    0.729,
    0.684777,
    0.522,
    0.489,
    0.842,
    0.469,
    0.526,
    0.562684,
    0.927,
    0.626,
    0.774,
    0.435,
    0.49,
    0.871,
    0.337,
    1.532101,
    0.634,
    0.462,
    0.439,
    0.491,
    0.38,
    0.652,
    0.508,
    0.438,
    0.635,
    0.312,
    0.422,
    0.912,
    0.967,
    0.948,
    0.605,
    0.794,
    0.772,
    0.56,
    0.749,
    0.776,
    0.614,
    0.54,
    0.679,
    0.784,
    0.688,
    0.394,
    0.335,
    0.436,
    0.737,
    0.237,
    0.459,
    0.729,
    0.248,
    0.522,
    0.236,
    0.307,
    0.338,
    0.549,
    0.45,
    0.334,
    0.362,
    0.221897,
    0.394,
    0.499111,
    0.656,
    0.255103,
    0.620777,
    0.474889,
    0.458,
    0.517,
    0.299,
    0.741111,
    0.249,
    0.649,
    0.503,
    0.410103,
    0.937,
    0.727,
    0.771,
    0.824,
    0.858,
    0.766,
    0.688,
    0.553,
    0.681,
    0.859,
    0.658,
    0.925,
    0.908,
    0.945,
    0.871,
    1.019,
    0.407,
    0.206,
    0.547,
    0.464,
    0.958,
    0.189,
    0.464,
    0.465,
    0.316,
    0.329,
    0.474,
    0.765,
    0.373,
    0.325,
    0.281,
    0.487,
    0.491587,
    0.443,
    0.446959,
    0.823,
    0.817,
    0.421,
    0.399,
    0.499,
    0.321,
    0.41,
    0.282,
    0.242,
    0.29,
    0.203,
    0.281,
    0.85,
    0.375,
    0.569,
    0.897,
    0.734,
    0.646,
    0.657,
    0.775,
    0.745,
    0.804,
    0.571,
    0.644,
    0.435,
    0.701,
    0.69,
    0.901,
    0.856,
    0.659,
    0.99,
    0.596,
    0.745,
    0.556,
    1.138,
    0.548,
    0.601,
    0.725,
    0.733,
    0.867,
    0.842,
    1.054,
    0.546305,
    0.881704,
    0.505549,
    0.694351,
    0.748,
    0.633,
    0.501,
    0.827798,
    0.778876,
    0.419,
    0.501131,
    0.477,
    0.869,
    0.692,
    0.507273,
    0.843,
    0.467,
    0.754376,
    0.608119,
    0.99,
    0.561606,
    0.791,
    0.894811,
    0.635,
    0.895,
    0.645681,
    0.696788,
    0.548419,
    0.831,
    0.646,
    0.493,
    0.767,
    0.841,
    0.62,
    0.714,
    0.559,
    0.71,
    0.789,
    0.737,
    0.499,
    0.659,
    0.802,
    0.524,
    0.572,
    1.003,
    0.514,
    0.557,
    0.509,
    0.628,
    0.528,
    1.048,
    0.49,
    0.646,
    0.731,
    0.667,
    0.459,
    0.884,
    0.785,
    0.499,
    0.499,
    0.932,
    0.51,
    0.329,
    0.383,
    0.631,
    0.4,
    0.67,
    0.514,
    0.465,
    0.849,
    0.421,
    0.612,
    0.271,
    0.494,
    0.579,
    0.255,
    0.473,
    0.253,
    0.65,
    0.620876,
    0.541,
    0.907,
    0.65,
    0.91,
    0.474,
    0.499,
    0.661,
    0.659,
    0.512,
    0.925361,
    0.86,
    0.743,
    0.529,
    0.471,
    0.289,
    0.288,
    0.39,
    0.409,
    0.757,
    0.283,
    0.485,
    0.513,
    0.546,
    0.444,
    0.263,
    0.271,
    0.281,
    0.269,
    0.253,
    0.395,
    1.191,
    0.325,
    0.891,
    0.708,
    0.399,
    0.327,
    0.618,
    0.709,
    0.387,
    0.475,
    0.64,
    1.192,
    0.633,
    0.458,
    0.665,
    0.663,
    0.687,
    0.911,
    0.498,
    0.827,
    0.825,
    1.062,
    0.649,
    0.536,
    0.686,
    0.682,
    0.656,
    0.489,
    0.599,
    0.33,
    0.196,
    0.433,
    0.365,
    0.703,
    0.764,
    0.524,
    0.554,
    0.44,
    0.296,
    0.245,
    0.586,
    0.431,
    0.479,
    0.428,
    0.593,
    0.262,
    0.65,
    0.304,
    0.728,
    0.726,
    0.572,
    0.469,
    0.45,
    0.275,
    0.548359,
    0.214,
    0.385,
    0.283,
    0.273,
    0.23,
    0.384,
    0.689422,
    0.629,
    0.97,
    0.579,
    0.738,
    0.755,
    0.862,
    0.705,
    0.573,
    0.837,
    0.625927,
    0.824,
    0.691,
    0.846231,
    1.218,
    0.589,
    0.981,
    0.643,
    0.921,
    0.768,
    1.247,
    0.985,
    0.589,
    0.714,
    0.59,
    0.61,
    0.609,
    0.737,
    0.746,
    0.594,
    0.66,
    0.971,
    1.304,
    0.688,
    0.838,
    0.793,
    0.583,
    0.672,
    0.585,
    0.534,
    0.583,
    0.556,
    0.533,
    1.139088,
    1.557,
    0.956,
    1.771016,
    0.864111,
    1.589,
    1.438868,
    0.981,
    0.914889,
    0.773,
    1.565881,
    0.803955,
    1.156,
    0.942627,
    1.09,
    0.587082,
    0.558461,
    0.683,
    1.081883,
    0.563,
    0.744,
    1.199,
    0.512,
    0.746038,
    0.499,
    0.556,
    0.644,
    0.528,
    0.471,
    0.633,
    0.217177,
    0.373,
    0.335,
    0.236,
    0.365,
    0.627,
    0.468,
    0.247,
    0.388,
    0.218,
    0.243,
    0.238,
    0.305272,
    0.299,
    0.708,
    0.598,
    0.525,
    0.597,
    1.1,
    0.811,
    0.62,
    0.776,
    0.667,
    0.844,
    0.759,
    0.739,
    0.495,
    0.49,
    0.56,
    0.647,
    0.596,
    0.511,
    0.275,
    0.427,
    0.416,
    0.738,
    0.43,
    0.444,
    0.532,
    0.726,
    0.367,
    0.376,
    0.297,
    0.61,
    0.522,
    0.28,
    0.631,
    0.832,
    0.574,
    0.566,
    0.48,
    0.787,
    0.302,
    0.508,
    0.458,
    0.659,
    0.354,
    0.629,
    0.449,
    0.308,
    0.275,
    0.529,
    0.462,
    0.68993,
    0.813,
    0.604293,
    1.280449,
    0.529,
    0.803,
    0.878,
    0.553,
    0.739,
    0.566,
    0.882,
    0.868,
    0.677,
    0.705,
    0.657,
    0.612,
    0.50791,
    0.773889,
    0.57132,
    0.976388,
    0.610367,
    0.713612,
    0.554,
    0.565889,
    0.501,
    0.589,
    0.529,
    0.496073,
    0.696515,
    0.507,
    0.816,
    0.517674,
    0.34,
    0.439,
    0.784,
    0.652,
    1.807,
    0.468,
    0.43,
    0.335,
    0.343,
    0.609,
    0.514,
    0.45,
    0.945,
    0.49,
    0.471,
    0.522,
    0.827,
    0.942,
    0.715,
    0.786,
    0.531,
    0.541,
    0.68,
    0.895,
    2.446,
    0.507,
    0.596,
    0.545,
    0.654,
    0.584,
    0.756897,
    0.727858,
    1.023,
    0.522,
    0.8,
    0.476,
    0.522,
    0.774,
    0.76,
    0.714,
    0.725,
    0.992,
    1.059,
    0.551,
    0.734,
    0.656,
    0.703,
    1.038,
    0.533,
    0.727,
    0.816,
    0.548,
    0.619,
    0.554,
    0.809,
    0.479,
    0.521,
    0.555,
    0.849,
    0.401,
    0.52,
    0.497,
    0.478,
    0.431,
    0.363,
    0.343,
    0.423,
    0.567,
    0.291,
    0.303,
    0.677,
    0.189,
    0.817,
    0.475,
    0.628,
    0.43,
    0.437,
    0.379,
    0.704,
    0.252,
    0.503,
    0.673,
    0.55,
    0.47,
    0.335,
    0.342,
    0.604,
    0.365,
    0.284,
    0.949,
    0.55,
    0.895,
    0.574,
    0.765,
    0.605,
    0.437,
    0.566,
    0.798,
    0.494,
    0.853,
    0.778,
    0.629,
    0.49,
    0.709,
    4.206,
    0.335,
    0.181,
    0.392,
    0.679,
    0.284897,
    0.433,
    0.596,
    0.331,
    0.254,
    0.398759,
    0.221,
    0.471777,
    0.553,
    0.927,
    0.515361,
    0.530111,
    0.267806,
    0.58073,
    0.799,
    0.51,
    0.506,
    0.32812,
    0.436,
    0.399,
    0.444,
    0.344,
    0.399,
    0.435,
    0.392793,
    0.36,
    0.845,
    0.457,
    0.684379,
    0.822,
    0.697,
    0.958,
    0.551,
    0.748,
    0.695,
    0.523,
    0.495,
    0.769,
    0.512,
    0.595,
    0.772,
    0.852,
    0.81,
    0.993,
    0.627186,
    0.599103,
    0.957154,
    0.476478,
    0.742104,
    0.628085,
    0.627698,
    0.807097,
    0.724,
    0.455698,
    0.721287,
    0.581992,
    0.829124,
    0.7903,
    0.88,
    0.568,
    1.557496,
    0.553,
    1.122,
    0.518,
    0.784,
    0.688,
    0.661,
    0.465,
    0.778,
    0.673,
    0.46,
    1.125,
    0.467,
    0.742,
    0.527,
    0.558,
    0.626,
    0.642,
    1.098,
    0.502,
    0.597,
    0.7,
    0.927,
    0.755,
    0.7,
    0.502,
    0.801,
    0.428,
    0.547,
    0.752,
    0.304,
    0.397403,
    0.448,
    0.571,
    0.489,
    0.576,
    0.305,
    0.428,
    0.345,
    0.326,
    0.48,
    0.667,
    0.721,
    0.579,
    1.353903,
    0.428,
    0.804,
    0.623,
    0.72,
    0.936,
    0.8,
    0.714,
    0.729,
    0.709,
    0.488,
    0.599,
    0.727,
    0.812,
    0.494,
    0.565,
    0.818,
    0.545,
    1.018685,
    0.782,
    0.486977,
    0.769,
    0.635902,
    0.834,
    0.548,
    0.656362,
    0.59853,
    1.020901,
    0.597124,
    0.772,
    1.003,
    0.534,
    0.873,
    0.677,
    1.065,
    0.5,
    0.755,
    0.522,
    0.713,
    0.805,
    0.464,
    0.709,
    0.742,
    0.657,
    0.588,
    0.555,
    0.611,
    0.563,
    1.001,
    0.325,
    0.406,
    1.103,
    0.533,
    0.704,
    0.52,
    0.28,
    0.326,
    0.411,
    0.385,
    0.664,
    0.459,
    0.481508,
    0.599,
    0.994,
    0.599,
    0.801,
    0.645,
    0.647154,
    0.525,
    0.709387,
    0.825,
    1.093382,
    0.707052,
    0.772127,
    0.572111,
    0.697,
    0.581027,
    0.814,
    0.703,
    0.609,
    0.554,
    0.543,
    0.439,
    0.705876,
    0.655,
    0.478,
    0.676451,
    0.813,
    0.994223,
    0.746897,
    0.456,
    0.692,
    0.856,
    1.11,
    0.453,
    0.668,
    0.725,
    0.547,
    0.48,
    0.761,
    0.627,
    0.843,
    0.671,
    0.879,
    0.97,
    0.687,
    0.901,
    0.692244,
    0.741559,
    1.025,
    0.677755,
    0.859338,
    0.868517,
    0.676,
    0.868352,
    0.644036,
    0.721874,
    0.725648,
    0.582597,
    0.581054,
    0.656,
    0.514,
    1.061,
    1.062,
    1.456,
    0.894,
    0.754,
    0.591,
    0.536,
    0.609,
    0.753,
    0.603,
    0.803,
    0.849,
    0.542,
    0.493,
    0.657,
    0.54,
    0.898,
    0.617,
    0.626,
    0.888,
    0.545,
    0.404,
    0.677,
    0.41,
    0.505,
    0.812,
    0.373,
    0.606,
    1.012,
    0.553,
    0.588,
    0.903,
    0.524,
    0.69,
    0.664,
    0.972,
    0.858,
    0.839,
    0.519,
    0.544,
    0.852,
    0.747,
    0.662,
    0.81,
    0.445,
    0.65,
    1.21,
    0.599,
    0.954,
    0.861,
    0.647,
    0.809,
    0.682,
    0.428,
    0.457,
    0.495,
    0.819,
    0.59
  ]
}