{
  "ram": {
    "bytes_used_max": 133438300160,
    "gib_used_max": 124.27410125732422,
    "gib_used_per_minute": {
      "0": 2.1289825439453125,
      "1": 3.4578940181408897,
      "2": 3.7071235139491194,
      "3": 5.164286791268042,
      "4": 5.964758598198325,
      "5": 6.4154108338436835,
      "6": 6.776762299618478,
      "7": 7.069670854988745,
      "8": 7.486926709191274,
      "9": 8.06332623756538,
      "10": 10.928695355431508,
      "11": 11.631922382419392,
      "12": 13.391145803160587,
      "13": 14.006190219167935,
      "14": 14.702656050859872,
      "15": 15.4185654870395,
      "16": 16.62084903717041,
      "17": 17.70029585240251,
      "18": 18.510431618526063,
      "19": 19.357459828005,
      "20": 20.27198232014974,
      "21": 21.271041223558328,
      "22": 22.402830996755828,
      "23": 23.382782822948393,
      "24": 24.259330813090006,
      "25": 25.15798284239688,
      "26": 26.00670778953423,
      "27": 26.8096800335383,
      "28": 27.613610140482585,
      "29": 28.29731039273537,
      "30": 28.94944692062119,
      "31": 29.635503284001754,
      "32": 30.24393767017429,
      "33": 30.885116449991862,
      "34": 31.562939983303263,
      "35": 32.06954872002036,
      "36": 32.537639876543466,
      "37": 33.053626759847006,
      "38": 33.5828720351397,
      "39": 34.083126197427006,
      "40": 34.64527168920485,
      "41": 35.12036553075758,
      "42": 35.58562234242757,
      "43": 36.03566354008044,
      "44": 36.47530533095538,
      "45": 36.924908589508576,
      "46": 37.42760428735765,
      "47": 37.786746215820315,
      "48": 38.17789226467327,
      "49": 38.54423044495663,
      "50": 38.96992014222226,
      "51": 39.401041257179386,
      "52": 39.91855494181315,
      "53": 40.33263752824169,
      "54": 40.65452614477125,
      "55": 40.98211656990698,
      "56": 41.323744519551596,
      "57": 41.673248291015625,
      "58": 42.120935989638504,
      "59": 42.42214985217078,
      "60": 42.72214411072812,
      "61": 43.05281931559245,
      "62": 43.348993204407776,
      "63": 43.70548403465142,
      "64": 44.092333583508506,
      "65": 44.33948859521898,
      "66": 44.61616230010986,
      "67": 44.90334585157491,
      "68": 45.17651806847524,
      "69": 45.442122507903534,
      "70": 45.78908881494554,
      "71": 46.029425366719565,
      "72": 46.298664933544096,
      "73": 46.566541057522016,
      "74": 46.828963134248376,
      "75": 47.0599328994751,
      "76": 47.35659990472308,
      "77": 47.57560161008673,
      "78": 47.8023027969619,
      "79": 48.01855565733829,
      "80": 48.24215168063923,
      "81": 48.49098218282064,
      "82": 48.80241904824467,
      "83": 48.97905278609971,
      "84": 49.19180963807187,
      "85": 49.43066972096761,
      "86": 49.68188166214248,
      "87": 49.91506253258657,
      "88": 50.24922472635905,
      "89": 50.498699964103054,
      "90": 50.709037198858745,
      "91": 50.95958535145905,
      "92": 51.21999566029694,
      "93": 51.50620613098145,
      "94": 51.845701056011656,
      "95": 52.10896805585441,
      "96": 52.31771307476496,
      "97": 52.534653663635254,
      "98": 52.7876676139185,
      "99": 53.04271555755098,
      "100": 53.37386748750331,
      "101": 53.613887278238934,
      "102": 53.840596732446706,
      "103": 54.08925615730932,
      "104": 54.33164758197332,
      "105": 54.59881701711881,
      "106": 54.97788581848145,
      "107": 55.2207803887836,
      "108": 55.458180896306445,
      "109": 55.699763605150125,
      "110": 55.94204834760246,
      "111": 56.197403729972194,
      "112": 56.525465965270996,
      "113": 56.771549418821174,
      "114": 57.00239666437699,
      "115": 57.21863116248179,
      "116": 57.46993475445246,
      "117": 57.74932344081038,
      "118": 58.106832407288636,
      "119": 58.42359809875488,
      "120": 58.69256546537755,
      "121": 58.99011792974957,
      "122": 59.28346498133772,
      "123": 59.58309981782558,
      "124": 59.97160694962841,
      "125": 60.27181819333868,
      "126": 60.53015944163005,
      "127": 60.80019443317995,
      "128": 61.06275842957577,
      "129": 61.339239670058426,
      "130": 61.736630585234046,
      "131": 62.07228217690678,
      "132": 62.36951983177056,
      "133": 62.67745812733968,
      "134": 62.980772568007644,
      "135": 63.26193327822928,
      "136": 63.65306705539509,
      "137": 63.990962788210076,
      "138": 64.26071490271617,
      "139": 64.55916964213053,
      "140": 64.84626032942433,
      "141": 65.15836961390609,
      "142": 65.57203357502566,
      "143": 65.93398084478864,
      "144": 66.24577137575311,
      "145": 66.56295394897461,
      "146": 66.93134062168961,
      "147": 67.24634577864308,
      "148": 67.60876186823441,
      "149": 67.96380524716135,
      "150": 68.27385162094892,
      "151": 68.62074705759684,
      "152": 68.94919101262496,
      "153": 69.27706456588487,
      "154": 69.69731217723782,
      "155": 70.06543007543532,
      "156": 70.39127776582362,
      "157": 70.6964209874471,
      "158": 71.04600557230286,
      "159": 71.38893592963784,
      "160": 71.80652243404064,
      "161": 72.22429540601827,
      "162": 72.47977027893066,
      "163": 72.80970990455756,
      "164": 73.11155422663285,
      "165": 73.40340966693425,
      "166": 73.80049029851364,
      "167": 74.1728241484044,
      "168": 74.44084828694662,
      "169": 74.72465243581998,
      "170": 75.01751010700808,
      "171": 75.33685121697894,
      "172": 75.69073925988148,
      "173": 76.08108772665767,
      "174": 76.35220705668131,
      "175": 76.6742482589463,
      "176": 77.05279851363878,
      "177": 77.35955538992154,
      "178": 77.69941601510776,
      "179": 78.04370731418416,
      "180": 78.360944069038,
      "181": 78.68432750701905,
      "182": 79.00857382305598,
      "183": 79.32616456888489,
      "184": 79.65460605944617,
      "185": 80.04466040659759,
      "186": 80.32932468996209,
      "187": 80.59559004185563,
      "188": 80.91636861165365,
      "189": 81.23918300564006,
      "190": 81.64242812334481,
      "191": 82.12264083603681,
      "192": 82.45928424899861,
      "193": 82.81100012461344,
      "194": 83.16678703437417,
      "195": 83.49438463631323,
      "196": 83.86751498206188,
      "197": 84.28880161350057,
      "198": 84.57360490701966,
      "199": 84.8568536144192,
      "200": 85.16148090362549,
      "201": 85.44889197915288,
      "202": 85.79950953338106,
      "203": 86.21603238380561,
      "204": 86.51882009991145,
      "205": 86.87651113736428,
      "206": 87.22598648071289,
      "207": 87.54534511242883,
      "208": 87.92506441019349,
      "209": 88.3723757469048,
      "210": 88.65174225629386,
      "211": 88.95275406918283,
      "212": 89.2926025390625,
      "213": 89.65101474826619,
      "214": 89.98106209706452,
      "215": 90.40756296707411,
      "216": 90.70268934864109,
      "217": 91.00932861586749,
      "218": 91.35956224344544,
      "219": 91.67375113169352,
      "220": 91.9853730282541,
      "221": 92.40634265188443,
      "222": 92.69223572035968,
      "223": 92.99657272080243,
      "224": 93.30310168508755,
      "225": 93.60939604441324,
      "226": 93.89605066331767,
      "227": 94.26331814264847,
      "228": 94.56231521347821,
      "229": 94.85212940280721,
      "230": 95.16963835894052,
      "231": 95.48912264506022,
      "232": 95.79713110196388,
      "233": 96.16552740840588,
      "234": 96.46502724340407,
      "235": 96.78871038404561,
      "236": 97.13307687791728,
      "237": 97.45812034606934,
      "238": 97.81096868999934,
      "239": 98.21609619916495,
      "240": 98.57077782841053,
      "241": 98.87248061875165,
      "242": 99.20602448781331,
      "243": 99.53797363022626,
      "244": 99.93222479092873,
      "245": 100.360953702765,
      "246": 100.6782939716921,
      "247": 100.94507695860781,
      "248": 101.25654385884603,
      "249": 101.60187698622882,
      "250": 101.91962271221614,
      "251": 102.35476671639135,
      "252": 102.70629203925698,
      "253": 102.96531206766764,
      "254": 103.30615777484441,
      "255": 103.63669521525755,
      "256": 103.96205688735186,
      "257": 104.35125881130412,
      "258": 104.689313209663,
      "259": 104.95908362178479,
      "260": 105.32158451080322,
      "261": 105.67963648650606,
      "262": 106.02853180190264,
      "263": 106.42390474222474,
      "264": 106.77130372645492,
      "265": 107.07271359761556,
      "266": 107.41644920737056,
      "267": 107.74382264735335,
      "268": 108.07601831727109,
      "269": 108.45906273793366,
      "270": 108.79909030461715,
      "271": 109.07496054697845,
      "272": 109.39740556081136,
      "273": 109.7247269194005,
      "274": 110.03498290757001,
      "275": 110.35004677206783,
      "276": 110.70211817854542,
      "277": 110.99226372928943,
      "278": 111.34246186078605,
      "279": 111.68121852874756,
      "280": 112.01092910766602,
      "281": 112.38722901425119,
      "282": 112.75987256583521,
      "283": 113.0777304697845,
      "284": 113.39611312090341,
      "285": 113.69746987294343,
      "286": 114.03507798512777,
      "287": 114.4217255155919,
      "288": 114.77542831938146,
      "289": 115.09555299403304,
      "290": 115.43505199884964,
      "291": 115.736456934611,
      "292": 116.06790161132812,
      "293": 116.40538309388242,
      "294": 116.76141422077761,
      "295": 117.0455162565587,
      "296": 117.31596258131124,
      "297": 117.61184310913086,
      "298": 117.9180778503418,
      "299": 118.35844330868478,
      "300": 118.73391090005131,
      "301": 119.00486807095803,
      "302": 119.31113601943194,
      "303": 119.6255211910959,
      "304": 119.98043918609619,
      "305": 120.38306006738695,
      "306": 120.75873035495565,
      "307": 121.02268794431525,
      "308": 121.25562978194932,
      "309": 121.55745600037656,
      "310": 121.875,
      "311": 122.21011727543201,
      "312": 122.55270683159263,
      "313": 122.80431618124751,
      "314": 123.05279437566207,
      "315": 123.14347955736064,
      "316": 123.17185757954915,
      "317": 123.22702446630446,
      "318": 123.29681777954102,
      "319": 123.28732467909991,
      "320": 123.30617852938377,
      "321": 123.33302485148111,
      "322": 123.35252839427883,
      "323": 123.39742557073043,
      "324": 123.48025700197381,
      "325": 123.46321028369968,
      "326": 123.47628542582194,
      "327": 123.49520692986957,
      "328": 123.52806285276252,
      "329": 123.58983010760808,
      "330": 123.6642229759087,
      "331": 123.66795523691985,
      "332": 123.73013922373454,
      "333": 123.75928096447961,
      "334": 123.76431261482885,
      "335": 123.79948114944716,
      "336": 123.88646303597143,
      "337": 123.86688697944253,
      "338": 123.8774003982544,
      "339": 123.90642392433296,
      "340": 123.93442477210094,
      "341": 123.97659702624304,
      "342": 124.06664515349824,
      "343": 124.05186501195875,
      "344": 124.06873825849112,
      "345": 124.09751364390056,
      "346": 124.1252848738331,
      "347": 124.1753126241393,
      "348": 124.26175372883425,
      "349": 93.88493468544699
    }
  },
  "run_time": {
    "hours": 5.817537839722222,
    "human": "5:49:03.136223",
    "minutes": 349.05227038333334,
    "real_seconds_per_sim_second": {
      "2.0": 32.569767,
      "3.002": 33.946346,
      "4.002868": 37.352907,
      "5.004092": 39.972007,
      "6.005046": 44.084069,
      "7.006024": 48.744011,
      "8.00662": 50.115496,
      "9.008058": 50.9948,
      "10.008071": 51.749684,
      "11.010126": 52.468571,
      "12.010167": 53.250714,
      "13.010203": 54.019329,
      "14.011568": 54.793576,
      "15.012605": 55.468467,
      "16.014424": 56.074657,
      "17.014745": 56.777553,
      "18.015846": 57.338072,
      "19.01629": 57.862188,
      "20.017194": 58.315955,
      "21.01799": 58.859104,
      "22.018051": 59.57509,
      "23.018246": 60.504927,
      "24.01833": 61.201647,
      "25.018463": 61.930644,
      "26.020498": 62.676256,
      "27.020509": 63.38773,
      "28.022049": 64.09805,
      "29.022898": 64.80485,
      "30.022951": 65.564345,
      "31.023323": 66.320039,
      "32.025304": 67.045129,
      "33.026252": 67.932794,
      "34.027101": 68.695285,
      "35.028269": 69.380273,
      "36.029029": 70.060409,
      "37.030301": 70.879263,
      "38.031857": 71.687317,
      "39.032589": 72.473382,
      "40.033395": 73.189796,
      "41.033725": 73.853052,
      "42.034585": 74.511531,
      "43.036482": 75.3794,
      "44.038431": 76.158772,
      "45.038606": 76.908838,
      "46.038694": 77.551216,
      "47.039679": 78.207903,
      "48.040943": 78.984971,
      "49.041996": 79.817843,
      "50.042823": 80.643626,
      "51.043008": 81.369273,
      "52.043581": 82.053826,
      "53.045439": 82.938948,
      "54.046533": 83.716151,
      "55.047822": 84.423463,
      "56.047862": 85.082609,
      "57.049062": 85.871767,
      "58.050033": 86.553148,
      "59.050498": 87.235004,
      "60.051726": 87.95812,
      "61.052038": 88.669138,
      "62.052114": 89.43542,
      "63.052753": 90.268686,
      "64.054751": 91.02881,
      "65.05585": 91.732786,
      "66.057533": 92.481151,
      "67.057556": 93.220147,
      "68.05829": 93.933111,
      "69.058673": 94.72258,
      "70.0587": 95.468342,
      "71.059678": 96.190683,
      "72.060825": 96.974436,
      "73.062174": 97.925094,
      "74.062361": 98.67717,
      "75.062499": 99.461213,
      "76.063973": 100.166443,
      "77.06465": 100.874796,
      "78.065795": 101.645735,
      "79.067102": 102.333759,
      "80.067192": 103.055368,
      "81.06756": 103.811725,
      "82.06928": 104.586011,
      "83.070101": 105.342873,
      "84.072062": 106.081733,
      "85.072298": 106.710406,
      "86.0723": 107.388466,
      "87.072326": 108.156566,
      "88.074207": 108.909928,
      "89.074492": 109.643945,
      "90.075033": 110.33725,
      "91.076954": 110.984317,
      "92.078388": 111.802446,
      "93.079446": 112.646462,
      "94.080112": 113.29588,
      "95.08018": 113.963234,
      "96.082163": 114.678941,
      "97.08363": 115.310806,
      "98.084817": 115.96571,
      "99.086573": 116.663804,
      "100.087161": 117.35007,
      "101.087853": 118.003569,
      "102.089106": 118.773103,
      "103.089842": 119.569623,
      "104.08986": 120.290825,
      "105.090862": 121.031269,
      "106.092757": 121.84523,
      "107.094381": 122.588559,
      "108.095803": 123.347433,
      "109.096988": 124.078933,
      "110.096991": 124.983533,
      "111.099044": 125.964723,
      "112.100695": 126.944385,
      "113.10255": 127.845212,
      "114.103292": 128.607583,
      "115.103508": 129.334824,
      "116.103914": 130.10903,
      "117.105541": 130.833946,
      "118.105824": 131.621749,
      "119.105884": 132.347143,
      "120.106438": 132.96199,
      "121.106631": 133.645534,
      "122.106642": 134.356012,
      "123.106948": 135.271193,
      "124.107984": 135.897086,
      "125.10969": 136.525995,
      "126.110118": 137.128268,
      "127.112012": 137.715368,
      "128.113295": 138.317019,
      "129.114904": 138.911639,
      "130.116807": 139.844397,
      "131.117054": 140.626508,
      "132.117203": 141.352721,
      "133.119106": 142.161072,
      "134.119449": 142.870998,
      "135.120452": 143.551305,
      "136.122204": 144.282559,
      "137.122428": 145.027217,
      "138.123002": 145.700837,
      "139.124582": 146.330393,
      "140.12473": 146.929438,
      "141.125401": 147.609457,
      "142.127427": 148.195518,
      "143.12754": 149.015405,
      "144.128376": 149.706707,
      "145.128562": 150.416925,
      "146.129634": 151.015545,
      "147.130607": 151.672953,
      "148.130794": 152.250419,
      "149.1328": 152.816922,
      "150.13299": 154.047222,
      "151.134204": 190.396817,
      "152.134837": 233.836217,
      "153.13634": 271.626441,
      "154.136655": 302.943961,
      "155.13718": 326.845478,
      "156.137686": 348.651822,
      "157.138446": 366.714866,
      "158.1389": 381.7955,
      "159.140511": 392.776662,
      "160.141548": 403.95691,
      "161.142752": 413.073382,
      "162.142928": 422.33334,
      "163.143394": 429.531192,
      "164.144635": 437.772453,
      "165.145112": 444.047594,
      "166.146356": 450.429649,
      "167.147745": 457.100526,
      "168.148017": 462.951949,
      "169.148178": 467.248259,
      "170.149636": 471.785363,
      "171.150709": 475.529774,
      "172.151117": 479.16585,
      "173.15197": 482.341845,
      "174.153887": 485.304865,
      "175.154778": 488.096829,
      "176.154895": 490.618444,
      "177.155919": 493.232247,
      "178.156932": 495.325605,
      "179.157003": 497.321821,
      "180.158486": 499.424268,
      "181.158762": 501.471458,
      "182.160423": 503.307691,
      "183.161146": 504.933839,
      "184.162874": 506.846255,
      "185.164308": 509.486118,
      "186.165548": 512.417146,
      "187.167458": 516.30426,
      "188.167467": 520.029305,
      "189.169142": 523.729799,
      "190.169605": 526.801911,
      "191.170525": 529.644951,
      "192.171969": 532.29797,
      "193.173299": 534.73423,
      "194.174422": 536.934503,
      "195.176348": 538.873273,
      "196.17684": 540.735829,
      "197.177255": 542.348819,
      "198.179086": 543.872452,
      "199.180948": 545.368444,
      "200.181056": 546.93689,
      "201.181438": 548.518419,
      "202.181571": 550.154471,
      "203.182754": 551.494103,
      "204.183153": 552.741287,
      "205.184571": 553.894553,
      "206.184651": 554.97017,
      "207.186129": 556.119974,
      "208.187746": 557.309172,
      "209.188322": 558.619933,
      "210.188461": 560.109121,
      "211.189283": 561.56761,
      "212.190695": 563.033316,
      "213.19186": 564.430281,
      "214.193908": 565.805864,
      "215.196214": 566.960181,
      "216.197597": 568.00617,
      "217.198628": 569.136816,
      "218.200761": 570.197765,
      "219.200893": 571.287586,
      "220.201959": 572.62758,
      "221.203018": 574.182414,
      "222.203657": 575.756188,
      "223.205052": 577.198309,
      "224.206024": 578.516338,
      "225.207889": 579.649265,
      "226.208051": 580.872419,
      "227.208295": 582.082937,
      "228.209223": 583.087598,
      "229.209254": 584.014057,
      "230.209468": 584.951828,
      "231.209785": 585.867469,
      "232.211821": 586.941211,
      "233.213038": 587.945975,
      "234.214106": 588.981241,
      "235.214361": 589.841339,
      "236.21627": 590.708686,
      "237.218262": 591.475371,
      "238.218264": 592.100518,
      "239.220526": 592.723862,
      "240.221773": 594.37819,
      "241.221786": 597.88973,
      "242.2234": 612.380989,
      "243.224502": 625.810398,
      "244.225284": 635.939956,
      "245.227056": 641.322358,
      "246.228461": 646.851775,
      "247.230446": 650.416932,
      "248.231066": 652.536006,
      "249.233062": 654.308766,
      "250.233539": 656.055188,
      "251.234845": 657.634468,
      "252.23634": 659.143743,
      "253.236518": 660.33844,
      "254.236631": 661.20162,
      "255.237279": 661.975116,
      "256.237824": 662.694651,
      "257.237965": 663.598627,
      "258.238653": 664.892588,
      "259.239876": 666.725748,
      "260.241169": 668.549069,
      "261.241754": 670.362323,
      "262.243502": 671.795987,
      "263.244347": 673.222292,
      "264.245347": 674.265331,
      "265.246474": 675.121408,
      "266.248136": 675.86144,
      "267.249545": 676.529613,
      "268.251229": 677.311599,
      "269.252415": 678.606583,
      "270.25433": 680.310515,
      "271.25567": 682.028055,
      "272.256825": 683.570128,
      "273.258619": 684.825546,
      "274.258785": 686.123874,
      "275.259183": 687.154201,
      "276.260617": 687.886772,
      "277.262306": 688.34772,
      "278.262953": 688.800436,
      "279.265078": 689.32653,
      "280.266483": 690.722588,
      "281.268152": 692.327422,
      "282.269012": 693.974779,
      "283.269717": 695.384037,
      "284.270387": 696.621691,
      "285.271391": 697.895578,
      "286.272142": 698.918115,
      "287.272414": 699.780872,
      "288.274533": 700.495399,
      "289.27637": 701.15828,
      "290.276378": 702.049542,
      "291.277637": 703.436373,
      "292.278896": 705.173089,
      "293.280359": 706.830551,
      "294.28181": 708.262702,
      "295.283365": 709.438488,
      "296.284125": 710.713981,
      "297.285111": 711.755999,
      "298.28688": 712.66602,
      "299.287447": 713.397584,
      "300.288": 716.599553,
      "301.29": 722.263096,
      "302.292": 724.277274,
      "303.294": 726.738441,
      "304.296": 729.138368,
      "305.298": 731.790616,
      "306.3": 734.386394,
      "307.302": 737.176926,
      "308.304": 740.244913,
      "309.306": 743.744182,
      "310.308": 747.156565,
      "311.31": 750.889939,
      "312.312": 754.682146,
      "313.314": 758.647416,
      "314.316": 762.831606,
      "315.318": 767.192115,
      "316.32": 771.575301,
      "317.322": 776.160825,
      "318.324": 780.780238,
      "319.326": 785.824086,
      "320.328": 790.746322,
      "321.33": 795.810065,
      "322.332": 801.246101,
      "323.334": 806.632783,
      "324.336": 812.58546,
      "325.338": 818.195085,
      "326.34": 824.081451,
      "327.342": 829.910241,
      "328.344": 835.882443,
      "329.346": 840.52804,
      "330.348": 846.621911,
      "331.35": 853.248243,
      "332.352": 860.243129,
      "333.354": 867.655893,
      "334.356": 874.607022,
      "335.358": 881.715123,
      "336.36": 889.149875,
      "337.362": 896.473195,
      "338.364": 904.10371,
      "339.366": 911.706204,
      "340.368": 919.644464,
      "341.37": 927.591032,
      "342.372": 936.336722,
      "343.374": 944.481203,
      "344.376": 953.153563,
      "345.378": 959.26171,
      "346.38": 964.456471,
      "347.382": 968.954274,
      "348.384": 973.124436,
      "349.386": 977.680895,
      "350.388": 982.093917,
      "351.39": 986.496379,
      "352.392": 991.008637,
      "353.394": 995.381986,
      "354.396": 1000.022395,
      "355.398": 1004.96247,
      "356.4": 1009.747443,
      "357.402": 1015.074375,
      "358.404": 1024.216218,
      "359.406": 1033.755785,
      "360.408": 1043.347736,
      "361.41": 1053.468038,
      "362.412": 1063.400919,
      "363.414": 1073.049216,
      "364.416": 1082.979263,
      "365.418": 1093.452324,
      "366.42": 1102.998802,
      "367.422": 1112.257027,
      "368.424": 1120.316536,
      "369.426": 1129.71805,
      "370.428": 1139.402992,
      "371.43": 1148.854992,
      "372.432": 1156.802859,
      "373.434": 1164.4334,
      "374.436": 1173.419032,
      "375.438": 1182.961355,
      "376.44": 1190.852857,
      "377.442": 1198.492668,
      "378.444": 1207.703536,
      "379.446": 1216.821633,
      "380.448": 1225.78753,
      "381.45": 1232.773785,
      "382.452": 1239.319969,
      "383.454": 1246.44014,
      "384.456": 1253.898473,
      "385.458": 1260.703964,
      "386.46": 1266.724877,
      "387.462": 1273.279719,
      "388.464": 1280.154155,
      "389.466": 1288.787732,
      "390.468": 1296.101748,
      "391.47": 1302.904323,
      "392.472": 1309.707925,
      "393.474": 1317.361376,
      "394.476": 1323.904286,
      "395.478": 1330.218499,
      "396.48": 1336.523217,
      "397.482": 1342.988744,
      "398.484": 1349.060789,
      "399.486": 1355.248458,
      "400.488": 1361.59199,
      "401.49": 1368.205566,
      "402.492": 1374.702565,
      "403.494": 1381.363631,
      "404.496": 1389.043652,
      "405.498": 1396.01149,
      "406.5": 1403.040757,
      "407.502": 1410.037463,
      "408.504": 1417.090068,
      "409.506": 1423.930951,
      "410.508": 1430.694164,
      "411.51": 1437.88066,
      "412.512": 1445.537253,
      "413.514": 1452.531494,
      "414.516": 1459.357244,
      "415.518": 1466.484103,
      "416.52": 1473.837239,
      "417.522": 1481.042522,
      "418.524": 1488.321614,
      "419.526": 1495.421431,
      "420.528": 1502.896175,
      "421.53": 1510.357822,
      "422.532": 1517.64788,
      "423.534": 1524.62962,
      "424.536": 1531.942917,
      "425.538": 1540.116447,
      "426.54": 1547.687273,
      "427.542": 1555.06363,
      "428.544": 1562.783187,
      "429.546": 1570.242163,
      "430.548": 1577.969142,
      "431.55": 1585.497215,
      "432.552": 1592.757374,
      "433.554": 1599.996662,
      "434.556": 1607.416476,
      "435.558": 1614.926873,
      "436.56": 1622.48051,
      "437.562": 1630.252615,
      "438.564": 1637.718853,
      "439.566": 1645.165039,
      "440.568": 1652.603693,
      "441.57": 1660.239487,
      "442.572": 1667.766873,
      "443.574": 1676.002209,
      "444.576": 1683.601427,
      "445.578": 1691.363385,
      "446.58": 1698.904127,
      "447.582": 1706.262339,
      "448.584": 1713.727234,
      "449.586": 1721.147525,
      "450.588": 1728.567433,
      "451.59": 1736.08482,
      "452.592": 1743.889781,
      "453.594": 1751.718378,
      "454.596": 1759.371733,
      "455.598": 1767.298561,
      "456.6": 1775.026622,
      "457.602": 1783.229443,
      "458.604": 1791.629812,
      "459.606": 1799.686896,
      "460.608": 1808.036365,
      "461.61": 1816.033524,
      "462.612": 1824.311094,
      "463.614": 1832.214571,
      "464.616": 1840.834789,
      "465.618": 1848.878649,
      "466.62": 1857.316408,
      "467.622": 1865.419441,
      "468.624": 1875.469813,
      "469.626": 1884.278376,
      "470.628": 1893.232356,
      "471.63": 1901.666128,
      "472.632": 1911.034853,
      "473.634": 1921.029391,
      "474.636": 1931.548401,
      "475.638": 1941.278627,
      "476.64": 1950.437308,
      "477.642": 1960.033163,
      "478.644": 1969.33702,
      "479.646": 1978.470218,
      "480.648": 1987.951449,
      "481.65": 1997.486912,
      "482.652": 2006.76706,
      "483.654": 2015.612547,
      "484.656": 2024.579602,
      "485.658": 2035.424138,
      "486.66": 2043.801313,
      "487.662": 2051.942692,
      "488.664": 2060.88768,
      "489.666": 2069.260294,
      "490.668": 2078.364432,
      "491.67": 2086.865518,
      "492.672": 2096.042348,
      "493.674": 2105.143262,
      "494.676": 2114.166991,
      "495.678": 2122.939716,
      "496.68": 2132.389274,
      "497.682": 2141.87169,
      "498.684": 2151.989654,
      "499.686": 2161.028041,
      "500.688": 2170.201027,
      "501.69": 2178.673164,
      "502.692": 2188.490173,
      "503.694": 2197.927137,
      "504.696": 2207.973413,
      "505.698": 2216.952251,
      "506.7": 2226.73119,
      "507.702": 2235.360283,
      "508.704": 2244.455357,
      "509.706": 2253.234078,
      "510.708": 2262.497668,
      "511.71": 2271.341045,
      "512.712": 2281.676493,
      "513.714": 2290.765958,
      "514.716": 2300.563716,
      "515.718": 2309.125141,
      "516.72": 2319.539943,
      "517.722": 2328.954172,
      "518.724": 2338.720113,
      "519.726": 2348.43798,
      "520.728": 2357.972973,
      "521.73": 2366.628267,
      "522.732": 2376.537276,
      "523.734": 2385.64317,
      "524.736": 2395.27967,
      "525.738": 2404.001933,
      "526.74": 2412.813465,
      "527.742": 2421.606981,
      "528.744": 2430.686824,
      "529.746": 2439.51612,
      "530.748": 2449.23427,
      "531.75": 2458.939193,
      "532.752": 2469.31899,
      "533.754": 2478.657133,
      "534.756": 2488.420711,
      "535.758": 2498.550045,
      "536.76": 2509.686283,
      "537.762": 2518.916662,
      "538.764": 2528.902603,
      "539.766": 2538.152705,
      "540.768": 2548.466283,
      "541.77": 2557.797252,
      "542.772": 2568.205956,
      "543.774": 2577.826653,
      "544.776": 2586.72572,
      "545.778": 2595.862036,
      "546.78": 2606.343385,
      "547.782": 2615.824949,
      "548.784": 2626.469403,
      "549.786": 2636.737187,
      "550.788": 2646.553655,
      "551.79": 2655.693805,
      "552.792": 2666.495057,
      "553.794": 2675.712157,
      "554.796": 2685.511213,
      "555.798": 2695.010282,
      "556.8": 2705.422756,
      "557.802": 2714.629291,
      "558.804": 2724.422194,
      "559.806": 2733.946172,
      "560.808": 2745.495348,
      "561.81": 2756.444287,
      "562.812": 2765.701902,
      "563.814": 2774.719034,
      "564.816": 2783.833559,
      "565.818": 2792.540248,
      "566.82": 2801.679107,
      "567.822": 2810.872076,
      "568.824": 2821.847221,
      "569.826": 2831.865319,
      "570.828": 2842.27401,
      "571.83": 2852.020062,
      "572.832": 2862.53471,
      "573.834": 2872.598098,
      "574.836": 2882.57135,
      "575.838": 2892.627842,
      "576.84": 2904.155578,
      "577.842": 2914.47745,
      "578.844": 2925.505189,
      "579.846": 2935.157742,
      "580.848": 2946.394414,
      "581.85": 2956.364181,
      "582.852": 2966.551123,
      "583.854": 2975.975275,
      "584.856": 2987.129716,
      "585.858": 2997.110798,
      "586.86": 3007.768011,
      "587.862": 3017.289964,
      "588.864": 3026.955602,
      "589.866": 3036.734708,
      "590.868": 3048.105461,
      "591.87": 3057.665939,
      "592.872": 3068.084489,
      "593.874": 3077.637907,
      "594.876": 3090.438227,
      "595.878": 3101.042556,
      "596.88": 3112.648115,
      "597.882": 3121.788691,
      "598.884": 3131.341158,
      "599.886": 3140.146676,
      "600.888": 3157.401267,
      "601.89": 3168.411233,
      "602.892": 3180.148131,
      "603.894": 3190.305318,
      "604.896": 3202.332818,
      "605.898": 3212.147395,
      "606.9": 3223.287489,
      "607.902": 3233.145917,
      "608.904": 3244.596038,
      "609.906": 3254.281109,
      "610.908": 3266.38028,
      "611.91": 3275.361113,
      "612.912": 3286.202453,
      "613.914": 3295.85279,
      "614.916": 3306.749862,
      "615.918": 3316.011221,
      "616.92": 3327.09496,
      "617.922": 3336.786662,
      "618.924": 3347.588557,
      "619.926": 3357.204436,
      "620.928": 3368.93034,
      "621.93": 3378.324634,
      "622.932": 3390.015824,
      "623.934": 3400.502001,
      "624.936": 3412.766156,
      "625.938": 3422.928747,
      "626.94": 3433.630685,
      "627.942": 3443.114056,
      "628.944": 3453.217357,
      "629.946": 3464.088373,
      "630.948": 3474.960821,
      "631.95": 3484.214295,
      "632.952": 3493.860999,
      "633.954": 3503.115245,
      "634.956": 3512.788395,
      "635.958": 3522.231436,
      "636.96": 3533.399421,
      "637.962": 3543.366785,
      "638.964": 3556.01853,
      "639.966": 3566.820979,
      "640.968": 3577.451949,
      "641.97": 3587.517035,
      "642.972": 3597.89743,
      "643.974": 3607.849845,
      "644.976": 3619.220466,
      "645.978": 3629.53361,
      "646.98": 3640.939614,
      "647.982": 3651.186319,
      "648.984": 3662.375911,
      "649.986": 3672.615337,
      "650.988": 3685.960536,
      "651.99": 3696.560736,
      "652.992": 3708.181756,
      "653.994": 3718.414991,
      "654.996": 3729.653802,
      "655.998": 3739.744959,
      "657.0": 3751.250922,
      "658.002": 3761.719224,
      "659.004": 3772.008984,
      "660.006": 3781.957464,
      "661.008": 3793.844231,
      "662.01": 3804.724697,
      "663.012": 3816.014413,
      "664.014": 3826.28099,
      "665.016": 3838.295572,
      "666.018": 3847.976676,
      "667.02": 3858.316506,
      "668.022": 3867.945551,
      "669.024": 3878.054459,
      "670.026": 3887.854279,
      "671.028": 3900.195476,
      "672.03": 3910.117555,
      "673.032": 3922.457509,
      "674.034": 3932.834395,
      "675.036": 3943.153316,
      "676.038": 3952.990794,
      "677.04": 3963.932394,
      "678.042": 3973.586197,
      "679.044": 3983.862421,
      "680.046": 3994.001007,
      "681.048": 4004.422401,
      "682.05": 4014.375468,
      "683.052": 4028.095071,
      "684.054": 4039.198124,
      "685.056": 4049.724475,
      "686.058": 4059.91858,
      "687.06": 4070.872356,
      "688.062": 4081.436203,
      "689.064": 4093.138177,
      "690.066": 4104.064924,
      "691.068": 4116.389312,
      "692.07": 4127.107891,
      "693.072": 4139.404061,
      "694.074": 4150.436898,
      "695.076": 4162.106657,
      "696.078": 4173.495606,
      "697.08": 4184.943008,
      "698.082": 4196.500895,
      "699.084": 4207.058361,
      "700.086": 4216.656821,
      "701.088": 4226.471153,
      "702.09": 4235.71404,
      "703.092": 4245.806044,
      "704.094": 4255.740836,
      "705.096": 4267.596462,
      "706.098": 4277.773624,
      "707.1": 4288.260966,
      "708.102": 4298.329588,
      "709.104": 4310.282026,
      "710.106": 4320.160878,
      "711.108": 4330.058994,
      "712.11": 4339.601371,
      "713.112": 4351.112916,
      "714.114": 4361.093679,
      "715.116": 4372.522463,
      "716.118": 4383.386866,
      "717.12": 4395.856915,
      "718.122": 4406.136182,
      "719.124": 4419.198697,
      "720.126": 4429.852208,
      "721.128": 4441.400116,
      "722.13": 4451.419583,
      "723.132": 4462.789488,
      "724.134": 4473.467391,
      "725.136": 4484.586794,
      "726.138": 4494.467878,
      "727.14": 4504.800137,
      "728.142": 4514.740994,
      "729.144": 4526.574846,
      "730.146": 4537.572243,
      "731.148": 4548.916752,
      "732.15": 4559.599993,
      "733.152": 4569.294159,
      "734.154": 4578.852911,
      "735.156": 4589.218019,
      "736.158": 4598.856131,
      "737.16": 4609.598637,
      "738.162": 4620.229631,
      "739.164": 4631.42589,
      "740.166": 4641.96609,
      "741.168": 4654.630773,
      "742.17": 4665.115482,
      "743.172": 4677.61081,
      "744.174": 4688.545988,
      "745.176": 4701.097393,
      "746.178": 4711.19206,
      "747.18": 4723.785715,
      "748.182": 4734.253254,
      "749.184": 4746.180706,
      "750.186": 4756.829432,
      "751.188": 4769.071026,
      "752.19": 4779.738801,
      "753.192": 4792.432579,
      "754.194": 4802.328254,
      "755.196": 4813.895253,
      "756.198": 4824.25519,
      "757.2": 4837.916478,
      "758.202": 4847.699323,
      "759.204": 4858.835008,
      "760.206": 4870.554443,
      "761.208": 4880.706176,
      "762.21": 4890.925944,
      "763.212": 4900.912656,
      "764.214": 4911.848524,
      "765.216": 4921.956931,
      "766.218": 4931.171634,
      "767.22": 4940.874622,
      "768.222": 4950.451542,
      "769.224": 4959.621751,
      "770.226": 4969.378828,
      "771.228": 4979.290678,
      "772.23": 4989.288998,
      "773.232": 4999.495151,
      "774.234": 5010.950155,
      "775.236": 5021.58617,
      "776.238": 5032.720978,
      "777.24": 5043.186101,
      "778.242": 5054.850656,
      "779.244": 5064.764031,
      "780.246": 5074.589855,
      "781.248": 5084.901243,
      "782.25": 5094.990514,
      "783.252": 5104.967804,
      "784.254": 5115.472589,
      "785.256": 5124.998473,
      "786.258": 5134.726354,
      "787.26": 5144.675836,
      "788.262": 5155.053973,
      "789.264": 5165.308682,
      "790.266": 5176.600769,
      "791.268": 5186.88944,
      "792.27": 5197.195877,
      "793.272": 5207.11933,
      "794.274": 5217.600617,
      "795.276": 5228.391951,
      "796.278": 5238.9212,
      "797.28": 5249.394789,
      "798.282": 5259.751291,
      "799.284": 5269.919981,
      "800.286": 5280.763392,
      "801.288": 5291.091733,
      "802.29": 5300.827843,
      "803.292": 5310.74488,
      "804.294": 5320.392055,
      "805.296": 5330.320849,
      "806.298": 5340.486935,
      "807.3": 5350.732616,
      "808.302": 5360.724092,
      "809.304": 5370.723776,
      "810.306": 5381.329827,
      "811.308": 5391.508818,
      "812.31": 5402.43942,
      "813.312": 5413.888081,
      "814.314": 5424.840923,
      "815.316": 5435.160114,
      "816.318": 5446.466117,
      "817.32": 5457.070513,
      "818.322": 5467.644604,
      "819.324": 5477.660179,
      "820.326": 5488.64292,
      "821.328": 5499.767026,
      "822.33": 5510.145473,
      "823.332": 5520.372698,
      "824.334": 5530.713382,
      "825.336": 5541.425854,
      "826.338": 5551.773977,
      "827.34": 5562.266028,
      "828.342": 5572.405153,
      "829.344": 5582.711463,
      "830.346": 5593.457759,
      "831.348": 5603.741348,
      "832.35": 5615.022545,
      "833.352": 5625.141084,
      "834.354": 5636.429596,
      "835.356": 5646.644755,
      "836.358": 5656.492345,
      "837.36": 5666.284676,
      "838.362": 5676.046794,
      "839.364": 5685.704683,
      "840.366": 5695.485661,
      "841.368": 5706.170445,
      "842.37": 5716.626264,
      "843.372": 5726.497037,
      "844.374": 5736.641214,
      "845.376": 5746.385346,
      "846.378": 5756.410162,
      "847.38": 5766.620895,
      "848.382": 5777.080185,
      "849.384": 5787.601032,
      "850.386": 5797.637345,
      "851.388": 5807.655117,
      "852.39": 5818.074051,
      "853.392": 5828.22869,
      "854.394": 5838.741518,
      "855.396": 5849.89934,
      "856.398": 5860.040617,
      "857.4": 5870.317651,
      "858.402": 5881.153641,
      "859.404": 5891.035341,
      "860.406": 5901.503571,
      "861.408": 5912.159014,
      "862.41": 5923.497724,
      "863.412": 5934.830764,
      "864.414": 5945.385293,
      "865.416": 5956.100894,
      "866.418": 5967.918287,
      "867.42": 5978.719384,
      "868.422": 5989.81654,
      "869.424": 6001.376221,
      "870.426": 6011.457415,
      "871.428": 6021.761135,
      "872.43": 6031.734576,
      "873.432": 6041.752386,
      "874.434": 6051.844913,
      "875.436": 6063.385011,
      "876.438": 6075.458321,
      "877.44": 6086.20948,
      "878.442": 6096.952293,
      "879.444": 6107.734763,
      "880.446": 6119.933423,
      "881.448": 6131.472831,
      "882.45": 6143.147782,
      "883.452": 6154.01563,
      "884.454": 6165.087919,
      "885.456": 6176.57733,
      "886.458": 6187.588733,
      "887.46": 6199.170525,
      "888.462": 6210.054064,
      "889.464": 6221.310224,
      "890.466": 6232.432659,
      "891.468": 6242.335575,
      "892.47": 6253.727909,
      "893.472": 6265.30388,
      "894.474": 6277.584227,
      "895.476": 6288.84035,
      "896.478": 6300.240925,
      "897.48": 6310.660456,
      "898.482": 6321.31445,
      "899.484": 6332.796647,
      "900.486": 6346.818945,
      "901.488": 6366.238336,
      "902.49": 6376.28276,
      "903.492": 6386.706346,
      "904.494": 6397.499338,
      "905.496": 6407.802316,
      "906.498": 6418.771795,
      "907.5": 6430.249904,
      "908.502": 6441.54836,
      "909.504": 6452.713348,
      "910.506": 6464.172307,
      "911.508": 6475.618325,
      "912.51": 6488.05485,
      "913.512": 6498.697224,
      "914.514": 6510.398814,
      "915.516": 6522.688848,
      "916.518": 6535.569393,
      "917.52": 6548.244614,
      "918.522": 6562.253664,
      "919.524": 6574.899811,
      "920.526": 6587.368594,
      "921.528": 6602.163074,
      "922.53": 6615.247801,
      "923.532": 6629.665324,
      "924.534": 6642.028436,
      "925.536": 6657.096516,
      "926.538": 6668.399791,
      "927.54": 6681.522154,
      "928.542": 6693.135583,
      "929.544": 6706.07607,
      "930.546": 6721.063114,
      "931.548": 6732.322766,
      "932.55": 6742.780981,
      "933.552": 6754.095535,
      "934.554": 6765.546409,
      "935.556": 6777.508611,
      "936.558": 6790.801683,
      "937.56": 6806.460978,
      "938.562": 6819.108481,
      "939.564": 6832.338137,
      "940.566": 6846.75963,
      "941.568": 6861.37034,
      "942.57": 6876.018539,
      "943.572": 6889.427888,
      "944.574": 6903.667077,
      "945.576": 6917.585782,
      "946.578": 6930.492724,
      "947.58": 6944.549138,
      "948.582": 6956.924262,
      "949.584": 6972.336986,
      "950.586": 6986.163013,
      "951.588": 6999.816532,
      "952.59": 7012.10208,
      "953.592": 7025.372684,
      "954.594": 7037.337584,
      "955.596": 7052.260961,
      "956.598": 7065.49583,
      "957.6": 7080.928204,
      "958.602": 7092.297951,
      "959.604": 7103.682077,
      "960.606": 7114.616536,
      "961.608": 7126.509061,
      "962.61": 7139.641706,
      "963.612": 7152.969238,
      "964.614": 7164.957862,
      "965.616": 7177.308248,
      "966.618": 7190.69041,
      "967.62": 7202.834022,
      "968.622": 7214.97544,
      "969.624": 7229.217842,
      "970.626": 7243.882349,
      "971.628": 7256.772323,
      "972.63": 7270.933139,
      "973.632": 7284.742722,
      "974.634": 7298.850922,
      "975.636": 7314.199084,
      "976.638": 7328.290976,
      "977.64": 7344.972927,
      "978.642": 7358.942376,
      "979.644": 7373.421947,
      "980.646": 7388.600707,
      "981.648": 7403.360638,
      "982.65": 7418.00569,
      "983.652": 7432.002611,
      "984.654": 7445.735499,
      "985.656": 7458.050367,
      "986.658": 7470.010367,
      "987.66": 7482.116737,
      "988.662": 7494.026852,
      "989.664": 7507.657629,
      "990.666": 7521.747778,
      "991.668": 7536.504553,
      "992.67": 7551.683435,
      "993.672": 7565.500598,
      "994.674": 7578.334637,
      "995.676": 7593.57984,
      "996.678": 7607.628166,
      "997.68": 7621.298724,
      "998.682": 7637.373762,
      "999.684": 7653.221332,
      "1000.686": 7668.384598,
      "1001.688": 7684.821834,
      "1002.69": 7700.557078,
      "1003.692": 7715.298287,
      "1004.694": 7730.512145,
      "1005.696": 7744.353337,
      "1006.698": 7758.559316,
      "1007.7": 7772.105842,
      "1008.702": 7786.000406,
      "1009.704": 7801.027601,
      "1010.706": 7814.025152,
      "1011.708": 7825.460038,
      "1012.71": 7836.847518,
      "1013.712": 7848.901702,
      "1014.714": 7861.048862,
      "1015.716": 7875.910587,
      "1016.718": 7889.281282,
      "1017.72": 7902.042159,
      "1018.722": 7914.902623,
      "1019.724": 7929.494495,
      "1020.726": 7944.465091,
      "1021.728": 7960.131496,
      "1022.73": 7973.891646,
      "1023.732": 7989.6444,
      "1024.734": 8005.169398,
      "1025.736": 8019.56402,
      "1026.738": 8034.574217,
      "1027.74": 8048.819772,
      "1028.742": 8063.481966,
      "1029.744": 8079.379356,
      "1030.746": 8093.576452,
      "1031.748": 8107.238939,
      "1032.75": 8120.488581,
      "1033.752": 8133.557359,
      "1034.754": 8149.223276,
      "1035.756": 8167.799718,
      "1036.758": 8179.735631,
      "1037.76": 8192.963932,
      "1038.762": 8204.267154,
      "1039.764": 8216.416368,
      "1040.766": 8229.320627,
      "1041.768": 8242.818862,
      "1042.77": 8257.692122,
      "1043.772": 8272.600397,
      "1044.774": 8286.985869,
      "1045.776": 8301.101599,
      "1046.778": 8314.906584,
      "1047.78": 8329.650868,
      "1048.782": 8342.679993,
      "1049.784": 8355.329447,
      "1050.786": 8369.325851,
      "1051.788": 8383.973381,
      "1052.79": 8398.375834,
      "1053.792": 8411.743572,
      "1054.794": 8427.35992,
      "1055.796": 8441.979746,
      "1056.798": 8456.488574,
      "1057.8": 8470.158534,
      "1058.802": 8485.44548,
      "1059.804": 8498.222966,
      "1060.806": 8511.891365,
      "1061.808": 8527.658323,
      "1062.81": 8539.063992,
      "1063.812": 8550.583352,
      "1064.814": 8562.454713,
      "1065.816": 8573.733788,
      "1066.818": 8585.542109,
      "1067.82": 8600.210144,
      "1068.822": 8613.527642,
      "1069.824": 8626.285557,
      "1070.826": 8639.445875,
      "1071.828": 8652.439289,
      "1072.83": 8666.437265,
      "1073.832": 8680.592043,
      "1074.834": 8695.206161,
      "1075.836": 8709.46553,
      "1076.838": 8722.51332,
      "1077.84": 8735.91405,
      "1078.842": 8750.90509,
      "1079.844": 8764.199811,
      "1080.846": 8779.148774,
      "1081.848": 8795.053866,
      "1082.85": 8808.787316,
      "1083.852": 8824.020406,
      "1084.854": 8840.833859,
      "1085.856": 8856.730194,
      "1086.858": 8874.025689,
      "1087.86": 8890.65277,
      "1088.862": 8903.359321,
      "1089.864": 8917.160705,
      "1090.866": 8929.702238,
      "1091.868": 8941.979025,
      "1092.87": 8955.204522,
      "1093.872": 8970.015053,
      "1094.874": 8987.420506,
      "1095.876": 9000.709326,
      "1096.878": 9015.082086,
      "1097.88": 9029.36416,
      "1098.882": 9044.208694,
      "1099.884": 9057.214078,
      "1100.886": 9071.868766,
      "1101.888": 9086.990476,
      "1102.89": 9100.151414,
      "1103.892": 9113.035659,
      "1104.894": 9127.265153,
      "1105.896": 9142.628178,
      "1106.898": 9158.760697,
      "1107.9": 9177.064877,
      "1108.902": 9192.873424,
      "1109.904": 9205.936829,
      "1110.906": 9219.377787,
      "1111.908": 9231.14464,
      "1112.91": 9245.312512,
      "1113.912": 9259.808106,
      "1114.914": 9271.574967,
      "1115.916": 9284.625963,
      "1116.918": 9296.286702,
      "1117.92": 9307.687019,
      "1118.922": 9322.398185,
      "1119.924": 9336.398746,
      "1120.926": 9350.928581,
      "1121.928": 9366.057936,
      "1122.93": 9380.844674,
      "1123.932": 9394.699532,
      "1124.934": 9410.113255,
      "1125.936": 9426.096372,
      "1126.938": 9446.967458,
      "1127.94": 9461.94512,
      "1128.942": 9475.064842,
      "1129.944": 9489.143895,
      "1130.946": 9503.416074,
      "1131.948": 9516.717302,
      "1132.95": 9532.089656,
      "1133.952": 9546.878382,
      "1134.954": 9560.761655,
      "1135.956": 9573.141147,
      "1136.958": 9587.85173,
      "1137.96": 9602.496955,
      "1138.962": 9618.906745,
      "1139.964": 9631.137596,
      "1140.966": 9644.013581,
      "1141.968": 9658.590081,
      "1142.97": 9671.166159,
      "1143.972": 9686.995833,
      "1144.974": 9701.60635,
      "1145.976": 9717.786399,
      "1146.978": 9733.976606,
      "1147.98": 9750.52776,
      "1148.982": 9765.091187,
      "1149.984": 9778.646399,
      "1150.986": 9794.140155,
      "1151.988": 9808.414375,
      "1152.99": 9822.426266,
      "1153.992": 9837.364865,
      "1154.994": 9852.982683,
      "1155.996": 9868.292918,
      "1156.998": 9883.905503,
      "1158.0": 9901.046874,
      "1159.002": 9917.052749,
      "1160.004": 9932.892906,
      "1161.006": 9949.176687,
      "1162.008": 9964.360665,
      "1163.01": 9981.51344,
      "1164.012": 9995.621239,
      "1165.014": 10008.473773,
      "1166.016": 10021.58248,
      "1167.018": 10034.585337,
      "1168.02": 10049.505804,
      "1169.022": 10063.630003,
      "1170.024": 10081.159716,
      "1171.026": 10097.209063,
      "1172.028": 10111.270665,
      "1173.03": 10125.277663,
      "1174.032": 10141.518417,
      "1175.034": 10158.318046,
      "1176.036": 10171.949168,
      "1177.038": 10188.409651,
      "1178.04": 10202.371746,
      "1179.042": 10217.331346,
      "1180.044": 10231.515288,
      "1181.046": 10246.797363,
      "1182.048": 10266.980969,
      "1183.05": 10282.429129,
      "1184.052": 10297.572075,
      "1185.054": 10313.490737,
      "1186.056": 10329.360668,
      "1187.058": 10348.136197,
      "1188.06": 10361.731141,
      "1189.062": 10373.385251,
      "1190.064": 10386.32419,
      "1191.066": 10399.364242,
      "1192.068": 10414.765533,
      "1193.07": 10431.02645,
      "1194.072": 10445.558494,
      "1195.074": 10460.517072,
      "1196.076": 10475.47904,
      "1197.078": 10489.502302,
      "1198.08": 10504.306382,
      "1199.082": 10520.181637,
      "1200.084": 10533.551071,
      "1201.086": 10561.614533,
      "1202.088": 10579.491848,
      "1203.09": 10594.914666,
      "1204.092": 10611.38098,
      "1205.094": 10627.366313,
      "1206.096": 10643.367207,
      "1207.098": 10657.570367,
      "1208.1": 10673.153183,
      "1209.102": 10688.839258,
      "1210.104": 10706.837164,
      "1211.106": 10720.490483,
      "1212.108": 10733.436473,
      "1213.11": 10746.16615,
      "1214.112": 10759.31158,
      "1215.114": 10774.603195,
      "1216.116": 10789.298681,
      "1217.118": 10804.717685,
      "1218.12": 10819.418037,
      "1219.122": 10836.617929,
      "1220.124": 10850.123141,
      "1221.126": 10866.452784,
      "1222.128": 10880.294295,
      "1223.13": 10898.739363,
      "1224.132": 10913.236668,
      "1225.134": 10929.608167,
      "1226.136": 10944.85979,
      "1227.138": 10960.652108,
      "1228.14": 10975.108103,
      "1229.142": 10991.699594,
      "1230.144": 11005.995802,
      "1231.146": 11022.096497,
      "1232.148": 11035.917064,
      "1233.15": 11051.842044,
      "1234.152": 11068.469991,
      "1235.154": 11081.521162,
      "1236.156": 11094.075976,
      "1237.158": 11106.947707,
      "1238.16": 11119.487808,
      "1239.162": 11133.483623,
      "1240.164": 11148.405215,
      "1241.166": 11164.444479,
      "1242.168": 11180.269459,
      "1243.17": 11198.509966,
      "1244.172": 11214.075473,
      "1245.174": 11232.366028,
      "1246.176": 11247.300696,
      "1247.178": 11263.992758,
      "1248.18": 11278.287878,
      "1249.182": 11292.803061,
      "1250.184": 11308.80794,
      "1251.186": 11324.455241,
      "1252.188": 11339.088265,
      "1253.19": 11354.692566,
      "1254.192": 11369.430073,
      "1255.194": 11383.212406,
      "1256.196": 11397.751115,
      "1257.198": 11412.697635,
      "1258.2": 11428.730602,
      "1259.202": 11440.394207,
      "1260.204": 11451.590004,
      "1261.206": 11462.795085,
      "1262.208": 11474.933201,
      "1263.21": 11488.721211,
      "1264.212": 11501.716869,
      "1265.214": 11516.400341,
      "1266.216": 11531.99963,
      "1267.218": 11546.738101,
      "1268.22": 11559.445375,
      "1269.222": 11576.195275,
      "1270.224": 11590.36891,
      "1271.226": 11604.748174,
      "1272.228": 11618.425225,
      "1273.23": 11633.069771,
      "1274.232": 11645.934709,
      "1275.234": 11659.369707,
      "1276.236": 11673.344823,
      "1277.238": 11688.483515,
      "1278.24": 11704.301758,
      "1279.242": 11720.255811,
      "1280.244": 11731.954744,
      "1281.246": 11745.472742,
      "1282.248": 11758.883557,
      "1283.25": 11774.257162,
      "1284.252": 11788.174795,
      "1285.254": 11802.357356,
      "1286.256": 11815.325907,
      "1287.258": 11827.539156,
      "1288.26": 11840.258664,
      "1289.262": 11853.593955,
      "1290.264": 11868.052062,
      "1291.266": 11885.349658,
      "1292.268": 11899.491415,
      "1293.27": 11917.002182,
      "1294.272": 11931.928573,
      "1295.274": 11947.002794,
      "1296.276": 11962.215504,
      "1297.278": 11979.400152,
      "1298.28": 11993.507349,
      "1299.282": 12010.624307,
      "1300.284": 12027.178723,
      "1301.286": 12042.812457,
      "1302.288": 12057.372656,
      "1303.29": 12074.405192,
      "1304.292": 12090.619622,
      "1305.294": 12109.080468,
      "1306.296": 12123.96475,
      "1307.298": 12137.646595,
      "1308.3": 12152.168335,
      "1309.302": 12166.432806,
      "1310.304": 12178.836778,
      "1311.306": 12193.734558,
      "1312.308": 12207.311059,
      "1313.31": 12221.450839,
      "1314.312": 12235.442337,
      "1315.314": 12252.999368,
      "1316.316": 12267.508565,
      "1317.318": 12281.19163,
      "1318.32": 12294.964537,
      "1319.322": 12309.024197,
      "1320.324": 12322.359764,
      "1321.326": 12336.696356,
      "1322.328": 12352.69855,
      "1323.33": 12369.31878,
      "1324.332": 12382.255842,
      "1325.334": 12398.54503,
      "1326.336": 12413.517726,
      "1327.338": 12429.551796,
      "1328.34": 12443.784959,
      "1329.342": 12458.573715,
      "1330.344": 12473.18509,
      "1331.346": 12489.72479,
      "1332.348": 12502.839045,
      "1333.35": 12520.480931,
      "1334.352": 12532.927194,
      "1335.354": 12545.478901,
      "1336.356": 12557.272514,
      "1337.358": 12570.513069,
      "1338.36": 12585.109266,
      "1339.362": 12603.094057,
      "1340.364": 12618.460294,
      "1341.366": 12643.181983,
      "1342.368": 12657.467489,
      "1343.37": 12673.805505,
      "1344.372": 12686.935527,
      "1345.374": 12703.148553,
      "1346.376": 12717.507004,
      "1347.378": 12733.88556,
      "1348.38": 12747.798681,
      "1349.382": 12762.972927,
      "1350.384": 12775.09814,
      "1351.386": 12791.142135,
      "1352.388": 12805.853231,
      "1353.39": 12823.397219,
      "1354.392": 12839.08678,
      "1355.394": 12856.443919,
      "1356.396": 12872.401977,
      "1357.398": 12888.693551,
      "1358.4": 12900.799522,
      "1359.402": 12913.374485,
      "1360.404": 12926.627921,
      "1361.406": 12942.881274,
      "1362.408": 12957.092929,
      "1363.41": 12975.687717,
      "1364.412": 12990.957621,
      "1365.414": 13005.780974,
      "1366.416": 13022.390377,
      "1367.418": 13038.970737,
      "1368.42": 13054.498245,
      "1369.422": 13067.975851,
      "1370.424": 13081.270668,
      "1371.426": 13094.897807,
      "1372.428": 13110.491141,
      "1373.43": 13125.09933,
      "1374.432": 13138.516784,
      "1375.434": 13153.359899,
      "1376.436": 13167.090033,
      "1377.438": 13183.710174,
      "1378.44": 13199.796728,
      "1379.442": 13214.399739,
      "1380.444": 13230.356787,
      "1381.446": 13247.327637,
      "1382.448": 13260.799482,
      "1383.45": 13275.453673,
      "1384.452": 13287.55813,
      "1385.454": 13301.360437,
      "1386.456": 13316.610136,
      "1387.458": 13331.766317,
      "1388.46": 13347.247754,
      "1389.462": 13361.114106,
      "1390.464": 13376.408835,
      "1391.466": 13392.766658,
      "1392.468": 13408.201918,
      "1393.47": 13423.776857,
      "1394.472": 13441.133607,
      "1395.474": 13455.42885,
      "1396.476": 13470.319775,
      "1397.478": 13484.906261,
      "1398.48": 13500.777071,
      "1399.482": 13516.2745,
      "1400.484": 13533.415729,
      "1401.486": 13555.861412,
      "1402.488": 13572.583698,
      "1403.49": 13588.733777,
      "1404.492": 13606.545738,
      "1405.494": 13623.261633,
      "1406.496": 13637.14467,
      "1407.498": 13650.916538,
      "1408.5": 13665.584761,
      "1409.502": 13681.735668,
      "1410.504": 13697.183967,
      "1411.506": 13713.171019,
      "1412.508": 13728.299445,
      "1413.51": 13743.431266,
      "1414.512": 13759.209423,
      "1415.514": 13773.836989,
      "1416.516": 13789.524982,
      "1417.518": 13804.723956,
      "1418.52": 13820.218893,
      "1419.522": 13832.275767,
      "1420.524": 13847.280621,
      "1421.526": 13863.727587,
      "1422.528": 13878.562413,
      "1423.53": 13896.445363,
      "1424.532": 13912.593871,
      "1425.534": 13929.318778,
      "1426.536": 13946.53307,
      "1427.538": 13961.555611,
      "1428.54": 13979.166302,
      "1429.542": 13992.85884,
      "1430.544": 14005.691102,
      "1431.546": 14019.459921,
      "1432.548": 14033.751832,
      "1433.55": 14049.899147,
      "1434.552": 14065.226092,
      "1435.554": 14080.629713,
      "1436.556": 14094.577736,
      "1437.558": 14108.858053,
      "1438.56": 14125.105307,
      "1439.562": 14137.987228,
      "1440.564": 14152.68103,
      "1441.566": 14167.577034,
      "1442.568": 14182.085211,
      "1443.57": 14198.549216,
      "1444.572": 14211.933291,
      "1445.574": 14227.230782,
      "1446.576": 14242.423306,
      "1447.578": 14260.119112,
      "1448.58": 14275.017104,
      "1449.582": 14287.739258,
      "1450.584": 14304.379457,
      "1451.586": 14319.520744,
      "1452.588": 14334.177606,
      "1453.59": 14347.137024,
      "1454.592": 14360.506785,
      "1455.594": 14373.509153,
      "1456.596": 14385.416144,
      "1457.598": 14399.206974,
      "1458.6": 14414.028698,
      "1459.602": 14430.300753,
      "1460.604": 14446.736854,
      "1461.606": 14464.370443,
      "1462.608": 14479.084776,
      "1463.61": 14494.389165,
      "1464.612": 14507.996659,
      "1465.614": 14522.977383,
      "1466.616": 14536.388481,
      "1467.618": 14551.691109,
      "1468.62": 14569.138229,
      "1469.622": 14583.50942,
      "1470.624": 14598.382377,
      "1471.626": 14611.152528,
      "1472.628": 14626.14734,
      "1473.63": 14640.630336,
      "1474.632": 14656.016938,
      "1475.634": 14671.288784,
      "1476.636": 14687.908334,
      "1477.638": 14703.631237,
      "1478.64": 14717.575416,
      "1479.642": 14732.300282,
      "1480.644": 14746.839163,
      "1481.646": 14762.89775,
      "1482.648": 14778.099074,
      "1483.65": 14794.404523,
      "1484.652": 14809.796491,
      "1485.654": 14827.227521,
      "1486.656": 14843.394921,
      "1487.658": 14860.097719,
      "1488.66": 14877.763288,
      "1489.662": 14896.935167,
      "1490.664": 14912.592557,
      "1491.666": 14926.456847,
      "1492.668": 14940.36256,
      "1493.67": 14956.06646,
      "1494.672": 14971.253024,
      "1495.674": 14985.905927,
      "1496.676": 15000.972647,
      "1497.678": 15016.80362,
      "1498.68": 15031.99747,
      "1499.682": 15047.811615,
      "1500.684": 15065.390618,
      "1501.686": 15083.295333,
      "1502.688": 15098.635226,
      "1503.69": 15112.815395,
      "1504.692": 15129.214914,
      "1505.694": 15144.264634,
      "1506.696": 15159.594473,
      "1507.698": 15174.005009,
      "1508.7": 15190.073619,
      "1509.702": 15205.531396,
      "1510.704": 15219.869912,
      "1511.706": 15234.293199,
      "1512.708": 15248.613703,
      "1513.71": 15262.823516,
      "1514.712": 15276.351451,
      "1515.714": 15291.021176,
      "1516.716": 15306.008379,
      "1517.718": 15319.219963,
      "1518.72": 15335.510166,
      "1519.722": 15352.110343,
      "1520.724": 15369.730634,
      "1521.726": 15384.766308,
      "1522.728": 15403.300467,
      "1523.73": 15422.339954,
      "1524.732": 15435.341118,
      "1525.734": 15448.023496,
      "1526.736": 15462.002009,
      "1527.738": 15474.719925,
      "1528.74": 15491.001435,
      "1529.742": 15505.828565,
      "1530.744": 15520.423563,
      "1531.746": 15536.518457,
      "1532.748": 15563.361935,
      "1533.75": 15578.522361,
      "1534.752": 15592.395701,
      "1535.754": 15607.898454,
      "1536.756": 15622.142821,
      "1537.758": 15637.805235,
      "1538.76": 15651.189259,
      "1539.762": 15668.747715,
      "1540.764": 15683.733888,
      "1541.766": 15700.443942,
      "1542.768": 15714.933167,
      "1543.77": 15731.555857,
      "1544.772": 15746.122041,
      "1545.774": 15760.846333,
      "1546.776": 15774.900706,
      "1547.778": 15791.791643,
      "1548.78": 15805.635198,
      "1549.782": 15817.869053,
      "1550.784": 15830.873786,
      "1551.786": 15844.478273,
      "1552.788": 15859.504881,
      "1553.79": 15877.314378,
      "1554.792": 15894.505011,
      "1555.794": 15909.143994,
      "1556.796": 15922.827746,
      "1557.798": 15939.21448,
      "1558.8": 15954.545391,
      "1559.802": 15970.423613,
      "1560.804": 15985.896308,
      "1561.806": 16002.187966,
      "1562.808": 16018.491201,
      "1563.81": 16035.751141,
      "1564.812": 16051.621734,
      "1565.814": 16067.258755,
      "1566.816": 16081.981299,
      "1567.818": 16096.557038,
      "1568.82": 16111.727031,
      "1569.822": 16125.283298,
      "1570.824": 16142.837388,
      "1571.826": 16158.007366,
      "1572.828": 16172.898381,
      "1573.83": 16186.152101,
      "1574.832": 16199.165385,
      "1575.834": 16215.380403,
      "1576.836": 16230.341512,
      "1577.838": 16245.165137,
      "1578.84": 16262.910075,
      "1579.842": 16280.78929,
      "1580.844": 16295.714401,
      "1581.846": 16313.459378,
      "1582.848": 16329.59324,
      "1583.85": 16345.941714,
      "1584.852": 16362.136195,
      "1585.854": 16377.999297,
      "1586.856": 16394.78168,
      "1587.858": 16409.986557,
      "1588.86": 16425.687084,
      "1589.862": 16441.897416,
      "1590.864": 16457.688351,
      "1591.866": 16476.118619,
      "1592.868": 16498.119107,
      "1593.87": 16517.166108,
      "1594.872": 16541.878822,
      "1595.874": 16555.113196,
      "1596.876": 16570.763243,
      "1597.878": 16586.035292,
      "1598.88": 16600.908405,
      "1599.882": 16617.174277,
      "1600.884": 16634.686352,
      "1601.886": 16652.167041,
      "1602.888": 16668.315619,
      "1603.89": 16683.033857,
      "1604.892": 16697.396368,
      "1605.894": 16711.85299,
      "1606.896": 16727.190079,
      "1607.898": 16742.74001,
      "1608.9": 16758.784303,
      "1609.902": 16776.308246,
      "1610.904": 16790.388669,
      "1611.906": 16804.021903,
      "1612.908": 16819.544877,
      "1613.91": 16836.229635,
      "1614.912": 16852.895234,
      "1615.914": 16868.066147,
      "1616.916": 16883.99875,
      "1617.918": 16897.153668,
      "1618.92": 16910.061249,
      "1619.922": 16923.024103,
      "1620.924": 16937.959015,
      "1621.926": 16952.958709,
      "1622.928": 16970.354648,
      "1623.93": 16985.212492,
      "1624.932": 17002.906418,
      "1625.934": 17016.933808,
      "1626.936": 17032.371995,
      "1627.938": 17045.81268,
      "1628.94": 17060.077331,
      "1629.942": 17076.071145,
      "1630.944": 17089.867211,
      "1631.946": 17106.087041,
      "1632.948": 17121.25704,
      "1633.95": 17137.431062,
      "1634.952": 17153.785165,
      "1635.954": 17168.562524,
      "1636.956": 17183.415371,
      "1637.958": 17198.462971,
      "1638.96": 17213.778378,
      "1639.962": 17232.193224,
      "1640.964": 17248.150402,
      "1641.966": 17260.928645,
      "1642.968": 17274.617595,
      "1643.97": 17288.499764,
      "1644.972": 17304.76413,
      "1645.974": 17320.947085,
      "1646.976": 17335.907933,
      "1647.978": 17350.475727,
      "1648.98": 17365.415364,
      "1649.982": 17380.029054,
      "1650.984": 17396.388604,
      "1651.986": 17411.758849,
      "1652.988": 17432.623836,
      "1653.99": 17449.549985,
      "1654.992": 17469.900089,
      "1655.994": 17485.69265,
      "1656.996": 17500.843441,
      "1657.998": 17517.11391,
      "1659.0": 17534.094716,
      "1660.002": 17547.810747,
      "1661.004": 17564.470368,
      "1662.006": 17579.025467,
      "1663.008": 17596.611944,
      "1664.01": 17612.96437,
      "1665.012": 17626.951529,
      "1666.014": 17640.040245,
      "1667.016": 17654.10387,
      "1668.018": 17670.947808,
      "1669.02": 17687.342168,
      "1670.022": 17701.997078,
      "1671.024": 17719.009796,
      "1672.026": 17734.928087,
      "1673.028": 17754.005154,
      "1674.03": 17770.848066,
      "1675.032": 17787.803355,
      "1676.034": 17802.872453,
      "1677.036": 17819.710145,
      "1678.038": 17837.410128,
      "1679.04": 17855.071547,
      "1680.042": 17870.727253,
      "1681.044": 17889.053832,
      "1682.046": 17904.425421,
      "1683.048": 17918.789276,
      "1684.05": 17936.885946,
      "1685.052": 17952.570384,
      "1686.054": 17970.10547,
      "1687.056": 17983.045597,
      "1688.058": 17997.92058,
      "1689.06": 18013.711299,
      "1690.062": 18030.806041,
      "1691.064": 18047.314858,
      "1692.066": 18064.76453,
      "1693.068": 18084.658609,
      "1694.07": 18101.348989,
      "1695.072": 18118.549893,
      "1696.074": 18135.216103,
      "1697.076": 18150.953939,
      "1698.078": 18166.827587,
      "1699.08": 18183.608092,
      "1700.082": 18199.024334,
      "1701.084": 18216.876105,
      "1702.086": 18231.404887,
      "1703.088": 18246.123989,
      "1704.09": 18265.542456,
      "1705.092": 18281.627297,
      "1706.094": 18296.685664,
      "1707.096": 18314.319216,
      "1708.098": 18332.85718,
      "1709.1": 18348.998316,
      "1710.102": 18362.951984,
      "1711.104": 18377.726724,
      "1712.106": 18393.685265,
      "1713.108": 18410.43839,
      "1714.11": 18428.540595,
      "1715.112": 18443.638643,
      "1716.114": 18462.780758,
      "1717.116": 18481.527082,
      "1718.118": 18500.133758,
      "1719.12": 18516.08906,
      "1720.122": 18534.11977,
      "1721.124": 18550.542571,
      "1722.126": 18566.981251,
      "1723.128": 18580.783055,
      "1724.13": 18595.186739,
      "1725.132": 18611.819023,
      "1726.134": 18628.697915,
      "1727.136": 18646.608995,
      "1728.138": 18661.329825,
      "1729.14": 18677.461202,
      "1730.142": 18696.035905,
      "1731.144": 18713.094817,
      "1732.146": 18729.326265,
      "1733.148": 18744.502489,
      "1734.15": 18761.100467,
      "1735.152": 18780.530091,
      "1736.154": 18798.266053,
      "1737.156": 18813.825722,
      "1738.158": 18832.300815,
      "1739.16": 18850.345122,
      "1740.162": 18864.653631,
      "1741.164": 18880.682004,
      "1742.166": 18896.118293,
      "1743.168": 18914.854841,
      "1744.17": 18933.402148,
      "1745.172": 18969.804027,
      "1746.174": 18985.102594,
      "1747.176": 19001.510263,
      "1748.178": 19018.413341,
      "1749.18": 19034.901137,
      "1750.182": 19055.007194,
      "1751.184": 19070.399951,
      "1752.186": 19085.748644,
      "1753.188": 19100.799683,
      "1754.19": 19115.035748,
      "1755.192": 19132.206484,
      "1756.194": 19151.418256,
      "1757.196": 19169.196361,
      "1758.198": 19186.611418,
      "1759.2": 19202.498607,
      "1760.202": 19220.331052,
      "1761.204": 19235.233868,
      "1762.206": 19251.186157,
      "1763.208": 19267.889697,
      "1764.21": 19281.584014,
      "1765.212": 19298.891564,
      "1766.214": 19316.524336,
      "1767.216": 19331.793029,
      "1768.218": 19349.478329,
      "1769.22": 19366.483917,
      "1770.222": 19386.613097,
      "1771.224": 19402.14339,
      "1772.226": 19423.115471,
      "1773.228": 19437.144124,
      "1774.23": 19454.095922,
      "1775.232": 19467.154355,
      "1776.234": 19483.943318,
      "1777.236": 19498.70169,
      "1778.238": 19518.081192,
      "1779.24": 19535.553397,
      "1780.242": 19552.967554,
      "1781.244": 19567.003696,
      "1782.246": 19583.586559,
      "1783.248": 19601.49865,
      "1784.25": 19616.573277,
      "1785.252": 19631.518275,
      "1786.254": 19645.286424,
      "1787.256": 19660.668274,
      "1788.258": 19677.634643,
      "1789.26": 19694.884928,
      "1790.262": 19711.413373,
      "1791.264": 19728.913537,
      "1792.266": 19747.659053,
      "1793.268": 19763.978789,
      "1794.27": 19780.65947,
      "1795.272": 19796.840708,
      "1796.274": 19813.342854,
      "1797.276": 19828.3938,
      "1798.278": 19846.953982,
      "1799.28": 19862.452014,
      "1800.282": 19878.871552,
      "1801.284": 19906.178111,
      "1802.286": 19929.752373,
      "1803.288": 19948.164906,
      "1804.29": 19968.986983,
      "1805.292": 19995.020518,
      "1806.294": 20013.25494,
      "1807.296": 20027.221549,
      "1808.298": 20043.474685,
      "1809.3": 20059.507391,
      "1810.302": 20077.172876,
      "1811.304": 20093.293549,
      "1812.306": 20107.872475,
      "1813.308": 20124.772743,
      "1814.31": 20143.523391,
      "1815.312": 20157.135369,
      "1816.314": 20174.285196,
      "1817.316": 20190.514641,
      "1818.318": 20205.177018,
      "1819.32": 20222.022534,
      "1820.322": 20239.109794,
      "1821.324": 20258.147329,
      "1822.326": 20277.580633,
      "1823.328": 20297.454369,
      "1824.33": 20316.935288,
      "1825.332": 20339.622151,
      "1826.334": 20356.106644,
      "1827.336": 20375.009074,
      "1828.338": 20390.53068,
      "1829.34": 20409.519484,
      "1830.342": 20428.126248,
      "1831.344": 20444.329821,
      "1832.346": 20463.10049,
      "1833.348": 20481.328213,
      "1834.35": 20498.00222,
      "1835.352": 20515.498616,
      "1836.354": 20531.888403,
      "1837.356": 20546.412153,
      "1838.358": 20562.430355,
      "1839.36": 20580.258148,
      "1840.362": 20600.876597,
      "1841.364": 20622.275943,
      "1842.366": 20640.878325,
      "1843.368": 20658.759982,
      "1844.37": 20676.252681,
      "1845.372": 20696.312056,
      "1846.374": 20714.25766,
      "1847.376": 20731.620761,
      "1848.378": 20746.46296,
      "1849.38": 20766.468524,
      "1850.382": 20785.307879,
      "1851.384": 20804.084706,
      "1852.386": 20824.84127,
      "1853.388": 20844.422339,
      "1854.39": 20860.661206,
      "1855.392": 20877.735656,
      "1856.394": 20891.984252,
      "1857.396": 20907.731725,
      "1858.398": 20923.438814,
      "1859.4": 20943.136223
    },
    "seconds": 20943.136223
  }
}