{
  "1200": 3684361488,
  "1201": 3734551211,
  "1202": 3722725155,
  "1203": 3656182446,
  "1204": 3699928948,
  "1205": 3731834457,
  "1206": 3706174710,
  "1207": 3700475396,
  "1208": 3643422091,
  "1209": 3685570963,
  "1210": 3678002358,
  "1211": 3657219611,
  "1212": 3671298959,
  "1213": 3695175458,
  "1214": 3656160104,
  "1215": 3610944600,
  "1216": 3645848180,
  "1217": 3594591673,
  "1218": 3632411762,
  "1219": 3603376378,
  "1220": 3640870797,
  "1221": 3624003503,
  "1222": 3582783391,
  "1223": 3633577190,
  "1224": 3590865246,
  "1225": 3586900095,
  "1226": 3637055658,
  "1227": 3651738967,
  "1228": 3708498316,
  "1229": 3667355157,
  "1230": 3626983627,
  "1231": 3623744340,
  "1232": 3636565847,
  "1233": 3594184740,
  "1234": 3631466987,
  "1235": 3588353867,
  "1236": 3688382120,
  "1237": 3640142844,
  "1238": 3694332599,
  "1239": 3691809186,
  "1240": 3691948894,
  "1241": 3693684536,
  "1242": 3651536248,
  "1243": 3662712938,
  "1244": 3681358090,
  "1245": 3639245439,
  "1246": 3696625169,
  "1247": 3695263676,
  "1248": 3664993664,
  "1249": 3603431038,
  "1250": 3666050553,
  "1251": 3679950949,
  "1252": 3673214036,
  "1253": 3652219462,
  "1254": 3690771201,
  "1255": 3687340842,
  "1256": 3679990234,
  "1257": 3723412816,
  "1258": 3708411343,
  "1259": 3715558591,
  "1260": 3693401955,
  "1261": 3671420696,
  "1262": 3719317271,
  "1263": 3675127635,
  "1264": 3646492093,
  "1265": 3676059253,
  "1266": 3673182647,
  "1267": 3662129963,
  "1268": 3616053478,
  "1269": 3625500965,
  "1270": 3604277452,
  "1271": 3597233760,
  "1272": 3642165591,
  "1273": 3644617349,
  "1274": 3657167749,
  "1275": 3633800648,
  "1276": 3672027886,
  "1277": 3684281704,
  "1278": 3684540577,
  "1279": 3633314337,
  "1280": 3703446291,
  "1281": 3689300218,
  "1282": 3718503194,
  "1283": 3705943533,
  "1284": 3708531545,
  "1285": 3746866094,
  "1286": 3681014550,
  "1287": 3632627210,
  "1288": 3652840671,
  "1289": 3651533945,
  "1290": 3663101655,
  "1291": 3661986391,
  "1292": 3693083171,
  "1293": 3725957098,
  "1294": 3753108709,
  "1295": 3743714595,
  "1296": 3711564679,
  "1297": 3752782952,
  "1298": 3735307779,
  "1299": 3733621915,
  "1300": 3710754188,
  "1301": 3682133702,
  "1302": 3707731878,
  "1303": 3757999078,
  "1304": 3687220311,
  "1305": 3651341432,
  "1306": 3701504575,
  "1307": 3707365412,
  "1308": 3686768642,
  "1309": 3621885244,
  "1310": 3670605821,
  "1311": 3697485856,
  "1312": 3669126987,
  "1313": 3711631976,
  "1314": 3701670837,
  "1315": 3696229217,
  "1316": 3682548797,
  "1317": 3652907233,
  "1318": 3657159095,
  "1319": 3684603333,
  "1320": 3638690720,
  "1321": 3706289511,
  "1322": 3713907392,
  "1323": 3695499636,
  "1324": 3664102761,
  "1325": 3733369594,
  "1326": 3779588025,
  "1327": 3727582684,
  "1328": 3752363277,
  "1329": 3751019192,
  "1330": 3735228945,
  "1331": 3722799669,
  "1332": 3689549614,
  "1333": 3707404526,
  "1334": 3704263176,
  "1335": 3690824965,
  "1336": 3670083509,
  "1337": 3647522326,
  "1338": 3721319407,
  "1339": 3727849038,
  "1340": 3716413785,
  "1341": 3676398452,
  "1342": 3690014601,
  "1343": 3643559751,
  "1344": 3668680604,
  "1345": 3633487791,
  "1346": 3683084784,
  "1347": 3680522651,
  "1348": 3667105448,
  "1349": 3716649224,
  "1350": 3698198051,
  "1351": 3660176180,
  "1352": 3624623978,
  "1353": 3725940134,
  "1354": 3772263927,
  "1355": 3745455229,
  "1356": 3728203122,
  "1357": 3719994127,
  "1358": 3708315125,
  "1359": 3723300304,
  "1360": 3698989210,
  "1361": 3728482194,
  "1362": 3725004123,
  "1363": 3717628867,
  "1364": 3674625338,
  "1365": 3677260834,
  "1366": 3702826685,
  "1367": 3701736750,
  "1368": 3649044477,
  "1369": 3668693845,
  "1370": 3621712571,
  "1371": 3633824041,
  "1372": 3692303198,
  "1373": 3702520242,
  "1374": 3715345824,
  "1375": 3751862941,
  "1376": 3707716883,
  "1377": 3695097858,
  "1378": 3711942493,
  "1379": 3692525884,
  "1380": 3723172063,
  "1381": 3701875453,
  "1382": 3679768195,
  "1383": 3699914882,
  "1384": 3669305021,
  "1385": 3696062143,
  "1386": 3675165608,
  "1387": 3709078002,
  "1388": 3720441210,
  "1389": 3723856505,
  "1390": 3690788822,
  "1391": 3676660904,
  "1392": 3701654450,
  "1393": 3707064224,
  "1394": 3731723333,
  "1395": 3736415350,
  "1396": 3745839034,
  "1397": 3730072601,
  "1398": 3737722604,
  "1399": 3741621265,
  "1400": 3715692098,
  "1401": 3712911679,
  "1402": 3681347178,
  "1403": 3645470361,
  "1404": 3632618588,
  "1405": 3657595239,
  "1406": 3670076691,
  "1407": 3710431543,
  "1408": 3708487160,
  "1409": 3652821521,
  "1410": 3632248639,
  "1411": 3685799194,
  "1412": 3697095411,
  "1413": 3700141897,
  "1414": 3734877624,
  "1415": 3771876346,
  "1416": 3716755931,
  "1417": 3759949138,
  "1418": 3751225343,
  "1419": 3728006139,
  "1420": 3737642225,
  "1421": 3706904580,
  "1422": 3701197981,
  "1423": 3654847335,
  "1424": 3721866155,
  "1425": 3756839967,
  "1426": 3744877375,
  "1427": 3706090614,
  "1428": 3610358014,
  "1429": 3612206685,
  "1430": 3644220036,
  "1431": 3702985064,
  "1432": 3762240849,
  "1433": 3725986536,
  "1434": 3730577645,
  "1435": 3752319999,
  "1436": 3692340958,
  "1437": 3651000904,
  "1438": 3673769804,
  "1439": 3683246972,
  "1440": 3639323258,
  "1441": 3685334746,
  "1442": 3674061383,
  "1443": 3682086024,
  "1444": 3703332200,
  "1445": 3710159042,
  "1446": 3778992372,
  "1447": 3715297793,
  "1448": 3669835005,
  "1449": 3706224695,
  "1450": 3725372524,
  "1451": 3760720695,
  "1452": 3804283065,
  "1453": 3763092980,
  "1454": 3775951690,
  "1455": 3751304034,
  "1456": 3746479649,
  "1457": 3740299521,
  "1458": 3695546348,
  "1459": 3665244501,
  "1460": 3723425439,
  "1461": 3734933514,
  "1462": 3718848770,
  "1463": 3700038229,
  "1464": 3736078733,
  "1465": 3733982621,
  "1466": 3689968608,
  "1467": 3717450745,
  "1468": 3709999074,
  "1469": 3715028752,
  "1470": 3669350967,
  "1471": 3681482209,
  "1472": 3761044044,
  "1473": 3770484935,
  "1474": 3754413619,
  "1475": 3717911904,
  "1476": 3786958618,
  "1477": 3751595677,
  "1478": 3712241072,
  "1479": 3762031395,
  "1480": 3737861744,
  "1481": 3698816799,
  "1482": 3698033832,
  "1483": 3667420508,
  "1484": 3674071756,
  "1485": 3687145334,
  "1486": 3721077704,
  "1487": 3730497584,
  "1488": 3745539252,
  "1489": 3742882627,
  "1490": 3744463831,
  "1491": 3703017830,
  "1492": 3705639363,
  "1493": 3731776703,
  "1494": 3658560948,
  "1495": 3669405238,
  "1496": 3702983262,
  "1497": 3707377002,
  "1498": 3723261991,
  "1499": 3684389037,
  "1500": 3759348981,
  "1501": 3797731586,
  "1502": 3781517863,
  "1503": 3756530107,
  "1504": 3730638131,
  "1505": 3778219076,
  "1506": 3778891475,
  "1507": 3800961910,
  "1508": 3765527951,
  "1509": 3699047395,
  "1510": 3709192621,
  "1511": 3716618374,
  "1512": 3699086134,
  "1513": 3724789697,
  "1514": 3689226545,
  "1515": 3676598083,
  "1516": 3631318915,
  "1517": 3670574652,
  "1518": 3721841187,
  "1519": 3695824640,
  "1520": 3756890095,
  "1521": 3717363100,
  "1522": 3636576062,
  "1523": 3716524981,
  "1524": 3688795948,
  "1525": 3745377049,
  "1526": 3757188475,
  "1527": 3746719326,
  "1528": 3710925719,
  "1529": 3737087126,
  "1530": 3692135751,
  "1531": 3670778187,
  "1532": 3670074197,
  "1533": 3759197621,
  "1534": 3734188800,
  "1535": 3707145722,
  "1536": 3678190695,
  "1537": 3661805146,
  "1538": 3718254347,
  "1539": 3730553380,
  "1540": 3722467342,
  "1541": 3715533744,
  "1542": 3708248119,
  "1543": 3688625857,
  "1544": 3678592604,
  "1545": 3714322848,
  "1546": 3738677079,
  "1547": 3731451103,
  "1548": 3757725627,
  "1549": 3746707196,
  "1550": 3721406162,
  "1551": 3711146539,
  "1552": 3744201978,
  "1553": 3707788261,
  "1554": 3786642629,
  "1555": 3778150784,
  "1556": 3773811090,
  "1557": 3729870061,
  "1558": 3797122705,
  "1559": 3788224562,
  "1560": 3743424771,
  "1561": 3769380949,
  "1562": 3760392874,
  "1563": 3721126118,
  "1564": 3756657484,
  "1565": 3781625439,
  "1566": 3723381572,
  "1567": 3713419306,
  "1568": 3686968694,
  "1569": 3707413883,
  "1570": 3721879733,
  "1571": 3744640028,
  "1572": 3740252688,
  "1573": 3724032273,
  "1574": 3687454516,
  "1575": 3666818222,
  "1576": 3671101542,
  "1577": 3716524677,
  "1578": 3695657145,
  "1579": 3742276160,
  "1580": 3740481901,
  "1581": 3750450113,
  "1582": 3752822707,
  "1583": 3744166061,
  "1584": 3729008207,
  "1585": 3678364277,
  "1586": 3667072682,
  "1587": 3688728690,
  "1588": 3740933547,
  "1589": 3683450342,
  "1590": 3685222660,
  "1591": 3684668690,
  "1592": 3672458257,
  "1593": 3712194661,
  "1594": 3725670291,
  "1595": 3734170230,
  "1596": 3669226697,
  "1597": 3681268452,
  "1598": 3681453846,
  "1599": 3709740748,
  "1600": 3694401061,
  "1601": 3696652249,
  "1602": 3721585135,
  "1603": 3738404801,
  "1604": 3748049912,
  "1605": 3759733953,
  "1606": 3751051364,
  "1607": 3711464379,
  "1608": 3712647295,
  "1609": 3742611590,
  "1610": 3739239412,
  "1611": 3759459304,
  "1612": 3803970229,
  "1613": 3830432483,
  "1614": 3759517418,
  "1615": 3713511821,
  "1616": 3734094568,
  "1617": 3723670713,
  "1618": 3767156184,
  "1619": 3723678221,
  "1620": 3667978644,
  "1621": 3697828171,
  "1622": 3712714403,
  "1623": 3700762335,
  "1624": 3716341262,
  "1625": 3699919410,
  "1626": 3753108219,
  "1627": 3785014160,
  "1628": 3718179003,
  "1629": 3760624253,
  "1630": 3732627937,
  "1631": 3820824145,
  "1632": 3811977440,
  "1633": 3744155701,
  "1634": 3747333180,
  "1635": 3720629743,
  "1636": 3786309729,
  "1637": 3750998453,
  "1638": 3809183873,
  "1639": 3761109461,
  "1640": 3754608561,
  "1641": 3750659629,
  "1642": 3770223521,
  "1643": 3773357329,
  "1644": 3754649072,
  "1645": 3748855373,
  "1646": 3758849293,
  "1647": 3751611889,
  "1648": 3763402843,
  "1649": 3821709455,
  "1650": 3821113304,
  "1651": 3780456383,
  "1652": 3786339998,
  "1653": 3739026611,
  "1654": 3756752484,
  "1655": 3822492150,
  "1656": 3768310530,
  "1657": 3762512170,
  "1658": 3788545094,
  "1659": 3735173258,
  "1660": 3772743296,
  "1661": 3797682241,
  "1662": 3754004555,
  "1663": 3806726258,
  "1664": 3779995850,
  "1665": 3818415415,
  "1666": 3723543063,
  "1667": 3738521070,
  "1668": 3757610441,
  "1669": 3723232138,
  "1670": 3730721763,
  "1671": 3737628620,
  "1672": 3801216459,
  "1673": 3797190932,
  "1674": 3824518520,
  "1675": 3855066841,
  "1676": 3823144607,
  "1677": 3795963380,
  "1678": 3786418019,
  "1679": 3791071022,
  "1680": 3810103873,
  "1681": 3841942904,
  "1682": 3809820258,
  "1683": 3810527427,
  "1684": 3803207016,
  "1685": 3815408896,
  "1686": 3760344828,
  "1687": 3734859560,
  "1688": 3792607213,
  "1689": 3820648157,
  "1690": 3784790719,
  "1691": 3786965413,
  "1692": 3806336087,
  "1693": 3846151321,
  "1694": 3810371642,
  "1695": 3754393425,
  "1696": 3796627838,
  "1697": 3757799356,
  "1698": 3801729108,
  "1699": 3841735470,
  "1700": 3803605982,
  "1701": 3838655052,
  "1702": 3835759978,
  "1703": 3777487756,
  "1704": 3790544483,
  "1705": 3812908589,
  "1706": 3780625256,
  "1707": 3800421937,
  "1708": 3829477412,
  "1709": 3801467592,
  "1710": 3855685436,
  "1711": 3787994861,
  "1712": 3778646468,
  "1713": 3770023535,
  "1714": 3767829111,
  "1715": 3802367830,
  "1716": 3789132966,
  "1717": 3758065075,
  "1718": 3769613355,
  "1719": 3790878989,
  "1720": 3801326597,
  "1721": 3735038060,
  "1722": 3782926719,
  "1723": 3794683052,
  "1724": 3793601695,
  "1725": 3835780156,
  "1726": 3756100702,
  "1727": 3769069978,
  "1728": 3777445895,
  "1729": 3816495537,
  "1730": 3792996402,
  "1731": 3829450204,
  "1732": 3776977405,
  "1733": 3700362396,
  "1734": 3728086448,
  "1735": 3722244628,
  "1736": 3789884765,
  "1737": 3804841932,
  "1738": 3735696025,
  "1739": 3674227563,
  "1740": 3718579315,
  "1741": 3798494973,
  "1742": 3808839504,
  "1743": 3790516682,
  "1744": 3761435029,
  "1745": 3773858662,
  "1746": 3782641068,
  "1747": 3748507487,
  "1748": 3783929679,
  "1749": 3889326081,
  "1750": 3768802132,
  "1751": 3746209996,
  "1752": 3749374294,
  "1753": 3754166965,
  "1754": 3814088696,
  "1755": 3795076848,
  "1756": 3739813397,
  "1757": 3758521322,
  "1758": 3783646631,
  "1759": 3779614539,
  "1760": 3782154308,
  "1761": 3763747086,
  "1762": 3822168749,
  "1763": 3783752425,
  "1764": 3799177221,
  "1765": 3776006622,
  "1766": 3769739349,
  "1767": 3765041880,
  "1768": 3760035945,
  "1769": 3799349838,
  "1770": 3767852556,
  "1771": 3743709850,
  "1772": 3752106864,
  "1773": 3775170440,
  "1774": 3788918268,
  "1775": 3752098661,
  "1776": 3717011837,
  "1777": 3799008853,
  "1778": 3795751551,
  "1779": 3744281184,
  "1780": 3716226124,
  "1781": 3768229209,
  "1782": 3769042689,
  "1783": 3804149466,
  "1784": 3766429138,
  "1785": 3767556072,
  "1786": 3792144407,
  "1787": 3767659954,
  "1788": 3774749925,
  "1789": 3734706269,
  "1790": 3772978368,
  "1791": 3757192919,
  "1792": 3765799825,
  "1793": 3722291940,
  "1794": 3727063604,
  "1795": 3831988218,
  "1796": 3796007317,
  "1797": 3775303788,
  "1798": 3767798115,
  "1799": 3794576959
}