[
  0.35,
  0.372,
  0.525,
  0.438,
  0.413,
  0.348,
  0.46,
  0.389,
  0.588,
  0.333,
  0.497283,
  0.701653,
  0.466717,
  0.469,
  0.758124,
  0.385012,
  0.483947,
  0.54,
  0.683453,
  0.673511,
  0.508905,
  0.489,
  0.739245,
  0.476,
  0.738306,
  0.636331,
  0.519,
  0.520678,
  0.747,
  0.462778,
  0.315,
  0.256,
  0.412,
  0.658,
  0.364,
  0.507,
  0.348,
  0.486,
  0.199,
  0.399,
  0.35,
  0.5,
  0.528,
  0.605,
  0.27,
  0.398,
  0.35,
  0.46,
  0.288,
  0.833,
  0.539,
  0.772,
  0.573,
  0.869,
  0.492,
  0.667,
  0.795,
  0.795,
  0.469,
  0.267,
  0.474,
  0.246,
  0.497,
  0.156,
  0.339,
  0.458,
  0.452,
  0.208446,
  0.273,
  0.248,
  0.504,
  0.338,
  0.391,
  0.198,
  0.364,
  0.321,
  0.432,
  0.523,
  0.493,
  0.422,
  0.661117,
  0.434316,
  0.57,
  0.476777,
  0.530111,
  0.465889,
  0.710903,
  0.573,
  0.468055,
  0.637,
  0.526,
  0.639,
  0.386,
  0.675,
  0.455,
  0.649,
  0.403,
  0.483,
  0.412,
  0.82,
  0.455,
  0.818,
  0.318,
  0.501,
  0.384,
  0.63,
  0.424,
  0.563,
  0.524,
  0.706,
  0.748,
  0.692,
  0.761,
  0.636,
  0.511,
  0.743,
  0.547,
  0.634,
  0.604,
  0.865,
  0.67,
  0.778,
  0.546,
  0.679,
  0.613,
  0.751,
  0.527,
  0.566,
  0.535,
  0.543,
  0.416,
  0.595,
  0.232,
  0.462,
  0.376,
  0.57,
  0.307,
  0.296,
  0.258,
  0.442,
  0.436316,
  0.435053,
  0.341,
  0.354,
  0.368,
  0.437,
  0.201,
  0.592,
  0.539,
  0.774,
  0.516,
  0.719,
  0.685,
  0.737,
  0.504,
  1.482,
  0.509738,
  0.837,
  0.699,
  0.551023,
  0.643049,
  0.465502,
  0.572103,
  0.542112,
  0.77566,
  0.722215,
  0.574,
  0.528,
  0.702,
  0.583,
  0.716,
  0.486,
  0.645,
  0.663,
  0.721,
  0.508,
  0.525,
  0.728,
  0.589,
  0.683,
  0.691,
  0.662,
  0.675,
  1.031,
  0.621,
  0.633,
  0.616,
  0.537,
  0.744,
  0.607,
  0.436,
  0.72,
  0.459,
  0.506,
  0.499,
  0.72,
  0.473,
  0.796,
  0.609,
  0.637,
  0.691,
  0.398,
  0.855,
  0.706,
  0.846,
  0.4,
  0.617,
  0.348,
  0.551,
  0.439,
  0.641,
  0.34,
  0.365,
  0.487,
  0.511,
  0.362,
  0.477,
  0.239,
  0.439,
  0.285,
  0.623,
  0.265,
  0.363,
  0.555,
  0.715,
  0.425,
  0.473,
  0.303,
  0.429,
  0.352,
  0.553,
  0.347,
  0.343,
  0.302,
  0.526,
  0.294,
  0.502,
  0.468539,
  0.373,
  0.286,
  0.518,
  0.23,
  0.292,
  0.492,
  0.477,
  0.292,
  0.423,
  0.348,
  0.35,
  0.557,
  0.489,
  0.258,
  0.263,
  0.359,
  0.621,
  0.303,
  0.525,
  0.301,
  0.384,
  0.287585,
  0.533,
  0.566,
  0.522,
  0.41,
  0.48,
  0.391,
  0.808,
  0.509,
  0.465,
  0.398,
  0.771,
  0.348,
  0.537,
  0.687,
  0.675,
  0.444,
  0.749,
  0.608,
  0.665,
  0.422,
  0.6,
  0.342,
  0.264,
  0.375,
  0.412,
  0.21,
  0.531,
  0.362,
  0.297,
  0.211,
  0.412,
  0.145,
  0.732,
  0.571,
  0.629,
  0.47,
  0.605,
  0.36,
  0.442,
  0.412,
  0.618,
  0.324,
  0.389,
  0.422,
  0.489,
  0.613,
  0.461,
  0.31,
  0.504,
  0.403,
  0.684,
  0.347,
  0.437,
  0.521,
  0.389119,
  0.359,
  0.608,
  0.351,
  0.359,
  0.439,
  0.233,
  0.497,
  0.321,
  0.479,
  0.383,
  0.517,
  0.351,
  0.567,
  0.391,
  0.653,
  0.455777,
  0.628,
  0.569613,
  0.504,
  0.76,
  0.595226,
  0.554,
  0.678,
  0.708,
  0.341805,
  0.312,
  0.582,
  0.378073,
  0.543195,
  0.259756,
  0.396756,
  0.491,
  0.516,
  0.564,
  0.449,
  0.57,
  0.486,
  0.757,
  0.389,
  0.529,
  0.446,
  0.737,
  0.56,
  0.957,
  0.472,
  0.492,
  0.587,
  0.608,
  0.569,
  0.428,
  0.467,
  0.688,
  0.519,
  0.553,
  0.5,
  0.743457,
  0.54772,
  0.727,
  0.39,
  0.563432,
  0.662,
  0.716,
  0.358,
  0.228,
  0.545,
  0.301,
  0.581,
  0.211,
  0.39,
  0.362,
  0.496,
  0.398,
  0.522,
  0.481,
  0.616,
  0.493,
  0.627,
  0.34,
  0.585,
  0.416,
  0.679,
  0.611,
  0.296,
  0.255,
  0.497,
  0.362,
  0.357,
  0.273,
  0.371,
  0.308,
  0.478,
  0.254,
  0.329,
  0.257548,
  0.373637,
  0.259828,
  0.47,
  0.18,
  0.286,
  0.217883,
  0.432,
  0.223235,
  0.457,
  0.454,
  0.549,
  0.454,
  0.604,
  0.355324,
  0.435,
  0.514,
  0.624,
  0.306,
  0.316,
  0.246,
  0.553,
  0.365,
  0.535,
  0.235,
  0.392,
  0.262,
  0.468,
  0.216,
  0.467,
  0.446,
  0.481748,
  0.492,
  0.549,
  0.489903,
  0.437903,
  0.711,
  0.333,
  0.608,
  0.651,
  0.656,
  0.604,
  0.45,
  0.514,
  0.638,
  0.638,
  0.387765,
  0.383,
  0.859758,
  0.57328,
  0.584096,
  0.41094,
  0.449,
  0.5692,
  0.37494,
  0.610284,
  0.494,
  0.645,
  0.557716,
  0.684716,
  0.507026,
  0.608716,
  0.768026,
  0.737,
  0.476,
  0.318,
  0.527,
  0.479903,
  0.483119,
  0.596,
  0.245024,
  0.377,
  0.416,
  0.63,
  0.379,
  0.282,
  0.283,
  0.473,
  0.261,
  0.443,
  0.191,
  0.327,
  0.213,
  0.405,
  0.264,
  0.787,
  0.782,
  0.91,
  0.779,
  0.986,
  0.726,
  0.82,
  0.749,
  0.982,
  0.796,
  0.479,
  0.426,
  0.677,
  0.452,
  0.574,
  0.536,
  0.516,
  0.419,
  0.592,
  0.593,
  0.266,
  0.241,
  0.512,
  0.538,
  0.423,
  0.242,
  0.523,
  0.288,
  0.484,
  0.231,
  0.543,
  0.5,
  0.721,
  1.025,
  0.829,
  0.465,
  0.591,
  0.695,
  0.673,
  0.47,
  0.698,
  0.819,
  0.62,
  0.539,
  0.774,
  0.562,
  0.666,
  0.621,
  0.778,
  0.728,
  0.258,
  0.421,
  0.377,
  0.592,
  0.40866,
  0.431,
  0.332,
  0.35,
  0.553,
  0.255,
  0.436,
  0.4,
  0.55,
  0.383,
  0.734,
  0.585,
  0.492,
  0.5,
  0.544,
  0.549,
  0.496,
  0.595,
  0.481,
  0.486,
  0.573,
  0.385,
  0.525,
  0.4,
  0.586,
  0.333,
  0.478,
  0.564,
  0.71,
  0.656,
  0.413,
  0.535,
  0.509,
  0.722,
  0.321,
  0.199,
  0.361,
  0.337,
  0.496,
  0.165,
  0.38,
  0.275,
  0.479,
  0.21,
  0.295,
  0.268,
  0.525,
  0.373,
  0.473403,
  0.194,
  0.457,
  0.269,
  0.422488,
  0.184,
  0.434,
  0.432,
  0.581,
  0.50208,
  0.568,
  0.281,
  0.447,
  0.389,
  0.629,
  0.534,
  0.541,
  0.622,
  0.537,
  0.609,
  0.586,
  0.669,
  0.529,
  0.644,
  0.447,
  0.293,
  0.217,
  0.65,
  0.357,
  0.44,
  0.232,
  0.354,
  0.291,
  0.496,
  0.26,
  0.512,
  0.404,
  0.479,
  0.408,
  0.646,
  0.462,
  0.479,
  0.493,
  0.584,
  0.334,
  0.562,
  0.727,
  0.732,
  0.658,
  0.673,
  0.672,
  0.569,
  0.724,
  0.48,
  0.455015,
  0.289126,
  0.498289,
  0.283095,
  0.601521,
  0.416126,
  0.408,
  0.232,
  0.522,
  0.238772,
  0.328,
  0.276,
  0.311,
  0.297,
  0.448,
  0.329,
  0.284,
  0.419,
  0.495,
  0.458,
  0.415,
  0.655,
  0.452,
  0.586,
  0.57,
  0.513,
  0.405,
  0.565,
  0.608,
  0.561,
  0.579,
  0.382,
  0.495,
  0.31,
  0.416,
  0.401,
  0.544,
  0.49,
  0.449,
  0.413,
  0.649,
  0.455,
  0.638,
  0.372,
  0.602,
  0.379,
  0.681,
  0.399,
  0.35,
  0.35,
  0.338,
  0.438,
  0.443,
  0.18,
  0.31,
  0.252,
  0.465,
  0.456,
  0.497,
  0.546,
  0.797,
  0.567,
  0.713,
  0.523,
  0.578,
  0.51,
  0.687,
  0.456,
  0.262,
  0.234,
  0.397,
  0.367,
  0.472,
  0.258,
  0.413,
  0.309,
  0.482,
  0.35,
  0.34,
  0.662,
  0.44296,
  0.363,
  0.604,
  0.196,
  0.553,
  0.3,
  0.481,
  0.255,
  0.346,
  0.251,
  0.443,
  0.273,
  0.732,
  0.537,
  0.397,
  0.392,
  0.465,
  0.269,
  0.598257,
  0.423438,
  0.656637,
  0.548303,
  0.703039,
  0.348883,
  0.483712,
  0.481702,
  0.66922,
  1.00438,
  0.357,
  0.317,
  0.923,
  0.313,
  0.42,
  0.348,
  0.375,
  0.31,
  0.442,
  0.208
]