{
  "1048576": [
    0.932,
    0.859,
    0.435,
    0.686,
    0.756,
    0.786,
    0.673,
    0.776,
    0.574,
    0.382,
    0.841,
    0.970112,
    0.632994,
    1.283,
    0.613,
    0.391,
    0.50381,
    0.598,
    0.778,
    0.602,
    0.589414,
    0.279,
    0.416,
    0.431463,
    0.435,
    0.781,
    0.494,
    0.340069,
    0.466,
    0.842,
    0.305,
    0.506,
    0.46,
    0.699,
    0.73,
    0.724,
    0.671,
    0.501,
    0.200697,
    0.383,
    0.499,
    0.391,
    0.344,
    0.785,
    0.369,
    0.561,
    0.606,
    0.331,
    0.864,
    0.409,
    0.584,
    0.58,
    1.000818,
    1.43599,
    0.56,
    0.392,
    0.275,
    0.683,
    0.426,
    0.437,
    0.748,
    0.692,
    0.791,
    1.032,
    0.927,
    0.678,
    0.785,
    0.984,
    0.773,
    0.509,
    0.42296,
    0.575,
    0.804,
    0.333,
    0.603,
    0.634,
    0.626,
    0.561,
    0.389,
    0.669,
    0.78,
    0.906,
    0.806,
    0.687,
    0.771127,
    0.318,
    0.508823,
    0.257,
    0.352968,
    0.746,
    0.863,
    0.719,
    0.421,
    0.338,
    0.531,
    0.461,
    0.774,
    0.659,
    0.779,
    0.394,
    0.726,
    0.802,
    1.067124,
    0.601568,
    0.626897,
    0.532,
    0.312,
    0.361,
    0.797,
    0.349,
    0.386,
    0.484,
    0.907,
    0.803639,
    0.606,
    0.670261,
    0.804,
    0.88,
    0.893,
    1.004,
    2.014,
    0.522,
    0.655,
    0.647,
    0.475464,
    0.508,
    0.504,
    1.173,
    0.355,
    0.637,
    0.491,
    1.141,
    0.641,
    1.123,
    0.539,
    0.872,
    0.834,
    0.841,
    0.576,
    0.696,
    0.311,
    0.879,
    1.678862,
    0.492,
    0.626,
    0.666,
    0.601,
    0.421,
    0.737,
    0.562,
    0.492,
    0.946,
    0.619,
    0.582752,
    0.395406,
    0.394097,
    0.314,
    1.201,
    0.475,
    0.698
  ],
  "51200": [
    0.729,
    0.523,
    0.609,
    0.679,
    0.554,
    0.579,
    0.586,
    0.802,
    0.613,
    0.624,
    0.701,
    0.993,
    0.719,
    0.291,
    0.4,
    0.334,
    0.689654,
    0.594,
    0.457813,
    0.318937,
    0.348915,
    0.476,
    0.710097,
    0.427928,
    0.452333,
    0.975805,
    0.591571,
    0.528805,
    0.571,
    0.575,
    0.67,
    0.592,
    0.711,
    0.777,
    1.238,
    0.678,
    0.816,
    0.239,
    0.279,
    0.268,
    0.333,
    0.683,
    0.336,
    0.353,
    0.383,
    0.379,
    0.499,
    0.6,
    0.278202,
    0.516,
    0.574,
    0.457,
    0.26,
    0.776,
    0.454,
    0.38,
    0.509,
    0.82,
    0.349,
    0.447,
    0.426895,
    0.517817,
    0.394,
    0.616,
    0.58,
    0.544112,
    0.842,
    0.857171,
    0.599,
    0.662,
    0.718563,
    0.588,
    0.235,
    0.637,
    0.373,
    0.281,
    0.611266,
    0.28,
    0.29,
    0.373,
    0.399,
    0.785,
    0.449,
    0.517,
    0.966,
    0.382,
    0.324,
    0.4,
    0.26,
    0.456,
    0.233,
    0.299,
    0.326,
    0.376,
    0.473,
    0.547,
    0.467,
    0.992,
    0.556,
    0.42,
    0.560239,
    0.79,
    0.801,
    0.661,
    0.469,
    0.511,
    0.567,
    0.755044,
    0.550102,
    0.977,
    0.778,
    0.667236,
    0.889,
    0.524,
    0.656,
    0.967,
    0.637,
    0.456,
    0.52,
    0.458,
    0.612,
    0.783,
    1.16,
    0.981,
    0.798,
    0.673,
    0.718,
    0.268,
    0.227,
    0.415,
    0.638,
    0.497,
    0.313,
    0.301,
    0.492,
    0.586,
    0.907903,
    0.459,
    0.388,
    0.727,
    0.727,
    0.411,
    0.127,
    0.568,
    0.347,
    0.56,
    0.559145,
    0.455,
    0.399,
    0.376,
    0.416633,
    0.504,
    0.396,
    1.719,
    0.478,
    0.499,
    0.21,
    0.323,
    0.482,
    0.634,
    0.498,
    0.331,
    0.351,
    0.381,
    0.571,
    0.613,
    0.708,
    0.548,
    0.397,
    0.453,
    0.847,
    0.595,
    0.655,
    0.781856,
    0.663,
    0.563,
    0.654,
    1.045848,
    0.632,
    0.856,
    0.535,
    0.598,
    0.213,
    0.223,
    0.648,
    0.277,
    0.548,
    0.222,
    0.328,
    0.384,
    0.389,
    0.658,
    0.344,
    0.411,
    0.628,
    0.468,
    0.43,
    0.69,
    0.311,
    0.942,
    0.917,
    0.337217,
    0.433786,
    0.656,
    0.434,
    0.845,
    0.636,
    0.693,
    0.507,
    0.447,
    0.586,
    0.468,
    0.673,
    0.663,
    0.579,
    0.597,
    0.841,
    1.135,
    0.574,
    0.957,
    0.68,
    0.631,
    0.584,
    0.192,
    0.41,
    0.313,
    0.435,
    0.248,
    0.443,
    0.426,
    0.503,
    0.425,
    0.737,
    0.576,
    0.554,
    0.615,
    0.659,
    0.56,
    0.432,
    0.508,
    1.17,
    0.745,
    0.709,
    1.122,
    0.894,
    0.806,
    0.334,
    0.689,
    0.524,
    0.226,
    0.819,
    0.273169,
    1.543,
    0.499,
    0.549,
    0.919,
    0.396,
    0.69,
    0.607115,
    0.482,
    0.371,
    0.299,
    0.582,
    0.36,
    0.495,
    0.345,
    0.336,
    0.485,
    1.178,
    0.464,
    0.785,
    0.56,
    0.492,
    0.254,
    0.182,
    0.384,
    0.691,
    0.321,
    1.292396,
    0.389,
    0.365,
    0.692,
    0.502,
    0.588,
    0.298,
    0.178,
    0.319,
    0.253,
    0.583,
    0.267,
    0.298,
    0.339,
    0.509,
    0.408,
    0.637,
    0.742,
    0.609,
    0.476,
    0.784,
    0.552,
    0.555,
    0.615,
    0.763,
    0.623,
    0.955,
    0.772,
    0.65,
    0.533378,
    0.499011,
    0.571284,
    0.60993,
    0.685,
    0.593805,
    0.580989,
    0.648938,
    0.771,
    0.828807,
    0.961,
    0.818111,
    0.727857,
    0.263,
    0.694,
    0.279,
    0.412,
    0.322,
    0.375,
    0.622,
    0.478,
    0.659,
    0.588,
    0.532,
    0.614,
    1.318,
    0.465,
    0.549,
    0.559,
    0.948,
    0.919,
    0.827,
    0.494,
    0.57364,
    0.519428,
    0.809,
    0.471,
    0.705,
    0.606,
    0.589,
    0.607,
    0.602,
    0.877,
    0.618,
    0.801,
    1.012,
    0.766642,
    0.485,
    0.673,
    0.542,
    0.632,
    0.634,
    0.502,
    0.835,
    0.649,
    0.62,
    0.748,
    1.047,
    0.798,
    0.537,
    0.731,
    0.806,
    0.687,
    0.579,
    0.557,
    0.649,
    0.832,
    1.045,
    0.659,
    0.478,
    0.487,
    0.652,
    0.558,
    0.797,
    0.492,
    1.184,
    0.627,
    0.954,
    1.282,
    0.688,
    1.164,
    1.105,
    1.123,
    0.653,
    0.749,
    0.837,
    0.574,
    0.667,
    0.634,
    0.925,
    0.895,
    0.611,
    0.812,
    0.664,
    0.296,
    0.277,
    0.391929,
    0.493311,
    0.285657,
    0.474,
    0.485393,
    0.324,
    0.358294,
    0.682,
    0.567992,
    0.422248,
    0.798015,
    0.393171,
    0.881212,
    0.739968,
    1.169,
    0.885,
    0.958,
    0.852,
    1.014464,
    0.846,
    1.375,
    0.861,
    1.211,
    1.392,
    1.085,
    1.1,
    0.282,
    0.285,
    0.296,
    0.342,
    0.411,
    0.586,
    0.522,
    0.374,
    0.541,
    0.421,
    0.487,
    0.749098,
    0.517,
    0.463,
    0.27,
    0.249,
    0.586,
    0.709,
    0.49,
    0.413,
    0.3,
    0.353,
    0.379,
    0.574,
    0.411,
    0.407,
    0.709,
    1.056,
    0.575,
    0.533,
    0.55,
    0.497,
    0.656,
    0.628,
    0.653,
    0.568,
    0.858,
    0.781,
    0.788,
    0.638,
    0.635,
    0.949117,
    0.494,
    0.489,
    0.664,
    0.935,
    0.48,
    0.48,
    0.617,
    0.853999,
    0.608,
    0.616,
    0.984,
    0.819,
    0.62,
    0.221,
    0.271,
    0.324,
    0.632,
    0.518,
    0.219,
    0.369,
    0.629,
    0.426,
    0.575,
    0.946,
    0.496,
    0.428,
    0.256,
    0.355,
    0.329,
    0.429,
    0.606,
    0.361,
    0.628,
    0.453,
    0.369,
    0.818,
    0.439,
    0.732,
    0.914,
    0.388,
    0.254,
    0.303,
    0.262,
    0.495,
    0.485,
    0.71,
    0.319,
    0.369,
    0.503,
    0.354,
    0.695,
    0.565,
    0.527,
    0.719,
    0.468,
    0.509,
    0.663,
    0.438,
    0.979,
    0.415,
    0.494,
    0.573,
    0.543,
    0.654,
    0.614,
    0.887,
    0.473694,
    0.585792,
    0.620752,
    0.74155,
    0.868,
    0.524,
    0.594156,
    0.786181,
    0.819733,
    0.643,
    0.914466,
    0.676,
    0.61,
    0.21012,
    0.501,
    0.56892,
    0.305,
    0.383,
    0.734444,
    0.824,
    0.394,
    0.784,
    0.516,
    0.864,
    0.492665,
    0.582,
    0.666682,
    0.445,
    0.685357,
    0.583229,
    0.59719,
    0.621,
    0.61,
    0.748068,
    0.598,
    0.452,
    0.492,
    0.776,
    0.505,
    0.869,
    0.625,
    0.92,
    0.787,
    1.034,
    0.807,
    0.791,
    0.301,
    0.241,
    0.293,
    0.348,
    0.403,
    0.246,
    0.252,
    0.511,
    0.799,
    0.728,
    0.588,
    0.556,
    0.561,
    0.876,
    0.656,
    0.742,
    0.676,
    0.727,
    0.549,
    0.618,
    0.648,
    0.758,
    0.772,
    0.744,
    0.98,
    0.762,
    0.59,
    0.574,
    0.547,
    0.765,
    0.559,
    0.448,
    0.489,
    0.542,
    1.105,
    0.613,
    0.646,
    0.432,
    0.429,
    0.764,
    0.657,
    0.594,
    0.397,
    0.424,
    0.578,
    0.556,
    0.536,
    0.849,
    0.744,
    0.65,
    0.619,
    0.571,
    0.516,
    0.612,
    0.732124,
    0.523,
    0.584,
    0.688,
    0.679,
    0.845583,
    0.709,
    0.599,
    0.768,
    0.639,
    0.493,
    0.543322,
    0.527432,
    0.917313,
    0.672,
    0.561,
    0.873,
    0.6,
    0.603555,
    0.855602,
    0.597,
    0.980568,
    0.771547,
    0.66434,
    0.479524,
    0.483034,
    0.625,
    0.650786,
    0.881,
    0.878331,
    0.564269,
    0.598307,
    0.712897,
    0.560668,
    0.897258,
    0.834772,
    0.652117,
    0.253,
    0.503,
    0.392,
    0.492,
    0.377,
    0.473,
    0.506,
    0.563,
    0.41,
    0.463,
    0.8,
    0.632,
    0.601,
    0.328,
    0.297,
    0.347,
    0.335,
    0.299,
    0.324,
    0.663,
    0.626,
    0.413,
    0.714,
    0.576,
    0.448,
    0.266,
    0.382,
    0.358,
    0.471,
    0.318,
    0.228,
    0.261,
    0.382,
    0.423,
    0.716,
    0.564,
    0.752,
    0.372,
    0.489653,
    0.785,
    0.836,
    0.869,
    0.557,
    0.768,
    0.8,
    0.956,
    0.614,
    0.646518,
    0.545,
    0.917,
    0.718,
    0.601,
    0.577,
    1.089,
    1.114,
    0.962,
    0.877,
    0.998,
    0.447,
    0.36679,
    0.85,
    0.589,
    0.782,
    0.695,
    0.579,
    0.849,
    0.608,
    0.604,
    0.813,
    1.172,
    0.209142,
    0.248099,
    0.311023,
    0.36,
    0.498881,
    0.589,
    0.408,
    0.664,
    0.814616,
    0.620252,
    0.393,
    0.729174,
    0.429623,
    0.476,
    0.415,
    0.57,
    0.649,
    0.52,
    0.724,
    0.756,
    0.581,
    0.985,
    0.839,
    0.767,
    0.62,
    0.579,
    0.59,
    0.513,
    0.738,
    0.713,
    0.518,
    0.689,
    1.145,
    0.701,
    0.83,
    0.676,
    0.628,
    0.593,
    0.913,
    0.606,
    0.656,
    0.299,
    0.451,
    0.381,
    0.399,
    0.301,
    0.463,
    0.436,
    0.922,
    0.458,
    0.618,
    0.381,
    0.520451,
    0.811773,
    0.502313,
    0.6262,
    0.643816,
    0.723,
    0.851,
    0.582461,
    0.612,
    0.607,
    0.719,
    1.544368,
    0.765103,
    0.944801,
    0.630684,
    0.478,
    0.418,
    0.689,
    0.489,
    0.602,
    0.464,
    0.588,
    0.602,
    0.658,
    0.894,
    0.886,
    0.793,
    0.478,
    0.486,
    0.668,
    0.667,
    0.747,
    0.588,
    0.554,
    0.573,
    0.598,
    1.38,
    0.571,
    0.638,
    1.204,
    0.747,
    0.655,
    0.596,
    0.748,
    0.84,
    0.685,
    0.529,
    0.503,
    0.63,
    0.547,
    0.842,
    0.697,
    0.986,
    0.805,
    0.722763,
    0.177,
    0.28,
    0.493,
    0.66,
    0.376,
    0.447,
    0.283,
    0.388,
    0.407,
    0.549,
    0.381,
    0.447,
    0.415,
    0.588,
    0.502,
    0.68,
    0.564,
    0.917,
    0.921,
    0.641,
    0.734,
    0.99,
    0.713,
    1.069,
    0.658,
    0.771,
    0.576,
    0.519,
    0.933,
    0.553,
    0.573,
    0.635,
    0.767,
    0.656,
    0.676,
    0.97,
    0.824,
    0.79,
    0.822,
    0.616,
    0.565,
    0.617435,
    0.524,
    0.536,
    0.543,
    0.51,
    0.858,
    0.725,
    0.601,
    0.528889,
    0.678,
    0.717,
    0.479,
    0.47,
    0.663,
    0.657,
    0.629,
    1.36,
    0.691,
    0.971,
    0.77,
    0.862,
    0.77,
    0.47,
    0.468,
    0.671,
    0.507,
    0.692,
    0.581,
    0.683,
    1.046,
    0.633,
    0.971,
    0.435,
    0.512,
    0.473,
    0.43,
    0.689,
    0.635,
    0.562,
    0.581,
    0.867,
    0.803,
    0.571,
    2.361224,
    0.551,
    0.749,
    0.236103,
    0.293,
    0.246,
    0.537,
    0.661897,
    0.596,
    0.429,
    0.481,
    0.736,
    0.589,
    0.559103,
    0.469,
    0.325,
    0.44,
    0.336,
    0.418,
    0.566,
    0.276,
    0.351,
    0.35,
    0.505,
    0.392,
    0.377,
    0.728,
    0.573,
    0.515,
    0.176,
    0.549,
    0.524,
    0.417,
    0.255,
    0.258,
    0.455,
    0.369,
    0.428,
    0.423,
    0.358,
    0.529,
    0.507,
    0.721,
    0.601,
    0.656,
    0.467,
    0.609,
    0.53,
    0.336,
    0.388,
    0.686,
    0.395,
    0.484,
    0.945,
    0.474,
    0.855,
    0.778,
    0.524,
    0.638,
    0.501,
    0.69,
    0.505,
    0.679,
    0.707,
    0.642,
    0.68,
    0.664,
    0.701,
    0.715
  ],
  "5242880": [
    0.653,
    0.381,
    1.007,
    0.369,
    0.353,
    0.428,
    0.443,
    0.704,
    0.674,
    0.366418,
    0.269,
    0.475,
    0.688,
    0.484,
    0.849,
    0.661,
    0.682,
    0.656,
    0.634,
    0.956,
    0.773,
    0.653,
    0.655,
    0.457,
    0.822335,
    0.883254,
    1.021,
    0.71,
    0.279,
    1.127,
    0.934,
    0.699,
    0.725,
    0.43,
    0.536,
    0.807,
    0.373663,
    0.67,
    0.821,
    1.007,
    0.522,
    0.774,
    0.822,
    0.917,
    0.266,
    0.625,
    0.632,
    0.164,
    0.789
  ],
  "ALL": [
    0.729,
    0.523,
    0.609,
    0.679,
    0.554,
    0.579,
    0.586,
    0.802,
    0.613,
    0.624,
    0.701,
    0.993,
    0.719,
    0.932,
    0.859,
    0.653,
    0.291,
    0.4,
    0.334,
    0.689654,
    0.594,
    0.457813,
    0.318937,
    0.348915,
    0.476,
    0.710097,
    0.427928,
    0.452333,
    0.975805,
    0.591571,
    0.528805,
    0.435,
    0.571,
    0.575,
    0.67,
    0.592,
    0.711,
    0.777,
    1.238,
    0.678,
    0.816,
    0.686,
    0.756,
    0.786,
    0.673,
    0.776,
    0.239,
    0.279,
    0.268,
    0.333,
    0.683,
    0.336,
    0.353,
    0.383,
    0.379,
    0.499,
    0.574,
    0.382,
    0.381,
    1.007,
    0.369,
    0.6,
    0.278202,
    0.516,
    0.574,
    0.457,
    0.26,
    0.776,
    0.454,
    0.38,
    0.509,
    0.82,
    0.349,
    0.447,
    0.353,
    0.428,
    0.443,
    0.426895,
    0.517817,
    0.394,
    0.616,
    0.58,
    0.544112,
    0.842,
    0.857171,
    0.599,
    0.662,
    0.718563,
    0.841,
    0.970112,
    0.632994,
    0.704,
    0.588,
    0.235,
    0.637,
    0.373,
    0.281,
    0.611266,
    0.28,
    0.29,
    0.373,
    0.399,
    0.785,
    0.449,
    0.517,
    0.966,
    0.382,
    1.283,
    0.324,
    0.4,
    0.26,
    0.456,
    0.233,
    0.299,
    0.326,
    0.376,
    0.473,
    0.547,
    0.467,
    0.992,
    0.556,
    0.42,
    0.613,
    0.391,
    0.560239,
    0.79,
    0.801,
    0.661,
    0.469,
    0.511,
    0.567,
    0.755044,
    0.550102,
    0.977,
    0.778,
    0.667236,
    0.50381,
    0.598,
    0.674,
    0.889,
    0.524,
    0.656,
    0.967,
    0.637,
    0.456,
    0.52,
    0.458,
    0.612,
    0.783,
    1.16,
    0.981,
    0.798,
    0.673,
    0.778,
    0.602,
    0.718,
    0.268,
    0.227,
    0.415,
    0.638,
    0.497,
    0.313,
    0.301,
    0.492,
    0.586,
    0.907903,
    0.459,
    0.388,
    0.727,
    0.727,
    0.411,
    0.127,
    0.568,
    0.347,
    0.56,
    0.559145,
    0.455,
    0.399,
    0.376,
    0.416633,
    0.504,
    0.396,
    1.719,
    0.478,
    0.499,
    0.589414,
    0.366418,
    0.21,
    0.323,
    0.482,
    0.634,
    0.498,
    0.331,
    0.351,
    0.381,
    0.571,
    0.613,
    0.708,
    0.548,
    0.397,
    0.279,
    0.416,
    0.269,
    0.453,
    0.847,
    0.595,
    0.655,
    0.781856,
    0.663,
    0.563,
    0.654,
    1.045848,
    0.632,
    0.856,
    0.535,
    0.598,
    0.431463,
    0.435,
    0.781,
    0.213,
    0.223,
    0.648,
    0.277,
    0.548,
    0.222,
    0.328,
    0.384,
    0.389,
    0.658,
    0.344,
    0.411,
    0.628,
    0.468,
    0.494,
    0.475,
    0.43,
    0.69,
    0.311,
    0.942,
    0.917,
    0.337217,
    0.433786,
    0.656,
    0.434,
    0.845,
    0.636,
    0.693,
    0.340069,
    0.507,
    0.447,
    0.586,
    0.468,
    0.673,
    0.663,
    0.579,
    0.597,
    0.841,
    1.135,
    0.574,
    0.957,
    0.68,
    0.631,
    0.466,
    0.842,
    0.584,
    0.192,
    0.41,
    0.313,
    0.435,
    0.248,
    0.443,
    0.426,
    0.503,
    0.425,
    0.737,
    0.576,
    0.554,
    0.305,
    0.506,
    0.615,
    0.659,
    0.56,
    0.432,
    0.508,
    1.17,
    0.745,
    0.709,
    1.122,
    0.894,
    0.806,
    0.46,
    0.699,
    0.73,
    0.724,
    0.671,
    0.334,
    0.689,
    0.524,
    0.226,
    0.819,
    0.273169,
    1.543,
    0.499,
    0.549,
    0.919,
    0.396,
    0.69,
    0.607115,
    0.482,
    0.501,
    0.371,
    0.299,
    0.582,
    0.36,
    0.495,
    0.345,
    0.336,
    0.485,
    1.178,
    0.464,
    0.785,
    0.56,
    0.492,
    0.200697,
    0.383,
    0.499,
    0.254,
    0.182,
    0.384,
    0.691,
    0.321,
    1.292396,
    0.389,
    0.365,
    0.692,
    0.502,
    0.588,
    0.391,
    0.344,
    0.785,
    0.688,
    0.298,
    0.178,
    0.319,
    0.253,
    0.583,
    0.267,
    0.298,
    0.339,
    0.509,
    0.408,
    0.369,
    0.561,
    0.606,
    0.331,
    0.864,
    0.637,
    0.742,
    0.609,
    0.476,
    0.784,
    0.552,
    0.555,
    0.615,
    0.763,
    0.623,
    0.955,
    0.772,
    0.65,
    0.409,
    0.584,
    0.58,
    0.533378,
    0.499011,
    0.571284,
    0.60993,
    0.685,
    0.593805,
    0.580989,
    0.648938,
    0.771,
    0.828807,
    0.961,
    0.818111,
    0.727857,
    1.000818,
    1.43599,
    0.263,
    0.694,
    0.279,
    0.412,
    0.322,
    0.375,
    0.622,
    0.478,
    0.659,
    0.588,
    0.56,
    0.392,
    0.275,
    0.683,
    0.426,
    0.484,
    0.532,
    0.614,
    1.318,
    0.465,
    0.549,
    0.559,
    0.948,
    0.919,
    0.827,
    0.437,
    0.748,
    0.692,
    0.791,
    1.032,
    0.849,
    0.494,
    0.57364,
    0.519428,
    0.809,
    0.471,
    0.705,
    0.606,
    0.589,
    0.607,
    0.602,
    0.877,
    0.618,
    0.801,
    1.012,
    0.766642,
    0.927,
    0.485,
    0.673,
    0.542,
    0.632,
    0.634,
    0.502,
    0.835,
    0.649,
    0.62,
    0.748,
    1.047,
    0.798,
    0.678,
    0.661,
    0.537,
    0.731,
    0.806,
    0.687,
    0.579,
    0.557,
    0.649,
    0.832,
    1.045,
    0.659,
    0.785,
    0.984,
    0.682,
    0.656,
    0.478,
    0.487,
    0.652,
    0.558,
    0.797,
    0.492,
    1.184,
    0.627,
    0.954,
    1.282,
    0.688,
    1.164,
    1.105,
    0.773,
    0.634,
    1.123,
    0.653,
    0.749,
    0.837,
    0.574,
    0.667,
    0.634,
    0.925,
    0.895,
    0.611,
    0.812,
    0.664,
    0.509,
    0.296,
    0.277,
    0.391929,
    0.493311,
    0.285657,
    0.474,
    0.485393,
    0.324,
    0.358294,
    0.682,
    0.567992,
    0.422248,
    0.798015,
    0.393171,
    0.42296,
    0.575,
    0.881212,
    0.739968,
    1.169,
    0.885,
    0.958,
    0.852,
    1.014464,
    0.846,
    1.375,
    0.861,
    1.211,
    1.392,
    1.085,
    1.1,
    0.804,
    0.956,
    0.282,
    0.285,
    0.296,
    0.342,
    0.411,
    0.586,
    0.522,
    0.374,
    0.541,
    0.421,
    0.487,
    0.749098,
    0.517,
    0.463,
    0.333,
    0.603,
    0.27,
    0.249,
    0.586,
    0.709,
    0.49,
    0.413,
    0.3,
    0.353,
    0.379,
    0.574,
    0.411,
    0.407,
    0.709,
    1.056,
    0.575,
    0.533,
    0.55,
    0.497,
    0.656,
    0.628,
    0.653,
    0.568,
    0.858,
    0.781,
    0.788,
    0.638,
    0.635,
    0.949117,
    0.634,
    0.773,
    0.653,
    0.494,
    0.489,
    0.664,
    0.935,
    0.48,
    0.48,
    0.617,
    0.853999,
    0.608,
    0.616,
    0.984,
    0.819,
    0.62,
    0.626,
    0.655,
    0.221,
    0.271,
    0.324,
    0.632,
    0.518,
    0.219,
    0.369,
    0.629,
    0.426,
    0.575,
    0.946,
    0.496,
    0.428,
    0.561,
    0.256,
    0.355,
    0.329,
    0.429,
    0.606,
    0.361,
    0.628,
    0.453,
    0.369,
    0.818,
    0.439,
    0.732,
    0.914,
    0.388,
    0.389,
    0.457,
    0.254,
    0.303,
    0.262,
    0.495,
    0.485,
    0.71,
    0.319,
    0.369,
    0.503,
    0.354,
    0.695,
    0.565,
    0.527,
    0.669,
    0.719,
    0.468,
    0.509,
    0.663,
    0.438,
    0.979,
    0.415,
    0.494,
    0.573,
    0.543,
    0.654,
    0.614,
    0.78,
    0.906,
    0.806,
    0.687,
    0.887,
    0.473694,
    0.585792,
    0.620752,
    0.74155,
    0.868,
    0.524,
    0.594156,
    0.786181,
    0.819733,
    0.643,
    0.914466,
    0.676,
    0.771127,
    0.61,
    0.21012,
    0.501,
    0.56892,
    0.305,
    0.383,
    0.734444,
    0.824,
    0.394,
    0.784,
    0.516,
    0.318,
    0.508823,
    0.257,
    0.352968,
    0.746,
    0.864,
    0.492665,
    0.582,
    0.666682,
    0.445,
    0.685357,
    0.583229,
    0.59719,
    0.621,
    0.61,
    0.748068,
    0.598,
    0.822335,
    0.883254,
    1.021,
    0.452,
    0.492,
    0.776,
    0.505,
    0.869,
    0.625,
    0.92,
    0.787,
    1.034,
    0.807,
    0.791,
    0.863,
    0.719,
    0.71,
    0.301,
    0.241,
    0.293,
    0.348,
    0.403,
    0.246,
    0.252,
    0.511,
    0.799,
    0.728,
    0.588,
    0.421,
    0.338,
    0.531,
    0.279,
    0.556,
    0.561,
    0.876,
    0.656,
    0.742,
    0.676,
    0.727,
    0.549,
    0.618,
    0.648,
    0.758,
    0.772,
    0.744,
    0.98,
    0.762,
    0.59,
    0.574,
    0.547,
    0.765,
    0.559,
    0.448,
    0.489,
    0.542,
    1.105,
    0.613,
    0.646,
    0.461,
    0.774,
    0.659,
    0.779,
    1.127,
    0.934,
    0.432,
    0.429,
    0.764,
    0.657,
    0.594,
    0.397,
    0.424,
    0.578,
    0.556,
    0.536,
    0.849,
    0.744,
    0.65,
    0.394,
    0.726,
    0.802,
    0.619,
    0.571,
    0.516,
    0.612,
    0.732124,
    0.523,
    0.584,
    0.688,
    0.679,
    0.845583,
    0.709,
    0.599,
    0.768,
    0.639,
    1.067124,
    0.493,
    0.543322,
    0.527432,
    0.917313,
    0.672,
    0.561,
    0.873,
    0.6,
    0.603555,
    0.855602,
    0.597,
    0.980568,
    0.771547,
    0.66434,
    0.601568,
    0.699,
    0.479524,
    0.483034,
    0.625,
    0.650786,
    0.881,
    0.878331,
    0.564269,
    0.598307,
    0.712897,
    0.560668,
    0.897258,
    0.834772,
    0.652117,
    0.626897,
    0.725,
    0.253,
    0.503,
    0.392,
    0.492,
    0.377,
    0.473,
    0.506,
    0.563,
    0.41,
    0.463,
    0.8,
    0.632,
    0.601,
    0.532,
    0.312,
    0.361,
    0.328,
    0.297,
    0.347,
    0.335,
    0.299,
    0.324,
    0.663,
    0.626,
    0.413,
    0.714,
    0.576,
    0.448,
    0.797,
    0.349,
    0.386,
    0.43,
    0.266,
    0.382,
    0.358,
    0.471,
    0.318,
    0.228,
    0.261,
    0.382,
    0.423,
    0.716,
    0.564,
    0.752,
    0.372,
    0.484,
    0.907,
    0.536,
    0.489653,
    0.785,
    0.836,
    0.869,
    0.557,
    0.768,
    0.8,
    0.956,
    0.614,
    0.646518,
    0.803639,
    0.606,
    0.670261,
    0.804,
    0.88,
    0.807,
    0.545,
    0.917,
    0.718,
    0.601,
    0.577,
    1.089,
    1.114,
    0.962,
    0.877,
    0.998,
    0.893,
    1.004,
    2.014,
    0.522,
    0.655,
    0.647,
    0.447,
    0.36679,
    0.85,
    0.589,
    0.782,
    0.695,
    0.579,
    0.849,
    0.608,
    0.604,
    0.813,
    1.172,
    0.475464,
    0.508,
    0.504,
    1.173,
    0.209142,
    0.248099,
    0.311023,
    0.36,
    0.498881,
    0.589,
    0.408,
    0.664,
    0.814616,
    0.620252,
    0.393,
    0.729174,
    0.429623,
    0.355,
    0.637,
    0.373663,
    0.476,
    0.415,
    0.57,
    0.649,
    0.52,
    0.724,
    0.756,
    0.581,
    0.985,
    0.839,
    0.767,
    0.62,
    0.491,
    1.141,
    0.641,
    0.579,
    0.59,
    0.513,
    0.738,
    0.713,
    0.518,
    0.689,
    1.145,
    0.701,
    0.83,
    0.676,
    0.628,
    0.593,
    0.913,
    1.123,
    0.606,
    0.656,
    0.299,
    0.451,
    0.381,
    0.399,
    0.301,
    0.463,
    0.436,
    0.922,
    0.458,
    0.618,
    0.381,
    0.539,
    0.67,
    0.520451,
    0.811773,
    0.502313,
    0.6262,
    0.643816,
    0.723,
    0.851,
    0.582461,
    0.612,
    0.607,
    0.719,
    1.544368,
    0.765103,
    0.944801,
    0.630684,
    0.872,
    0.478,
    0.418,
    0.689,
    0.489,
    0.602,
    0.464,
    0.588,
    0.602,
    0.658,
    0.894,
    0.886,
    0.793,
    0.834,
    0.841,
    0.821,
    0.478,
    0.486,
    0.668,
    0.667,
    0.747,
    0.588,
    0.554,
    0.573,
    0.598,
    1.38,
    0.571,
    0.638,
    1.204,
    0.747,
    0.655,
    0.596,
    0.748,
    0.84,
    0.685,
    0.529,
    0.503,
    0.63,
    0.547,
    0.842,
    0.697,
    0.986,
    0.805,
    0.722763,
    0.576,
    0.696,
    0.177,
    0.28,
    0.493,
    0.66,
    0.376,
    0.447,
    0.283,
    0.388,
    0.407,
    0.549,
    0.381,
    0.447,
    0.415,
    0.311,
    1.007,
    0.522,
    0.588,
    0.502,
    0.68,
    0.564,
    0.917,
    0.921,
    0.641,
    0.734,
    0.99,
    0.713,
    1.069,
    0.658,
    0.771,
    0.879,
    0.576,
    0.519,
    0.933,
    0.553,
    0.573,
    0.635,
    0.767,
    0.656,
    0.676,
    0.97,
    0.824,
    1.678862,
    0.492,
    0.626,
    0.666,
    0.774,
    0.79,
    0.822,
    0.616,
    0.565,
    0.617435,
    0.524,
    0.536,
    0.543,
    0.51,
    0.858,
    0.725,
    0.601,
    0.601,
    0.421,
    0.822,
    0.528889,
    0.678,
    0.717,
    0.479,
    0.47,
    0.663,
    0.657,
    0.629,
    1.36,
    0.691,
    0.971,
    0.77,
    0.862,
    0.737,
    0.917,
    0.77,
    0.47,
    0.468,
    0.671,
    0.507,
    0.692,
    0.581,
    0.683,
    1.046,
    0.633,
    0.971,
    0.562,
    0.492,
    0.946,
    0.619,
    0.435,
    0.512,
    0.473,
    0.43,
    0.689,
    0.635,
    0.562,
    0.581,
    0.867,
    0.803,
    0.571,
    2.361224,
    0.551,
    0.749,
    0.236103,
    0.293,
    0.246,
    0.537,
    0.661897,
    0.596,
    0.429,
    0.481,
    0.736,
    0.589,
    0.559103,
    0.582752,
    0.395406,
    0.394097,
    0.266,
    0.625,
    0.469,
    0.325,
    0.44,
    0.336,
    0.418,
    0.566,
    0.276,
    0.351,
    0.35,
    0.505,
    0.392,
    0.377,
    0.728,
    0.573,
    0.515,
    0.632,
    0.176,
    0.549,
    0.524,
    0.417,
    0.255,
    0.258,
    0.455,
    0.369,
    0.428,
    0.423,
    0.358,
    0.529,
    0.507,
    0.314,
    1.201,
    0.164,
    0.721,
    0.601,
    0.656,
    0.467,
    0.609,
    0.53,
    0.336,
    0.388,
    0.686,
    0.395,
    0.484,
    0.945,
    0.474,
    0.475,
    0.789,
    0.855,
    0.778,
    0.524,
    0.638,
    0.501,
    0.69,
    0.505,
    0.679,
    0.707,
    0.642,
    0.68,
    0.664,
    0.701,
    0.715,
    0.698
  ]
}