{
  "ram": {
    "bytes_used_max": 2767577088,
    "gib_used_max": 2.5775070190429688,
    "gib_used_per_minute": {
      "0": 1.4171130498250326,
      "1": 1.9455856711177502,
      "2": 2.325161238848153,
      "3": 2.4865486907958982
    }
  },
  "run_time": {
    "hours": 0.06346698277777778,
    "human": "0:03:48.481138",
    "minutes": 3.8080189666666664,
    "real_seconds_per_sim_second": {
      "2.0": 20.304308,
      "3.002": 20.898713,
      "4.002524": 21.543035,
      "5.004612": 22.210735,
      "6.006947": 23.009263,
      "7.008119": 23.865589,
      "8.008147": 24.105808,
      "9.009319": 24.242119,
      "10.009739": 24.371798,
      "11.013318": 24.507848,
      "12.014286": 24.639969,
      "13.014288": 24.77611,
      "14.015592": 24.910041,
      "15.018032": 25.046349,
      "16.020324": 25.186057,
      "17.020601": 25.338908,
      "18.02191": 25.477926,
      "19.023512": 25.618666,
      "20.024799": 25.764491,
      "21.025359": 25.9084,
      "22.02655": 26.04835,
      "23.028547": 26.216261,
      "24.029816": 26.350252,
      "25.030912": 26.490725,
      "26.031035": 26.632404,
      "27.03174": 26.769829,
      "28.032437": 26.908594,
      "29.034553": 27.059343,
      "30.034794": 27.213689,
      "31.034993": 27.348717,
      "32.036966": 27.47895,
      "33.038134": 27.649389,
      "34.039144": 27.79539,
      "35.039634": 27.93869,
      "36.041342": 28.077169,
      "37.042191": 28.211804,
      "38.044065": 28.355718,
      "39.045751": 28.501473,
      "40.04803": 28.650032,
      "41.049538": 28.794241,
      "42.051314": 28.946211,
      "43.05263": 29.120934,
      "44.053522": 29.273969,
      "45.055731": 29.417326,
      "46.057324": 29.576638,
      "47.057366": 29.729833,
      "48.059452": 29.888807,
      "49.059559": 30.036769,
      "50.060576": 30.189762,
      "51.061939": 30.34301,
      "52.062136": 30.480691,
      "53.062832": 30.629093,
      "54.063332": 30.779803,
      "55.064818": 30.931282,
      "56.066096": 31.078604,
      "57.066363": 31.230741,
      "58.067716": 31.385575,
      "59.069684": 31.54254,
      "60.070972": 31.694285,
      "61.072352": 31.838715,
      "62.07349": 32.007551,
      "63.074388": 32.181502,
      "64.075574": 32.339384,
      "65.075996": 32.487176,
      "66.076764": 32.637457,
      "67.077433": 32.793905,
      "68.078561": 32.944861,
      "69.07977": 33.097702,
      "70.080572": 33.247886,
      "71.081244": 33.396147,
      "72.08168": 33.55362,
      "73.081939": 33.708521,
      "74.082914": 33.870509,
      "75.084645": 34.026878,
      "76.086654": 34.184095,
      "77.086972": 34.334066,
      "78.087359": 34.486315,
      "79.087828": 34.637727,
      "80.08823": 34.788545,
      "81.090456": 34.948915,
      "82.091068": 35.096652,
      "83.09192": 35.256544,
      "84.092385": 35.415875,
      "85.09294": 35.565839,
      "86.094045": 35.717915,
      "87.094578": 35.873282,
      "88.094875": 36.028772,
      "89.096779": 36.181187,
      "90.098075": 36.339338,
      "91.098653": 36.494581,
      "92.099441": 36.64662,
      "93.099984": 36.801868,
      "94.100573": 36.953018,
      "95.101648": 37.110991,
      "96.103052": 37.268189,
      "97.104593": 37.424198,
      "98.106432": 37.572996,
      "99.107572": 37.732322,
      "100.107617": 37.886735,
      "101.107688": 38.042749,
      "102.107848": 38.199609,
      "103.10786": 38.362148,
      "104.108172": 38.520331,
      "105.108844": 38.678537,
      "106.109982": 38.834973,
      "107.11003": 38.989388,
      "108.110056": 39.142242,
      "109.110989": 39.298307,
      "110.11101": 39.498537,
      "111.112249": 39.689287,
      "112.113954": 39.855336,
      "113.114352": 40.033951,
      "114.115842": 40.198062,
      "115.117682": 40.351964,
      "116.1187": 40.509629,
      "117.119748": 40.664978,
      "118.120351": 40.815938,
      "119.121104": 40.972542,
      "120.121856": 41.126634,
      "121.12186": 41.288913,
      "122.123252": 41.454341,
      "123.12441": 41.626103,
      "124.124776": 41.78765,
      "125.126016": 41.943593,
      "126.126668": 42.0959,
      "127.127027": 42.24851,
      "128.12735": 42.410639,
      "129.127836": 42.57741,
      "130.12885": 42.796803,
      "131.130452": 42.969726,
      "132.13103": 43.11614,
      "133.132507": 43.280376,
      "134.133548": 43.434994,
      "135.134456": 43.587053,
      "136.135894": 43.74112,
      "137.135984": 43.905184,
      "138.136526": 44.058398,
      "139.138206": 44.214167,
      "140.138701": 44.369406,
      "141.140676": 44.527639,
      "142.142234": 44.676758,
      "143.14326": 44.832819,
      "144.144824": 44.995107,
      "145.146308": 45.155342,
      "146.147568": 45.311926,
      "147.149223": 45.470439,
      "148.149509": 45.626517,
      "149.149882": 45.782834,
      "150.152112": 45.981075,
      "151.153402": 50.33912,
      "152.153712": 53.814084,
      "153.153924": 55.900289,
      "154.155901": 57.357776,
      "155.157635": 58.501414,
      "156.157763": 59.373138,
      "157.15858": 60.007656,
      "158.159496": 60.469077,
      "159.161818": 60.652437,
      "160.163374": 60.842177,
      "161.163994": 60.975758,
      "162.164991": 61.099462,
      "163.165584": 61.202732,
      "164.16725": 61.304084,
      "165.16743": 61.396761,
      "166.167673": 61.509249,
      "167.167935": 61.757536,
      "168.170609": 62.186754,
      "169.172435": 62.406952,
      "170.175642": 62.579261,
      "171.179197": 62.788771,
      "172.179709": 62.921515,
      "173.183872": 63.018136,
      "174.1879": 63.103395,
      "175.188647": 63.203359,
      "176.192157": 63.292118,
      "177.194745": 63.411583,
      "178.196681": 63.659003,
      "179.198108": 64.085651,
      "180.199371": 64.343211,
      "181.201848": 64.559796,
      "182.202645": 64.742366,
      "183.203459": 64.976547,
      "184.206145": 65.602757,
      "185.207445": 66.449373,
      "186.208103": 67.344702,
      "187.209912": 68.827641,
      "188.21164": 70.296433,
      "189.212574": 71.700527,
      "190.21267": 72.742169,
      "191.213144": 73.733215,
      "192.214966": 74.436361,
      "193.217758": 75.040278,
      "194.218124": 75.270459,
      "195.220939": 75.57752,
      "196.222862": 75.934293,
      "197.222892": 76.232323,
      "198.22296": 76.569922,
      "199.223994": 77.055858,
      "200.225646": 77.332888,
      "201.227866": 77.559117,
      "202.229986": 77.71205,
      "203.234867": 77.822484,
      "204.239168": 77.923717,
      "205.241744": 78.015885,
      "206.243158": 78.14531,
      "207.244164": 78.312354,
      "208.245826": 78.485149,
      "209.247386": 78.762954,
      "210.249597": 79.009282,
      "211.252327": 79.205507,
      "212.254528": 79.421297,
      "213.255057": 79.577361,
      "214.260245": 79.681066,
      "215.262466": 79.784459,
      "216.265161": 79.882203,
      "217.267425": 80.012921,
      "218.268351": 80.165599,
      "219.268461": 80.319215,
      "220.270253": 80.572679,
      "221.271008": 80.771941,
      "222.273101": 80.956315,
      "223.27454": 81.140974,
      "224.279992": 81.297541,
      "225.282147": 81.403639,
      "226.283269": 81.507219,
      "227.284856": 81.604521,
      "228.288355": 81.731217,
      "229.291112": 81.846553,
      "230.298787": 81.948718,
      "231.304397": 82.049619,
      "232.306265": 82.147468,
      "233.30937": 82.236476,
      "234.310961": 82.331221,
      "235.312006": 82.418178,
      "236.314167": 82.508912,
      "237.314903": 82.601552,
      "238.316922": 82.688363,
      "239.323134": 82.774466,
      "240.330611": 83.036543,
      "241.331525": 83.613358,
      "242.332482": 85.372022,
      "243.334439": 86.632845,
      "244.335506": 87.53655,
      "245.336377": 88.298056,
      "246.338371": 88.958924,
      "247.340372": 89.596977,
      "248.340577": 90.114564,
      "249.341792": 90.497979,
      "250.343533": 90.798056,
      "251.346315": 91.018882,
      "252.348546": 91.223742,
      "253.354251": 91.369697,
      "254.355042": 91.500994,
      "255.358148": 91.634208,
      "256.361787": 91.764654,
      "257.363022": 92.004082,
      "258.363752": 92.311815,
      "259.366139": 92.67267,
      "260.36678": 92.955708,
      "261.367104": 93.233959,
      "262.367684": 93.458898,
      "263.370157": 93.621201,
      "264.370887": 93.764555,
      "265.374009": 93.921606,
      "266.376081": 94.069039,
      "267.376739": 94.214413,
      "268.376834": 94.477264,
      "269.378363": 94.792688,
      "270.378445": 95.119274,
      "271.37968": 95.350976,
      "272.381783": 95.637899,
      "273.386354": 95.864556,
      "274.389522": 96.025829,
      "275.393024": 96.170141,
      "276.394208": 96.317131,
      "277.396536": 96.472132,
      "278.397609": 96.625432,
      "279.398818": 96.890129,
      "280.40054": 97.263485,
      "281.400791": 97.574726,
      "282.402257": 97.86349,
      "283.403113": 98.095239,
      "284.403214": 98.293863,
      "285.403592": 98.452149,
      "286.404592": 98.606107,
      "287.407158": 98.745662,
      "288.417069": 98.888998,
      "289.417204": 99.032521,
      "290.417799": 99.299889,
      "291.418232": 99.641968,
      "292.418286": 99.937181,
      "293.418364": 100.172367,
      "294.420317": 100.392704,
      "295.420519": 100.601201,
      "296.422815": 100.759385,
      "297.426915": 100.905988,
      "298.428754": 101.045139,
      "299.429558": 101.185601,
      "300.430994": 101.468547,
      "301.431994": 101.832948,
      "302.432": 102.258659,
      "303.433": 102.796592,
      "304.434": 103.287841,
      "305.435": 103.745141,
      "306.43555": 104.195202,
      "307.436": 104.657319,
      "308.437907": 105.475487,
      "309.438252": 106.285793,
      "310.439": 107.271483,
      "311.441": 108.348793,
      "312.443": 109.567518,
      "313.445": 110.702943,
      "314.447": 111.869377,
      "315.449": 113.082279,
      "316.451": 114.672385,
      "317.453": 116.245322,
      "318.455": 118.042214,
      "319.457": 119.805101,
      "320.459": 121.45356,
      "321.461": 123.197081,
      "322.463": 125.004452,
      "323.465": 127.05685,
      "324.467": 129.124832,
      "325.469": 131.182006,
      "326.471": 133.445423,
      "327.473": 135.458143,
      "328.475": 137.435756,
      "329.477": 139.760676,
      "330.479": 142.16618,
      "331.481": 144.432533,
      "332.483": 146.766626,
      "333.485": 149.128275,
      "334.487": 151.587826,
      "335.489": 154.147994,
      "336.491": 156.383636,
      "337.493": 158.74941,
      "338.495": 161.299024,
      "339.497": 164.045654,
      "340.499": 166.946673,
      "341.501": 169.830346,
      "342.503": 172.836207,
      "343.505": 176.132535,
      "344.507": 179.326375,
      "345.509": 182.465859,
      "346.511": 185.460525,
      "347.513": 188.546328,
      "348.515": 191.586605,
      "349.517": 194.818211,
      "350.519": 198.073043,
      "351.521": 201.079332,
      "352.523": 204.340812,
      "353.525": 207.719259,
      "354.527": 211.192214,
      "355.529": 214.491498,
      "356.531": 217.990731,
      "357.533": 221.53597,
      "358.535": 225.020491,
      "359.537": 228.481138
    },
    "seconds": 228.481138
  }
}