{
  "900": 3273644948,
  "901": 3312905744,
  "902": 3349233419,
  "903": 3388193430,
  "904": 3290909315,
  "905": 3337819942,
  "906": 3314796254,
  "907": 3315580990,
  "908": 3349819631,
  "909": 3369059998,
  "910": 3397261301,
  "911": 3368006749,
  "912": 3304335861,
  "913": 3283518712,
  "914": 3289014425,
  "915": 3241896388,
  "916": 3308031216,
  "917": 3329038104,
  "918": 3302357242,
  "919": 3280724705,
  "920": 3299630655,
  "921": 3344913864,
  "922": 3336398105,
  "923": 3317558188,
  "924": 3362013571,
  "925": 3370634973,
  "926": 3326517974,
  "927": 3337464597,
  "928": 3386371083,
  "929": 3386607303,
  "930": 3414321249,
  "931": 3417715604,
  "932": 3400134946,
  "933": 3443754884,
  "934": 3408067952,
  "935": 3381204457,
  "936": 3372344733,
  "937": 3310474624,
  "938": 3332185095,
  "939": 3379964713,
  "940": 3375816988,
  "941": 3374486313,
  "942": 3353815768,
  "943": 3441865993,
  "944": 3397989726,
  "945": 3350560485,
  "946": 3319529538,
  "947": 3362157416,
  "948": 3353487936,
  "949": 3346291113,
  "950": 3324271979,
  "951": 3308271486,
  "952": 3351737237,
  "953": 3377719894,
  "954": 3392723499,
  "955": 3419041441,
  "956": 3424307649,
  "957": 3416101153,
  "958": 3380050515,
  "959": 3424908754,
  "960": 3456528714,
  "961": 3440687950,
  "962": 3432134091,
  "963": 3428000124,
  "964": 3447098943,
  "965": 3391399918,
  "966": 3435342381,
  "967": 3511129524,
  "968": 3475905773,
  "969": 3459421371,
  "970": 3451928692,
  "971": 3438188882,
  "972": 3430157162,
  "973": 3477139690,
  "974": 3482551143,
  "975": 3501769542,
  "976": 3545345677,
  "977": 3547478929,
  "978": 3589748026,
  "979": 3502536654,
  "980": 3525862256,
  "981": 3524203787,
  "982": 3525584746,
  "983": 3518943679,
  "984": 3538268116,
  "985": 3563288819,
  "986": 3564582903,
  "987": 3533805911,
  "988": 3549957013,
  "989": 3524538581,
  "990": 3543605947,
  "991": 3585524623,
  "992": 3504705669,
  "993": 3477061850,
  "994": 3530360510,
  "995": 3543987423,
  "996": 3559786001,
  "997": 3547487456,
  "998": 3514967209,
  "999": 3482155086,
  "1000": 3521344580,
  "1001": 3486210985,
  "1002": 3451837019,
  "1003": 3496801851,
  "1004": 3512396625,
  "1005": 3479210537,
  "1006": 3545409041,
  "1007": 3530351237,
  "1008": 3516741881,
  "1009": 3511369652,
  "1010": 3518000114,
  "1011": 3475181244,
  "1012": 3470943658,
  "1013": 3469792896,
  "1014": 3502943252,
  "1015": 3485626456,
  "1016": 3486781314,
  "1017": 3508804153,
  "1018": 3551089279,
  "1019": 3519321861,
  "1020": 3469699415,
  "1021": 3539954285,
  "1022": 3519217435,
  "1023": 3529855008,
  "1024": 3563401014,
  "1025": 3498628708,
  "1026": 3518428366,
  "1027": 3522382983,
  "1028": 3525531362,
  "1029": 3532198663,
  "1030": 3533154991,
  "1031": 3565218630,
  "1032": 3522726536,
  "1033": 3563324878,
  "1034": 3518435677,
  "1035": 3574002882,
  "1036": 3569443548,
  "1037": 3625216237,
  "1038": 3517697604,
  "1039": 3449193340,
  "1040": 3518749283,
  "1041": 3574839641,
  "1042": 3579512924,
  "1043": 3586576560,
  "1044": 3543878159,
  "1045": 3545571510,
  "1046": 3538867582,
  "1047": 3528856165,
  "1048": 3555330151,
  "1049": 3505839102,
  "1050": 3500300202,
  "1051": 3508741489,
  "1052": 3532943953,
  "1053": 3544697739,
  "1054": 3539180212,
  "1055": 3619351191,
  "1056": 3586603499,
  "1057": 3572160302,
  "1058": 3571775483,
  "1059": 3580012299,
  "1060": 3515767748,
  "1061": 3541680843,
  "1062": 3550241468,
  "1063": 3574664951,
  "1064": 3567757835,
  "1065": 3627565200,
  "1066": 3583969801,
  "1067": 3593528428,
  "1068": 3638057512,
  "1069": 3520978393,
  "1070": 3564726371,
  "1071": 3544552911,
  "1072": 3565726302,
  "1073": 3613402555,
  "1074": 3633621863,
  "1075": 3627150890,
  "1076": 3593004415,
  "1077": 3614180451,
  "1078": 3660993012,
  "1079": 3646846106,
  "1080": 3671141036,
  "1081": 3724984683,
  "1082": 3683903074,
  "1083": 3660211665,
  "1084": 3648642187,
  "1085": 3653380183,
  "1086": 3571209017,
  "1087": 3547667738,
  "1088": 3578722577,
  "1089": 3642364508,
  "1090": 3639799690,
  "1091": 3686295276,
  "1092": 3647416780,
  "1093": 3705726902,
  "1094": 3669899006,
  "1095": 3676482477,
  "1096": 3684665388,
  "1097": 3660186313,
  "1098": 3630326509,
  "1099": 3644048509,
  "1100": 3619727775,
  "1101": 3664904578,
  "1102": 3638850280,
  "1103": 3564663480,
  "1104": 3636243636,
  "1105": 3590382872,
  "1106": 3613109560,
  "1107": 3682589362,
  "1108": 3689632922,
  "1109": 3653861559,
  "1110": 3643473982,
  "1111": 3643359501,
  "1112": 3682812507,
  "1113": 3697125220,
  "1114": 3679727601,
  "1115": 3644254800,
  "1116": 3677507075,
  "1117": 3653561885,
  "1118": 3649037898,
  "1119": 3660876475,
  "1120": 3650388037,
  "1121": 3602905255,
  "1122": 3708989730,
  "1123": 3702592555,
  "1124": 3575039533,
  "1125": 3650419771,
  "1126": 3687146727,
  "1127": 3710453064,
  "1128": 3716295544,
  "1129": 3729438944,
  "1130": 3765331188,
  "1131": 3748700381,
  "1132": 3694928811,
  "1133": 3665644723,
  "1134": 3630926483,
  "1135": 3634077413,
  "1136": 3633236467,
  "1137": 3699759159,
  "1138": 3701134136,
  "1139": 3674752923,
  "1140": 3713722837,
  "1141": 3725010890,
  "1142": 3685346253,
  "1143": 3716716936,
  "1144": 3705288486,
  "1145": 3708386238,
  "1146": 3730194259,
  "1147": 3710194471,
  "1148": 3719792623,
  "1149": 3722598231,
  "1150": 3711111929,
  "1151": 3700190573,
  "1152": 3709217569,
  "1153": 3724268663,
  "1154": 3667237310,
  "1155": 3690607866,
  "1156": 3724736717,
  "1157": 3694160675,
  "1158": 3691778914,
  "1159": 3699618064,
  "1160": 3716359145,
  "1161": 3727536025,
  "1162": 3752175433,
  "1163": 3769868241,
  "1164": 3712836465,
  "1165": 3769290214,
  "1166": 3702091260,
  "1167": 3680720145,
  "1168": 3685332746,
  "1169": 3719971533,
  "1170": 3688003221,
  "1171": 3672633156,
  "1172": 3696069861,
  "1173": 3703322986,
  "1174": 3650418815,
  "1175": 3665697182,
  "1176": 3607182799,
  "1177": 3551152785,
  "1178": 3610706494,
  "1179": 3629441186,
  "1180": 3660400201,
  "1181": 3687884008,
  "1182": 3814394081,
  "1183": 3790855792,
  "1184": 3755074565,
  "1185": 3733513852,
  "1186": 3733513716,
  "1187": 3778865069,
  "1188": 3769316990,
  "1189": 3761921300,
  "1190": 3777790082,
  "1191": 3707726837,
  "1192": 3773448644,
  "1193": 3728362134,
  "1194": 3710166061,
  "1195": 3771461923,
  "1196": 3748462063,
  "1197": 3759405425,
  "1198": 3717817354,
  "1199": 3744803647,
  "1200": 3723331550,
  "1201": 3755780727,
  "1202": 3751256329,
  "1203": 3724508089,
  "1204": 3791955427,
  "1205": 3800633785,
  "1206": 3781076503,
  "1207": 3701382974,
  "1208": 3768544446,
  "1209": 3809854014,
  "1210": 3757593906,
  "1211": 3750983881,
  "1212": 3657152236,
  "1213": 3691096750,
  "1214": 3742883733,
  "1215": 3714556190,
  "1216": 3668149868,
  "1217": 3726456765,
  "1218": 3771543171,
  "1219": 3734924933,
  "1220": 3697036714,
  "1221": 3758674992,
  "1222": 3773150396,
  "1223": 3763526197,
  "1224": 3732844669,
  "1225": 3692635957,
  "1226": 3769439414,
  "1227": 3780348988,
  "1228": 3708220462,
  "1229": 3697102641,
  "1230": 3655965054,
  "1231": 3640816546,
  "1232": 3728215695,
  "1233": 3723137525,
  "1234": 3741449648,
  "1235": 3741419268,
  "1236": 3741228869,
  "1237": 3722103589,
  "1238": 3736609409,
  "1239": 3737347362,
  "1240": 3796500667,
  "1241": 3774353127,
  "1242": 3737745306,
  "1243": 3770222794,
  "1244": 3735003527,
  "1245": 3724836616,
  "1246": 3744680867,
  "1247": 3760390202,
  "1248": 3748169767,
  "1249": 3721799920,
  "1250": 3725193879,
  "1251": 3719032670,
  "1252": 3733404595,
  "1253": 3732466543,
  "1254": 3740159772,
  "1255": 3695454305,
  "1256": 3760188991,
  "1257": 3765829427,
  "1258": 3749559135,
  "1259": 3773699596,
  "1260": 3738266985,
  "1261": 3731042118,
  "1262": 3782947191,
  "1263": 3798288546,
  "1264": 3793849500,
  "1265": 3769843219,
  "1266": 3747915680,
  "1267": 3772802736,
  "1268": 3872782503,
  "1269": 3890094364,
  "1270": 3813336554,
  "1271": 3757038625,
  "1272": 3713581853,
  "1273": 3692842871,
  "1274": 3702746986,
  "1275": 3718238450,
  "1276": 3738825932,
  "1277": 3743144288,
  "1278": 3767051239,
  "1279": 3776211055,
  "1280": 3757075054,
  "1281": 3706839413,
  "1282": 3712847792,
  "1283": 3714497967,
  "1284": 3804027305,
  "1285": 3795162379,
  "1286": 3755280190,
  "1287": 3758082583,
  "1288": 3729112875,
  "1289": 3701994561,
  "1290": 3716618338,
  "1291": 3810861641,
  "1292": 3734421758,
  "1293": 3765164109,
  "1294": 3738847511,
  "1295": 3810507458,
  "1296": 3787438814,
  "1297": 3731477541,
  "1298": 3724335345,
  "1299": 3716799154,
  "1300": 3769697555,
  "1301": 3735580705,
  "1302": 3715883825,
  "1303": 3689853289,
  "1304": 3722631247,
  "1305": 3748154244,
  "1306": 3678134386,
  "1307": 3707179293,
  "1308": 3726561832,
  "1309": 3650678482,
  "1310": 3689702437,
  "1311": 3737545316,
  "1312": 3683361990,
  "1313": 3719997631,
  "1314": 3746108440,
  "1315": 3732005989,
  "1316": 3747963803,
  "1317": 3746195855,
  "1318": 3721772895,
  "1319": 3769958099,
  "1320": 3697632982,
  "1321": 3728457370,
  "1322": 3654836602,
  "1323": 3726595400,
  "1324": 3752014684,
  "1325": 3822014858,
  "1326": 3830060245,
  "1327": 3771215129,
  "1328": 3750011443,
  "1329": 3784551918,
  "1330": 3770591586,
  "1331": 3780194325,
  "1332": 3762279187,
  "1333": 3767905034,
  "1334": 3785403270,
  "1335": 3757079709,
  "1336": 3742828321,
  "1337": 3710242871,
  "1338": 3745858205,
  "1339": 3713752565,
  "1340": 3729986582,
  "1341": 3758796892,
  "1342": 3774254317,
  "1343": 3787199189,
  "1344": 3804642537,
  "1345": 3862620625,
  "1346": 3769604334,
  "1347": 3784378690,
  "1348": 3762391977,
  "1349": 3754237811,
  "1350": 3805643061,
  "1351": 3809280406,
  "1352": 3808067954,
  "1353": 3701401167,
  "1354": 3713203795,
  "1355": 3783706577,
  "1356": 3769750484,
  "1357": 3757893608,
  "1358": 3781855210,
  "1359": 3813280181,
  "1360": 3746829579,
  "1361": 3764422102,
  "1362": 3723343287,
  "1363": 3750130158,
  "1364": 3857643139,
  "1365": 3778606271,
  "1366": 3671858022,
  "1367": 3709133269,
  "1368": 3737548955,
  "1369": 3717665768,
  "1370": 3738003448,
  "1371": 3733502534,
  "1372": 3744952412,
  "1373": 3740012635,
  "1374": 3755105124,
  "1375": 3747185697,
  "1376": 3714204758,
  "1377": 3725584182,
  "1378": 3748129458,
  "1379": 3731825112,
  "1380": 3698728001,
  "1381": 3703994378,
  "1382": 3724363370,
  "1383": 3724912695,
  "1384": 3734537073,
  "1385": 3633347152,
  "1386": 3703710314,
  "1387": 3711980063,
  "1388": 3708756520,
  "1389": 3727333196,
  "1390": 3733400623,
  "1391": 3791819336,
  "1392": 3689889796,
  "1393": 3752489821,
  "1394": 3702405373,
  "1395": 3732890013,
  "1396": 3700567350,
  "1397": 3689265402,
  "1398": 3738062117,
  "1399": 3793828557,
  "1400": 3767053564,
  "1401": 3708253159,
  "1402": 3722331091,
  "1403": 3688634397,
  "1404": 3701237207,
  "1405": 3717203939,
  "1406": 3775009958,
  "1407": 3705012332,
  "1408": 3695387086,
  "1409": 3650791591,
  "1410": 3716674175,
  "1411": 3692064018,
  "1412": 3774252593,
  "1413": 3740494431,
  "1414": 3763881334,
  "1415": 3731375216,
  "1416": 3759136616,
  "1417": 3733724654,
  "1418": 3660567050,
  "1419": 3756452711,
  "1420": 3779336630,
  "1421": 3745958558,
  "1422": 3717549443,
  "1423": 3719955119,
  "1424": 3671414770,
  "1425": 3783892849,
  "1426": 3727686172,
  "1427": 3735450618,
  "1428": 3685141212,
  "1429": 3743782166,
  "1430": 3732567483,
  "1431": 3699132166,
  "1432": 3714365051,
  "1433": 3709947185,
  "1434": 3673628427,
  "1435": 3687371653,
  "1436": 3713445440,
  "1437": 3723122785,
  "1438": 3737425995,
  "1439": 3758263652,
  "1440": 3753914571,
  "1441": 3758135191,
  "1442": 3704544323,
  "1443": 3804100883,
  "1444": 3770500183,
  "1445": 3691778965,
  "1446": 3755069618,
  "1447": 3765757767,
  "1448": 3796952442,
  "1449": 3681705557,
  "1450": 3745212892,
  "1451": 3790787792,
  "1452": 3722103413,
  "1453": 3718034577,
  "1454": 3745352712,
  "1455": 3738988469,
  "1456": 3769495219,
  "1457": 3696257221,
  "1458": 3723256184,
  "1459": 3849578499,
  "1460": 3834180494,
  "1461": 3799144350,
  "1462": 3759527927,
  "1463": 3795517406,
  "1464": 3732693525,
  "1465": 3695859448,
  "1466": 3707381090,
  "1467": 3718435879,
  "1468": 3744666932,
  "1469": 3691559212,
  "1470": 3675511187,
  "1471": 3691344391,
  "1472": 3689098463,
  "1473": 3719615261,
  "1474": 3833347522,
  "1475": 3772043879,
  "1476": 3765269829,
  "1477": 3732782685,
  "1478": 3722717028,
  "1479": 3748036189,
  "1480": 3773167613,
  "1481": 3748662504,
  "1482": 3746938115,
  "1483": 3760998107,
  "1484": 3751929407,
  "1485": 3742028356,
  "1486": 3695608115,
  "1487": 3760224725,
  "1488": 3782949264,
  "1489": 3779759336,
  "1490": 3753122076,
  "1491": 3723161912,
  "1492": 3715485740,
  "1493": 3769632070,
  "1494": 3796862671,
  "1495": 3793060191,
  "1496": 3739761347,
  "1497": 3719740596,
  "1498": 3760029694,
  "1499": 3749005888,
  "1500": 3718655746,
  "1501": 3787196603,
  "1502": 3815383469,
  "1503": 3769949206,
  "1504": 3772764561,
  "1505": 3838607865,
  "1506": 3754634574,
  "1507": 3687935353,
  "1508": 3730271617,
  "1509": 3775154143,
  "1510": 3727813298,
  "1511": 3698416024,
  "1512": 3700629541,
  "1513": 3732027969,
  "1514": 3845663863,
  "1515": 3840960644,
  "1516": 3834852001,
  "1517": 3766325869,
  "1518": 3819403338,
  "1519": 3770707727,
  "1520": 3802879817,
  "1521": 3811742464,
  "1522": 3735446287,
  "1523": 3823835022,
  "1524": 3816767157,
  "1525": 3753072476,
  "1526": 3724093794,
  "1527": 3717903625,
  "1528": 3842015887,
  "1529": 3792939476,
  "1530": 3780512434,
  "1531": 3728821570,
  "1532": 3746001764,
  "1533": 3842767420,
  "1534": 3859289530,
  "1535": 3827080840,
  "1536": 3789473533,
  "1537": 3778647954,
  "1538": 3738565871,
  "1539": 3749225605,
  "1540": 3714192168,
  "1541": 3752553926,
  "1542": 3835651805,
  "1543": 3851731344,
  "1544": 3783002070,
  "1545": 3763817505,
  "1546": 3739185729,
  "1547": 3749223218,
  "1548": 3776734109,
  "1549": 3710864191,
  "1550": 3793660630,
  "1551": 3815157526,
  "1552": 3831754623,
  "1553": 3802598995,
  "1554": 3749231418,
  "1555": 3770787529,
  "1556": 3743147938,
  "1557": 3764976825,
  "1558": 3763670872,
  "1559": 3785310093,
  "1560": 3816093884,
  "1561": 3836289806,
  "1562": 3807306265,
  "1563": 3725538529,
  "1564": 3721427124,
  "1565": 3747597446,
  "1566": 3774829821,
  "1567": 3753409019,
  "1568": 3716650768,
  "1569": 3811131081,
  "1570": 3783104412,
  "1571": 3762895956,
  "1572": 3832489530,
  "1573": 3813050361,
  "1574": 3788028762,
  "1575": 3753784469,
  "1576": 3702465256,
  "1577": 3699346950,
  "1578": 3766108249,
  "1579": 3771730885,
  "1580": 3783451524,
  "1581": 3725952275,
  "1582": 3680346540,
  "1583": 3802888458,
  "1584": 3787555314,
  "1585": 3796118760,
  "1586": 3749909767,
  "1587": 3740625556,
  "1588": 3771474725,
  "1589": 3749810698,
  "1590": 3751433705,
  "1591": 3754889669,
  "1592": 3730730923,
  "1593": 3759475994,
  "1594": 3721977027,
  "1595": 3776439273,
  "1596": 3744295489,
  "1597": 3788950166,
  "1598": 3796963968,
  "1599": 3792847699,
  "1600": 3696868253,
  "1601": 3752323558,
  "1602": 3777573328,
  "1603": 3760566219,
  "1604": 3732487360,
  "1605": 3824069004,
  "1606": 3810671358,
  "1607": 3821110678,
  "1608": 3846009241,
  "1609": 3818033136,
  "1610": 3777295417,
  "1611": 3842726858,
  "1612": 3727624068,
  "1613": 3743919603,
  "1614": 3758687413,
  "1615": 3827898999,
  "1616": 3777084716,
  "1617": 3774483310,
  "1618": 3819518783,
  "1619": 3801999606,
  "1620": 3753134183,
  "1621": 3816019906,
  "1622": 3766703297,
  "1623": 3835136125,
  "1624": 3853629114,
  "1625": 3738767328,
  "1626": 3749233643,
  "1627": 3736960511,
  "1628": 3751549337,
  "1629": 3756653006,
  "1630": 3719572098,
  "1631": 3695475366,
  "1632": 3726015591,
  "1633": 3696543086,
  "1634": 3685636295,
  "1635": 3658747383,
  "1636": 3743828469,
  "1637": 3654395930,
  "1638": 3706977291,
  "1639": 3773489325,
  "1640": 3739253314,
  "1641": 3801443258,
  "1642": 3758726632,
  "1643": 3827129754,
  "1644": 3815948853,
  "1645": 3814862212,
  "1646": 3727853121,
  "1647": 3709402218,
  "1648": 3744040729,
  "1649": 3718265800,
  "1650": 3740953901,
  "1651": 3804389548,
  "1652": 3831480949,
  "1653": 3811207365,
  "1654": 3793512006,
  "1655": 3812390781,
  "1656": 3765035604,
  "1657": 3736889680,
  "1658": 3774306623,
  "1659": 3765147163,
  "1660": 3692980105,
  "1661": 3673791924,
  "1662": 3666783172,
  "1663": 3670276181,
  "1664": 3723927210,
  "1665": 3732794537,
  "1666": 3679879514,
  "1667": 3698591157,
  "1668": 3731915871,
  "1669": 3760311637,
  "1670": 3739124755,
  "1671": 3684662384,
  "1672": 3774293561,
  "1673": 3705116765,
  "1674": 3666128313,
  "1675": 3706311954,
  "1676": 3744774605,
  "1677": 3753657137,
  "1678": 3786356678,
  "1679": 3730598563,
  "1680": 3681687996,
  "1681": 3719141999,
  "1682": 3765695487,
  "1683": 3763793818,
  "1684": 3797776720,
  "1685": 3776677699,
  "1686": 3759693796,
  "1687": 3766567922,
  "1688": 3730355584,
  "1689": 3740361187,
  "1690": 3674314645,
  "1691": 3746972492,
  "1692": 3784333859,
  "1693": 3774432213,
  "1694": 3796124499,
  "1695": 3855762080,
  "1696": 3830186860,
  "1697": 3774827495,
  "1698": 3815616375,
  "1699": 3812692249,
  "1700": 3767304088,
  "1701": 3823385446,
  "1702": 3796817008,
  "1703": 3851555791,
  "1704": 3805077041,
  "1705": 3826144332,
  "1706": 3846468307,
  "1707": 3899826096,
  "1708": 3880147178,
  "1709": 3858318506,
  "1710": 3850573892,
  "1711": 3788286036,
  "1712": 3781918476,
  "1713": 3783434506,
  "1714": 3780173952,
  "1715": 3808513812,
  "1716": 3804829499,
  "1717": 3754614280,
  "1718": 3797509035,
  "1719": 3757984559,
  "1720": 3737030314,
  "1721": 3774301832,
  "1722": 3775140164,
  "1723": 3738469813,
  "1724": 3715904218,
  "1725": 3742450254,
  "1726": 3770949828,
  "1727": 3739722975,
  "1728": 3807516580,
  "1729": 3807502442,
  "1730": 3752339804,
  "1731": 3774122067,
  "1732": 3785104500,
  "1733": 3808627977,
  "1734": 3802301699,
  "1735": 3793454649,
  "1736": 3796770516,
  "1737": 3739578605,
  "1738": 3793829091,
  "1739": 3788511100,
  "1740": 3808199952,
  "1741": 3848821905,
  "1742": 3776052525,
  "1743": 3758009693,
  "1744": 3738832509,
  "1745": 3782794977,
  "1746": 3752431583,
  "1747": 3701120957,
  "1748": 3728381322,
  "1749": 3752569209,
  "1750": 3760542829,
  "1751": 3795998861,
  "1752": 3725103436,
  "1753": 3733986904,
  "1754": 3803112030,
  "1755": 3852989105,
  "1756": 3822220639,
  "1757": 3822701097,
  "1758": 3809626180,
  "1759": 3809689380,
  "1760": 3755578279,
  "1761": 3732358607,
  "1762": 3788671058,
  "1763": 3768701422,
  "1764": 3768835269,
  "1765": 3730774375,
  "1766": 3735289464,
  "1767": 3719994565,
  "1768": 3749482838,
  "1769": 3766993147,
  "1770": 3763345115,
  "1771": 3798860450,
  "1772": 3804812301,
  "1773": 3837130683,
  "1774": 3850830399,
  "1775": 3799957127,
  "1776": 3752830521,
  "1777": 3765316963,
  "1778": 3779979722,
  "1779": 3839812152,
  "1780": 3847303669,
  "1781": 3817713093,
  "1782": 3842461949,
  "1783": 3812431543,
  "1784": 3768759766,
  "1785": 3772552895,
  "1786": 3765053989,
  "1787": 3776197818,
  "1788": 3776380788,
  "1789": 3807755646,
  "1790": 3788609468,
  "1791": 3802974292,
  "1792": 3761183468,
  "1793": 3736154752,
  "1794": 3719229316,
  "1795": 3719026054,
  "1796": 3782739804,
  "1797": 3802304302,
  "1798": 3870325689,
  "1799": 3809240329,
  "1800": 3794357064,
  "1801": 3858861831,
  "1802": 3858293805,
  "1803": 3896918832,
  "1804": 3890290284,
  "1805": 3815378160,
  "1806": 3827291097,
  "1807": 3823283663,
  "1808": 3828773566,
  "1809": 3727952360,
  "1810": 3767486819,
  "1811": 3819431019,
  "1812": 3815718285,
  "1813": 3819234388,
  "1814": 3763007239,
  "1815": 3762810238,
  "1816": 3728525288,
  "1817": 3740068570,
  "1818": 3802070340,
  "1819": 3795901235,
  "1820": 3750515374,
  "1821": 3821532974,
  "1822": 3804656565,
  "1823": 3797253032,
  "1824": 3784971420,
  "1825": 3833442506,
  "1826": 3791286568,
  "1827": 3822219899,
  "1828": 3824116086,
  "1829": 3808889324,
  "1830": 3810256810,
  "1831": 3750841549,
  "1832": 3727420927,
  "1833": 3776128930,
  "1834": 3744256880,
  "1835": 3770910044,
  "1836": 3836966433,
  "1837": 3848454859,
  "1838": 3779864937,
  "1839": 3753204329,
  "1840": 3760893423,
  "1841": 3774837341,
  "1842": 3786139343,
  "1843": 3788471509,
  "1844": 3851894410,
  "1845": 3771304501,
  "1846": 3731584894,
  "1847": 3774586681,
  "1848": 3837364517,
  "1849": 3869489324,
  "1850": 3860123866,
  "1851": 3810573006,
  "1852": 3765688566,
  "1853": 3781891103,
  "1854": 3757934279,
  "1855": 3822212051,
  "1856": 3756525563,
  "1857": 3745866053,
  "1858": 3810853566,
  "1859": 3799531377
}