{
  "ram": {
    "bytes_used_max": 144822394880,
    "gib_used_max": 134.8763656616211,
    "gib_used_per_minute": {
      "0": 2.131074651082357,
      "1": 3.512075292653051,
      "2": 3.7071675446073886,
      "3": 5.100323887194618,
      "4": 5.9966684977213545,
      "5": 6.461540222167969,
      "6": 6.8414251036563165,
      "7": 7.174119205798133,
      "8": 7.585520185273269,
      "9": 8.05030389559471,
      "10": 10.882513143248477,
      "11": 11.502009763556012,
      "12": 12.902523170083256,
      "13": 13.585878598487984,
      "14": 14.24043778241691,
      "15": 14.939713364940578,
      "16": 15.7576008166297,
      "17": 16.65068106815733,
      "18": 17.395408113124006,
      "19": 18.230772115416446,
      "20": 19.116071474754204,
      "21": 20.083036584369207,
      "22": 21.233323242704746,
      "23": 22.272694539215607,
      "24": 23.087685859809486,
      "25": 24.003682708740236,
      "26": 24.871989040051478,
      "27": 25.762635117870268,
      "28": 26.656433945995268,
      "29": 27.391121815826935,
      "30": 28.069247500101724,
      "31": 28.69779541532872,
      "32": 29.35250783370713,
      "33": 30.01279565843485,
      "34": 30.698057659601762,
      "35": 31.156103037171444,
      "36": 31.58275209847143,
      "37": 32.03029231701867,
      "38": 32.462825581178826,
      "39": 32.834533303470934,
      "40": 33.28187800261934,
      "41": 33.64571212509931,
      "42": 34.00582846948656,
      "43": 34.367749553615766,
      "44": 34.70037479723914,
      "45": 35.01379510911845,
      "46": 35.43785696514582,
      "47": 35.74517220965887,
      "48": 36.08552085747153,
      "49": 36.458777928756454,
      "50": 36.811658438989674,
      "51": 37.1691519527112,
      "52": 37.61652878583488,
      "53": 37.96485189664162,
      "54": 38.30172962253376,
      "55": 38.635197978908735,
      "56": 38.93594444404214,
      "57": 39.212100659386586,
      "58": 39.591821896827824,
      "59": 39.85663805169574,
      "60": 40.097092838610635,
      "61": 40.3529578386727,
      "62": 40.65311444815943,
      "63": 40.99068877656581,
      "64": 41.4358801760916,
      "65": 41.855065814519335,
      "66": 42.024133197331835,
      "67": 42.214798232256356,
      "68": 42.45237091840324,
      "69": 42.68848464448573,
      "70": 43.015789613885396,
      "71": 43.326925697973216,
      "72": 43.62913700685663,
      "73": 43.89938852342509,
      "74": 44.13482859983282,
      "75": 44.376534736762615,
      "76": 44.764276407532776,
      "77": 45.047864622988946,
      "78": 45.300964420124636,
      "79": 45.56350682145458,
      "80": 45.8520754797984,
      "81": 46.14811047052933,
      "82": 46.47320065255892,
      "83": 46.732729766328454,
      "84": 46.945072368039924,
      "85": 47.20887678760593,
      "86": 47.438045307741326,
      "87": 47.67259668899795,
      "88": 47.9915517171224,
      "89": 48.23964613575046,
      "90": 48.42433690216582,
      "91": 48.616635985293634,
      "92": 48.85097607111527,
      "93": 49.07595527778238,
      "94": 49.3932332830914,
      "95": 49.65902128057965,
      "96": 49.83542122275142,
      "97": 50.059751219668634,
      "98": 50.30180837340274,
      "99": 50.51249785342459,
      "100": 50.79828029567913,
      "101": 51.02549252267611,
      "102": 51.157998618433034,
      "103": 51.358709755590404,
      "104": 51.550756939386915,
      "105": 51.763431096481064,
      "106": 52.01645233671544,
      "107": 52.275186920166014,
      "108": 52.47984915264582,
      "109": 52.74030944048348,
      "110": 52.98043596946587,
      "111": 53.180168539790785,
      "112": 53.460392192258674,
      "113": 53.75527145902989,
      "114": 53.91291052608167,
      "115": 54.14275360107422,
      "116": 54.37150703042241,
      "117": 54.632950281692764,
      "118": 54.929442324880824,
      "119": 55.205013275146484,
      "120": 55.422443131269034,
      "121": 55.661813121731,
      "122": 55.89826551534362,
      "123": 56.16082223256429,
      "124": 56.42854457790569,
      "125": 56.71841876789675,
      "126": 56.945952399302335,
      "127": 57.182054616637146,
      "128": 57.38513985326735,
      "129": 57.592360286389365,
      "130": 57.84528990923348,
      "131": 58.14631607572911,
      "132": 58.40933395644366,
      "133": 58.567381907317596,
      "134": 58.76704982175665,
      "135": 59.036365638344975,
      "136": 59.316931915283206,
      "137": 59.63115407652774,
      "138": 59.82363529528602,
      "139": 60.04413889222226,
      "140": 60.24897766113281,
      "141": 60.4327415207685,
      "142": 60.649781501899334,
      "143": 60.941792805989586,
      "144": 61.09379354016534,
      "145": 61.2557226924573,
      "146": 61.47618115958521,
      "147": 61.73809943764897,
      "148": 62.05545477139748,
      "149": 62.450727971394855,
      "150": 62.6999008695958,
      "151": 62.9450107509807,
      "152": 63.22405268782276,
      "153": 63.51746025732008,
      "154": 63.813868441824184,
      "155": 64.23933863235732,
      "156": 64.50352335784395,
      "157": 64.74416383646302,
      "158": 64.98319787494206,
      "159": 65.25582349098335,
      "160": 65.53896377046229,
      "161": 65.91535374269647,
      "162": 66.20366358352919,
      "163": 66.50588439682782,
      "164": 66.8063805143712,
      "165": 67.10293294615664,
      "166": 67.412837270963,
      "167": 67.80905267747782,
      "168": 68.0979776544086,
      "169": 68.41019200470488,
      "170": 68.72722076157392,
      "171": 69.04062950004966,
      "172": 69.36780095504503,
      "173": 69.71522929304737,
      "174": 70.00530404559636,
      "175": 70.28821796481893,
      "176": 70.59447377522787,
      "177": 70.96542157965192,
      "178": 71.33523469052072,
      "179": 71.84416211661646,
      "180": 72.21108297574318,
      "181": 72.5964017318467,
      "182": 73.00132518703654,
      "183": 73.3631322181831,
      "184": 73.76978657609325,
      "185": 74.21223328908285,
      "186": 74.57224823256671,
      "187": 74.84609280602406,
      "188": 75.24169508077331,
      "189": 75.65059429104045,
      "190": 76.0194622621698,
      "191": 76.43799668651516,
      "192": 76.90625476837158,
      "193": 77.2899859800177,
      "194": 77.64126263634633,
      "195": 78.03427214541678,
      "196": 78.4439706317449,
      "197": 78.90839799783997,
      "198": 79.32467037136271,
      "199": 79.7289403495142,
      "200": 80.07949752807617,
      "201": 80.50229082269183,
      "202": 80.88981408587956,
      "203": 81.34213256835938,
      "204": 81.74435056266138,
      "205": 82.09830487784693,
      "206": 82.50930598630744,
      "207": 82.81692705316058,
      "208": 83.05701420670849,
      "209": 83.41724570322845,
      "210": 83.81248454724329,
      "211": 84.16347510127697,
      "212": 84.48362531500348,
      "213": 84.80248945850437,
      "214": 85.09843089216847,
      "215": 85.46717685764119,
      "216": 85.8132319692838,
      "217": 86.0532679153701,
      "218": 86.39571025007862,
      "219": 86.69376677173679,
      "220": 86.97798260187699,
      "221": 87.33602021535238,
      "222": 87.71647889735335,
      "223": 87.97995253740731,
      "224": 88.33109781297587,
      "225": 88.66184079445014,
      "226": 88.9624851032839,
      "227": 89.3079226219048,
      "228": 89.7412644079176,
      "229": 90.03079074924275,
      "230": 90.3591198678744,
      "231": 90.65170766539492,
      "232": 90.97615568516618,
      "233": 91.32639564902095,
      "234": 91.72586033707958,
      "235": 92.00551773329913,
      "236": 92.30309903419624,
      "237": 92.6388318983175,
      "238": 93.03407597945909,
      "239": 93.4220162084547,
      "240": 93.91766160329183,
      "241": 94.26443377995895,
      "242": 94.57329423548812,
      "243": 94.91411396608514,
      "244": 95.22621962983729,
      "245": 95.57763458510577,
      "246": 96.00132298873643,
      "247": 96.28155756804902,
      "248": 96.59324833498162,
      "249": 96.90003740989556,
      "250": 97.17153704368462,
      "251": 97.4950664326296,
      "252": 97.90217053688178,
      "253": 98.26685514288434,
      "254": 98.59728790541827,
      "255": 98.97437343597412,
      "256": 99.38443762569104,
      "257": 99.78292736764682,
      "258": 100.2296627497269,
      "259": 100.63092694040073,
      "260": 101.0123862573656,
      "261": 101.4368953704834,
      "262": 101.85005369024762,
      "263": 102.22141834840936,
      "264": 102.59546958794029,
      "265": 102.96361580541578,
      "266": 103.30867347070726,
      "267": 103.71261247537903,
      "268": 104.13497252383475,
      "269": 104.5839365641276,
      "270": 105.04248661105916,
      "271": 105.45515778105138,
      "272": 105.8041132264218,
      "273": 106.2206830170195,
      "274": 106.57010838136834,
      "275": 106.93447720802436,
      "276": 107.37498461189917,
      "277": 107.82114594777426,
      "278": 108.1767907223459,
      "279": 108.57756036014881,
      "280": 108.98480644872633,
      "281": 109.4068850501109,
      "282": 109.81887655743098,
      "283": 110.19404964123743,
      "284": 110.43393403392727,
      "285": 110.71394283488645,
      "286": 110.98403878939354,
      "287": 111.32690028821008,
      "288": 111.74829935623427,
      "289": 112.18640257517497,
      "290": 112.5062232583256,
      "291": 112.80331388570495,
      "292": 113.11711224054886,
      "293": 113.42697098295568,
      "294": 113.68706790471481,
      "295": 114.07837534759004,
      "296": 114.3732379331427,
      "297": 114.65054276029943,
      "298": 114.97690058562715,
      "299": 115.26091649976827,
      "300": 115.56106063066903,
      "301": 115.9773310645152,
      "302": 116.32888658167953,
      "303": 116.62542621159957,
      "304": 116.97343490083338,
      "305": 117.36119894254006,
      "306": 117.70892573211152,
      "307": 118.14981027376854,
      "308": 118.54374022403006,
      "309": 118.89699366941291,
      "310": 119.25378883491128,
      "311": 119.54750642938129,
      "312": 119.85544372817218,
      "313": 120.26899266647081,
      "314": 120.61426751088288,
      "315": 120.93686941114522,
      "316": 121.26583157555531,
      "317": 121.62051347096761,
      "318": 121.97881077911894,
      "319": 122.4082991389905,
      "320": 122.74510057093734,
      "321": 123.04514577833272,
      "322": 123.40201193599377,
      "323": 123.82817646608514,
      "324": 124.20913722151417,
      "325": 124.5969928159552,
      "326": 124.97455965462377,
      "327": 125.24503927715755,
      "328": 125.55615790415618,
      "329": 125.91393858591715,
      "330": 126.25816021935414,
      "331": 126.71024135007697,
      "332": 127.16308464438228,
      "333": 127.5433395515054,
      "334": 127.97922205520888,
      "335": 128.36837102599063,
      "336": 128.83656259310447,
      "337": 129.30196329752604,
      "338": 129.75892787868693,
      "339": 130.14541037608,
      "340": 130.54954987865383,
      "341": 130.9340976133185,
      "342": 131.2338647357488,
      "343": 131.66144885047007,
      "344": 132.13044764631886,
      "345": 132.5018648147583,
      "346": 132.9058430558544,
      "347": 133.26298038030075,
      "348": 133.42241823875298,
      "349": 133.49746781688626,
      "350": 133.59109354827365,
      "351": 133.60333875020345,
      "352": 133.63166059073754,
      "353": 133.67235726825263,
      "354": 133.725687899832,
      "355": 133.78803906198274,
      "356": 133.87659473742468,
      "357": 133.8749884912523,
      "358": 133.89468008784925,
      "359": 133.94041970570882,
      "360": 133.98447961322333,
      "361": 134.07823355723235,
      "362": 134.2682597920046,
      "363": 134.27498807745465,
      "364": 134.27837449413235,
      "365": 134.30159591416182,
      "366": 134.33588862015029,
      "367": 134.3884436397229,
      "368": 134.50180105435646,
      "369": 134.5309454707776,
      "370": 134.54047173968817,
      "371": 134.56607825069105,
      "372": 134.59931887610483,
      "373": 134.62885982707397,
      "374": 134.7320359547933,
      "375": 134.75808444265593,
      "376": 134.77740853519762,
      "377": 134.80909496242717,
      "378": 134.7431027687202,
      "379": 67.95099925994873
    }
  },
  "run_time": {
    "hours": 6.314331654166667,
    "human": "6:18:51.593955",
    "minutes": 378.85989925,
    "real_seconds_per_sim_second": {
      "2.0": 33.358906,
      "3.002": 34.654321,
      "4.002868": 37.981169,
      "5.004092": 40.744815,
      "6.005046": 44.796584,
      "7.006024": 49.491026,
      "8.00662": 51.02627,
      "9.008058": 51.965949,
      "10.008071": 52.753361,
      "11.010232": 53.526936,
      "12.012174": 54.316817,
      "13.014188": 55.176247,
      "14.015321": 55.985845,
      "15.016625": 56.776607,
      "16.018495": 57.548578,
      "17.018717": 58.2654,
      "18.01986": 59.021036,
      "19.020442": 59.72694,
      "20.021199": 60.43557,
      "21.022057": 61.197654,
      "22.02207": 61.870329,
      "23.022404": 62.602445,
      "24.024466": 63.316905,
      "25.024612": 64.009407,
      "26.026612": 64.606727,
      "27.026643": 65.250653,
      "28.028217": 65.937542,
      "29.028951": 66.646927,
      "30.029": 67.305556,
      "31.029407": 68.023064,
      "32.031354": 68.746002,
      "33.032307": 69.589064,
      "34.033129": 70.313963,
      "35.034356": 71.05678,
      "36.03508": 71.825402,
      "37.036386": 72.552459,
      "38.037879": 73.257229,
      "39.038665": 74.011637,
      "40.039879": 74.653176,
      "41.041776": 75.304458,
      "42.042648": 75.97558,
      "43.044587": 76.761827,
      "44.046527": 77.490962,
      "45.046663": 78.169139,
      "46.047138": 78.865112,
      "47.047808": 79.484652,
      "48.049266": 80.196538,
      "49.050051": 80.821216,
      "50.051003": 81.372585,
      "51.051025": 81.973286,
      "52.051667": 82.639026,
      "53.052111": 83.408158,
      "54.052543": 83.908962,
      "55.053963": 84.352621,
      "56.054091": 84.787426,
      "57.055091": 85.260958,
      "58.055906": 85.781463,
      "59.056522": 86.508576,
      "60.058141": 87.182918,
      "61.058152": 87.895927,
      "62.060119": 88.552277,
      "63.061974": 89.478708,
      "64.062829": 90.604888,
      "65.064128": 91.64693,
      "66.064325": 93.374036,
      "67.064539": 95.310611,
      "68.064588": 96.13227,
      "69.066404": 96.833348,
      "70.066845": 97.484044,
      "71.066904": 97.950699,
      "72.067218": 98.444989,
      "73.069094": 99.086848,
      "74.06988": 99.637854,
      "75.070091": 100.309443,
      "76.070274": 100.987191,
      "77.071304": 101.714934,
      "78.072406": 102.456051,
      "79.073664": 103.040207,
      "80.074738": 103.635601,
      "81.076398": 104.377269,
      "82.07806": 105.109255,
      "83.079621": 105.897719,
      "84.080988": 106.604742,
      "85.081563": 107.312723,
      "86.083564": 108.0654,
      "87.083729": 108.889377,
      "88.084415": 109.613465,
      "89.085782": 110.285483,
      "90.08594": 111.027876,
      "91.087651": 111.696255,
      "92.087995": 112.338922,
      "93.089161": 113.142641,
      "94.09014": 113.825279,
      "95.091964": 114.522261,
      "96.092621": 115.118307,
      "97.093781": 115.927564,
      "98.094888": 116.733777,
      "99.096198": 117.387512,
      "100.0969": 118.026454,
      "101.097829": 118.639432,
      "102.098884": 119.212348,
      "103.100382": 119.877476,
      "104.100553": 120.596407,
      "105.100798": 121.29892,
      "106.100998": 121.981953,
      "107.101624": 122.554559,
      "108.10236": 123.229136,
      "109.102596": 123.933673,
      "110.103354": 124.675534,
      "111.103994": 125.563139,
      "112.105586": 126.487863,
      "113.106396": 127.239867,
      "114.108073": 127.98688,
      "115.108723": 128.749266,
      "116.110701": 129.486533,
      "117.11259": 130.281078,
      "118.114607": 130.947051,
      "119.115192": 131.507609,
      "120.116568": 132.26804,
      "121.117062": 132.989236,
      "122.119039": 133.696698,
      "123.120602": 134.761383,
      "124.121142": 135.869351,
      "125.122834": 137.219151,
      "126.124746": 138.860207,
      "127.125861": 140.458445,
      "128.126708": 141.24113,
      "129.128208": 141.963975,
      "130.129039": 142.706741,
      "131.129234": 143.550613,
      "132.130854": 144.312755,
      "133.131852": 145.099682,
      "134.13189": 145.772844,
      "135.132152": 146.465065,
      "136.133334": 147.066112,
      "137.134726": 147.696735,
      "138.136295": 148.38444,
      "139.137159": 149.149861,
      "140.137349": 149.814418,
      "141.137958": 150.451963,
      "142.137977": 151.135787,
      "143.139824": 151.924471,
      "144.140288": 152.631545,
      "145.14083": 153.351348,
      "146.140959": 153.960215,
      "147.142924": 154.493103,
      "148.143332": 155.080452,
      "149.144591": 155.740187,
      "150.1465": 157.362592,
      "151.147216": 194.313891,
      "152.147748": 237.398507,
      "153.148861": 274.07689,
      "154.150652": 305.256726,
      "155.150794": 329.649354,
      "156.152256": 350.319292,
      "157.152286": 367.220552,
      "158.153415": 380.32112,
      "159.154842": 391.495498,
      "160.155712": 401.533943,
      "161.155881": 409.590612,
      "162.157272": 418.893567,
      "163.157368": 426.155624,
      "164.158992": 432.663314,
      "165.15924": 439.312014,
      "166.160529": 445.65799,
      "167.161694": 451.237786,
      "168.163712": 457.075746,
      "169.164009": 461.630988,
      "170.164843": 466.592114,
      "171.166877": 469.523301,
      "172.167152": 473.565422,
      "173.16734": 476.860726,
      "174.167646": 480.345222,
      "175.169289": 483.392654,
      "176.171282": 486.203731,
      "177.17232": 488.945122,
      "178.173295": 491.276046,
      "179.175238": 493.600554,
      "180.17651": 495.842082,
      "181.17775": 498.051139,
      "182.178405": 500.241606,
      "183.179758": 502.006425,
      "184.179913": 504.163444,
      "185.18043": 506.745273,
      "186.181504": 509.940998,
      "187.182442": 513.357467,
      "188.182929": 516.963027,
      "189.183745": 520.564202,
      "190.183843": 523.59235,
      "191.184834": 526.441461,
      "192.186812": 528.965685,
      "193.188646": 531.346973,
      "194.189234": 533.750531,
      "195.190276": 535.737375,
      "196.191338": 537.721537,
      "197.193269": 539.433947,
      "198.194696": 541.160821,
      "199.195544": 542.740292,
      "200.196553": 544.283281,
      "201.197368": 545.759671,
      "202.198065": 547.260062,
      "203.198222": 548.726244,
      "204.199292": 550.091267,
      "205.201316": 551.303733,
      "206.201879": 552.43379,
      "207.202046": 553.673627,
      "208.204067": 554.855404,
      "209.204333": 556.189727,
      "210.206165": 557.575909,
      "211.206336": 559.00796,
      "212.207403": 560.485413,
      "213.20943": 562.070392,
      "214.21032": 564.328277,
      "215.211766": 566.340194,
      "216.213238": 568.306567,
      "217.213697": 570.03697,
      "218.214394": 571.485415,
      "219.214538": 572.783906,
      "220.21473": 574.238976,
      "221.21657": 575.673237,
      "222.217163": 577.109547,
      "223.218663": 578.51054,
      "224.219511": 579.773999,
      "225.220923": 581.177154,
      "226.222858": 582.50692,
      "227.224783": 583.669848,
      "228.226603": 584.666295,
      "229.228647": 585.65692,
      "230.229615": 586.62306,
      "231.230282": 587.591535,
      "232.230477": 588.537196,
      "233.231784": 589.516014,
      "234.232376": 590.536552,
      "235.232383": 591.412788,
      "236.233434": 592.292045,
      "237.234874": 593.021805,
      "238.23598": 593.718751,
      "239.237626": 594.400609,
      "240.238128": 596.075596,
      "241.240093": 599.980943,
      "242.241036": 615.966602,
      "243.241375": 631.387637,
      "244.24292": 643.145777,
      "245.243032": 648.562423,
      "246.243762": 654.983807,
      "247.245717": 660.98183,
      "248.246765": 663.908086,
      "249.248045": 666.090768,
      "250.249847": 667.940866,
      "251.25031": 669.484777,
      "252.250887": 670.856004,
      "253.251423": 671.93528,
      "254.252989": 672.8015,
      "255.254557": 673.651052,
      "256.256155": 674.352959,
      "257.256311": 675.134505,
      "258.257634": 676.362431,
      "259.258324": 678.089656,
      "260.259367": 679.963123,
      "261.260279": 681.679995,
      "262.260782": 683.133629,
      "263.262558": 684.553444,
      "264.264343": 685.634044,
      "265.265131": 686.54419,
      "266.26652": 687.27379,
      "267.267392": 687.925451,
      "268.269188": 688.769841,
      "269.270408": 690.115059,
      "270.27091": 691.791841,
      "271.271336": 693.52172,
      "272.273071": 695.051701,
      "273.273764": 696.551599,
      "274.274072": 698.572775,
      "275.275667": 700.328424,
      "276.275949": 702.053931,
      "277.276949": 703.368041,
      "278.278753": 704.546245,
      "279.279216": 705.654849,
      "280.281201": 707.273052,
      "281.281701": 709.088856,
      "282.281899": 710.889582,
      "283.283393": 712.410546,
      "284.284391": 713.671283,
      "285.284872": 715.041675,
      "286.286787": 716.159244,
      "287.287074": 717.132454,
      "288.289255": 717.811154,
      "289.291821": 718.56697,
      "290.29234": 719.442294,
      "291.2936": 720.787742,
      "292.294207": 722.562248,
      "293.29614": 724.172782,
      "294.296399": 725.781475,
      "295.298373": 727.017417,
      "296.298491": 728.502706,
      "297.299186": 729.514177,
      "298.300281": 730.335049,
      "299.301411": 731.049581,
      "300.302": 733.960324,
      "301.304": 747.59672,
      "302.306": 759.773837,
      "303.308": 770.869099,
      "304.31": 778.451635,
      "305.312": 784.161815,
      "306.314": 788.256525,
      "307.316": 791.598185,
      "308.318": 795.106447,
      "309.32": 798.787935,
      "310.322": 802.270669,
      "311.324": 805.948587,
      "312.326": 809.51482,
      "313.328": 813.381634,
      "314.33": 817.555779,
      "315.332": 821.840148,
      "316.334": 826.26866,
      "317.336": 830.693569,
      "318.338": 835.072909,
      "319.34": 840.084517,
      "320.342": 845.096544,
      "321.344": 850.150166,
      "322.346": 855.445391,
      "323.348": 860.681563,
      "324.35": 866.294481,
      "325.352": 871.972058,
      "326.354": 878.043513,
      "327.356": 883.741226,
      "328.358": 890.050724,
      "329.36": 896.406454,
      "330.362": 902.955481,
      "331.364": 909.558657,
      "332.366": 916.526516,
      "333.368": 924.32079,
      "334.37": 932.764179,
      "335.372": 942.678686,
      "336.374": 955.513979,
      "337.376": 964.031282,
      "338.378": 971.191063,
      "339.38": 977.054699,
      "340.382": 982.911081,
      "341.384": 988.766175,
      "342.386": 994.178934,
      "343.388": 999.760873,
      "344.39": 1006.092573,
      "345.392": 1012.484274,
      "346.394": 1019.800634,
      "347.396": 1028.75831,
      "348.398": 1038.402484,
      "349.4": 1047.999755,
      "350.402": 1057.06651,
      "351.404": 1066.498154,
      "352.406": 1076.114684,
      "353.408": 1085.180968,
      "354.41": 1094.590418,
      "355.412": 1104.251093,
      "356.414": 1114.135674,
      "357.416": 1123.783537,
      "358.418": 1133.654069,
      "359.42": 1143.676256,
      "360.422": 1153.268038,
      "361.424": 1163.081812,
      "362.426": 1173.248083,
      "363.428": 1183.047518,
      "364.43": 1192.844204,
      "365.432": 1202.152803,
      "366.434": 1211.857956,
      "367.436": 1221.797517,
      "368.438": 1229.522704,
      "369.44": 1237.719547,
      "370.442": 1247.320604,
      "371.444": 1257.062192,
      "372.446": 1264.54595,
      "373.448": 1273.444541,
      "374.45": 1281.317073,
      "375.452": 1288.21908,
      "376.454": 1294.464139,
      "377.456": 1302.34642,
      "378.458": 1309.888382,
      "379.46": 1316.819614,
      "380.462": 1323.964236,
      "381.464": 1330.512458,
      "382.466": 1336.908834,
      "383.468": 1343.033904,
      "384.47": 1349.212646,
      "385.472": 1355.470156,
      "386.474": 1361.424953,
      "387.476": 1367.83725,
      "388.478": 1374.556827,
      "389.48": 1382.065405,
      "390.482": 1390.074512,
      "391.484": 1396.48691,
      "392.486": 1403.428762,
      "393.488": 1412.192662,
      "394.49": 1421.196771,
      "395.492": 1431.113338,
      "396.494": 1442.195465,
      "397.496": 1452.753472,
      "398.498": 1460.332019,
      "399.5": 1468.513935,
      "400.502": 1475.936257,
      "401.504": 1483.852707,
      "402.506": 1491.200845,
      "403.508": 1498.569346,
      "404.51": 1505.871766,
      "405.512": 1514.050449,
      "406.514": 1521.680869,
      "407.516": 1529.364546,
      "408.518": 1536.63106,
      "409.52": 1544.449966,
      "410.522": 1552.127147,
      "411.524": 1559.48774,
      "412.526": 1566.889171,
      "413.528": 1574.657963,
      "414.53": 1581.966842,
      "415.532": 1589.822836,
      "416.534": 1597.605743,
      "417.536": 1604.940161,
      "418.538": 1612.556539,
      "419.54": 1620.120325,
      "420.542": 1627.923601,
      "421.544": 1635.547922,
      "422.546": 1643.637634,
      "423.548": 1651.935708,
      "424.55": 1660.463284,
      "425.552": 1668.670826,
      "426.554": 1676.727635,
      "427.556": 1685.306699,
      "428.558": 1692.772202,
      "429.56": 1700.252936,
      "430.562": 1708.219785,
      "431.564": 1716.016518,
      "432.566": 1723.998871,
      "433.568": 1731.788154,
      "434.57": 1740.253998,
      "435.572": 1748.223328,
      "436.574": 1756.488879,
      "437.576": 1765.009394,
      "438.578": 1773.390902,
      "439.58": 1781.956412,
      "440.582": 1789.966769,
      "441.584": 1798.767007,
      "442.586": 1806.889715,
      "443.588": 1814.782268,
      "444.59": 1823.79397,
      "445.592": 1832.242198,
      "446.594": 1840.940643,
      "447.596": 1849.460409,
      "448.598": 1858.51454,
      "449.6": 1867.259103,
      "450.602": 1876.417327,
      "451.604": 1885.51946,
      "452.606": 1894.313338,
      "453.608": 1903.012691,
      "454.61": 1911.562068,
      "455.612": 1920.67315,
      "456.614": 1929.245124,
      "457.616": 1937.60564,
      "458.618": 1945.793082,
      "459.62": 1954.938109,
      "460.622": 1963.94672,
      "461.624": 1972.934261,
      "462.626": 1981.680885,
      "463.628": 1990.761147,
      "464.63": 1999.555673,
      "465.632": 2008.762633,
      "466.634": 2017.607405,
      "467.636": 2027.159833,
      "468.638": 2038.096838,
      "469.64": 2047.903246,
      "470.642": 2056.89556,
      "471.644": 2066.464344,
      "472.646": 2076.227227,
      "473.648": 2087.33988,
      "474.65": 2097.594057,
      "475.652": 2111.842344,
      "476.654": 2125.354577,
      "477.656": 2140.024567,
      "478.658": 2153.551728,
      "479.66": 2166.685792,
      "480.662": 2179.225962,
      "481.664": 2193.719331,
      "482.666": 2207.001782,
      "483.668": 2220.719363,
      "484.67": 2232.129239,
      "485.672": 2246.259937,
      "486.674": 2258.951311,
      "487.676": 2271.540499,
      "488.678": 2284.528075,
      "489.68": 2298.826782,
      "490.682": 2312.807811,
      "491.684": 2327.205049,
      "492.686": 2341.261909,
      "493.688": 2357.183375,
      "494.69": 2372.314301,
      "495.692": 2389.157685,
      "496.694": 2402.591946,
      "497.696": 2413.970815,
      "498.698": 2424.699475,
      "499.7": 2435.684953,
      "500.702": 2446.799859,
      "501.704": 2459.051063,
      "502.706": 2473.432559,
      "503.708": 2486.13215,
      "504.71": 2499.437326,
      "505.712": 2513.504909,
      "506.714": 2527.569071,
      "507.716": 2542.12377,
      "508.718": 2556.797161,
      "509.72": 2572.542272,
      "510.722": 2586.417579,
      "511.724": 2602.042491,
      "512.726": 2617.831075,
      "513.728": 2633.988194,
      "514.73": 2650.153749,
      "515.732": 2667.844225,
      "516.734": 2687.275902,
      "517.736": 2706.613112,
      "518.738": 2721.476473,
      "519.74": 2737.413451,
      "520.742": 2753.259132,
      "521.744": 2766.590208,
      "522.746": 2778.133871,
      "523.748": 2790.015186,
      "524.75": 2802.327285,
      "525.752": 2815.803545,
      "526.754": 2833.974808,
      "527.756": 2851.459415,
      "528.758": 2867.783747,
      "529.76": 2882.945414,
      "530.762": 2896.549828,
      "531.764": 2910.388412,
      "532.766": 2923.228494,
      "533.768": 2937.501813,
      "534.77": 2951.887739,
      "535.772": 2965.548107,
      "536.774": 2980.71115,
      "537.776": 2997.415785,
      "538.778": 3011.291054,
      "539.78": 3025.039879,
      "540.782": 3038.484923,
      "541.784": 3053.612513,
      "542.786": 3066.873217,
      "543.788": 3080.724282,
      "544.79": 3091.888846,
      "545.792": 3104.115407,
      "546.794": 3117.37374,
      "547.796": 3129.157359,
      "548.798": 3139.961213,
      "549.8": 3150.349421,
      "550.802": 3160.17938,
      "551.804": 3170.707373,
      "552.806": 3182.677192,
      "553.808": 3197.260873,
      "554.81": 3212.283726,
      "555.812": 3226.474408,
      "556.814": 3240.070101,
      "557.816": 3255.237299,
      "558.818": 3269.899961,
      "559.82": 3284.842641,
      "560.822": 3299.419596,
      "561.824": 3314.70855,
      "562.826": 3329.184386,
      "563.828": 3342.90496,
      "564.83": 3357.001214,
      "565.832": 3372.504795,
      "566.834": 3388.922861,
      "567.836": 3403.654556,
      "568.838": 3417.906602,
      "569.84": 3433.326765,
      "570.842": 3446.597796,
      "571.844": 3460.465533,
      "572.846": 3476.475107,
      "573.848": 3488.206501,
      "574.85": 3499.035815,
      "575.852": 3511.618766,
      "576.854": 3526.502655,
      "577.856": 3542.919025,
      "578.858": 3560.215898,
      "579.86": 3576.0247,
      "580.862": 3591.857766,
      "581.864": 3608.065602,
      "582.866": 3623.542906,
      "583.868": 3642.299381,
      "584.87": 3659.651842,
      "585.872": 3678.895255,
      "586.874": 3697.243902,
      "587.876": 3716.045937,
      "588.878": 3731.474718,
      "589.88": 3744.964999,
      "590.882": 3759.199399,
      "591.884": 3773.234561,
      "592.886": 3784.732093,
      "593.888": 3795.96893,
      "594.89": 3807.028826,
      "595.892": 3820.719981,
      "596.894": 3833.974997,
      "597.896": 3846.670535,
      "598.898": 3857.179988,
      "599.9": 3867.689583,
      "600.902": 3886.467494,
      "601.904": 3919.469957,
      "602.906": 3951.825077,
      "603.908": 3980.76649,
      "604.91": 4006.141566,
      "605.912": 4029.488851,
      "606.914": 4050.595974,
      "607.916": 4068.340412,
      "608.918": 4086.108091,
      "609.92": 4101.544914,
      "610.922": 4115.837792,
      "611.924": 4131.390511,
      "612.926": 4148.751744,
      "613.928": 4165.987857,
      "614.93": 4181.488758,
      "615.932": 4197.320405,
      "616.934": 4210.749141,
      "617.936": 4222.106972,
      "618.938": 4233.202346,
      "619.94": 4244.18097,
      "620.942": 4255.364798,
      "621.944": 4268.106242,
      "622.946": 4281.335191,
      "623.948": 4293.914688,
      "624.95": 4307.159126,
      "625.952": 4319.149048,
      "626.954": 4332.484966,
      "627.956": 4345.358985,
      "628.958": 4358.623192,
      "629.96": 4373.451616,
      "630.962": 4387.378792,
      "631.964": 4399.920507,
      "632.966": 4415.977695,
      "633.968": 4433.179679,
      "634.97": 4450.749734,
      "635.972": 4471.294487,
      "636.974": 4494.531675,
      "637.976": 4514.705896,
      "638.978": 4530.949764,
      "639.98": 4544.787876,
      "640.982": 4556.646319,
      "641.984": 4569.074902,
      "642.986": 4580.274509,
      "643.988": 4592.096604,
      "644.99": 4603.795513,
      "645.992": 4618.986402,
      "646.994": 4636.453413,
      "647.996": 4653.791919,
      "648.998": 4670.542175,
      "650.0": 4685.031208,
      "651.002": 4697.353302,
      "652.004": 4710.0841,
      "653.006": 4723.551847,
      "654.008": 4738.156922,
      "655.01": 4753.420484,
      "656.012": 4766.862782,
      "657.014": 4781.459507,
      "658.016": 4796.167345,
      "659.018": 4810.013524,
      "660.02": 4824.888736,
      "661.022": 4838.642816,
      "662.024": 4853.750584,
      "663.026": 4870.408102,
      "664.028": 4886.062567,
      "665.03": 4901.425353,
      "666.032": 4916.323043,
      "667.034": 4931.108453,
      "668.036": 4942.429798,
      "669.038": 4953.742469,
      "670.04": 4965.118618,
      "671.042": 4976.807029,
      "672.044": 4989.219862,
      "673.046": 5003.647882,
      "674.048": 5016.957089,
      "675.05": 5031.177758,
      "676.052": 5045.391513,
      "677.054": 5059.497415,
      "678.056": 5073.061422,
      "679.058": 5086.753365,
      "680.06": 5100.545556,
      "681.062": 5115.299963,
      "682.064": 5129.55995,
      "683.066": 5144.566466,
      "684.068": 5158.550188,
      "685.07": 5173.127875,
      "686.072": 5188.352786,
      "687.074": 5203.621305,
      "688.076": 5218.340482,
      "689.078": 5232.588529,
      "690.08": 5245.435378,
      "691.082": 5259.017617,
      "692.084": 5271.983312,
      "693.086": 5285.133535,
      "694.088": 5298.639984,
      "695.09": 5310.406076,
      "696.092": 5324.321508,
      "697.094": 5338.800746,
      "698.096": 5354.204404,
      "699.098": 5369.681155,
      "700.1": 5384.19823,
      "701.102": 5398.644811,
      "702.104": 5410.625125,
      "703.106": 5424.199023,
      "704.108": 5439.318072,
      "705.11": 5454.53308,
      "706.112": 5471.058501,
      "707.114": 5487.578283,
      "708.116": 5501.817183,
      "709.118": 5515.659781,
      "710.12": 5527.635669,
      "711.122": 5541.083544,
      "712.124": 5553.718245,
      "713.126": 5567.601125,
      "714.128": 5580.812228,
      "715.13": 5595.347944,
      "716.132": 5608.961564,
      "717.134": 5622.216093,
      "718.136": 5636.416009,
      "719.138": 5649.678564,
      "720.14": 5662.357592,
      "721.142": 5674.369419,
      "722.144": 5685.665738,
      "723.146": 5697.336636,
      "724.148": 5708.268518,
      "725.15": 5722.264588,
      "726.152": 5734.904254,
      "727.154": 5747.175461,
      "728.156": 5760.642427,
      "729.158": 5776.788886,
      "730.16": 5790.158175,
      "731.162": 5803.479876,
      "732.164": 5814.54487,
      "733.166": 5826.702978,
      "734.168": 5839.498075,
      "735.17": 5851.467535,
      "736.172": 5863.046612,
      "737.174": 5873.591459,
      "738.176": 5884.907569,
      "739.178": 5898.068999,
      "740.18": 5910.768062,
      "741.182": 5924.234182,
      "742.184": 5937.757159,
      "743.186": 5950.785707,
      "744.188": 5963.286935,
      "745.19": 5975.955731,
      "746.192": 5988.488516,
      "747.194": 6001.47426,
      "748.196": 6014.792164,
      "749.198": 6027.154774,
      "750.2": 6038.124261,
      "751.202": 6049.033625,
      "752.204": 6060.043117,
      "753.206": 6072.319703,
      "754.208": 6086.767804,
      "755.21": 6102.286329,
      "756.212": 6123.704797,
      "757.214": 6146.218016,
      "758.216": 6166.198101,
      "759.218": 6181.083235,
      "760.22": 6194.121182,
      "761.222": 6207.091367,
      "762.224": 6220.613584,
      "763.226": 6235.208246,
      "764.228": 6249.732288,
      "765.23": 6266.033855,
      "766.232": 6283.243043,
      "767.234": 6299.35738,
      "768.236": 6314.8745,
      "769.238": 6327.494898,
      "770.24": 6339.670701,
      "771.242": 6351.582528,
      "772.244": 6363.402546,
      "773.246": 6375.348871,
      "774.248": 6387.785494,
      "775.25": 6398.769275,
      "776.252": 6409.938806,
      "777.254": 6420.816806,
      "778.256": 6431.835594,
      "779.258": 6442.940122,
      "780.26": 6454.389784,
      "781.262": 6465.899002,
      "782.264": 6479.007131,
      "783.266": 6491.314929,
      "784.268": 6503.413061,
      "785.27": 6514.212453,
      "786.272": 6524.611864,
      "787.274": 6535.004303,
      "788.276": 6545.310328,
      "789.278": 6556.684913,
      "790.28": 6568.306475,
      "791.282": 6579.863189,
      "792.284": 6590.744911,
      "793.286": 6602.410099,
      "794.288": 6614.175383,
      "795.29": 6625.931903,
      "796.292": 6637.353389,
      "797.294": 6647.662063,
      "798.296": 6658.510275,
      "799.298": 6670.171402,
      "800.3": 6681.94484,
      "801.302": 6693.596624,
      "802.304": 6704.911843,
      "803.306": 6716.624892,
      "804.308": 6727.41633,
      "805.31": 6739.570024,
      "806.312": 6751.495576,
      "807.314": 6761.739809,
      "808.316": 6772.077579,
      "809.318": 6782.843163,
      "810.32": 6793.839984,
      "811.322": 6804.995606,
      "812.324": 6817.187558,
      "813.326": 6830.797313,
      "814.328": 6844.678715,
      "815.33": 6859.278028,
      "816.332": 6875.490277,
      "817.334": 6889.444931,
      "818.336": 6902.411324,
      "819.338": 6914.048383,
      "820.34": 6925.817896,
      "821.342": 6937.936907,
      "822.344": 6950.072383,
      "823.346": 6962.119041,
      "824.348": 6975.104799,
      "825.35": 6986.780215,
      "826.352": 7000.505753,
      "827.354": 7012.125926,
      "828.356": 7023.847665,
      "829.358": 7035.733088,
      "830.36": 7047.471544,
      "831.362": 7059.02865,
      "832.364": 7072.004292,
      "833.366": 7083.967641,
      "834.368": 7097.002658,
      "835.37": 7110.381983,
      "836.372": 7120.990341,
      "837.374": 7131.993927,
      "838.376": 7142.562555,
      "839.378": 7153.063011,
      "840.38": 7163.854123,
      "841.382": 7174.659682,
      "842.384": 7186.078765,
      "843.386": 7197.984771,
      "844.388": 7209.203424,
      "845.39": 7220.339623,
      "846.392": 7232.085463,
      "847.394": 7243.449565,
      "848.396": 7255.490274,
      "849.398": 7267.459439,
      "850.4": 7279.592258,
      "851.402": 7291.508957,
      "852.404": 7302.84265,
      "853.406": 7314.713344,
      "854.408": 7325.849981,
      "855.41": 7337.213212,
      "856.412": 7348.200956,
      "857.414": 7360.493061,
      "858.416": 7371.851305,
      "859.418": 7382.609306,
      "860.42": 7394.853627,
      "861.422": 7406.782554,
      "862.424": 7419.278409,
      "863.426": 7431.925364,
      "864.428": 7444.624539,
      "865.43": 7457.175032,
      "866.432": 7470.24283,
      "867.434": 7481.401051,
      "868.436": 7492.396335,
      "869.438": 7503.298286,
      "870.44": 7514.77569,
      "871.442": 7525.925315,
      "872.444": 7537.879306,
      "873.446": 7549.793394,
      "874.448": 7562.843777,
      "875.45": 7575.675084,
      "876.452": 7588.674143,
      "877.454": 7601.718735,
      "878.456": 7613.609667,
      "879.458": 7626.069649,
      "880.46": 7639.221898,
      "881.462": 7651.1768,
      "882.464": 7663.774893,
      "883.466": 7675.929285,
      "884.468": 7689.067405,
      "885.47": 7702.016844,
      "886.472": 7714.096185,
      "887.474": 7727.014985,
      "888.476": 7738.559014,
      "889.478": 7751.203958,
      "890.48": 7764.482805,
      "891.482": 7779.44193,
      "892.484": 7791.817866,
      "893.486": 7804.692795,
      "894.488": 7818.335526,
      "895.49": 7832.232367,
      "896.492": 7843.959477,
      "897.494": 7854.99446,
      "898.496": 7866.343689,
      "899.498": 7877.256474,
      "900.5": 7890.185165,
      "901.502": 7923.770957,
      "902.504": 7954.258808,
      "903.506": 7979.587703,
      "904.508": 8003.293657,
      "905.51": 8024.682924,
      "906.512": 8041.967648,
      "907.514": 8058.191831,
      "908.516": 8072.516008,
      "909.518": 8085.200007,
      "910.52": 8098.728007,
      "911.522": 8110.552144,
      "912.524": 8121.798715,
      "913.526": 8133.729132,
      "914.528": 8145.341718,
      "915.53": 8157.749382,
      "916.532": 8170.841932,
      "917.534": 8184.101223,
      "918.536": 8197.213517,
      "919.538": 8209.626451,
      "920.54": 8220.759104,
      "921.542": 8232.555739,
      "922.544": 8243.974467,
      "923.546": 8258.141384,
      "924.548": 8273.410197,
      "925.55": 8290.403677,
      "926.552": 8306.17805,
      "927.554": 8323.302409,
      "928.556": 8338.654494,
      "929.558": 8357.083321,
      "930.56": 8373.155735,
      "931.562": 8390.266553,
      "932.564": 8407.098088,
      "933.566": 8424.761228,
      "934.568": 8442.654223,
      "935.57": 8463.517676,
      "936.572": 8485.42282,
      "937.574": 8508.416751,
      "938.576": 8527.93904,
      "939.578": 8545.439117,
      "940.58": 8562.541611,
      "941.582": 8575.355322,
      "942.584": 8587.578379,
      "943.586": 8602.356086,
      "944.588": 8616.294886,
      "945.59": 8634.281859,
      "946.592": 8651.971987,
      "947.594": 8672.222552,
      "948.596": 8690.832309,
      "949.598": 8709.639021,
      "950.6": 8727.487672,
      "951.602": 8743.817416,
      "952.604": 8759.693526,
      "953.606": 8778.0484,
      "954.608": 8793.987075,
      "955.61": 8811.76978,
      "956.612": 8828.676407,
      "957.614": 8847.27666,
      "958.616": 8861.477642,
      "959.618": 8879.978022,
      "960.62": 8894.470853,
      "961.622": 8911.464756,
      "962.624": 8927.10747,
      "963.626": 8941.042156,
      "964.628": 8953.807454,
      "965.63": 8966.623362,
      "966.632": 8978.800648,
      "967.634": 8996.872242,
      "968.636": 9013.360201,
      "969.638": 9032.739994,
      "970.64": 9049.257518,
      "971.642": 9067.894684,
      "972.644": 9083.796389,
      "973.646": 9100.447531,
      "974.648": 9115.444422,
      "975.65": 9131.584157,
      "976.652": 9145.593068,
      "977.654": 9164.306174,
      "978.656": 9181.853411,
      "979.658": 9201.07769,
      "980.66": 9217.396507,
      "981.662": 9234.508258,
      "982.664": 9251.769922,
      "983.666": 9270.269634,
      "984.668": 9286.736677,
      "985.67": 9300.340877,
      "986.672": 9313.403328,
      "987.674": 9326.433963,
      "988.676": 9340.176839,
      "989.678": 9355.442433,
      "990.68": 9372.185785,
      "991.682": 9386.537945,
      "992.684": 9401.604492,
      "993.686": 9418.567762,
      "994.688": 9435.695596,
      "995.69": 9455.231267,
      "996.692": 9473.933924,
      "997.694": 9493.00557,
      "998.696": 9510.169969,
      "999.698": 9528.065214,
      "1000.7": 9543.537814,
      "1001.702": 9560.973973,
      "1002.704": 9577.155192,
      "1003.706": 9594.700737,
      "1004.708": 9611.069939,
      "1005.71": 9628.608277,
      "1006.712": 9645.451131,
      "1007.714": 9661.371153,
      "1008.716": 9673.670233,
      "1009.718": 9685.934142,
      "1010.72": 9700.231153,
      "1011.722": 9716.626509,
      "1012.724": 9730.957597,
      "1013.726": 9748.119934,
      "1014.728": 9763.254276,
      "1015.73": 9780.375955,
      "1016.732": 9794.924265,
      "1017.734": 9810.851254,
      "1018.736": 9825.880837,
      "1019.738": 9842.691534,
      "1020.74": 9858.343555,
      "1021.742": 9875.197689,
      "1022.744": 9891.879972,
      "1023.746": 9911.893791,
      "1024.748": 9928.296224,
      "1025.75": 9945.956212,
      "1026.752": 9960.19809,
      "1027.754": 9974.554036,
      "1028.756": 9989.832159,
      "1029.758": 10006.519702,
      "1030.76": 10022.382975,
      "1031.762": 10034.536127,
      "1032.764": 10046.843053,
      "1033.766": 10059.251441,
      "1034.768": 10071.683371,
      "1035.77": 10085.630164,
      "1036.772": 10100.22497,
      "1037.774": 10116.773142,
      "1038.776": 10131.358727,
      "1039.778": 10147.622115,
      "1040.78": 10161.95512,
      "1041.782": 10178.574464,
      "1042.784": 10194.959335,
      "1043.786": 10211.119162,
      "1044.788": 10225.856737,
      "1045.79": 10242.876533,
      "1046.792": 10258.973528,
      "1047.794": 10272.9928,
      "1048.796": 10286.158664,
      "1049.798": 10299.57539,
      "1050.8": 10313.184589,
      "1051.802": 10329.367969,
      "1052.804": 10344.742015,
      "1053.806": 10363.346737,
      "1054.808": 10380.145845,
      "1055.81": 10395.341082,
      "1056.812": 10410.945321,
      "1057.814": 10425.530381,
      "1058.816": 10440.575772,
      "1059.818": 10455.541501,
      "1060.82": 10470.735086,
      "1061.822": 10486.121598,
      "1062.824": 10500.013762,
      "1063.826": 10517.630672,
      "1064.828": 10532.772783,
      "1065.83": 10550.013875,
      "1066.832": 10569.336233,
      "1067.834": 10586.180756,
      "1068.836": 10600.483068,
      "1069.838": 10612.788043,
      "1070.84": 10626.231135,
      "1071.842": 10638.597806,
      "1072.844": 10651.485913,
      "1073.846": 10664.552724,
      "1074.848": 10678.775193,
      "1075.85": 10692.11031,
      "1076.852": 10706.421348,
      "1077.854": 10719.765605,
      "1078.856": 10732.996711,
      "1079.858": 10747.463422,
      "1080.86": 10759.485244,
      "1081.862": 10771.247123,
      "1082.864": 10783.011806,
      "1083.866": 10794.640547,
      "1084.868": 10807.186999,
      "1085.87": 10820.79665,
      "1086.872": 10833.590232,
      "1087.874": 10845.912318,
      "1088.876": 10857.790259,
      "1089.878": 10869.872091,
      "1090.88": 10883.170639,
      "1091.882": 10895.441124,
      "1092.884": 10908.91721,
      "1093.886": 10922.426129,
      "1094.888": 10936.622306,
      "1095.89": 10948.671525,
      "1096.892": 10962.286016,
      "1097.894": 10975.84193,
      "1098.896": 10990.412669,
      "1099.898": 11003.915818,
      "1100.9": 11017.097795,
      "1101.902": 11028.981137,
      "1102.904": 11041.723078,
      "1103.906": 11054.560613,
      "1104.908": 11067.838167,
      "1105.91": 11081.556435,
      "1106.912": 11095.612847,
      "1107.914": 11110.924353,
      "1108.916": 11123.275079,
      "1109.918": 11135.374033,
      "1110.92": 11146.927434,
      "1111.922": 11158.745386,
      "1112.924": 11173.403216,
      "1113.926": 11188.007448,
      "1114.928": 11201.925395,
      "1115.93": 11219.147691,
      "1116.932": 11236.695844,
      "1117.934": 11251.128475,
      "1118.936": 11263.943846,
      "1119.938": 11275.953909,
      "1120.94": 11287.944493,
      "1121.942": 11300.757129,
      "1122.944": 11314.40639,
      "1123.946": 11327.667033,
      "1124.948": 11340.516651,
      "1125.95": 11353.942713,
      "1126.952": 11366.593037,
      "1127.954": 11379.70735,
      "1128.956": 11393.089681,
      "1129.958": 11407.684754,
      "1130.96": 11421.589605,
      "1131.962": 11434.896577,
      "1132.964": 11447.595621,
      "1133.966": 11460.41115,
      "1134.968": 11475.004052,
      "1135.97": 11486.71767,
      "1136.972": 11498.892516,
      "1137.974": 11511.221859,
      "1138.976": 11522.793279,
      "1139.978": 11535.377172,
      "1140.98": 11547.865979,
      "1141.982": 11561.619235,
      "1142.984": 11575.204258,
      "1143.986": 11588.787109,
      "1144.988": 11602.673626,
      "1145.99": 11616.133644,
      "1146.992": 11629.93759,
      "1147.994": 11643.018578,
      "1148.996": 11656.094783,
      "1149.998": 11668.665497,
      "1151.0": 11681.53676,
      "1152.002": 11694.277661,
      "1153.004": 11706.818125,
      "1154.006": 11719.703251,
      "1155.008": 11731.834549,
      "1156.01": 11744.171798,
      "1157.012": 11757.227479,
      "1158.014": 11769.906884,
      "1159.016": 11782.467639,
      "1160.018": 11794.86169,
      "1161.02": 11808.736178,
      "1162.022": 11822.79443,
      "1163.024": 11838.684258,
      "1164.026": 11851.108783,
      "1165.028": 11863.98786,
      "1166.03": 11876.412243,
      "1167.032": 11888.793251,
      "1168.034": 11902.437891,
      "1169.036": 11916.137712,
      "1170.038": 11929.225092,
      "1171.04": 11943.204579,
      "1172.042": 11957.07482,
      "1173.044": 11970.677153,
      "1174.046": 11985.470265,
      "1175.048": 12000.475779,
      "1176.05": 12014.013944,
      "1177.052": 12030.038468,
      "1178.054": 12043.668531,
      "1179.056": 12055.78583,
      "1180.058": 12068.506153,
      "1181.06": 12080.993272,
      "1182.062": 12094.216804,
      "1183.064": 12107.555166,
      "1184.066": 12121.232743,
      "1185.068": 12135.490783,
      "1186.07": 12150.139607,
      "1187.072": 12163.344701,
      "1188.074": 12176.81486,
      "1189.076": 12190.407636,
      "1190.078": 12205.318873,
      "1191.08": 12217.25128,
      "1192.082": 12229.256099,
      "1193.084": 12241.860129,
      "1194.086": 12254.177621,
      "1195.088": 12268.213275,
      "1196.09": 12282.258254,
      "1197.092": 12296.422833,
      "1198.094": 12311.376558,
      "1199.096": 12325.189451,
      "1200.098": 12339.900378,
      "1201.1": 12369.456633,
      "1202.102": 12409.829617,
      "1203.104": 12442.854921,
      "1204.106": 12470.075419,
      "1205.108": 12491.281365,
      "1206.11": 12511.26341,
      "1207.112": 12529.508999,
      "1208.114": 12545.865024,
      "1209.116": 12562.979062,
      "1210.118": 12576.273221,
      "1211.12": 12588.909356,
      "1212.122": 12601.788456,
      "1213.124": 12614.495622,
      "1214.126": 12628.572503,
      "1215.128": 12642.170747,
      "1216.13": 12655.633762,
      "1217.132": 12669.552005,
      "1218.134": 12683.870031,
      "1219.136": 12699.672787,
      "1220.138": 12716.331761,
      "1221.14": 12733.36262,
      "1222.142": 12748.902822,
      "1223.144": 12765.069314,
      "1224.146": 12782.254145,
      "1225.148": 12799.609727,
      "1226.15": 12816.358336,
      "1227.152": 12833.619958,
      "1228.154": 12849.534709,
      "1229.156": 12865.455323,
      "1230.158": 12882.572501,
      "1231.16": 12901.724347,
      "1232.162": 12922.796093,
      "1233.164": 12939.305605,
      "1234.166": 12954.72245,
      "1235.168": 12970.802429,
      "1236.17": 12992.414776,
      "1237.172": 13019.340199,
      "1238.174": 13041.414589,
      "1239.176": 13060.178535,
      "1240.178": 13076.139082,
      "1241.18": 13091.206589,
      "1242.182": 13107.642153,
      "1243.184": 13123.619336,
      "1244.186": 13141.783147,
      "1245.188": 13158.725523,
      "1246.19": 13176.102357,
      "1247.192": 13197.372459,
      "1248.194": 13213.569176,
      "1249.196": 13231.401939,
      "1250.198": 13248.266558,
      "1251.2": 13265.790726,
      "1252.202": 13282.877599,
      "1253.204": 13299.624974,
      "1254.206": 13314.529198,
      "1255.208": 13327.660986,
      "1256.21": 13342.153199,
      "1257.212": 13360.205604,
      "1258.214": 13378.32988,
      "1259.216": 13397.283223,
      "1260.218": 13414.872383,
      "1261.22": 13431.736585,
      "1262.222": 13449.135654,
      "1263.224": 13466.399073,
      "1264.226": 13483.642179,
      "1265.228": 13501.518352,
      "1266.23": 13519.20919,
      "1267.232": 13534.894935,
      "1268.234": 13551.386152,
      "1269.236": 13568.320299,
      "1270.238": 13585.45747,
      "1271.24": 13601.877951,
      "1272.242": 13619.492133,
      "1273.244": 13636.940719,
      "1274.246": 13654.760693,
      "1275.248": 13670.059019,
      "1276.25": 13683.39231,
      "1277.252": 13696.753139,
      "1278.254": 13710.602397,
      "1279.256": 13727.967181,
      "1280.258": 13743.541526,
      "1281.26": 13760.763326,
      "1282.262": 13777.15389,
      "1283.264": 13793.443117,
      "1284.266": 13810.329664,
      "1285.268": 13827.357846,
      "1286.27": 13844.228445,
      "1287.272": 13862.360147,
      "1288.274": 13882.418937,
      "1289.276": 13901.618562,
      "1290.278": 13919.562122,
      "1291.28": 13936.86643,
      "1292.282": 13953.917712,
      "1293.284": 13973.024908,
      "1294.286": 13989.217079,
      "1295.288": 14007.325184,
      "1296.29": 14027.12695,
      "1297.292": 14041.764609,
      "1298.294": 14055.808425,
      "1299.296": 14069.426058,
      "1300.298": 14083.60223,
      "1301.3": 14099.572929,
      "1302.302": 14115.388361,
      "1303.304": 14132.447504,
      "1304.306": 14146.927276,
      "1305.308": 14162.271877,
      "1306.31": 14180.09992,
      "1307.312": 14197.364493,
      "1308.314": 14213.299836,
      "1309.316": 14228.29922,
      "1310.318": 14244.313515,
      "1311.32": 14260.63442,
      "1312.322": 14274.580033,
      "1313.324": 14289.622007,
      "1314.326": 14305.567369,
      "1315.328": 14320.761941,
      "1316.33": 14337.096471,
      "1317.332": 14352.4961,
      "1318.334": 14366.842232,
      "1319.336": 14383.144614,
      "1320.338": 14397.878025,
      "1321.34": 14411.22917,
      "1322.342": 14424.081839,
      "1323.344": 14437.79205,
      "1324.346": 14451.186386,
      "1325.348": 14468.090158,
      "1326.35": 14481.7104,
      "1327.352": 14497.002899,
      "1328.354": 14513.480123,
      "1329.356": 14530.120258,
      "1330.358": 14545.452449,
      "1331.36": 14563.452641,
      "1332.362": 14580.377337,
      "1333.364": 14598.541047,
      "1334.366": 14616.02281,
      "1335.368": 14633.856419,
      "1336.37": 14649.726814,
      "1337.372": 14665.359863,
      "1338.374": 14680.658556,
      "1339.376": 14697.385775,
      "1340.378": 14714.882675,
      "1341.38": 14733.916635,
      "1342.382": 14753.723918,
      "1343.384": 14767.762244,
      "1344.386": 14781.422508,
      "1345.388": 14796.299608,
      "1346.39": 14809.820836,
      "1347.392": 14827.018699,
      "1348.394": 14842.741574,
      "1349.396": 14858.016237,
      "1350.398": 14874.299641,
      "1351.4": 14891.310628,
      "1352.402": 14906.177801,
      "1353.404": 14923.532064,
      "1354.406": 14939.263395,
      "1355.408": 14958.531198,
      "1356.41": 14979.702724,
      "1357.412": 15000.343784,
      "1358.414": 15017.270709,
      "1359.416": 15034.466693,
      "1360.418": 15051.14092,
      "1361.42": 15067.373455,
      "1362.422": 15083.036927,
      "1363.424": 15100.563633,
      "1364.426": 15118.976646,
      "1365.428": 15133.220164,
      "1366.43": 15146.412352,
      "1367.432": 15160.724975,
      "1368.434": 15173.9296,
      "1369.436": 15188.6147,
      "1370.438": 15202.927175,
      "1371.44": 15217.262791,
      "1372.442": 15232.056748,
      "1373.444": 15245.784644,
      "1374.446": 15258.930698,
      "1375.448": 15274.060688,
      "1376.45": 15288.001666,
      "1377.452": 15302.012973,
      "1378.454": 15315.145549,
      "1379.456": 15328.014536,
      "1380.458": 15341.720047,
      "1381.46": 15354.799584,
      "1382.462": 15367.992731,
      "1383.464": 15380.712011,
      "1384.466": 15394.266255,
      "1385.468": 15407.096643,
      "1386.47": 15419.630719,
      "1387.472": 15432.714127,
      "1388.474": 15445.692708,
      "1389.476": 15459.683899,
      "1390.478": 15474.025522,
      "1391.48": 15490.07152,
      "1392.482": 15502.63919,
      "1393.484": 15515.219556,
      "1394.486": 15527.781073,
      "1395.488": 15539.825938,
      "1396.49": 15552.810968,
      "1397.492": 15565.59032,
      "1398.494": 15577.835916,
      "1399.496": 15591.141977,
      "1400.498": 15603.371118,
      "1401.5": 15616.636582,
      "1402.502": 15629.248221,
      "1403.504": 15641.388928,
      "1404.506": 15654.551968,
      "1405.508": 15668.65303,
      "1406.51": 15682.013751,
      "1407.512": 15695.203449,
      "1408.514": 15707.94998,
      "1409.516": 15721.040704,
      "1410.518": 15735.534883,
      "1411.52": 15749.258891,
      "1412.522": 15762.07048,
      "1413.524": 15776.871374,
      "1414.526": 15790.533747,
      "1415.528": 15808.406977,
      "1416.53": 15830.874184,
      "1417.532": 15851.612762,
      "1418.534": 15865.190422,
      "1419.536": 15877.788375,
      "1420.538": 15891.061996,
      "1421.54": 15903.040161,
      "1422.542": 15916.836718,
      "1423.544": 15931.40343,
      "1424.546": 15946.268181,
      "1425.548": 15962.001612,
      "1426.55": 15977.15183,
      "1427.552": 15991.797977,
      "1428.554": 16005.862905,
      "1429.556": 16018.459648,
      "1430.558": 16030.932031,
      "1431.56": 16043.909817,
      "1432.562": 16057.485955,
      "1433.564": 16070.043929,
      "1434.566": 16084.149796,
      "1435.568": 16098.000929,
      "1436.57": 16111.957224,
      "1437.572": 16124.998488,
      "1438.574": 16139.047953,
      "1439.576": 16151.227378,
      "1440.578": 16163.934615,
      "1441.58": 16176.128176,
      "1442.582": 16188.764903,
      "1443.584": 16201.89039,
      "1444.586": 16217.836749,
      "1445.588": 16230.316463,
      "1446.59": 16243.142417,
      "1447.592": 16255.922838,
      "1448.594": 16268.582948,
      "1449.596": 16282.493358,
      "1450.598": 16296.073697,
      "1451.6": 16310.213166,
      "1452.602": 16324.315993,
      "1453.604": 16338.78001,
      "1454.606": 16352.434616,
      "1455.608": 16366.049554,
      "1456.61": 16379.067896,
      "1457.612": 16392.081046,
      "1458.614": 16404.618054,
      "1459.616": 16419.087474,
      "1460.618": 16434.244442,
      "1461.62": 16450.002995,
      "1462.622": 16465.066678,
      "1463.624": 16479.810412,
      "1464.626": 16493.839182,
      "1465.628": 16506.880486,
      "1466.63": 16520.307186,
      "1467.632": 16533.884924,
      "1468.634": 16546.905503,
      "1469.636": 16560.191896,
      "1470.638": 16575.51366,
      "1471.64": 16589.650352,
      "1472.642": 16601.581277,
      "1473.644": 16614.333174,
      "1474.646": 16627.411397,
      "1475.648": 16643.552173,
      "1476.65": 16662.209548,
      "1477.652": 16678.280573,
      "1478.654": 16693.741616,
      "1479.656": 16706.794973,
      "1480.658": 16721.605632,
      "1481.66": 16734.867834,
      "1482.662": 16747.699155,
      "1483.664": 16762.453158,
      "1484.666": 16776.435151,
      "1485.668": 16790.772409,
      "1486.67": 16804.950827,
      "1487.672": 16818.843499,
      "1488.674": 16832.961801,
      "1489.676": 16847.575788,
      "1490.678": 16860.815185,
      "1491.68": 16874.499883,
      "1492.682": 16886.879104,
      "1493.684": 16899.575983,
      "1494.686": 16913.725781,
      "1495.688": 16927.263078,
      "1496.69": 16941.817134,
      "1497.692": 16955.962442,
      "1498.694": 16968.422161,
      "1499.696": 16980.894436,
      "1500.698": 16994.682237,
      "1501.7": 17030.954136,
      "1502.702": 17065.51127,
      "1503.704": 17095.303233,
      "1504.706": 17121.448378,
      "1505.708": 17144.474194,
      "1506.71": 17162.811367,
      "1507.712": 17180.016905,
      "1508.714": 17196.285717,
      "1509.716": 17209.200755,
      "1510.718": 17223.722208,
      "1511.72": 17239.607505,
      "1512.722": 17252.822633,
      "1513.724": 17267.211588,
      "1514.726": 17281.115648,
      "1515.728": 17293.883579,
      "1516.73": 17308.954366,
      "1517.732": 17323.72498,
      "1518.734": 17336.657697,
      "1519.736": 17350.278882,
      "1520.738": 17362.923532,
      "1521.74": 17379.208743,
      "1522.742": 17394.696963,
      "1523.744": 17412.642011,
      "1524.746": 17429.883114,
      "1525.748": 17449.893057,
      "1526.75": 17467.023211,
      "1527.752": 17486.689023,
      "1528.754": 17503.765076,
      "1529.756": 17523.250391,
      "1530.758": 17541.394621,
      "1531.76": 17560.197925,
      "1532.762": 17579.693244,
      "1533.764": 17600.718916,
      "1534.766": 17618.503505,
      "1535.768": 17641.626818,
      "1536.77": 17666.313068,
      "1537.772": 17687.313381,
      "1538.774": 17701.470071,
      "1539.776": 17716.95744,
      "1540.778": 17730.707179,
      "1541.78": 17748.183864,
      "1542.782": 17766.666346,
      "1543.784": 17788.904529,
      "1544.786": 17807.292859,
      "1545.788": 17828.03499,
      "1546.79": 17846.971744,
      "1547.792": 17869.038324,
      "1548.794": 17885.209265,
      "1549.796": 17904.765372,
      "1550.798": 17923.586588,
      "1551.8": 17946.335826,
      "1552.802": 17965.985553,
      "1553.804": 17985.747473,
      "1554.806": 18003.893492,
      "1555.808": 18024.816303,
      "1556.81": 18045.330277,
      "1557.812": 18061.142778,
      "1558.814": 18075.215899,
      "1559.816": 18089.552241,
      "1560.818": 18103.843704,
      "1561.82": 18122.340489,
      "1562.822": 18139.531794,
      "1563.824": 18160.652159,
      "1564.826": 18178.456162,
      "1565.828": 18195.044285,
      "1566.83": 18211.612691,
      "1567.832": 18228.177273,
      "1568.834": 18243.974556,
      "1569.836": 18262.991131,
      "1570.838": 18278.720466,
      "1571.84": 18293.234485,
      "1572.842": 18307.480186,
      "1573.844": 18323.922572,
      "1574.846": 18340.051506,
      "1575.848": 18356.248658,
      "1576.85": 18372.031059,
      "1577.852": 18389.62827,
      "1578.854": 18405.994567,
      "1579.856": 18423.139246,
      "1580.858": 18436.285483,
      "1581.86": 18450.803408,
      "1582.862": 18463.624018,
      "1583.864": 18480.073484,
      "1584.866": 18495.27807,
      "1585.868": 18511.332809,
      "1586.87": 18525.179159,
      "1587.872": 18541.234028,
      "1588.874": 18557.712186,
      "1589.876": 18573.700486,
      "1590.878": 18588.490506,
      "1591.88": 18606.848551,
      "1592.882": 18622.678006,
      "1593.884": 18640.681422,
      "1594.886": 18657.47487,
      "1595.888": 18679.907904,
      "1596.89": 18701.751497,
      "1597.892": 18721.943461,
      "1598.894": 18739.650993,
      "1599.896": 18757.822738,
      "1600.898": 18778.342279,
      "1601.9": 18793.042179,
      "1602.902": 18806.708016,
      "1603.904": 18821.085563,
      "1604.906": 18835.194383,
      "1605.908": 18853.516228,
      "1606.91": 18872.736708,
      "1607.912": 18892.526337,
      "1608.914": 18907.977091,
      "1609.916": 18924.973426,
      "1610.918": 18939.8419,
      "1611.92": 18955.869084,
      "1612.922": 18973.599316,
      "1613.924": 18991.005969,
      "1614.926": 19006.860779,
      "1615.928": 19024.858508,
      "1616.93": 19040.215998,
      "1617.932": 19055.888912,
      "1618.934": 19070.798971,
      "1619.936": 19086.475323,
      "1620.938": 19101.802347,
      "1621.94": 19118.444327,
      "1622.942": 19133.74565,
      "1623.944": 19152.335965,
      "1624.946": 19165.739643,
      "1625.948": 19179.713609,
      "1626.95": 19193.081736,
      "1627.952": 19207.324957,
      "1628.954": 19223.792912,
      "1629.956": 19239.482523,
      "1630.958": 19255.156406,
      "1631.96": 19271.613656,
      "1632.962": 19286.791624,
      "1633.964": 19302.195646,
      "1634.966": 19318.070047,
      "1635.968": 19333.435351,
      "1636.97": 19348.163767,
      "1637.972": 19362.116348,
      "1638.974": 19375.548359,
      "1639.976": 19391.110826,
      "1640.978": 19405.192731,
      "1641.98": 19419.558556,
      "1642.982": 19433.290877,
      "1643.984": 19449.964551,
      "1644.986": 19466.335388,
      "1645.988": 19481.742074,
      "1646.99": 19495.825071,
      "1647.992": 19514.163142,
      "1648.994": 19527.641239,
      "1649.996": 19541.963244,
      "1650.998": 19555.691468,
      "1652.0": 19569.827169,
      "1653.002": 19585.667814,
      "1654.004": 19602.733477,
      "1655.006": 19618.496897,
      "1656.008": 19638.392169,
      "1657.01": 19662.727634,
      "1658.012": 19682.924492,
      "1659.014": 19700.74783,
      "1660.016": 19717.407556,
      "1661.018": 19731.560991,
      "1662.02": 19745.318569,
      "1663.022": 19761.552141,
      "1664.024": 19777.470818,
      "1665.026": 19794.708559,
      "1666.028": 19811.026018,
      "1667.03": 19828.559376,
      "1668.032": 19844.499054,
      "1669.034": 19856.848145,
      "1670.036": 19870.806136,
      "1671.038": 19886.745123,
      "1672.04": 19898.722069,
      "1673.042": 19910.824139,
      "1674.044": 19922.821834,
      "1675.046": 19934.828729,
      "1676.048": 19948.140949,
      "1677.05": 19963.187652,
      "1678.052": 19977.569716,
      "1679.054": 19991.633819,
      "1680.056": 20005.357637,
      "1681.058": 20018.595274,
      "1682.06": 20032.896186,
      "1683.062": 20045.973718,
      "1684.064": 20060.16446,
      "1685.066": 20075.008767,
      "1686.068": 20089.499266,
      "1687.07": 20103.686739,
      "1688.072": 20118.776056,
      "1689.074": 20133.39251,
      "1690.076": 20147.425073,
      "1691.078": 20160.921542,
      "1692.08": 20174.528012,
      "1693.082": 20187.930611,
      "1694.084": 20201.683047,
      "1695.086": 20215.436014,
      "1696.088": 20229.357275,
      "1697.09": 20246.209655,
      "1698.092": 20258.931262,
      "1699.094": 20271.579452,
      "1700.096": 20284.232489,
      "1701.098": 20296.974904,
      "1702.1": 20310.307666,
      "1703.102": 20324.454075,
      "1704.104": 20337.631855,
      "1705.106": 20352.558809,
      "1706.108": 20366.153497,
      "1707.11": 20379.836632,
      "1708.112": 20393.35856,
      "1709.114": 20406.903538,
      "1710.116": 20420.255573,
      "1711.118": 20434.387719,
      "1712.12": 20447.460158,
      "1713.122": 20461.600995,
      "1714.124": 20478.287376,
      "1715.126": 20493.677953,
      "1716.128": 20511.943681,
      "1717.13": 20532.685232,
      "1718.132": 20550.868538,
      "1719.134": 20564.546596,
      "1720.136": 20578.661896,
      "1721.138": 20592.87113,
      "1722.14": 20608.330964,
      "1723.142": 20622.669766,
      "1724.144": 20635.369467,
      "1725.146": 20647.750069,
      "1726.148": 20661.3762,
      "1727.15": 20675.913817,
      "1728.152": 20689.341783,
      "1729.154": 20703.375105,
      "1730.156": 20716.969569,
      "1731.158": 20729.835793,
      "1732.16": 20743.13579,
      "1733.162": 20756.80623,
      "1734.164": 20771.093859,
      "1735.166": 20785.173139,
      "1736.168": 20799.599209,
      "1737.17": 20813.989038,
      "1738.172": 20828.238185,
      "1739.174": 20841.057964,
      "1740.176": 20854.639767,
      "1741.178": 20868.316655,
      "1742.18": 20882.115067,
      "1743.182": 20896.458105,
      "1744.184": 20909.570672,
      "1745.186": 20923.151454,
      "1746.188": 20936.818781,
      "1747.19": 20950.340205,
      "1748.192": 20964.549006,
      "1749.194": 20980.829495,
      "1750.196": 20993.916017,
      "1751.198": 21006.398847,
      "1752.2": 21019.199556,
      "1753.202": 21031.538829,
      "1754.204": 21044.365705,
      "1755.206": 21056.680785,
      "1756.208": 21069.30911,
      "1757.21": 21081.517066,
      "1758.212": 21093.876279,
      "1759.214": 21106.868135,
      "1760.216": 21120.369443,
      "1761.218": 21134.3198,
      "1762.22": 21150.596521,
      "1763.222": 21165.313432,
      "1764.224": 21179.592032,
      "1765.226": 21194.249004,
      "1766.228": 21208.617442,
      "1767.23": 21222.284121,
      "1768.232": 21236.086375,
      "1769.234": 21249.709426,
      "1770.236": 21262.823396,
      "1771.238": 21275.747408,
      "1772.24": 21288.645016,
      "1773.242": 21302.711898,
      "1774.244": 21316.814032,
      "1775.246": 21331.686504,
      "1776.248": 21348.917532,
      "1777.25": 21362.267941,
      "1778.252": 21375.815611,
      "1779.254": 21388.833842,
      "1780.256": 21402.415015,
      "1781.258": 21415.529859,
      "1782.26": 21428.666502,
      "1783.262": 21442.226801,
      "1784.264": 21455.759118,
      "1785.266": 21468.500454,
      "1786.268": 21481.671261,
      "1787.27": 21495.195559,
      "1788.272": 21508.456796,
      "1789.274": 21521.23376,
      "1790.276": 21534.275089,
      "1791.278": 21547.244805,
      "1792.28": 21560.783573,
      "1793.282": 21574.058032,
      "1794.284": 21587.708737,
      "1795.286": 21602.177276,
      "1796.288": 21616.894021,
      "1797.29": 21631.035168,
      "1798.292": 21645.236912,
      "1799.294": 21658.833346,
      "1800.296": 21672.615289,
      "1801.298": 21702.409331,
      "1802.3": 21735.596742,
      "1803.302": 21758.572809,
      "1804.304": 21779.308944,
      "1805.306": 21801.284024,
      "1806.308": 21820.247297,
      "1807.31": 21836.716264,
      "1808.312": 21852.440146,
      "1809.314": 21869.478228,
      "1810.316": 21883.747265,
      "1811.318": 21898.558077,
      "1812.32": 21912.212266,
      "1813.322": 21925.923993,
      "1814.324": 21940.622633,
      "1815.326": 21955.324504,
      "1816.328": 21968.864024,
      "1817.33": 21982.676718,
      "1818.332": 21997.277924,
      "1819.334": 22013.635563,
      "1820.336": 22028.423221,
      "1821.338": 22045.80982,
      "1822.34": 22063.441383,
      "1823.342": 22078.131577,
      "1824.344": 22094.441493,
      "1825.346": 22109.182217,
      "1826.348": 22123.730871,
      "1827.35": 22137.885192,
      "1828.352": 22154.802736,
      "1829.354": 22173.706909,
      "1830.356": 22190.43977,
      "1831.358": 22208.568252,
      "1832.36": 22225.450907,
      "1833.362": 22243.656488,
      "1834.364": 22264.043453,
      "1835.366": 22282.440526,
      "1836.368": 22306.820265,
      "1837.37": 22333.570127,
      "1838.372": 22358.082947,
      "1839.374": 22378.420242,
      "1840.376": 22398.089381,
      "1841.378": 22415.068518,
      "1842.38": 22431.285079,
      "1843.382": 22447.885808,
      "1844.384": 22465.709586,
      "1845.386": 22481.279895,
      "1846.388": 22497.341416,
      "1847.39": 22514.376542,
      "1848.392": 22531.035977,
      "1849.394": 22548.667626,
      "1850.396": 22566.67491,
      "1851.398": 22583.04476,
      "1852.4": 22601.071866,
      "1853.402": 22619.646546,
      "1854.404": 22638.422004,
      "1855.406": 22656.708928,
      "1856.408": 22674.399667,
      "1857.41": 22693.253317,
      "1858.412": 22713.165393,
      "1859.414": 22731.593955
    },
    "seconds": 22731.593955
  }
}