{
  "ram": {
    "bytes_used_max": 145829142528,
    "gib_used_max": 135.81397247314453,
    "gib_used_per_minute": {
      "0": 2.104944674173991,
      "1": 3.5305588285801774,
      "2": 4.129700676869538,
      "3": 5.547637422206038,
      "4": 6.167362665725967,
      "5": 6.576344894150556,
      "6": 6.940137766175351,
      "7": 7.281483860339149,
      "8": 7.724482714119604,
      "9": 8.463653111861923,
      "10": 11.16793099096266,
      "11": 11.69916864168846,
      "12": 13.411011776681674,
      "13": 13.931838472010726,
      "14": 14.663358979305979,
      "15": 15.289800578150256,
      "16": 16.334064865112303,
      "17": 17.386605229871027,
      "18": 18.310070361121227,
      "19": 19.352922795182568,
      "20": 20.57657674153646,
      "21": 21.737033132779395,
      "22": 22.870519088486493,
      "23": 23.852892988819185,
      "24": 24.804467328389485,
      "25": 25.730589785818328,
      "26": 26.55534000720008,
      "27": 27.32715341600321,
      "28": 28.12176253000895,
      "29": 28.799081252793133,
      "30": 29.442491693011785,
      "31": 30.090954214839613,
      "32": 30.640887769063315,
      "33": 31.125303753351762,
      "34": 31.76373601363877,
      "35": 32.22401214858233,
      "36": 32.66545583434024,
      "37": 33.1448997238935,
      "38": 33.611621662721795,
      "39": 34.05180565785553,
      "40": 34.61576932271321,
      "41": 35.015362044512216,
      "42": 35.3422033018985,
      "43": 35.72301935745498,
      "44": 36.084804922847425,
      "45": 36.48695134308379,
      "46": 36.988095299672274,
      "47": 37.39883138365665,
      "48": 37.738397889218085,
      "49": 38.10874945430432,
      "50": 38.506025799250196,
      "51": 38.90311477143886,
      "52": 39.353898493448895,
      "53": 39.68547297332246,
      "54": 40.0040731268414,
      "55": 40.28905467663781,
      "56": 40.58032258890443,
      "57": 40.887188410354874,
      "58": 41.29826393774,
      "59": 41.608306238206765,
      "60": 41.91542370036497,
      "61": 42.39507377753824,
      "62": 42.63348233497749,
      "63": 42.8404015363273,
      "64": 43.17404194201453,
      "65": 43.436508049399166,
      "66": 43.737269465128584,
      "67": 44.049271858344646,
      "68": 44.38208272901632,
      "69": 44.7006963956154,
      "70": 45.076702893790554,
      "71": 45.33683776855469,
      "72": 45.616260981155655,
      "73": 45.884080143298135,
      "74": 46.164711507161456,
      "75": 46.435992289397674,
      "76": 46.79576007390426,
      "77": 47.090330673476394,
      "78": 47.366621825654626,
      "79": 47.67633043709448,
      "80": 47.96692023843022,
      "81": 48.21790758768717,
      "82": 48.616188372595836,
      "83": 48.90880015745001,
      "84": 49.168377504510396,
      "85": 49.43907637515311,
      "86": 49.71102752685547,
      "87": 50.00056560968949,
      "88": 50.36059279361014,
      "89": 50.63176319962841,
      "90": 50.85386185726877,
      "91": 51.113507970174155,
      "92": 51.40630857823259,
      "93": 51.69443932226149,
      "94": 52.06124929654396,
      "95": 52.307867147154724,
      "96": 52.49919193073855,
      "97": 52.740283125537935,
      "98": 52.97188529968262,
      "99": 53.18854186494472,
      "100": 53.48900552523338,
      "101": 53.75728613643323,
      "102": 54.0193136182882,
      "103": 54.286231231689456,
      "104": 54.57034489259882,
      "105": 54.864452556028205,
      "106": 55.22934710184733,
      "107": 55.46679997848252,
      "108": 55.69876460705773,
      "109": 55.983453201035324,
      "110": 56.25931490881968,
      "111": 56.58178272247314,
      "112": 56.94491745253741,
      "113": 57.231022075071174,
      "114": 57.481858463610635,
      "115": 57.752685546875,
      "116": 58.019491486630194,
      "117": 58.28604164770094,
      "118": 58.63183826511189,
      "119": 58.92429623361361,
      "120": 59.18412494659424,
      "121": 59.46739940320031,
      "122": 59.77280535940397,
      "123": 60.06584917488745,
      "124": 60.46904913584391,
      "125": 60.73695302413682,
      "126": 61.007054603705974,
      "127": 61.32474608340506,
      "128": 61.6046389563609,
      "129": 61.88620732194286,
      "130": 62.23210906982422,
      "131": 62.572444592492054,
      "132": 62.77238121679274,
      "133": 62.999087964074086,
      "134": 63.300820690090376,
      "135": 63.56517675367452,
      "136": 63.934146557824086,
      "137": 64.26663188611047,
      "138": 64.53249669479112,
      "139": 64.86105430732339,
      "140": 65.18016181557866,
      "141": 65.4836462635105,
      "142": 65.8130828221639,
      "143": 66.17315072528386,
      "144": 66.45932071491823,
      "145": 66.77346795292225,
      "146": 67.07694690510378,
      "147": 67.38198438741394,
      "148": 67.72155748787573,
      "149": 68.08617496490479,
      "150": 68.34300031500348,
      "151": 68.6124011540817,
      "152": 68.97005676010907,
      "153": 69.32637069184901,
      "154": 69.7157476392843,
      "155": 70.12482297218452,
      "156": 70.43954639434814,
      "157": 70.78575910147974,
      "158": 71.1403072809769,
      "159": 71.51475828785007,
      "160": 71.89077823444948,
      "161": 72.33299720893471,
      "162": 72.64021152560994,
      "163": 72.90952727754237,
      "164": 73.26162338256836,
      "165": 73.63877513044972,
      "166": 74.00511576765675,
      "167": 74.49671573962195,
      "168": 74.91315542856852,
      "169": 75.31873851711467,
      "170": 75.71567897473352,
      "171": 76.12155261282193,
      "172": 76.5485424106404,
      "173": 77.00699825286866,
      "174": 77.4131211749578,
      "175": 77.82035019438146,
      "176": 78.1935737739175,
      "177": 78.59013392561573,
      "178": 78.99515590667724,
      "179": 79.47616176281946,
      "180": 79.88465480481165,
      "181": 80.32059679193011,
      "182": 80.74910462697348,
      "183": 81.16861343383789,
      "184": 81.60002142696057,
      "185": 82.06330664683196,
      "186": 82.44496224721273,
      "187": 82.86884159152791,
      "188": 83.29203873973782,
      "189": 83.72455034417621,
      "190": 84.17094395524364,
      "191": 84.66231772104899,
      "192": 85.09807211665783,
      "193": 85.53270120135808,
      "194": 85.97944434214446,
      "195": 86.24258131900076,
      "196": 86.48030019210557,
      "197": 86.9260875895872,
      "198": 87.31952209472657,
      "199": 87.73682487617104,
      "200": 88.10227740012994,
      "201": 88.44448509862868,
      "202": 88.78071710618876,
      "203": 89.22485817084878,
      "204": 89.48417728230105,
      "205": 89.8006569167315,
      "206": 90.15174885119421,
      "207": 90.45321079836053,
      "208": 90.7610554377238,
      "209": 91.26583222211417,
      "210": 91.61769711769233,
      "211": 91.97700397038864,
      "212": 92.33393064595886,
      "213": 92.71830814167605,
      "214": 93.06946777085126,
      "215": 93.49447244008383,
      "216": 93.87279051441257,
      "217": 94.25707251338635,
      "218": 94.63187828710524,
      "219": 94.97440525636834,
      "220": 95.33490610930879,
      "221": 95.73016967773438,
      "222": 96.11678760334597,
      "223": 96.43754338409941,
      "224": 96.79375865095753,
      "225": 97.18820151636156,
      "226": 97.57820258706303,
      "227": 98.06349207560221,
      "228": 98.49743820449054,
      "229": 98.88175712197514,
      "230": 99.25486878217276,
      "231": 99.64321989932303,
      "232": 100.03906553882663,
      "233": 100.46840159098308,
      "234": 100.89839502108299,
      "235": 101.23523518190545,
      "236": 101.52340672379833,
      "237": 101.91899761911166,
      "238": 102.32541359077065,
      "239": 102.71711039139052,
      "240": 103.20066322714595,
      "241": 103.59101765950521,
      "242": 104.08170790591483,
      "243": 104.61707700309107,
      "244": 105.08912484120515,
      "245": 105.55157559712728,
      "246": 106.00518307443393,
      "247": 106.39591023073358,
      "248": 106.84575226347326,
      "249": 107.3428295135498,
      "250": 107.79176000821388,
      "251": 108.26168655136884,
      "252": 108.69140793105304,
      "253": 109.05257881293862,
      "254": 109.44887847900391,
      "255": 109.87691594786563,
      "256": 110.32523889056706,
      "257": 110.76623735589496,
      "258": 111.22563781738282,
      "259": 111.68238184007548,
      "260": 112.09691749184819,
      "261": 112.52812408188642,
      "262": 112.9856995264689,
      "263": 113.42912363601943,
      "264": 113.91087354239771,
      "265": 114.32045713521667,
      "266": 114.75197788820428,
      "267": 115.23339131673177,
      "268": 115.67909240722656,
      "269": 116.03170039290089,
      "270": 116.38788727582511,
      "271": 116.69673706313311,
      "272": 117.12103051654363,
      "273": 117.56246693929036,
      "274": 117.94282680446818,
      "275": 118.30303638264284,
      "276": 118.74164555436474,
      "277": 119.10907247511007,
      "278": 119.42563461045087,
      "279": 119.71374214301674,
      "280": 120.07080886323573,
      "281": 120.41810905327232,
      "282": 120.83530451887745,
      "283": 121.19302641550699,
      "284": 121.53853186914476,
      "285": 121.89431820885609,
      "286": 122.33928680419922,
      "287": 122.72729149511305,
      "288": 123.16444028434107,
      "289": 123.55992378622798,
      "290": 123.9696128209432,
      "291": 124.36666488647461,
      "292": 124.72824471683826,
      "293": 125.1107314804853,
      "294": 125.56661353677006,
      "295": 125.94805216385146,
      "296": 126.22838456751937,
      "297": 126.59433966167903,
      "298": 126.93917600987321,
      "299": 127.28323122660319,
      "300": 127.70789007413185,
      "301": 128.10182778309968,
      "302": 128.46979024854758,
      "303": 128.81977967084464,
      "304": 129.15403973854194,
      "305": 129.53360476736296,
      "306": 129.92642186482746,
      "307": 130.32612305980618,
      "308": 130.66365432739258,
      "309": 130.9869362136065,
      "310": 131.36303044981875,
      "311": 131.73164438797255,
      "312": 132.11374429066976,
      "313": 132.59331040463206,
      "314": 132.94414455607787,
      "315": 133.32949053230934,
      "316": 133.74859211808544,
      "317": 134.15295526536843,
      "318": 134.46695334116617,
      "319": 134.58759521225753,
      "320": 134.5899479106321,
      "321": 134.63353244328903,
      "322": 134.68546021779377,
      "323": 134.72601240772312,
      "324": 134.78182110543978,
      "325": 134.8686707060216,
      "326": 134.85927284370035,
      "327": 134.8777728969768,
      "328": 134.90876592000325,
      "329": 134.96313858032227,
      "330": 135.01890428187482,
      "331": 135.11983561111708,
      "332": 135.13317527770997,
      "333": 135.15953691126936,
      "334": 135.19305814322777,
      "335": 135.2437341981015,
      "336": 135.30692388243594,
      "337": 135.43238538106283,
      "338": 135.44711232589464,
      "339": 135.4767019627458,
      "340": 135.5166759814246,
      "341": 135.55886517540884,
      "342": 135.6073834101359,
      "343": 135.7093300253658,
      "344": 135.7341509026996,
      "345": 135.77311725939734,
      "346": 129.25941829681398,
      "347": 22.482638359069824
    }
  },
  "run_time": {
    "hours": 5.778167056111111,
    "human": "5:46:41.401402",
    "minutes": 346.69002336666665,
    "real_seconds_per_sim_second": {
      "2.0": 34.578802,
      "3.002": 36.059889,
      "4.002524": 38.952834,
      "5.003608": 41.833589,
      "6.004612": 45.211509,
      "7.004924": 48.926374,
      "8.009127": 50.080781,
      "9.010326": 50.875146,
      "10.012449": 51.548696,
      "11.012781": 52.104602,
      "12.013812": 52.65235,
      "13.014756": 53.43495,
      "14.016619": 54.122304,
      "15.016648": 54.827947,
      "16.01729": 55.508111,
      "17.018342": 56.188553,
      "18.019882": 56.785431,
      "19.020398": 57.346183,
      "20.020711": 57.918877,
      "21.021096": 58.432993,
      "22.023159": 58.976375,
      "23.023637": 59.64375,
      "24.024357": 60.185588,
      "25.026183": 60.704216,
      "26.026989": 61.224641,
      "27.028536": 61.751034,
      "28.029452": 62.240322,
      "29.030418": 62.710951,
      "30.030442": 63.182275,
      "31.030765": 63.727874,
      "32.032724": 64.292956,
      "33.033519": 65.04494,
      "34.034325": 65.741925,
      "35.036096": 66.34957,
      "36.036604": 66.989982,
      "37.036975": 67.585432,
      "38.037398": 68.181978,
      "39.03792": 68.805371,
      "40.038253": 69.425739,
      "41.038465": 70.065537,
      "42.038854": 70.713129,
      "43.039418": 71.466877,
      "44.039824": 72.162122,
      "45.040376": 72.811364,
      "46.040933": 73.458299,
      "47.042242": 74.091339,
      "48.042248": 74.615666,
      "49.042256": 75.089156,
      "50.043929": 75.591146,
      "51.044523": 76.068123,
      "52.044742": 76.606359,
      "53.046333": 77.312846,
      "54.046351": 77.836272,
      "55.047249": 78.280531,
      "56.048443": 78.713258,
      "57.049332": 79.429463,
      "58.050597": 79.951354,
      "59.050705": 80.409913,
      "60.05105": 80.900389,
      "61.052472": 81.461333,
      "62.05411": 81.984367,
      "63.055912": 82.72732,
      "64.056608": 83.593304,
      "65.058589": 84.445893,
      "66.060384": 85.613173,
      "67.0604": 86.642728,
      "68.061278": 87.34516,
      "69.061624": 87.971533,
      "70.062532": 88.617827,
      "71.062868": 89.223456,
      "72.063182": 89.816138,
      "73.064024": 90.618878,
      "74.065175": 91.210496,
      "75.066853": 91.743225,
      "76.067888": 92.301893,
      "77.068404": 92.872848,
      "78.070196": 93.451864,
      "79.071872": 93.984339,
      "80.072596": 94.805633,
      "81.072812": 95.427669,
      "82.074518": 95.935883,
      "83.075454": 96.458461,
      "84.077217": 96.959217,
      "85.07757": 97.469328,
      "86.077917": 98.009223,
      "87.07865": 98.555921,
      "88.0793": 99.105881,
      "89.081": 99.727956,
      "90.081714": 100.369,
      "91.082881": 100.971419,
      "92.083646": 101.594754,
      "93.08378": 102.355309,
      "94.084082": 103.014033,
      "95.084547": 103.667755,
      "96.084965": 104.327181,
      "97.086215": 104.948511,
      "98.088022": 105.450959,
      "99.088268": 105.967307,
      "100.09021": 106.524611,
      "101.092198": 107.00945,
      "102.092542": 107.557028,
      "103.092669": 108.407322,
      "104.092811": 109.116455,
      "105.093226": 109.677636,
      "106.09352": 110.251073,
      "107.095385": 110.789342,
      "108.097401": 111.472488,
      "109.097625": 112.047016,
      "110.098176": 112.851964,
      "111.098612": 113.748453,
      "112.099235": 114.48409,
      "113.100965": 115.335779,
      "114.102312": 115.989712,
      "115.102797": 116.60166,
      "116.102939": 117.176296,
      "117.104683": 117.768791,
      "118.105016": 118.426448,
      "119.10529": 119.069698,
      "120.10532": 119.699192,
      "121.107216": 120.334836,
      "122.109109": 121.003638,
      "123.110522": 121.836674,
      "124.111929": 122.680253,
      "125.113016": 123.53316,
      "126.11379": 124.583866,
      "127.113872": 125.704491,
      "128.114386": 126.332867,
      "129.115521": 126.866846,
      "130.117498": 127.542981,
      "131.117556": 128.200624,
      "132.118734": 128.803708,
      "133.120302": 129.543591,
      "134.121012": 130.162068,
      "135.122776": 130.675713,
      "136.123146": 131.224475,
      "137.124179": 131.82648,
      "138.125508": 132.439729,
      "139.126768": 132.987102,
      "140.128038": 133.506921,
      "141.129184": 134.037483,
      "142.129452": 134.622573,
      "143.129531": 135.340794,
      "144.130714": 135.942075,
      "145.131218": 136.493205,
      "146.131926": 137.058517,
      "147.133132": 137.591991,
      "148.13318": 138.112917,
      "149.134248": 138.63196,
      "150.134694": 139.345903,
      "151.136405": 171.107576,
      "152.136432": 215.394923,
      "153.138084": 256.025788,
      "154.138326": 290.052585,
      "155.138685": 313.953011,
      "156.139116": 336.45859,
      "157.139325": 355.742664,
      "158.140885": 371.311917,
      "159.1413": 384.213459,
      "160.141532": 396.076176,
      "161.14253": 405.545876,
      "162.144088": 414.479172,
      "163.144568": 422.146681,
      "164.144718": 428.849094,
      "165.144775": 435.681165,
      "166.146526": 441.869356,
      "167.147993": 447.667561,
      "168.148414": 453.345366,
      "169.149594": 457.615931,
      "170.150704": 462.412186,
      "171.152509": 466.17706,
      "172.153134": 470.034937,
      "173.154025": 473.154343,
      "174.154391": 475.900343,
      "175.155667": 478.806517,
      "176.155827": 481.436485,
      "177.156775": 483.962377,
      "178.156988": 486.18571,
      "179.157956": 488.380853,
      "180.158526": 490.50137,
      "181.159387": 492.51526,
      "182.161314": 494.389739,
      "183.163135": 496.091047,
      "184.16477": 498.403736,
      "185.166691": 501.104659,
      "186.167802": 504.193706,
      "187.169723": 507.756535,
      "188.171654": 511.508935,
      "189.172745": 515.773276,
      "190.172976": 518.759544,
      "191.174192": 521.739727,
      "192.176224": 524.33255,
      "193.176559": 526.678391,
      "194.176746": 528.892457,
      "195.178375": 530.766911,
      "196.178984": 532.658245,
      "197.180397": 534.388197,
      "198.180596": 535.888809,
      "199.182578": 537.456198,
      "200.184088": 538.932054,
      "201.184129": 540.430643,
      "202.185492": 541.866129,
      "203.187342": 543.272199,
      "204.188383": 544.498773,
      "205.190356": 545.592002,
      "206.191713": 546.614776,
      "207.193227": 547.805615,
      "208.194336": 549.072186,
      "209.194619": 550.443645,
      "210.194939": 551.855438,
      "211.196857": 553.243958,
      "212.198285": 554.707554,
      "213.199061": 556.080909,
      "214.200083": 557.989376,
      "215.201534": 559.758336,
      "216.201879": 561.354547,
      "217.203353": 562.763271,
      "218.20512": 564.079757,
      "219.206207": 565.402066,
      "220.208357": 566.786236,
      "221.210384": 568.165331,
      "222.210792": 569.61142,
      "223.212174": 570.879011,
      "224.213492": 572.101398,
      "225.21376": 573.427085,
      "226.215821": 574.584928,
      "227.217327": 575.776654,
      "228.218162": 576.70373,
      "229.219732": 577.663314,
      "230.221149": 578.554461,
      "231.222934": 579.372625,
      "232.224919": 580.361256,
      "233.227138": 581.319212,
      "234.22898": 582.157982,
      "235.229188": 582.948391,
      "236.230341": 583.834126,
      "237.230455": 584.631026,
      "238.231851": 585.419636,
      "239.232645": 586.138889,
      "240.232741": 587.953361,
      "241.2337": 591.29432,
      "242.235181": 607.536912,
      "243.236809": 624.84708,
      "244.237925": 635.248195,
      "245.238202": 640.543116,
      "246.240014": 646.09628,
      "247.241834": 649.748437,
      "248.243724": 651.953484,
      "249.244185": 653.752055,
      "250.245443": 655.353865,
      "251.245579": 656.80213,
      "252.246884": 658.081834,
      "253.248713": 659.183996,
      "254.24876": 660.137852,
      "255.250588": 660.944022,
      "256.251087": 661.699078,
      "257.25154": 662.674864,
      "258.251719": 663.947383,
      "259.253761": 665.683396,
      "260.25406": 667.683723,
      "261.25578": 669.364131,
      "262.257076": 670.645663,
      "263.258235": 671.986549,
      "264.260662": 673.039457,
      "265.262671": 673.988508,
      "266.264468": 674.758004,
      "267.26592": 675.452107,
      "268.266775": 676.220937,
      "269.268511": 677.485038,
      "270.268808": 679.197748,
      "271.270385": 680.994839,
      "272.272231": 682.575356,
      "273.273794": 683.860365,
      "274.275414": 685.547677,
      "275.276526": 687.123338,
      "276.277354": 688.493687,
      "277.277576": 689.749172,
      "278.27978": 690.78435,
      "279.279983": 691.853532,
      "280.28109": 693.509096,
      "281.283002": 695.323269,
      "282.284923": 696.930574,
      "283.285972": 698.26428,
      "284.287784": 699.456017,
      "285.28813": 700.704432,
      "286.289188": 701.738011,
      "287.290413": 702.630606,
      "288.290484": 703.407297,
      "289.291486": 704.195677,
      "290.291768": 705.113845,
      "291.292616": 706.344365,
      "292.293042": 708.093127,
      "293.293959": 709.760801,
      "294.294262": 711.188002,
      "295.294777": 712.409213,
      "296.294958": 713.696402,
      "297.296205": 714.715758,
      "298.298227": 715.638675,
      "299.298911": 716.411024,
      "300.3": 718.896964,
      "301.302": 730.920342,
      "302.304": 740.948238,
      "303.306": 749.367605,
      "304.308": 755.034766,
      "305.31": 759.940522,
      "306.312": 764.059235,
      "307.314": 767.813196,
      "308.316": 771.396601,
      "309.318": 774.86579,
      "310.32": 778.489649,
      "311.322": 782.147523,
      "312.324": 785.705495,
      "313.326": 789.35969,
      "314.328": 793.300594,
      "315.33": 797.382868,
      "316.332": 801.510914,
      "317.334": 805.703903,
      "318.336": 810.32169,
      "319.338": 814.506382,
      "320.34": 819.039981,
      "321.342": 823.564305,
      "322.344": 828.603178,
      "323.346": 833.551315,
      "324.348": 838.329286,
      "325.35": 843.565724,
      "326.352": 849.111921,
      "327.354": 855.255034,
      "328.356": 861.161334,
      "329.358": 867.437829,
      "330.36": 873.700622,
      "331.362": 880.023304,
      "332.364": 886.30231,
      "333.366": 893.392383,
      "334.368": 900.913061,
      "335.37": 909.631613,
      "336.372": 921.658026,
      "337.374": 933.018093,
      "338.376": 942.741674,
      "339.378": 950.685681,
      "340.38": 957.924431,
      "341.382": 962.193147,
      "342.384": 966.653913,
      "343.386": 971.214007,
      "344.388": 976.54926,
      "345.39": 981.942835,
      "346.392": 987.015052,
      "347.394": 991.382785,
      "348.396": 995.795868,
      "349.398": 1000.682382,
      "350.4": 1005.967953,
      "351.402": 1011.736736,
      "352.404": 1017.285796,
      "353.406": 1024.68452,
      "354.408": 1033.500973,
      "355.41": 1042.638407,
      "356.412": 1051.67244,
      "357.414": 1060.981787,
      "358.416": 1070.274645,
      "359.418": 1079.043954,
      "360.42": 1087.823595,
      "361.422": 1097.261737,
      "362.424": 1106.703086,
      "363.426": 1115.882519,
      "364.428": 1123.986072,
      "365.43": 1132.225592,
      "366.432": 1139.122696,
      "367.434": 1147.451219,
      "368.436": 1154.636975,
      "369.438": 1160.628571,
      "370.44": 1168.068146,
      "371.442": 1174.474672,
      "372.444": 1180.141995,
      "373.446": 1186.203691,
      "374.448": 1191.967538,
      "375.45": 1198.183224,
      "376.452": 1205.039695,
      "377.454": 1211.207936,
      "378.456": 1217.60674,
      "379.458": 1223.878027,
      "380.46": 1230.020436,
      "381.462": 1236.265417,
      "382.464": 1242.520454,
      "383.466": 1248.504756,
      "384.468": 1255.483033,
      "385.47": 1262.209623,
      "386.472": 1268.467964,
      "387.474": 1274.697436,
      "388.476": 1281.234589,
      "389.478": 1287.671665,
      "390.48": 1294.678621,
      "391.482": 1301.258849,
      "392.484": 1308.342258,
      "393.486": 1315.055766,
      "394.488": 1322.65465,
      "395.49": 1329.07429,
      "396.492": 1335.915557,
      "397.494": 1342.99851,
      "398.496": 1350.287607,
      "399.498": 1356.729704,
      "400.5": 1363.317779,
      "401.502": 1370.030331,
      "402.504": 1377.189254,
      "403.506": 1384.169021,
      "404.508": 1391.985121,
      "405.51": 1399.277728,
      "406.512": 1406.737461,
      "407.514": 1413.826921,
      "408.516": 1420.832629,
      "409.518": 1427.986475,
      "410.52": 1434.920774,
      "411.522": 1442.024687,
      "412.524": 1448.780434,
      "413.526": 1455.748385,
      "414.528": 1462.795224,
      "415.53": 1469.830098,
      "416.532": 1477.255266,
      "417.534": 1484.720289,
      "418.536": 1492.176602,
      "419.538": 1499.820454,
      "420.54": 1507.498076,
      "421.542": 1515.202056,
      "422.544": 1522.698315,
      "423.546": 1530.713819,
      "424.548": 1538.342902,
      "425.55": 1546.527721,
      "426.552": 1554.570797,
      "427.554": 1562.228317,
      "428.556": 1570.124657,
      "429.558": 1577.661406,
      "430.56": 1586.016858,
      "431.562": 1593.813108,
      "432.564": 1601.662274,
      "433.566": 1609.663716,
      "434.568": 1618.077148,
      "435.57": 1625.845398,
      "436.572": 1633.767801,
      "437.574": 1641.71817,
      "438.576": 1649.730959,
      "439.578": 1657.665252,
      "440.58": 1665.215286,
      "441.582": 1672.884838,
      "442.584": 1681.255063,
      "443.586": 1689.063845,
      "444.588": 1696.843194,
      "445.59": 1704.700478,
      "446.592": 1712.579146,
      "447.594": 1720.586652,
      "448.596": 1728.769014,
      "449.598": 1737.324816,
      "450.6": 1745.447025,
      "451.602": 1753.614142,
      "452.604": 1761.634157,
      "453.606": 1769.903211,
      "454.608": 1777.915799,
      "455.61": 1786.221058,
      "456.612": 1794.679188,
      "457.614": 1802.726336,
      "458.616": 1810.986655,
      "459.618": 1819.226544,
      "460.62": 1827.48824,
      "461.622": 1835.753215,
      "462.624": 1844.22573,
      "463.626": 1852.745253,
      "464.628": 1861.162342,
      "465.63": 1869.817168,
      "466.632": 1878.27447,
      "467.634": 1887.030012,
      "468.636": 1896.714938,
      "469.638": 1907.010983,
      "470.64": 1917.128381,
      "471.642": 1928.619437,
      "472.644": 1940.065577,
      "473.646": 1954.730298,
      "474.648": 1968.620102,
      "475.65": 1983.377993,
      "476.652": 1995.833016,
      "477.654": 2008.059166,
      "478.656": 2019.835363,
      "479.658": 2032.666992,
      "480.66": 2043.38595,
      "481.662": 2052.895218,
      "482.664": 2061.726594,
      "483.666": 2071.396771,
      "484.668": 2080.686302,
      "485.67": 2090.916008,
      "486.672": 2103.075559,
      "487.674": 2117.679106,
      "488.676": 2131.037513,
      "489.678": 2143.90137,
      "490.68": 2157.266908,
      "491.682": 2170.427448,
      "492.684": 2183.001791,
      "493.686": 2197.27092,
      "494.688": 2209.353529,
      "495.69": 2221.512564,
      "496.692": 2234.239857,
      "497.694": 2245.758124,
      "498.696": 2257.958006,
      "499.698": 2269.834787,
      "500.7": 2281.74366,
      "501.702": 2295.225555,
      "502.704": 2307.742793,
      "503.706": 2321.869537,
      "504.708": 2335.38882,
      "505.71": 2350.759866,
      "506.712": 2362.472477,
      "507.714": 2376.000525,
      "508.716": 2387.567241,
      "509.718": 2401.075507,
      "510.72": 2411.977529,
      "511.722": 2423.302065,
      "512.724": 2433.743157,
      "513.726": 2444.94175,
      "514.728": 2456.944297,
      "515.73": 2474.617059,
      "516.732": 2491.927824,
      "517.734": 2507.738008,
      "518.736": 2522.770761,
      "519.738": 2539.479475,
      "520.74": 2552.746493,
      "521.742": 2565.82852,
      "522.744": 2580.203481,
      "523.746": 2594.295986,
      "524.748": 2609.759646,
      "525.75": 2625.849583,
      "526.752": 2642.731702,
      "527.754": 2659.12921,
      "528.756": 2671.883553,
      "529.758": 2684.254327,
      "530.76": 2696.112991,
      "531.762": 2710.221046,
      "532.764": 2723.0542,
      "533.766": 2737.869578,
      "534.768": 2752.31312,
      "535.77": 2764.346644,
      "536.772": 2775.691252,
      "537.774": 2787.17884,
      "538.776": 2798.05457,
      "539.778": 2809.209747,
      "540.78": 2821.681296,
      "541.782": 2837.433951,
      "542.784": 2851.153198,
      "543.786": 2864.675301,
      "544.788": 2878.624325,
      "545.79": 2892.683167,
      "546.792": 2906.727422,
      "547.794": 2920.363986,
      "548.796": 2933.637759,
      "549.798": 2946.353242,
      "550.8": 2959.903048,
      "551.802": 2973.454475,
      "552.804": 2985.533556,
      "553.806": 2999.367857,
      "554.808": 3011.812196,
      "555.81": 3024.164137,
      "556.812": 3037.347563,
      "557.814": 3050.133206,
      "558.816": 3063.160432,
      "559.818": 3077.764145,
      "560.82": 3090.862173,
      "561.822": 3105.89806,
      "562.824": 3118.350532,
      "563.826": 3128.527762,
      "564.828": 3139.088089,
      "565.83": 3149.512268,
      "566.832": 3160.021015,
      "567.834": 3170.49505,
      "568.836": 3182.862,
      "569.838": 3196.494474,
      "570.84": 3209.922354,
      "571.842": 3223.715113,
      "572.844": 3237.4163,
      "573.846": 3251.642771,
      "574.848": 3265.541133,
      "575.85": 3283.400178,
      "576.852": 3302.828339,
      "577.854": 3320.366761,
      "578.856": 3336.462138,
      "579.858": 3351.96837,
      "580.86": 3369.302764,
      "581.862": 3385.625746,
      "582.864": 3401.132825,
      "583.866": 3417.808137,
      "584.868": 3434.799577,
      "585.87": 3452.040849,
      "586.872": 3472.026002,
      "587.874": 3485.605851,
      "588.876": 3497.287649,
      "589.878": 3508.363208,
      "590.88": 3519.57866,
      "591.882": 3532.737151,
      "592.884": 3546.761026,
      "593.886": 3561.282557,
      "594.888": 3576.32927,
      "595.89": 3589.335089,
      "596.892": 3603.10454,
      "597.894": 3616.174162,
      "598.896": 3628.206639,
      "599.898": 3641.306027,
      "600.9": 3667.126846,
      "601.902": 3704.393817,
      "602.904": 3737.547727,
      "603.906": 3767.417061,
      "604.908": 3791.364421,
      "605.91": 3815.282641,
      "606.912": 3835.631729,
      "607.914": 3849.492117,
      "608.916": 3862.86934,
      "609.918": 3875.286765,
      "610.92": 3889.287792,
      "611.922": 3906.233482,
      "612.924": 3922.583832,
      "613.926": 3937.043144,
      "614.928": 3950.619167,
      "615.93": 3962.693557,
      "616.932": 3975.52708,
      "617.934": 3986.660668,
      "618.936": 3997.966388,
      "619.938": 4012.105652,
      "620.94": 4024.556407,
      "621.942": 4038.19022,
      "622.944": 4052.282552,
      "623.946": 4065.705507,
      "624.948": 4077.862276,
      "625.95": 4089.647212,
      "626.952": 4102.133098,
      "627.954": 4115.179304,
      "628.956": 4128.287243,
      "629.958": 4141.095352,
      "630.96": 4153.740116,
      "631.962": 4166.646052,
      "632.964": 4178.352792,
      "633.966": 4191.722389,
      "634.968": 4204.956955,
      "635.97": 4217.729882,
      "636.972": 4232.719873,
      "637.974": 4245.798879,
      "638.976": 4259.18692,
      "639.978": 4272.59205,
      "640.98": 4285.679242,
      "641.982": 4297.011018,
      "642.984": 4310.567134,
      "643.986": 4325.089441,
      "644.988": 4342.319081,
      "645.99": 4360.15468,
      "646.992": 4378.937327,
      "647.994": 4395.17385,
      "648.996": 4411.11777,
      "649.998": 4423.914847,
      "651.0": 4437.994391,
      "652.002": 4451.026216,
      "653.004": 4464.878175,
      "654.006": 4479.015878,
      "655.008": 4494.459409,
      "656.01": 4508.592058,
      "657.012": 4523.062922,
      "658.014": 4536.048974,
      "659.016": 4549.64612,
      "660.018": 4563.420149,
      "661.02": 4575.129508,
      "662.022": 4586.552942,
      "663.024": 4598.107837,
      "664.026": 4609.697466,
      "665.028": 4620.939759,
      "666.03": 4634.379587,
      "667.032": 4648.076274,
      "668.034": 4660.305857,
      "669.036": 4673.976598,
      "670.038": 4686.954474,
      "671.04": 4699.931174,
      "672.042": 4713.233307,
      "673.044": 4725.478002,
      "674.046": 4738.049565,
      "675.048": 4750.424911,
      "676.05": 4762.605021,
      "677.052": 4773.587589,
      "678.054": 4785.494723,
      "679.056": 4798.460793,
      "680.058": 4811.224557,
      "681.06": 4824.33324,
      "682.062": 4839.298408,
      "683.064": 4852.837378,
      "684.066": 4866.410748,
      "685.068": 4881.158711,
      "686.07": 4894.928188,
      "687.072": 4908.245475,
      "688.074": 4922.141448,
      "689.076": 4933.564831,
      "690.078": 4944.432884,
      "691.08": 4955.62187,
      "692.082": 4966.968582,
      "693.084": 4978.17584,
      "694.086": 4991.292406,
      "695.088": 5002.949049,
      "696.09": 5015.175223,
      "697.092": 5028.245383,
      "698.094": 5040.467101,
      "699.096": 5051.293373,
      "700.098": 5062.678958,
      "701.1": 5075.19159,
      "702.102": 5086.770037,
      "703.104": 5098.990506,
      "704.106": 5110.327752,
      "705.108": 5123.126661,
      "706.11": 5135.591788,
      "707.112": 5148.998766,
      "708.114": 5160.770386,
      "709.116": 5173.039539,
      "710.118": 5185.023009,
      "711.12": 5196.609887,
      "712.122": 5207.129796,
      "713.124": 5218.878892,
      "714.126": 5230.731056,
      "715.128": 5243.473779,
      "716.13": 5255.399922,
      "717.132": 5266.866628,
      "718.134": 5279.190317,
      "719.136": 5290.905444,
      "720.138": 5301.438453,
      "721.14": 5312.454911,
      "722.142": 5323.086409,
      "723.144": 5334.34325,
      "724.146": 5346.079148,
      "725.148": 5360.024739,
      "726.15": 5371.145832,
      "727.152": 5382.892496,
      "728.154": 5394.425052,
      "729.156": 5406.864255,
      "730.158": 5418.60173,
      "731.16": 5430.832689,
      "732.162": 5441.721033,
      "733.164": 5452.946285,
      "734.166": 5464.163252,
      "735.168": 5477.822347,
      "736.17": 5489.496298,
      "737.172": 5501.295218,
      "738.174": 5512.792425,
      "739.176": 5525.018767,
      "740.178": 5537.137143,
      "741.18": 5549.979204,
      "742.182": 5561.819517,
      "743.184": 5574.016084,
      "744.186": 5586.362009,
      "745.188": 5598.989731,
      "746.19": 5610.161824,
      "747.192": 5623.509143,
      "748.194": 5636.047223,
      "749.196": 5648.52827,
      "750.198": 5659.413223,
      "751.2": 5670.919672,
      "752.202": 5682.063522,
      "753.204": 5693.961361,
      "754.206": 5706.073914,
      "755.208": 5719.148303,
      "756.21": 5737.843504,
      "757.212": 5759.106056,
      "758.214": 5775.954271,
      "759.216": 5789.79703,
      "760.218": 5802.682769,
      "761.22": 5817.257296,
      "762.222": 5829.956302,
      "763.224": 5843.74708,
      "764.226": 5859.259144,
      "765.228": 5875.49443,
      "766.23": 5891.538807,
      "767.232": 5908.744888,
      "768.234": 5921.99135,
      "769.236": 5935.409669,
      "770.238": 5947.701694,
      "771.24": 5959.766509,
      "772.242": 5971.546628,
      "773.244": 5983.096593,
      "774.246": 5994.305007,
      "775.248": 6007.049356,
      "776.25": 6018.737444,
      "777.252": 6029.882914,
      "778.254": 6040.678896,
      "779.256": 6052.859185,
      "780.258": 6063.959535,
      "781.26": 6075.200954,
      "782.262": 6086.515877,
      "783.264": 6097.898122,
      "784.266": 6110.186108,
      "785.268": 6122.018617,
      "786.27": 6133.307202,
      "787.272": 6144.441834,
      "788.274": 6155.504947,
      "789.276": 6166.320428,
      "790.278": 6177.0875,
      "791.28": 6187.467791,
      "792.282": 6198.109919,
      "793.284": 6208.570722,
      "794.286": 6218.967084,
      "795.288": 6229.456952,
      "796.29": 6240.548459,
      "797.292": 6251.174563,
      "798.294": 6261.422836,
      "799.296": 6271.816015,
      "800.298": 6282.279381,
      "801.3": 6292.851866,
      "802.302": 6303.151417,
      "803.304": 6313.500026,
      "804.306": 6323.758165,
      "805.308": 6334.112934,
      "806.31": 6344.768136,
      "807.312": 6355.311506,
      "808.314": 6366.988044,
      "809.316": 6377.513396,
      "810.318": 6387.810316,
      "811.32": 6398.263264,
      "812.322": 6408.71817,
      "813.324": 6419.807795,
      "814.326": 6432.590619,
      "815.328": 6446.530321,
      "816.33": 6462.091242,
      "817.332": 6478.711392,
      "818.334": 6494.004091,
      "819.336": 6505.692885,
      "820.338": 6517.69375,
      "821.34": 6528.220889,
      "822.342": 6538.648035,
      "823.344": 6549.627216,
      "824.346": 6561.366147,
      "825.348": 6573.436303,
      "826.35": 6586.474256,
      "827.352": 6598.102625,
      "828.354": 6609.370143,
      "829.356": 6620.686918,
      "830.358": 6631.676133,
      "831.36": 6642.865363,
      "832.362": 6653.688062,
      "833.364": 6664.939995,
      "834.366": 6675.874087,
      "835.368": 6687.318286,
      "836.37": 6699.093552,
      "837.372": 6710.750767,
      "838.374": 6722.372205,
      "839.376": 6734.437573,
      "840.378": 6745.267836,
      "841.38": 6755.874925,
      "842.382": 6766.461545,
      "843.384": 6777.338374,
      "844.386": 6788.031943,
      "845.388": 6799.10933,
      "846.39": 6810.170699,
      "847.392": 6821.438181,
      "848.394": 6832.259773,
      "849.396": 6843.440361,
      "850.398": 6854.130969,
      "851.4": 6865.034232,
      "852.402": 6875.726912,
      "853.404": 6886.782392,
      "854.406": 6897.454597,
      "855.408": 6908.444462,
      "856.41": 6919.425717,
      "857.412": 6929.84074,
      "858.414": 6940.765351,
      "859.416": 6951.772207,
      "860.418": 6963.218125,
      "861.42": 6974.848997,
      "862.422": 6987.342424,
      "863.424": 6998.734497,
      "864.426": 7010.350689,
      "865.428": 7021.338044,
      "866.43": 7032.774292,
      "867.432": 7045.043873,
      "868.434": 7057.117127,
      "869.436": 7068.499031,
      "870.438": 7079.381071,
      "871.44": 7091.868633,
      "872.442": 7102.672262,
      "873.444": 7113.242826,
      "874.446": 7123.818207,
      "875.448": 7134.722759,
      "876.45": 7147.892805,
      "877.452": 7162.416933,
      "878.454": 7174.330115,
      "879.456": 7185.588023,
      "880.458": 7197.20954,
      "881.46": 7207.736606,
      "882.462": 7218.879085,
      "883.464": 7230.80312,
      "884.466": 7242.396131,
      "885.468": 7253.579569,
      "886.47": 7265.371861,
      "887.472": 7277.268308,
      "888.474": 7288.291976,
      "889.476": 7298.907928,
      "890.478": 7310.03651,
      "891.48": 7320.942559,
      "892.482": 7332.055313,
      "893.484": 7343.475282,
      "894.486": 7355.006223,
      "895.488": 7366.133038,
      "896.49": 7377.742541,
      "897.492": 7389.061644,
      "898.494": 7399.542937,
      "899.496": 7410.371022,
      "900.498": 7422.1893,
      "901.5": 7453.426365,
      "902.502": 7474.559384,
      "903.504": 7491.859487,
      "904.506": 7507.02005,
      "905.508": 7523.945614,
      "906.51": 7540.762482,
      "907.512": 7555.854605,
      "908.514": 7567.624422,
      "909.516": 7579.246734,
      "910.518": 7590.832958,
      "911.52": 7602.790761,
      "912.522": 7614.73284,
      "913.524": 7625.128354,
      "914.526": 7636.281228,
      "915.528": 7647.775627,
      "916.53": 7659.608334,
      "917.532": 7671.653266,
      "918.534": 7682.909414,
      "919.536": 7697.123682,
      "920.538": 7710.999891,
      "921.54": 7726.285498,
      "922.542": 7740.711994,
      "923.544": 7757.730853,
      "924.546": 7771.157032,
      "925.548": 7788.087138,
      "926.55": 7803.72175,
      "927.552": 7820.592616,
      "928.554": 7832.264177,
      "929.556": 7844.047994,
      "930.558": 7855.967001,
      "931.56": 7869.501777,
      "932.562": 7883.588268,
      "933.564": 7899.630057,
      "934.566": 7915.128295,
      "935.568": 7933.741756,
      "936.57": 7952.768005,
      "937.572": 7972.17267,
      "938.574": 7986.820551,
      "939.576": 8004.287139,
      "940.578": 8018.494862,
      "941.58": 8034.21348,
      "942.582": 8049.302516,
      "943.584": 8067.210873,
      "944.586": 8085.334472,
      "945.588": 8104.679949,
      "946.59": 8120.795267,
      "947.592": 8137.592254,
      "948.594": 8152.452316,
      "949.596": 8167.224778,
      "950.598": 8181.643107,
      "951.6": 8194.494617,
      "952.602": 8206.785805,
      "953.604": 8220.558395,
      "954.606": 8233.140514,
      "955.608": 8251.064111,
      "956.61": 8268.48031,
      "957.612": 8285.584611,
      "958.614": 8299.858167,
      "959.616": 8315.226789,
      "960.618": 8329.497324,
      "961.62": 8345.531375,
      "962.622": 8360.829597,
      "963.624": 8377.130737,
      "964.626": 8393.125519,
      "965.628": 8408.724138,
      "966.63": 8423.634496,
      "967.632": 8440.318835,
      "968.634": 8455.553936,
      "969.636": 8473.877551,
      "970.638": 8489.577887,
      "971.64": 8504.984955,
      "972.642": 8519.915882,
      "973.644": 8535.659086,
      "974.646": 8549.446173,
      "975.648": 8563.223878,
      "976.65": 8575.630223,
      "977.652": 8589.094189,
      "978.654": 8602.744973,
      "979.656": 8619.433873,
      "980.658": 8635.298014,
      "981.66": 8650.68372,
      "982.662": 8665.301138,
      "983.664": 8681.929797,
      "984.666": 8696.038978,
      "985.668": 8712.410708,
      "986.67": 8727.631365,
      "987.672": 8742.997575,
      "988.674": 8756.457344,
      "989.676": 8773.598474,
      "990.678": 8788.111609,
      "991.68": 8804.533565,
      "992.682": 8820.657954,
      "993.684": 8836.109095,
      "994.686": 8850.948761,
      "995.688": 8867.864496,
      "996.69": 8884.772768,
      "997.692": 8903.874577,
      "998.694": 8916.645387,
      "999.696": 8929.809173,
      "1000.698": 8942.897655,
      "1001.7": 8956.172041,
      "1002.702": 8971.236761,
      "1003.704": 8987.854237,
      "1004.706": 9004.295137,
      "1005.708": 9022.641195,
      "1006.71": 9039.821353,
      "1007.712": 9058.705387,
      "1008.714": 9075.921958,
      "1009.716": 9092.550388,
      "1010.718": 9107.585272,
      "1011.72": 9123.257397,
      "1012.722": 9135.891883,
      "1013.724": 9150.7002,
      "1014.726": 9164.23278,
      "1015.728": 9179.225644,
      "1016.73": 9193.175407,
      "1017.732": 9209.292502,
      "1018.734": 9223.024874,
      "1019.736": 9236.548316,
      "1020.738": 9249.31539,
      "1021.74": 9267.865153,
      "1022.742": 9279.656367,
      "1023.744": 9292.429897,
      "1024.746": 9304.537254,
      "1025.748": 9317.211026,
      "1026.75": 9329.79289,
      "1027.752": 9344.057092,
      "1028.754": 9358.145214,
      "1029.756": 9373.504351,
      "1030.758": 9387.83634,
      "1031.76": 9402.040712,
      "1032.762": 9415.851044,
      "1033.764": 9431.48741,
      "1034.766": 9445.979162,
      "1035.768": 9461.846657,
      "1036.77": 9476.2133,
      "1037.772": 9491.473766,
      "1038.774": 9506.131276,
      "1039.776": 9521.095556,
      "1040.778": 9535.128576,
      "1041.78": 9550.765063,
      "1042.782": 9565.768958,
      "1043.784": 9580.222173,
      "1044.786": 9593.506657,
      "1045.788": 9609.353908,
      "1046.79": 9623.338219,
      "1047.792": 9638.832197,
      "1048.794": 9651.989919,
      "1049.796": 9664.667787,
      "1050.798": 9677.678097,
      "1051.8": 9691.101442,
      "1052.802": 9707.338631,
      "1053.804": 9723.861739,
      "1054.806": 9739.62817,
      "1055.808": 9757.451417,
      "1056.81": 9778.357935,
      "1057.812": 9799.953035,
      "1058.814": 9814.846526,
      "1059.816": 9829.533276,
      "1060.818": 9843.172656,
      "1061.82": 9856.571776,
      "1062.822": 9869.742662,
      "1063.824": 9885.208356,
      "1064.826": 9898.822658,
      "1065.828": 9914.133933,
      "1066.83": 9931.25163,
      "1067.832": 9947.386936,
      "1068.834": 9961.499149,
      "1069.836": 9973.829873,
      "1070.838": 9987.19286,
      "1071.84": 10001.368459,
      "1072.842": 10013.009244,
      "1073.844": 10025.065067,
      "1074.846": 10036.672695,
      "1075.848": 10049.157227,
      "1076.85": 10061.881415,
      "1077.852": 10075.72929,
      "1078.854": 10088.765971,
      "1079.856": 10100.628956,
      "1080.858": 10113.11727,
      "1081.86": 10126.090798,
      "1082.862": 10138.412386,
      "1083.864": 10150.797346,
      "1084.866": 10163.025008,
      "1085.868": 10175.939845,
      "1086.87": 10188.101392,
      "1087.872": 10200.744896,
      "1088.874": 10212.571408,
      "1089.876": 10224.555992,
      "1090.878": 10236.802527,
      "1091.88": 10249.57429,
      "1092.882": 10261.832188,
      "1093.884": 10273.22126,
      "1094.886": 10284.92822,
      "1095.888": 10298.257794,
      "1096.89": 10310.952488,
      "1097.892": 10323.711512,
      "1098.894": 10336.188702,
      "1099.896": 10347.944302,
      "1100.898": 10361.962051,
      "1101.9": 10373.834891,
      "1102.902": 10385.475645,
      "1103.904": 10397.41716,
      "1104.906": 10409.60377,
      "1105.908": 10422.292123,
      "1106.91": 10434.723933,
      "1107.912": 10446.923755,
      "1108.914": 10459.022167,
      "1109.916": 10471.588906,
      "1110.918": 10485.089481,
      "1111.92": 10497.793549,
      "1112.922": 10511.195726,
      "1113.924": 10524.225532,
      "1114.926": 10536.934736,
      "1115.928": 10551.089447,
      "1116.93": 10566.615945,
      "1117.932": 10581.493731,
      "1118.934": 10594.282741,
      "1119.936": 10606.566384,
      "1120.938": 10619.287058,
      "1121.94": 10631.618351,
      "1122.942": 10644.162728,
      "1123.944": 10656.807352,
      "1124.946": 10669.794501,
      "1125.948": 10685.10353,
      "1126.95": 10700.092808,
      "1127.952": 10714.456916,
      "1128.954": 10728.712141,
      "1129.956": 10740.633956,
      "1130.958": 10752.096406,
      "1131.96": 10763.740466,
      "1132.962": 10775.376831,
      "1133.964": 10787.565511,
      "1134.966": 10799.863361,
      "1135.968": 10812.967548,
      "1136.97": 10825.687461,
      "1137.972": 10838.569728,
      "1138.974": 10851.488274,
      "1139.976": 10863.838272,
      "1140.978": 10876.042583,
      "1141.98": 10888.31593,
      "1142.982": 10900.271045,
      "1143.984": 10911.989076,
      "1144.986": 10923.562781,
      "1145.988": 10935.685488,
      "1146.99": 10947.667109,
      "1147.992": 10960.147039,
      "1148.994": 10972.35791,
      "1149.996": 10984.053889,
      "1150.998": 10996.04989,
      "1152.0": 11008.652112,
      "1153.002": 11020.687406,
      "1154.004": 11033.365108,
      "1155.006": 11046.527883,
      "1156.008": 11058.688745,
      "1157.01": 11071.646416,
      "1158.012": 11086.699497,
      "1159.014": 11098.459892,
      "1160.016": 11110.121262,
      "1161.018": 11121.983459,
      "1162.02": 11134.548533,
      "1163.022": 11147.685268,
      "1164.024": 11160.599943,
      "1165.026": 11173.613106,
      "1166.028": 11186.221073,
      "1167.03": 11198.362461,
      "1168.032": 11211.090858,
      "1169.034": 11223.565838,
      "1170.036": 11235.774943,
      "1171.038": 11247.945077,
      "1172.04": 11261.372446,
      "1173.042": 11275.090255,
      "1174.044": 11287.908428,
      "1175.046": 11300.277866,
      "1176.048": 11314.342633,
      "1177.05": 11329.785496,
      "1178.052": 11344.165563,
      "1179.054": 11357.123857,
      "1180.056": 11370.219226,
      "1181.058": 11382.3626,
      "1182.06": 11395.094478,
      "1183.062": 11407.165444,
      "1184.064": 11420.126097,
      "1185.066": 11432.462214,
      "1186.068": 11446.424438,
      "1187.07": 11458.604829,
      "1188.072": 11470.978622,
      "1189.074": 11483.372938,
      "1190.076": 11495.527656,
      "1191.078": 11507.782095,
      "1192.08": 11520.653662,
      "1193.082": 11533.295885,
      "1194.084": 11544.817695,
      "1195.086": 11557.062668,
      "1196.088": 11569.353791,
      "1197.09": 11581.480408,
      "1198.092": 11594.316377,
      "1199.094": 11606.517226,
      "1200.096": 11620.10067,
      "1201.098": 11645.39235,
      "1202.1": 11682.558771,
      "1203.102": 11713.982931,
      "1204.104": 11741.791265,
      "1205.106": 11766.231928,
      "1206.108": 11786.285093,
      "1207.11": 11802.734855,
      "1208.112": 11819.586118,
      "1209.114": 11832.828183,
      "1210.116": 11845.374866,
      "1211.118": 11857.852391,
      "1212.12": 11870.062313,
      "1213.122": 11883.340261,
      "1214.124": 11896.600688,
      "1215.126": 11909.291417,
      "1216.128": 11921.792585,
      "1217.13": 11933.723197,
      "1218.132": 11945.79714,
      "1219.134": 11958.894127,
      "1220.136": 11973.529881,
      "1221.138": 11988.163469,
      "1222.14": 12003.91778,
      "1223.142": 12019.212773,
      "1224.144": 12034.13751,
      "1225.146": 12050.880286,
      "1226.148": 12066.689828,
      "1227.15": 12083.065198,
      "1228.152": 12099.785236,
      "1229.154": 12116.746406,
      "1230.156": 12135.169944,
      "1231.158": 12151.959606,
      "1232.16": 12168.242103,
      "1233.162": 12183.802094,
      "1234.164": 12197.771722,
      "1235.166": 12213.078271,
      "1236.168": 12230.845061,
      "1237.17": 12254.856413,
      "1238.172": 12276.563671,
      "1239.174": 12295.042535,
      "1240.176": 12311.115491,
      "1241.178": 12327.537713,
      "1242.18": 12343.315073,
      "1243.182": 12358.628362,
      "1244.184": 12374.927267,
      "1245.186": 12392.282773,
      "1246.188": 12411.312514,
      "1247.19": 12430.263761,
      "1248.192": 12449.965893,
      "1249.194": 12468.072075,
      "1250.196": 12485.875641,
      "1251.198": 12502.107026,
      "1252.2": 12520.60869,
      "1253.202": 12537.836714,
      "1254.204": 12550.979581,
      "1255.206": 12564.353313,
      "1256.208": 12578.584811,
      "1257.21": 12593.935676,
      "1258.212": 12612.181815,
      "1259.214": 12628.730938,
      "1260.216": 12645.760928,
      "1261.218": 12663.565777,
      "1262.22": 12680.728924,
      "1263.222": 12696.87285,
      "1264.224": 12714.140931,
      "1265.226": 12731.27986,
      "1266.228": 12747.465676,
      "1267.23": 12763.904055,
      "1268.232": 12779.674378,
      "1269.234": 12797.425828,
      "1270.236": 12814.382382,
      "1271.238": 12831.302407,
      "1272.24": 12847.714106,
      "1273.242": 12866.000265,
      "1274.244": 12883.278445,
      "1275.246": 12902.74971,
      "1276.248": 12916.395411,
      "1277.25": 12929.759009,
      "1278.252": 12944.085993,
      "1279.254": 12958.121672,
      "1280.256": 12973.87607,
      "1281.258": 12991.150182,
      "1282.26": 13007.991418,
      "1283.262": 13024.388864,
      "1284.264": 13039.850225,
      "1285.266": 13056.512153,
      "1286.268": 13071.948788,
      "1287.27": 13087.236315,
      "1288.272": 13102.234297,
      "1289.274": 13117.773556,
      "1290.276": 13133.027233,
      "1291.278": 13147.739366,
      "1292.28": 13163.406066,
      "1293.282": 13180.540433,
      "1294.284": 13196.377135,
      "1295.286": 13213.20655,
      "1296.288": 13233.110357,
      "1297.29": 13254.001593,
      "1298.292": 13273.192251,
      "1299.294": 13287.59143,
      "1300.296": 13300.898449,
      "1301.298": 13315.063732,
      "1302.3": 13329.461938,
      "1303.302": 13344.650611,
      "1304.304": 13361.108625,
      "1305.306": 13378.70817,
      "1306.308": 13395.0718,
      "1307.31": 13413.88635,
      "1308.312": 13429.200089,
      "1309.314": 13443.66257,
      "1310.316": 13460.066099,
      "1311.318": 13476.274343,
      "1312.32": 13493.552201,
      "1313.322": 13509.343547,
      "1314.324": 13523.983272,
      "1315.326": 13538.840763,
      "1316.328": 13553.274648,
      "1317.33": 13569.353119,
      "1318.332": 13584.674718,
      "1319.334": 13601.883073,
      "1320.336": 13618.268731,
      "1321.338": 13635.553568,
      "1322.34": 13649.214818,
      "1323.342": 13662.740001,
      "1324.344": 13675.646948,
      "1325.346": 13689.10889,
      "1326.348": 13703.474964,
      "1327.35": 13718.801689,
      "1328.352": 13732.488424,
      "1329.354": 13746.559831,
      "1330.356": 13760.855096,
      "1331.358": 13776.496154,
      "1332.36": 13792.124184,
      "1333.362": 13809.690864,
      "1334.364": 13825.941466,
      "1335.366": 13841.997038,
      "1336.368": 13855.70333,
      "1337.37": 13871.072597,
      "1338.372": 13885.939629,
      "1339.374": 13902.470222,
      "1340.376": 13916.216485,
      "1341.378": 13932.515027,
      "1342.38": 13947.552879,
      "1343.382": 13961.829912,
      "1344.384": 13976.342627,
      "1345.386": 13991.083213,
      "1346.388": 14007.064697,
      "1347.39": 14020.110732,
      "1348.392": 14033.471998,
      "1349.394": 14046.937405,
      "1350.396": 14060.155626,
      "1351.398": 14077.266589,
      "1352.4": 14091.997841,
      "1353.402": 14111.101651,
      "1354.404": 14127.360987,
      "1355.406": 14144.974624,
      "1356.408": 14167.546585,
      "1357.41": 14190.910605,
      "1358.412": 14209.920602,
      "1359.414": 14227.945142,
      "1360.416": 14242.701669,
      "1361.418": 14258.860115,
      "1362.42": 14272.786564,
      "1363.422": 14288.68015,
      "1364.424": 14305.859842,
      "1365.426": 14322.087831,
      "1366.428": 14340.067262,
      "1367.43": 14359.173914,
      "1368.432": 14373.868155,
      "1369.434": 14386.592048,
      "1370.436": 14398.843959,
      "1371.438": 14411.331784,
      "1372.44": 14424.258676,
      "1373.442": 14437.982336,
      "1374.444": 14451.895513,
      "1375.446": 14465.752585,
      "1376.448": 14479.618015,
      "1377.45": 14493.168212,
      "1378.452": 14506.854932,
      "1379.454": 14521.266311,
      "1380.456": 14534.232268,
      "1381.458": 14547.918201,
      "1382.46": 14561.098701,
      "1383.462": 14574.890813,
      "1384.464": 14587.732537,
      "1385.466": 14599.851986,
      "1386.468": 14611.622263,
      "1387.47": 14624.215335,
      "1388.472": 14636.922595,
      "1389.474": 14650.053318,
      "1390.476": 14663.327592,
      "1391.478": 14675.338636,
      "1392.48": 14687.979885,
      "1393.482": 14701.234506,
      "1394.484": 14713.534164,
      "1395.486": 14729.764917,
      "1396.488": 14741.827556,
      "1397.49": 14754.012931,
      "1398.492": 14766.24324,
      "1399.494": 14778.872643,
      "1400.496": 14791.9516,
      "1401.498": 14805.750933,
      "1402.5": 14818.977022,
      "1403.502": 14832.179451,
      "1404.504": 14845.618819,
      "1405.506": 14859.035586,
      "1406.508": 14872.09606,
      "1407.51": 14883.989885,
      "1408.512": 14896.91914,
      "1409.514": 14908.639572,
      "1410.516": 14920.499936,
      "1411.518": 14932.561728,
      "1412.52": 14945.937617,
      "1413.522": 14959.72564,
      "1414.524": 14973.316885,
      "1415.526": 14986.371552,
      "1416.528": 15000.666442,
      "1417.53": 15016.471768,
      "1418.532": 15029.672047,
      "1419.534": 15044.393816,
      "1420.536": 15059.003764,
      "1421.538": 15072.796734,
      "1422.54": 15088.546469,
      "1423.542": 15102.698826,
      "1424.544": 15115.409852,
      "1425.546": 15128.400358,
      "1426.548": 15141.522413,
      "1427.55": 15155.982811,
      "1428.552": 15170.380786,
      "1429.554": 15184.690002,
      "1430.556": 15198.98039,
      "1431.558": 15213.516765,
      "1432.56": 15228.614885,
      "1433.562": 15242.453063,
      "1434.564": 15254.834358,
      "1435.566": 15267.397367,
      "1436.568": 15280.724497,
      "1437.57": 15293.456211,
      "1438.572": 15306.02224,
      "1439.574": 15319.244194,
      "1440.576": 15332.413026,
      "1441.578": 15345.095657,
      "1442.58": 15357.634487,
      "1443.582": 15369.891703,
      "1444.584": 15382.457217,
      "1445.586": 15394.443506,
      "1446.588": 15406.959875,
      "1447.59": 15419.431231,
      "1448.592": 15432.526629,
      "1449.594": 15445.747133,
      "1450.596": 15462.958433,
      "1451.598": 15475.343357,
      "1452.6": 15487.727732,
      "1453.602": 15500.291254,
      "1454.604": 15512.40706,
      "1455.606": 15525.616574,
      "1456.608": 15538.398011,
      "1457.61": 15551.108896,
      "1458.612": 15564.274147,
      "1459.614": 15577.135334,
      "1460.616": 15590.480406,
      "1461.618": 15604.326681,
      "1462.62": 15618.502437,
      "1463.622": 15631.117547,
      "1464.624": 15644.021013,
      "1465.626": 15656.950836,
      "1466.628": 15670.058608,
      "1467.63": 15683.398613,
      "1468.632": 15696.414606,
      "1469.634": 15709.128439,
      "1470.636": 15721.427162,
      "1471.638": 15733.245402,
      "1472.64": 15746.117376,
      "1473.642": 15758.645589,
      "1474.644": 15771.619789,
      "1475.646": 15784.752787,
      "1476.648": 15798.870465,
      "1477.65": 15812.121378,
      "1478.652": 15827.870563,
      "1479.654": 15840.01388,
      "1480.656": 15852.205831,
      "1481.658": 15864.566884,
      "1482.66": 15876.808734,
      "1483.662": 15890.779368,
      "1484.664": 15904.147991,
      "1485.666": 15917.725387,
      "1486.668": 15931.729078,
      "1487.67": 15944.992943,
      "1488.672": 15958.388099,
      "1489.674": 15971.571904,
      "1490.676": 15984.68937,
      "1491.678": 15996.841318,
      "1492.68": 16009.977911,
      "1493.682": 16022.138576,
      "1494.684": 16035.086426,
      "1495.686": 16047.875201,
      "1496.688": 16060.946389,
      "1497.69": 16074.129658,
      "1498.692": 16087.395097,
      "1499.694": 16101.38958,
      "1500.696": 16116.920778,
      "1501.698": 16155.061396,
      "1502.7": 16188.766466,
      "1503.702": 16208.825522,
      "1504.704": 16225.855755,
      "1505.706": 16242.929163,
      "1506.708": 16262.979906,
      "1507.71": 16281.587845,
      "1508.712": 16297.462685,
      "1509.714": 16311.602884,
      "1510.716": 16324.271129,
      "1511.718": 16337.190912,
      "1512.72": 16349.738444,
      "1513.722": 16362.170805,
      "1514.724": 16374.594658,
      "1515.726": 16387.35284,
      "1516.728": 16401.286385,
      "1517.73": 16414.425717,
      "1518.732": 16427.563131,
      "1519.734": 16445.438022,
      "1520.736": 16462.124622,
      "1521.738": 16479.924913,
      "1522.74": 16494.69954,
      "1523.742": 16512.269955,
      "1524.744": 16527.682268,
      "1525.746": 16552.377351,
      "1526.748": 16566.683124,
      "1527.75": 16581.798297,
      "1528.752": 16595.294491,
      "1529.754": 16609.580497,
      "1530.756": 16625.295736,
      "1531.758": 16644.697175,
      "1532.76": 16660.240792,
      "1533.762": 16679.840599,
      "1534.764": 16696.180611,
      "1535.766": 16717.260357,
      "1536.768": 16739.347608,
      "1537.77": 16762.500013,
      "1538.772": 16779.667004,
      "1539.774": 16799.684018,
      "1540.776": 16815.273124,
      "1541.778": 16833.320773,
      "1542.78": 16849.711075,
      "1543.782": 16869.235604,
      "1544.784": 16885.637569,
      "1545.786": 16905.304823,
      "1546.788": 16924.749488,
      "1547.79": 16941.273503,
      "1548.792": 16956.082329,
      "1549.794": 16970.977,
      "1550.796": 16986.12709,
      "1551.798": 17004.481331,
      "1552.8": 17021.487026,
      "1553.802": 17039.079534,
      "1554.804": 17055.839713,
      "1555.806": 17072.073442,
      "1556.808": 17087.873633,
      "1557.81": 17107.47774,
      "1558.812": 17124.217652,
      "1559.814": 17138.837745,
      "1560.816": 17154.400889,
      "1561.818": 17169.825919,
      "1562.82": 17184.155751,
      "1563.822": 17201.816725,
      "1564.824": 17217.14363,
      "1565.826": 17233.598389,
      "1566.828": 17249.373686,
      "1567.83": 17267.012792,
      "1568.832": 17286.526555,
      "1569.834": 17300.354151,
      "1570.836": 17314.20703,
      "1571.838": 17330.025524,
      "1572.84": 17343.82625,
      "1573.842": 17361.559445,
      "1574.844": 17376.785805,
      "1575.846": 17393.239768,
      "1576.848": 17407.561994,
      "1577.85": 17423.038597,
      "1578.852": 17439.029402,
      "1579.854": 17455.845833,
      "1580.856": 17472.264257,
      "1581.858": 17490.829847,
      "1582.86": 17508.55423,
      "1583.862": 17527.760073,
      "1584.864": 17545.66204,
      "1585.866": 17562.863532,
      "1586.868": 17579.931458,
      "1587.87": 17597.680133,
      "1588.872": 17615.226039,
      "1589.874": 17631.781826,
      "1590.876": 17649.82021,
      "1591.878": 17666.288575,
      "1592.88": 17679.020575,
      "1593.882": 17692.785164,
      "1594.884": 17706.684368,
      "1595.886": 17727.227457,
      "1596.888": 17747.69458,
      "1597.89": 17767.056271,
      "1598.892": 17785.328731,
      "1599.894": 17802.985833,
      "1600.896": 17820.363403,
      "1601.898": 17837.088159,
      "1602.9": 17851.708344,
      "1603.902": 17872.39463,
      "1604.904": 17892.002637,
      "1605.906": 17911.465042,
      "1606.908": 17930.491676,
      "1607.91": 17948.503668,
      "1608.912": 17962.733061,
      "1609.914": 17978.310076,
      "1610.916": 17993.560286,
      "1611.918": 18012.29405,
      "1612.92": 18029.020116,
      "1613.922": 18043.544642,
      "1614.924": 18057.713022,
      "1615.926": 18072.985815,
      "1616.928": 18088.276402,
      "1617.93": 18104.865878,
      "1618.932": 18121.148722,
      "1619.934": 18138.499935,
      "1620.936": 18154.533618,
      "1621.938": 18171.659747,
      "1622.94": 18188.205379,
      "1623.942": 18204.268461,
      "1624.944": 18220.823789,
      "1625.946": 18239.008993,
      "1626.948": 18253.355928,
      "1627.95": 18269.277952,
      "1628.952": 18285.04454,
      "1629.954": 18302.384551,
      "1630.956": 18317.461995,
      "1631.958": 18333.618971,
      "1632.96": 18349.738483,
      "1633.962": 18368.898572,
      "1634.964": 18388.294946,
      "1635.966": 18403.368493,
      "1636.968": 18417.819621,
      "1637.97": 18432.576597,
      "1638.972": 18446.272172,
      "1639.974": 18461.713767,
      "1640.976": 18477.508362,
      "1641.978": 18492.801925,
      "1642.98": 18507.599863,
      "1643.982": 18524.492225,
      "1644.984": 18539.582868,
      "1645.986": 18557.197408,
      "1646.988": 18573.622343,
      "1647.99": 18590.009372,
      "1648.992": 18606.134281,
      "1649.994": 18620.895084,
      "1650.996": 18635.50855,
      "1651.998": 18651.41539,
      "1653.0": 18667.398619,
      "1654.002": 18682.675912,
      "1655.004": 18697.895685,
      "1656.006": 18714.092453,
      "1657.008": 18732.717034,
      "1658.01": 18752.992976,
      "1659.012": 18767.333065,
      "1660.014": 18781.103897,
      "1661.016": 18793.725267,
      "1662.018": 18807.32147,
      "1663.02": 18822.13194,
      "1664.022": 18839.112961,
      "1665.024": 18855.05392,
      "1666.026": 18870.496307,
      "1667.028": 18884.56529,
      "1668.03": 18902.483692,
      "1669.032": 18917.061607,
      "1670.034": 18931.265016,
      "1671.036": 18946.137882,
      "1672.038": 18959.616887,
      "1673.04": 18973.995554,
      "1674.042": 18988.602687,
      "1675.044": 19002.988633,
      "1676.046": 19018.594269,
      "1677.048": 19032.808868,
      "1678.05": 19047.054369,
      "1679.052": 19062.232599,
      "1680.054": 19077.551326,
      "1681.056": 19091.938848,
      "1682.058": 19107.009232,
      "1683.06": 19122.907087,
      "1684.062": 19136.395356,
      "1685.064": 19149.538765,
      "1686.066": 19163.148909,
      "1687.068": 19176.339081,
      "1688.07": 19191.174534,
      "1689.072": 19205.438371,
      "1690.074": 19219.428231,
      "1691.076": 19233.00037,
      "1692.078": 19247.777385,
      "1693.08": 19262.377793,
      "1694.082": 19277.479664,
      "1695.084": 19291.412509,
      "1696.086": 19306.852639,
      "1697.088": 19322.309274,
      "1698.09": 19338.226894,
      "1699.092": 19354.376746,
      "1700.094": 19370.944456,
      "1701.096": 19386.723432,
      "1702.098": 19402.694248,
      "1703.1": 19417.368981,
      "1704.102": 19433.939053,
      "1705.104": 19448.748945,
      "1706.106": 19464.038304,
      "1707.108": 19480.502377,
      "1708.11": 19496.470404,
      "1709.112": 19510.75109,
      "1710.114": 19525.02774,
      "1711.116": 19538.739043,
      "1712.118": 19555.724453,
      "1713.12": 19573.02252,
      "1714.122": 19591.386584,
      "1715.124": 19608.021991,
      "1716.126": 19628.861404,
      "1717.128": 19650.151263,
      "1718.13": 19670.851474,
      "1719.132": 19685.845365,
      "1720.134": 19702.711802,
      "1721.136": 19720.456541,
      "1722.138": 19736.026632,
      "1723.14": 19751.057296,
      "1724.142": 19765.761036,
      "1725.144": 19780.333791,
      "1726.146": 19794.869461,
      "1727.148": 19808.949364,
      "1728.15": 19824.690558,
      "1729.152": 19838.811001,
      "1730.154": 19854.514033,
      "1731.156": 19867.490171,
      "1732.158": 19881.00345,
      "1733.16": 19894.26576,
      "1734.162": 19908.246776,
      "1735.164": 19921.234888,
      "1736.166": 19935.536576,
      "1737.168": 19950.002179,
      "1738.17": 19963.294108,
      "1739.172": 19977.025142,
      "1740.174": 19992.303421,
      "1741.176": 20007.544349,
      "1742.178": 20021.929675,
      "1743.18": 20035.742396,
      "1744.182": 20050.496255,
      "1745.184": 20063.497803,
      "1746.186": 20076.372409,
      "1747.188": 20090.177396,
      "1748.19": 20103.330371,
      "1749.192": 20117.421855,
      "1750.194": 20131.669514,
      "1751.196": 20146.254794,
      "1752.198": 20160.189402,
      "1753.2": 20173.649791,
      "1754.202": 20186.852696,
      "1755.204": 20200.452403,
      "1756.206": 20216.274949,
      "1757.208": 20229.562253,
      "1758.21": 20242.624004,
      "1759.212": 20255.427655,
      "1760.214": 20269.792533,
      "1761.216": 20285.30258,
      "1762.218": 20302.206245,
      "1763.22": 20318.075604,
      "1764.222": 20332.423968,
      "1765.224": 20346.440499,
      "1766.226": 20360.413123,
      "1767.228": 20374.073686,
      "1768.23": 20387.681661,
      "1769.232": 20401.495627,
      "1770.234": 20414.774289,
      "1771.236": 20428.428751,
      "1772.238": 20441.91548,
      "1773.24": 20455.181825,
      "1774.242": 20468.896127,
      "1775.244": 20482.350332,
      "1776.246": 20496.931031,
      "1777.248": 20512.467647,
      "1778.25": 20526.844958,
      "1779.252": 20539.941341,
      "1780.254": 20554.019126,
      "1781.256": 20567.205104,
      "1782.258": 20581.625046,
      "1783.26": 20593.976014,
      "1784.262": 20606.942433,
      "1785.264": 20619.540384,
      "1786.266": 20632.427852,
      "1787.268": 20646.809641,
      "1788.27": 20660.143776,
      "1789.272": 20673.221966,
      "1790.274": 20686.63244,
      "1791.276": 20699.983432,
      "1792.278": 20713.12635,
      "1793.28": 20726.195827,
      "1794.282": 20738.591999,
      "1795.284": 20751.170569,
      "1796.286": 20764.242783,
      "1797.288": 20776.473562,
      "1798.29": 20788.84585,
      "1799.292": 20801.401402
    },
    "seconds": 20801.401402
  }
}