[
  0.506,
  0.619,
  0.456,
  0.999,
  0.518,
  0.484,
  0.531,
  0.478,
  0.625,
  0.574,
  0.299505,
  0.349,
  0.296,
  0.406103,
  0.458806,
  0.287,
  0.489103,
  0.46314,
  0.272,
  0.750388,
  0.274485,
  0.404,
  0.401,
  0.379544,
  0.186,
  0.293,
  0.211422,
  0.338018,
  0.202159,
  0.299093,
  0.562,
  0.462,
  0.706,
  0.453,
  0.617,
  0.512,
  0.495,
  0.453,
  0.566,
  0.422056,
  0.554,
  0.553,
  0.779,
  0.414,
  0.542,
  0.487,
  0.514,
  0.849,
  0.375,
  0.351,
  0.339,
  0.648,
  0.286,
  0.3,
  0.29,
  0.269,
  0.26,
  0.464,
  0.432,
  0.514,
  0.367,
  0.717,
  0.367,
  0.384,
  0.475,
  0.438,
  0.497,
  0.683451,
  0.567,
  0.322,
  0.187,
  0.701,
  0.195,
  0.217,
  0.25,
  0.31,
  0.174,
  0.327,
  0.456,
  0.97,
  0.709,
  0.428,
  0.407,
  0.469,
  0.483,
  0.386,
  0.568,
  0.237,
  0.262,
  0.216,
  0.441,
  0.161,
  0.262,
  0.206,
  0.265,
  0.243,
  0.319,
  0.448,
  0.348,
  0.219,
  0.416,
  0.198,
  0.396,
  0.252,
  0.214,
  0.324,
  0.327,
  0.497,
  0.578,
  0.697,
  0.646,
  0.444,
  0.413,
  0.473,
  0.509,
  0.618,
  0.548,
  0.515,
  0.54,
  0.476,
  0.714853,
  0.509,
  0.505,
  0.527434,
  0.538141,
  0.455,
  0.655,
  0.685,
  0.57252,
  0.656408,
  0.706862,
  0.484,
  0.716,
  0.696615,
  0.491,
  0.508,
  0.607,
  0.557,
  0.549,
  0.49,
  0.631,
  0.423,
  0.404,
  0.659,
  0.414,
  0.404,
  0.643,
  0.559,
  0.621,
  0.753,
  0.756,
  0.701,
  0.464,
  0.551,
  0.524,
  0.523,
  0.622,
  0.538,
  0.565716,
  0.478,
  0.826568,
  0.525871,
  0.466,
  0.531716,
  0.506,
  0.559981,
  0.622,
  0.539,
  0.625,
  0.53,
  0.73,
  0.814,
  0.742,
  0.749,
  0.491,
  0.604,
  0.415,
  0.785,
  0.392,
  0.63,
  0.325,
  0.325,
  0.346,
  0.539,
  0.331,
  0.66,
  0.346,
  0.467,
  0.321,
  0.538,
  0.323,
  0.325,
  0.387,
  0.354,
  0.422,
  0.38,
  0.406,
  0.369,
  0.496,
  0.288,
  0.311,
  0.334,
  0.525,
  0.333,
  0.46,
  0.436,
  0.482716,
  0.435284,
  0.615948,
  0.419,
  0.628716,
  0.522764,
  0.554,
  0.435,
  0.538515,
  0.482,
  0.347,
  0.559,
  0.505638,
  0.228894,
  0.444645,
  1.26,
  0.389,
  0.627,
  0.929,
  0.353,
  0.53,
  0.435,
  0.202,
  0.272,
  0.288,
  0.261,
  0.231,
  0.347,
  0.353,
  0.66859,
  0.490704,
  0.554614,
  0.418455,
  0.301785,
  0.555,
  0.322184,
  0.673,
  0.497,
  0.645796,
  0.703985,
  0.516,
  0.454,
  0.493,
  0.507816,
  0.701413,
  0.338,
  0.769,
  0.333,
  0.727,
  0.485,
  0.306,
  0.347,
  0.397,
  13.223,
  0.533,
  0.327,
  0.466,
  0.68,
  0.274,
  0.298,
  0.362,
  0.251,
  0.317,
  0.347,
  0.505537,
  0.444,
  0.281607,
  0.58,
  0.234403,
  0.291,
  0.362597,
  0.260882,
  0.401,
  0.252,
  0.476451,
  0.259631,
  0.440614,
  0.276221,
  0.183128,
  0.237711,
  0.212,
  0.246176,
  0.48,
  0.59,
  0.602,
  0.663,
  0.455,
  0.415,
  0.527,
  0.596,
  0.648,
  0.745,
  0.229413,
  0.466494,
  0.196413,
  0.543,
  0.394987,
  0.24,
  0.481,
  0.181,
  0.930658,
  0.411,
  0.512,
  0.364,
  0.73,
  0.421,
  0.391,
  0.451,
  0.445,
  0.364,
  0.502,
  0.558,
  0.787,
  0.403,
  0.477,
  0.344,
  0.278,
  0.434,
  0.433,
  0.262,
  0.403,
  0.183,
  0.317,
  0.183,
  0.478,
  0.248141,
  0.421,
  0.213539,
  0.187,
  0.269,
  0.288,
  0.395,
  0.226,
  0.479,
  0.432,
  0.232,
  0.281,
  0.294,
  0.254,
  0.37,
  0.391,
  0.407,
  0.359,
  0.572,
  0.361,
  0.541,
  0.364,
  0.385,
  0.328,
  0.368,
  0.238,
  0.321052,
  0.184,
  0.434,
  0.154,
  0.141,
  0.192,
  0.21,
  0.368,
  0.583,
  0.498,
  0.518,
  0.45,
  0.655,
  0.398,
  0.453,
  0.459011,
  0.462,
  0.489,
  0.801,
  0.23,
  0.29,
  0.194,
  0.462,
  0.401,
  0.534,
  0.227,
  0.243,
  0.185,
  0.284,
  0.303,
  0.413,
  0.371,
  0.7,
  0.241,
  0.283,
  0.472,
  0.335,
  0.292,
  0.387,
  0.415,
  0.44,
  0.329,
  0.563,
  0.36,
  0.347,
  0.335,
  0.351,
  0.388,
  0.451,
  0.451,
  0.388,
  0.299,
  0.771,
  0.279,
  0.292,
  0.357,
  0.292,
  0.317,
  0.374,
  0.725,
  0.575,
  0.402,
  0.818,
  0.432,
  0.492,
  0.482,
  0.461,
  0.591,
  0.219,
  0.305,
  0.189,
  1.175,
  0.236,
  0.34,
  0.278,
  0.178,
  0.222,
  0.252,
  0.432,
  0.433,
  0.53,
  0.502,
  0.323,
  0.57,
  0.4,
  0.344,
  0.424,
  0.354628,
  0.403,
  0.383,
  0.539,
  0.319313,
  0.356,
  0.349,
  0.320855,
  0.274,
  0.373212,
  0.494,
  0.523,
  0.441,
  0.842,
  0.45,
  0.682,
  0.493,
  0.449,
  0.539,
  0.81,
  0.427,
  0.43,
  0.297,
  0.548,
  0.391,
  0.305,
  0.353,
  0.37,
  0.364,
  0.446,
  0.468,
  0.345111,
  0.303,
  0.457,
  0.466,
  0.259,
  0.287889,
  0.252199,
  0.218897,
  0.353889,
  0.667077,
  0.626,
  0.587,
  0.779,
  0.609,
  0.604,
  0.634,
  0.582,
  0.586,
  0.884,
  0.495,
  0.569242,
  0.435209,
  0.685,
  0.509,
  0.422,
  0.49,
  0.48,
  0.419,
  0.606165,
  0.745,
  0.681,
  0.561,
  0.723,
  0.531,
  0.539,
  0.524,
  0.506,
  0.676,
  0.425,
  0.407,
  0.334,
  0.635,
  0.609897,
  0.356,
  0.378,
  0.65,
  0.294252,
  0.462,
  0.78,
  0.641,
  0.562,
  0.687,
  0.471,
  0.497,
  0.496,
  0.518,
  0.481,
  0.587,
  0.263,
  0.358,
  0.45,
  0.451,
  0.525,
  0.25,
  0.294,
  0.286,
  0.269,
  0.35,
  0.506,
  0.415,
  0.217,
  0.769,
  0.31,
  0.235,
  0.298,
  0.254,
  0.485,
  0.32,
  0.439,
  0.604,
  0.413,
  0.712,
  0.937,
  0.424,
  0.478,
  0.697,
  0.463,
  0.561,
  0.386,
  0.416,
  0.526,
  0.451,
  0.23,
  0.395,
  0.355,
  0.496,
  0.275,
  0.372,
  0.558218,
  0.351,
  0.188,
  0.493,
  0.345,
  0.45,
  0.349,
  0.189,
  0.174,
  0.343,
  0.531,
  0.512,
  0.433,
  0.64454,
  0.589,
  0.467,
  0.53,
  0.704,
  0.501,
  0.554,
  0.273,
  0.36,
  0.223,
  0.518,
  0.309,
  0.25,
  0.201,
  0.264,
  0.374,
  0.512,
  0.505,
  0.362,
  0.553,
  0.354,
  0.325,
  0.416,
  0.467,
  0.515,
  0.505281,
  0.544124,
  0.431366,
  0.607005,
  0.433052,
  0.448789,
  0.571061,
  0.438719,
  0.650752,
  0.504,
  0.638,
  0.709,
  0.668,
  0.675,
  0.932,
  0.791,
  0.5,
  0.744,
  0.676,
  0.497,
  0.533,
  0.574,
  0.308,
  0.361,
  0.325,
  0.511,
  0.424,
  0.658,
  0.8,
  0.689,
  0.916,
  0.714,
  0.501,
  0.518,
  0.472,
  0.706,
  0.585,
  0.268,
  0.323,
  0.473131,
  0.23,
  0.271,
  0.216,
  0.423,
  0.327274,
  0.78,
  0.545,
  0.428,
  0.628,
  0.4,
  0.471,
  0.551,
  0.457,
  0.6,
  0.388,
  0.425,
  0.53,
  0.955,
  0.337,
  0.328,
  0.347,
  0.366,
  0.321,
  0.467,
  0.554,
  0.959,
  0.454,
  0.702,
  0.706,
  0.726,
  0.484,
  0.826,
  0.728,
  0.326824,
  0.468111,
  0.272,
  0.538889,
  0.502,
  0.285,
  0.325,
  0.387,
  0.582888,
  0.34,
  0.408,
  0.512,
  0.532,
  0.298,
  0.301,
  0.344,
  0.328,
  0.552,
  0.433,
  0.399813,
  0.346,
  0.371,
  0.499,
  0.229,
  0.168,
  0.288,
  0.201,
  0.256,
  0.44,
  0.452,
  0.417,
  0.407,
  0.593,
  0.348,
  0.198,
  0.45,
  0.405,
  0.167,
  0.518,
  0.559,
  0.465,
  0.667,
  0.629,
  0.526,
  0.475,
  0.461,
  0.47,
  0.602,
  0.305214,
  0.334,
  0.321603,
  0.651,
  0.235,
  0.493,
  0.506,
  0.256,
  0.312,
  0.551521,
  0.372,
  0.309,
  0.232,
  0.447,
  0.213,
  0.273,
  0.513,
  0.257,
  0.271,
  0.331,
  0.256,
  0.383,
  0.284,
  0.48,
  0.267,
  0.286,
  0.518,
  0.263,
  0.387,
  0.41
]