{
  "1048576": [
    0.727,
    1.296,
    0.545,
    0.667342,
    0.926388,
    0.278,
    0.549,
    0.511,
    0.742,
    0.453,
    0.917,
    0.496,
    0.559,
    0.52,
    0.473,
    0.435,
    0.338,
    0.198,
    0.735,
    0.56,
    0.701,
    0.521,
    0.614,
    0.598,
    0.978,
    1.084,
    0.432,
    0.378,
    0.872948,
    0.548645,
    0.447446,
    0.508,
    0.683,
    0.258,
    0.316,
    0.434,
    0.479,
    0.793245,
    0.273,
    0.561307,
    0.230128,
    0.741,
    0.25,
    0.675,
    0.966,
    0.721,
    0.74,
    0.243,
    0.304,
    0.523,
    0.352,
    0.584,
    0.522,
    0.536,
    0.316,
    0.391,
    0.394,
    0.587,
    1.468,
    0.657,
    0.354,
    0.626,
    0.265897,
    0.742,
    0.688,
    0.528,
    0.56,
    0.544,
    0.554,
    0.412,
    0.340252,
    0.537,
    0.541,
    0.618,
    0.717,
    0.369,
    0.327,
    0.573,
    0.651218,
    0.237,
    0.225,
    0.315,
    0.788,
    0.58,
    0.854,
    0.88,
    0.648,
    0.57,
    0.379,
    0.637,
    0.433,
    0.345,
    0.338,
    0.375,
    0.439,
    0.267,
    0.36,
    0.531,
    0.655441,
    0.704,
    0.489,
    0.715,
    0.294
  ],
  "51200": [
    0.611,
    0.545,
    0.596,
    0.614,
    0.526,
    0.752,
    0.746,
    0.387897,
    0.469103,
    0.371,
    0.616218,
    0.354,
    0.7263,
    0.562,
    0.322,
    0.339549,
    0.59379,
    0.565857,
    0.642143,
    0.225,
    0.311,
    0.401834,
    0.259159,
    0.465,
    0.6,
    0.524,
    0.968,
    0.522,
    0.77,
    0.61,
    0.496056,
    0.669,
    0.592,
    1.043,
    0.586,
    0.568,
    0.574,
    1.004,
    0.482,
    0.516,
    0.409,
    0.35,
    0.38,
    0.374,
    0.324,
    0.318,
    0.599,
    0.523,
    0.671,
    0.429,
    0.993644,
    0.411,
    0.433,
    0.549,
    0.958451,
    0.651,
    0.479,
    0.235,
    0.973,
    0.234,
    0.274,
    0.358,
    0.358,
    0.233,
    0.541,
    1.097,
    0.993,
    0.484,
    0.547,
    0.548,
    0.73,
    0.374,
    0.243,
    0.707,
    0.32,
    0.263,
    0.321,
    0.289,
    0.492,
    0.636,
    0.476,
    0.296,
    0.659,
    0.231,
    0.549,
    0.333,
    0.242,
    0.377,
    0.485,
    0.721,
    0.748,
    0.895,
    0.492,
    0.454,
    0.531,
    0.576,
    0.664,
    0.589,
    0.681,
    0.56,
    0.966,
    0.545,
    0.629825,
    0.538141,
    0.511,
    0.785,
    0.773,
    0.72952,
    0.825,
    0.969,
    0.561,
    0.872,
    0.796,
    0.549,
    0.566,
    0.771,
    0.632,
    0.587,
    0.905,
    0.454,
    0.47,
    0.855,
    0.47,
    0.463,
    0.846,
    0.646,
    0.732,
    0.918,
    1.046,
    0.738,
    0.646,
    0.578,
    0.601,
    0.767,
    0.618,
    0.695,
    0.538,
    1.105568,
    0.602587,
    0.501,
    0.621716,
    0.555,
    0.637981,
    0.775,
    0.783,
    0.884,
    0.895,
    0.792,
    0.547,
    0.795,
    0.459,
    0.899,
    0.372,
    0.369,
    0.663,
    0.376,
    0.943,
    0.42,
    0.617,
    0.812,
    0.37,
    0.359302,
    0.508,
    0.397,
    0.576,
    0.556,
    0.434,
    0.329,
    0.336,
    0.417,
    0.584,
    0.407,
    0.653,
    0.521619,
    0.6,
    0.513284,
    0.497,
    0.787,
    0.641,
    0.474,
    0.713025,
    0.548106,
    0.423749,
    0.794,
    0.659215,
    0.257894,
    1.26,
    0.891,
    1.022,
    0.702,
    0.345,
    0.392,
    0.27,
    0.531,
    0.439322,
    0.82059,
    0.530232,
    0.82059,
    0.479,
    0.340785,
    0.759405,
    0.367184,
    0.968015,
    0.567,
    0.673796,
    1.032,
    0.580813,
    0.507597,
    0.55201,
    0.547,
    1.081,
    0.41,
    1.027,
    0.554,
    0.359,
    0.426,
    0.467,
    13.387,
    0.625,
    0.515,
    0.988,
    0.369,
    0.368,
    0.462,
    0.298,
    0.364,
    0.506,
    1.187,
    0.604,
    0.337985,
    0.351352,
    0.471597,
    0.303479,
    0.349,
    0.645,
    0.703,
    0.34343,
    0.307711,
    0.249,
    0.304564,
    0.692,
    0.721,
    0.646,
    0.939,
    0.527,
    0.473,
    0.613,
    0.778,
    1.034,
    0.306,
    0.654,
    0.224969,
    0.808,
    0.562,
    0.28,
    0.666,
    1.113,
    0.496,
    0.448,
    0.471,
    0.438,
    0.536,
    0.473,
    0.41,
    0.675,
    0.75,
    0.894,
    0.479,
    0.391,
    0.323,
    0.531,
    0.506,
    0.319,
    0.554,
    0.272,
    0.468,
    0.221,
    0.311141,
    0.571,
    0.273,
    0.431,
    0.383,
    0.473,
    0.276,
    0.744,
    0.479,
    0.283,
    0.361,
    0.35,
    0.511,
    0.435,
    0.836,
    0.437,
    0.702,
    0.459,
    0.432,
    0.385,
    0.53,
    0.45,
    0.206,
    0.694,
    0.183,
    0.186,
    0.239,
    0.26,
    0.414,
    0.852,
    0.613,
    0.928,
    0.444,
    0.501,
    0.548,
    0.528,
    0.967,
    0.472,
    0.261,
    0.737,
    0.564,
    0.598,
    0.317,
    0.3,
    0.235,
    0.435,
    0.551,
    0.43,
    0.944,
    0.282,
    0.319,
    0.578,
    0.423,
    0.339,
    0.54,
    0.516,
    0.596,
    0.808,
    0.405,
    0.384,
    0.411,
    0.392,
    0.452,
    0.601,
    0.535,
    0.539,
    0.364,
    0.326,
    0.358,
    0.45,
    0.339,
    0.375,
    0.518,
    0.917,
    0.653,
    0.431,
    1.134,
    0.481,
    0.552,
    0.528,
    0.767,
    0.324,
    0.454,
    0.217,
    0.272,
    0.375,
    0.355,
    0.233,
    0.268,
    0.393,
    0.533,
    0.499,
    0.57,
    0.761,
    0.366,
    0.74,
    0.455,
    0.4,
    0.568,
    0.458593,
    0.538,
    0.434553,
    0.824,
    0.366,
    0.406,
    0.438,
    0.372,
    0.324,
    0.525,
    0.567,
    0.497,
    1.117,
    0.499,
    0.822,
    0.542,
    0.507,
    0.589,
    0.968,
    0.493,
    0.626,
    0.81,
    0.448,
    0.351,
    0.444,
    0.427,
    0.419,
    0.615,
    0.682,
    0.499103,
    0.363,
    0.727709,
    0.327,
    0.370889,
    0.300897,
    0.527,
    0.764077,
    0.644,
    1.025,
    0.661,
    0.71,
    0.619,
    0.631,
    1.065,
    0.566,
    0.721242,
    0.487,
    0.566,
    0.575,
    0.476,
    0.780942,
    0.929,
    0.744,
    0.629,
    0.974,
    0.605,
    0.614,
    0.588,
    1.58,
    0.678897,
    0.419,
    0.438,
    0.738,
    0.621,
    0.953,
    0.703,
    0.611,
    0.937,
    0.518,
    0.597,
    0.58,
    0.718,
    0.39,
    0.497,
    0.561,
    0.307,
    0.353,
    0.5,
    0.704,
    0.262,
    1.064,
    0.384,
    0.272,
    0.392,
    0.31,
    0.58,
    0.511,
    0.526,
    0.772,
    0.461,
    0.979,
    0.973,
    0.471,
    0.564,
    0.761,
    0.516,
    0.714,
    0.501,
    0.496,
    0.669,
    0.726,
    0.272,
    0.479,
    0.442,
    0.63,
    0.331,
    0.567,
    0.526,
    0.757,
    0.416,
    0.528,
    0.477,
    0.229,
    0.516,
    0.633,
    0.536,
    0.479,
    0.907157,
    0.619,
    0.52,
    0.638,
    0.743,
    0.572,
    0.698,
    0.35,
    0.299,
    0.815,
    0.37,
    0.284,
    0.256,
    0.598,
    0.646,
    0.398,
    0.857,
    0.425,
    0.385,
    0.507,
    0.514,
    0.688,
    0.604631,
    0.707372,
    0.479,
    0.877948,
    0.504,
    0.517665,
    0.657937,
    0.486719,
    0.579,
    0.788,
    0.88,
    0.942,
    0.722,
    1.121,
    0.992,
    0.587,
    0.967,
    0.763,
    0.739,
    0.359,
    0.447,
    0.382,
    0.564,
    0.963,
    0.849,
    1.176,
    0.557,
    0.594,
    0.528,
    0.846,
    0.713,
    0.339,
    0.488,
    0.688,
    0.301,
    0.265,
    0.56,
    0.490274,
    0.981,
    0.474,
    0.88,
    0.449,
    0.547,
    0.655,
    0.513,
    0.794,
    0.423,
    0.696,
    1.204,
    0.38,
    0.439,
    0.403,
    0.377,
    0.646,
    1.1,
    0.495,
    0.972,
    0.868,
    0.813,
    0.529,
    0.873,
    0.88,
    0.40546,
    0.625,
    0.33,
    0.788889,
    0.559,
    0.342,
    0.374,
    0.463,
    0.67,
    0.813,
    0.62,
    0.478813,
    0.495,
    0.789,
    0.259,
    0.305,
    0.586,
    0.648,
    0.463,
    0.584,
    0.867,
    0.398,
    0.236,
    0.528,
    0.459,
    0.212,
    0.595,
    0.729,
    0.528,
    0.929,
    0.792,
    0.566,
    0.572,
    0.525,
    0.777,
    0.392214,
    0.476524,
    0.401842,
    0.854015,
    0.284,
    0.284,
    0.391,
    0.822521,
    0.453,
    0.291,
    0.25,
    0.32,
    0.71,
    0.337,
    0.463,
    0.311,
    0.575,
    0.322,
    0.743,
    0.315,
    0.335,
    0.604,
    0.314,
    0.451
  ],
  "5242880": [
    0.584,
    0.46,
    0.474,
    0.758,
    0.607112,
    0.863,
    0.336,
    0.578,
    1.12,
    0.946,
    0.453,
    0.864,
    0.512,
    0.537,
    0.763776,
    0.629,
    0.364,
    0.454,
    0.811888,
    0.408,
    0.599,
    0.206,
    0.587
  ],
  "ALL": [
    0.611,
    0.545,
    0.596,
    0.614,
    0.526,
    0.752,
    0.746,
    0.727,
    1.296,
    0.545,
    0.387897,
    0.469103,
    0.371,
    0.616218,
    0.354,
    0.7263,
    0.562,
    0.322,
    0.667342,
    0.926388,
    0.339549,
    0.59379,
    0.565857,
    0.642143,
    0.225,
    0.311,
    0.401834,
    0.259159,
    0.465,
    0.278,
    0.6,
    0.524,
    0.968,
    0.522,
    0.77,
    0.61,
    0.549,
    0.511,
    0.742,
    0.496056,
    0.669,
    0.592,
    1.043,
    0.586,
    0.568,
    0.574,
    1.004,
    0.453,
    0.482,
    0.516,
    0.409,
    0.35,
    0.38,
    0.374,
    0.324,
    0.318,
    0.599,
    0.917,
    0.523,
    0.671,
    0.429,
    0.993644,
    0.411,
    0.433,
    0.549,
    0.958451,
    0.496,
    0.559,
    0.651,
    0.479,
    0.235,
    0.973,
    0.234,
    0.274,
    0.358,
    0.358,
    0.233,
    0.52,
    0.541,
    1.097,
    0.993,
    0.484,
    0.547,
    0.548,
    0.73,
    0.473,
    0.435,
    0.374,
    0.243,
    0.707,
    0.32,
    0.263,
    0.321,
    0.289,
    0.492,
    0.338,
    0.198,
    0.636,
    0.476,
    0.296,
    0.659,
    0.231,
    0.549,
    0.333,
    0.242,
    0.377,
    0.485,
    0.721,
    0.748,
    0.895,
    0.492,
    0.454,
    0.531,
    0.576,
    0.664,
    0.735,
    0.584,
    0.589,
    0.681,
    0.56,
    0.966,
    0.545,
    0.629825,
    0.538141,
    0.511,
    0.785,
    0.56,
    0.773,
    0.72952,
    0.825,
    0.969,
    0.561,
    0.872,
    0.796,
    0.549,
    0.566,
    0.771,
    0.632,
    0.587,
    0.905,
    0.454,
    0.47,
    0.855,
    0.47,
    0.463,
    0.846,
    0.701,
    0.646,
    0.732,
    0.918,
    1.046,
    0.738,
    0.646,
    0.578,
    0.601,
    0.767,
    0.521,
    0.618,
    0.695,
    0.538,
    1.105568,
    0.602587,
    0.501,
    0.621716,
    0.555,
    0.637981,
    0.775,
    0.783,
    0.884,
    0.895,
    0.792,
    0.547,
    0.795,
    0.614,
    0.598,
    0.978,
    0.459,
    0.899,
    0.372,
    0.369,
    0.663,
    0.376,
    0.943,
    1.084,
    0.432,
    0.46,
    0.42,
    0.617,
    0.812,
    0.37,
    0.359302,
    0.508,
    0.397,
    0.576,
    0.378,
    0.556,
    0.434,
    0.329,
    0.336,
    0.417,
    0.584,
    0.407,
    0.653,
    0.474,
    0.758,
    0.521619,
    0.6,
    0.513284,
    0.497,
    0.787,
    0.641,
    0.474,
    0.713025,
    0.872948,
    0.607112,
    0.548106,
    0.423749,
    0.794,
    0.659215,
    0.257894,
    1.26,
    0.891,
    0.548645,
    0.447446,
    1.022,
    0.702,
    0.345,
    0.392,
    0.27,
    0.531,
    0.508,
    0.683,
    0.258,
    0.316,
    0.439322,
    0.82059,
    0.530232,
    0.82059,
    0.479,
    0.340785,
    0.759405,
    0.367184,
    0.968015,
    0.567,
    0.673796,
    1.032,
    0.580813,
    0.507597,
    0.55201,
    0.547,
    0.863,
    1.081,
    0.41,
    1.027,
    0.554,
    0.359,
    0.426,
    0.467,
    13.387,
    0.434,
    0.625,
    0.515,
    0.988,
    0.369,
    0.368,
    0.462,
    0.298,
    0.364,
    0.506,
    0.479,
    1.187,
    0.604,
    0.337985,
    0.351352,
    0.471597,
    0.303479,
    0.793245,
    0.273,
    0.561307,
    0.349,
    0.645,
    0.703,
    0.34343,
    0.307711,
    0.249,
    0.304564,
    0.692,
    0.230128,
    0.336,
    0.721,
    0.646,
    0.939,
    0.527,
    0.473,
    0.613,
    0.778,
    1.034,
    0.741,
    0.306,
    0.654,
    0.224969,
    0.808,
    0.562,
    0.28,
    0.666,
    1.113,
    0.25,
    0.496,
    0.448,
    0.471,
    0.438,
    0.536,
    0.473,
    0.41,
    0.675,
    0.675,
    0.966,
    0.75,
    0.894,
    0.479,
    0.391,
    0.323,
    0.531,
    0.506,
    0.319,
    0.554,
    0.721,
    0.272,
    0.468,
    0.221,
    0.311141,
    0.571,
    0.273,
    0.431,
    0.74,
    0.243,
    0.383,
    0.473,
    0.276,
    0.744,
    0.479,
    0.283,
    0.361,
    0.35,
    0.304,
    0.523,
    0.511,
    0.435,
    0.836,
    0.437,
    0.702,
    0.459,
    0.432,
    0.385,
    0.53,
    0.578,
    0.45,
    0.206,
    0.694,
    0.183,
    0.186,
    0.239,
    0.26,
    0.414,
    0.852,
    0.352,
    0.613,
    0.928,
    0.444,
    0.501,
    0.548,
    0.528,
    0.967,
    0.584,
    0.522,
    0.536,
    0.472,
    0.261,
    0.737,
    0.564,
    0.598,
    0.317,
    0.3,
    0.235,
    0.435,
    0.316,
    0.551,
    0.43,
    0.944,
    0.282,
    0.319,
    0.578,
    0.423,
    0.339,
    0.54,
    0.391,
    0.516,
    0.596,
    0.808,
    0.405,
    0.384,
    0.411,
    0.392,
    0.452,
    0.601,
    0.394,
    0.535,
    0.539,
    0.364,
    0.326,
    0.358,
    0.45,
    0.339,
    0.375,
    0.518,
    1.12,
    0.917,
    0.653,
    0.431,
    1.134,
    0.481,
    0.552,
    0.528,
    0.767,
    0.587,
    0.324,
    0.454,
    0.217,
    0.272,
    0.375,
    0.355,
    0.233,
    0.268,
    0.393,
    1.468,
    0.533,
    0.499,
    0.57,
    0.761,
    0.366,
    0.74,
    0.455,
    0.4,
    0.568,
    0.458593,
    0.538,
    0.434553,
    0.824,
    0.366,
    0.406,
    0.438,
    0.372,
    0.324,
    0.525,
    0.567,
    0.497,
    1.117,
    0.499,
    0.822,
    0.542,
    0.507,
    0.589,
    0.968,
    0.657,
    0.493,
    0.626,
    0.81,
    0.448,
    0.351,
    0.444,
    0.427,
    0.419,
    0.615,
    0.354,
    0.682,
    0.499103,
    0.363,
    0.727709,
    0.327,
    0.370889,
    0.300897,
    0.527,
    0.626,
    0.265897,
    0.764077,
    0.644,
    1.025,
    0.661,
    0.71,
    0.619,
    0.631,
    1.065,
    0.742,
    0.688,
    0.566,
    0.721242,
    0.487,
    0.566,
    0.575,
    0.476,
    0.780942,
    0.528,
    0.946,
    0.453,
    0.929,
    0.744,
    0.629,
    0.974,
    0.605,
    0.614,
    0.56,
    0.544,
    0.864,
    0.588,
    1.58,
    0.678897,
    0.419,
    0.438,
    0.738,
    0.621,
    0.554,
    0.412,
    0.340252,
    0.953,
    0.703,
    0.611,
    0.937,
    0.518,
    0.597,
    0.58,
    0.718,
    0.537,
    0.541,
    0.39,
    0.497,
    0.561,
    0.307,
    0.353,
    0.5,
    0.618,
    0.717,
    0.369,
    0.327,
    0.704,
    0.262,
    1.064,
    0.384,
    0.272,
    0.392,
    0.31,
    0.58,
    0.511,
    0.573,
    0.526,
    0.772,
    0.461,
    0.979,
    0.973,
    0.471,
    0.564,
    0.761,
    0.516,
    0.714,
    0.501,
    0.496,
    0.669,
    0.726,
    0.272,
    0.479,
    0.442,
    0.63,
    0.331,
    0.567,
    0.526,
    0.757,
    0.416,
    0.528,
    0.477,
    0.229,
    0.516,
    0.651218,
    0.237,
    0.225,
    0.633,
    0.536,
    0.479,
    0.907157,
    0.619,
    0.52,
    0.638,
    0.743,
    0.572,
    0.698,
    0.35,
    0.299,
    0.815,
    0.37,
    0.284,
    0.256,
    0.315,
    0.512,
    0.537,
    0.598,
    0.646,
    0.398,
    0.857,
    0.425,
    0.385,
    0.507,
    0.514,
    0.688,
    0.604631,
    0.707372,
    0.479,
    0.877948,
    0.504,
    0.517665,
    0.657937,
    0.486719,
    0.763776,
    0.579,
    0.788,
    0.88,
    0.942,
    0.722,
    1.121,
    0.992,
    0.587,
    0.967,
    0.763,
    0.739,
    0.359,
    0.447,
    0.382,
    0.564,
    0.788,
    0.58,
    0.629,
    0.963,
    0.849,
    1.176,
    0.557,
    0.594,
    0.528,
    0.846,
    0.713,
    0.854,
    0.88,
    0.339,
    0.488,
    0.688,
    0.301,
    0.265,
    0.56,
    0.490274,
    0.364,
    0.981,
    0.474,
    0.88,
    0.449,
    0.547,
    0.655,
    0.513,
    0.794,
    0.648,
    0.423,
    0.696,
    1.204,
    0.38,
    0.439,
    0.403,
    0.377,
    0.646,
    0.57,
    0.379,
    1.1,
    0.495,
    0.972,
    0.868,
    0.813,
    0.529,
    0.873,
    0.88,
    0.637,
    0.40546,
    0.625,
    0.33,
    0.788889,
    0.559,
    0.342,
    0.374,
    0.454,
    0.811888,
    0.463,
    0.67,
    0.813,
    0.62,
    0.433,
    0.345,
    0.338,
    0.375,
    0.408,
    0.599,
    0.478813,
    0.495,
    0.789,
    0.259,
    0.305,
    0.586,
    0.439,
    0.267,
    0.36,
    0.206,
    0.648,
    0.463,
    0.584,
    0.867,
    0.398,
    0.236,
    0.528,
    0.459,
    0.212,
    0.595,
    0.729,
    0.528,
    0.929,
    0.792,
    0.566,
    0.572,
    0.525,
    0.777,
    0.531,
    0.392214,
    0.476524,
    0.401842,
    0.854015,
    0.284,
    0.284,
    0.391,
    0.822521,
    0.655441,
    0.704,
    0.453,
    0.291,
    0.25,
    0.32,
    0.71,
    0.337,
    0.463,
    0.489,
    0.715,
    0.294,
    0.311,
    0.575,
    0.322,
    0.743,
    0.315,
    0.335,
    0.604,
    0.314,
    0.451,
    0.587
  ]
}