[
  1.059,
  1.117,
  1.048889,
  1.172752,
  1.186352,
  1.353743,
  1.111897,
  1.186,
  1.109,
  1.18,
  1.056,
  1.036897,
  1.164,
  1.056,
  1.132,
  1.113,
  1.378352,
  1.268,
  1.223,
  0.277991,
  1.209,
  1.072,
  1.524,
  1.593,
  1.29,
  1.160352,
  1.032,
  1.095,
  1.024352,
  1.08,
  1.086,
  1.046,
  1.057352,
  1.168,
  1.024,
  1.18,
  1.07,
  1.288352,
  1.201,
  1.045,
  1.183352,
  1.073,
  1.194,
  1.416,
  1.225352,
  1.211,
  1.18,
  1.071,
  1.085,
  0.294,
  1.087,
  1.042,
  1.101,
  1.114352,
  1.124,
  1.116912,
  1.063352,
  1.063,
  1.064,
  1.19,
  1.186,
  0.416,
  0.456,
  0.543017,
  0.388,
  0.346,
  0.39,
  0.334097,
  0.401,
  0.36,
  0.344,
  0.347997,
  0.484,
  0.526,
  0.406,
  0.340903,
  0.2022,
  0.377,
  0.359,
  0.411,
  0.344903,
  0.40926,
  0.325,
  0.430097,
  0.355903,
  0.43,
  0.335,
  0.354903,
  0.399342,
  0.404611,
  0.366,
  0.394,
  0.491903,
  0.327,
  0.559,
  0.310903,
  0.607,
  0.065,
  0.323624,
  0.369903,
  0.313,
  0.363886,
  0.414,
  0.38,
  0.323903,
  0.397,
  0.464,
  0.366,
  0.834903,
  0.59,
  0.445022,
  0.403903,
  0.686,
  0.403,
  0.52,
  0.452,
  0.332,
  0.346796,
  1.066,
  1.069948,
  1.048,
  1.068,
  1.067,
  1.34061,
  1.014681,
  1.0,
  1.043,
  1.157,
  1.167,
  0.994064,
  1.189,
  2.656,
  1.071,
  1.18061,
  1.089,
  0.992,
  1.03261,
  1.13,
  1.019,
  1.022,
  1.358,
  1.12361,
  1.172,
  1.19661,
  1.086,
  1.105681,
  1.066,
  1.020216,
  1.33661,
  1.115,
  1.134,
  1.194,
  1.185,
  0.305,
  1.38161,
  1.026,
  2.06461,
  1.124,
  1.052,
  1.008897,
  1.03861,
  1.188,
  1.036,
  1.07,
  1.155,
  1.067,
  1.08561,
  1.213,
  1.04261,
  1.082,
  1.086,
  0.99461,
  1.306,
  1.05,
  1.154,
  1.643,
  1.058,
  1.011,
  1.415051,
  0.295,
  0.199,
  0.361382,
  0.715681,
  0.270103,
  0.308,
  0.309,
  0.337362,
  0.632619,
  0.311,
  0.232,
  0.311897,
  0.373897,
  0.346331,
  0.293124,
  0.372,
  0.432103,
  0.301715,
  0.322,
  0.297103,
  0.327,
  0.350897,
  0.043,
  0.325,
  0.354103,
  0.377,
  0.331,
  0.348708,
  0.359103,
  0.396,
  0.321,
  0.303,
  0.315103,
  0.3,
  0.291,
  0.410103,
  0.312772,
  1.267,
  0.448994,
  0.298103,
  0.341524,
  0.362,
  0.380948,
  0.318,
  0.318103,
  0.72165,
  0.356772,
  0.272619,
  0.344103,
  0.525442,
  0.419876,
  0.261219,
  0.319103,
  0.421628,
  0.341,
  0.308,
  0.363,
  0.418,
  0.306681,
  0.325,
  0.568,
  0.602392,
  0.401612,
  0.499,
  0.388,
  0.407,
  0.327,
  0.615,
  1.082,
  0.338,
  0.347,
  0.431,
  0.522,
  0.273612,
  0.405309,
  0.456691,
  0.499,
  0.473612,
  0.632,
  0.293,
  0.369,
  0.358612,
  0.325,
  0.315388,
  1.063,
  0.285612,
  0.325,
  0.499,
  0.364,
  0.0554,
  0.392,
  0.455,
  0.318,
  0.625212,
  0.342,
  0.281388,
  0.419,
  0.352612,
  0.393,
  0.32,
  0.906876,
  0.4,
  0.707612,
  0.502,
  0.348486,
  0.648612,
  0.446078,
  0.36638,
  0.299,
  0.386612,
  0.367,
  0.597,
  0.494,
  0.291,
  0.488876,
  0.507,
  0.32,
  0.298,
  0.046,
  0.3,
  0.317,
  0.376,
  0.321,
  0.398,
  0.453,
  0.333,
  0.346,
  0.341,
  0.782,
  0.307,
  0.326,
  0.322103,
  0.29,
  0.284,
  0.371,
  0.658103,
  0.325,
  0.348,
  0.361,
  0.309103,
  0.454,
  1.012117,
  0.359103,
  0.362,
  0.373011,
  0.394,
  0.347,
  0.324103,
  0.249,
  0.480672,
  0.202,
  0.303103,
  0.632,
  0.287,
  0.532897,
  0.485103,
  0.275,
  0.338,
  0.303,
  0.363,
  0.437103,
  0.36261,
  0.338,
  0.542103,
  0.429,
  0.581,
  0.436,
  0.286103,
  0.604,
  0.289,
  0.477,
  0.311,
  0.317,
  0.046,
  0.366,
  0.402,
  0.327,
  0.35,
  0.254612,
  0.323135,
  0.409,
  0.417803,
  0.558,
  0.338,
  0.342,
  0.31,
  0.314,
  0.28647,
  0.373,
  0.474121,
  0.505918,
  0.321,
  0.491,
  0.334612,
  0.301,
  0.196491,
  0.366,
  0.346,
  0.362612,
  0.49,
  0.415,
  0.253612,
  0.439477,
  0.368464,
  0.394,
  0.368612,
  0.333,
  0.326,
  0.367,
  0.448612,
  0.36,
  0.054,
  0.55,
  0.388612,
  0.301406,
  0.333594,
  0.488,
  0.401,
  0.819612,
  0.319,
  0.478,
  0.346,
  0.307612,
  0.288392,
  0.618,
  1.392612,
  0.369138,
  0.465915,
  0.329,
  0.465,
  0.358,
  0.308135,
  0.477706,
  0.372,
  0.321237,
  0.335763,
  0.696109,
  0.397,
  0.645,
  0.394,
  0.986986,
  1.492,
  0.392237,
  0.362738,
  0.369,
  0.437237,
  0.313398,
  0.341763,
  0.466,
  0.356,
  0.600026,
  0.210314,
  0.423763,
  0.32,
  0.336306,
  0.332,
  0.360763,
  0.392,
  0.465,
  0.404,
  0.339763,
  0.6139,
  0.394,
  0.631,
  0.603547,
  0.665109,
  3.397216,
  0.345763,
  0.545,
  0.356,
  0.360134,
  0.365763,
  0.342,
  0.418,
  0.379,
  0.51,
  0.377763,
  0.344375,
  0.407,
  0.293763,
  0.39,
  0.369,
  0.365,
  0.21534,
  0.381,
  0.306,
  0.393889,
  0.361,
  0.623,
  0.46,
  0.499586,
  0.281,
  11.373,
  0.370539,
  0.642,
  1.404,
  0.443,
  0.344,
  0.339461,
  0.408539,
  0.406,
  0.386,
  0.32,
  20.341,
  0.624,
  0.297539,
  0.592,
  1.83,
  0.867,
  0.497539,
  0.386,
  0.501,
  11.994,
  0.442,
  2.372539,
  0.693,
  0.398,
  0.089,
  0.463,
  0.391,
  0.581539,
  0.397,
  41.013,
  40.073,
  0.643,
  1.278,
  0.59,
  0.739,
  17.557,
  0.248,
  0.543539,
  0.775,
  0.41,
  0.58,
  1.808539,
  0.708,
  0.418,
  0.506539,
  0.434,
  0.318,
  0.402,
  0.455,
  0.380539,
  0.301,
  0.377,
  1.465,
  0.882,
  16.672,
  0.301344,
  6.178,
  0.326,
  4.418656,
  2.682656,
  1.085,
  0.938743,
  0.274,
  0.969,
  1.020626,
  1.111165,
  1.169,
  0.983,
  1.03,
  0.976,
  1.075,
  1.106747,
  1.008023,
  0.978047,
  1.23,
  1.036,
  1.143,
  1.017,
  0.989,
  0.945165,
  0.978,
  0.962,
  1.082,
  0.981,
  1.373165,
  1.005,
  0.275,
  1.056,
  0.934165,
  0.992,
  1.063,
  1.104,
  1.011165,
  1.07,
  0.926,
  0.915,
  1.318,
  0.964165,
  1.021,
  0.983,
  0.979165,
  1.278626,
  1.122848,
  1.151165,
  1.021,
  1.004,
  0.944,
  0.936,
  0.984,
  0.981165,
  0.97,
  0.986,
  0.966165,
  0.941049,
  0.950908,
  1.862165,
  0.947,
  0.964,
  1.004,
  0.961,
  0.274,
  0.291388,
  0.286103,
  0.373,
  0.306,
  0.275,
  0.634194,
  0.582,
  0.354,
  0.311889,
  0.413288,
  0.318,
  0.728,
  0.396,
  0.353103,
  0.291,
  0.396,
  0.396,
  0.350103,
  0.321897,
  0.464897,
  0.324897,
  0.354103,
  0.263,
  0.051,
  0.269617,
  0.455,
  0.509,
  0.308897,
  0.385,
  0.391,
  0.317103,
  0.336,
  0.272,
  0.367103,
  0.491,
  0.306897,
  0.311103,
  0.319,
  0.277,
  0.4,
  0.275,
  0.31,
  0.333103,
  0.312,
  0.331,
  0.409103,
  0.295,
  0.324,
  0.363103,
  0.307897,
  0.447,
  0.386,
  0.287,
  0.323897,
  0.281,
  0.77824,
  0.481665,
  0.510335,
  0.553124,
  0.405,
  0.477,
  0.431,
  0.431138,
  0.433,
  0.646,
  0.44,
  0.391,
  0.475,
  0.459226,
  1.199473,
  0.586124,
  0.454611,
  0.439,
  0.46,
  0.547401,
  0.438138,
  0.61,
  0.397124,
  0.552969,
  0.41659,
  0.562538,
  0.413488,
  0.462124,
  0.449157,
  0.396,
  0.448,
  0.393124,
  0.446943,
  0.338987,
  0.437619,
  0.428584,
  0.43796,
  0.50604,
  0.505431,
  1.729,
  0.476,
  0.452538,
  0.404,
  0.423,
  0.546124,
  0.438,
  0.479124,
  0.504506,
  0.438,
  0.423,
  0.386,
  0.385969,
  0.408,
  0.402,
  0.459,
  0.465,
  0.438969,
  0.419,
  0.320239,
  0.355,
  0.339612,
  0.3572,
  0.768781,
  0.368388,
  1.063,
  0.672,
  0.597,
  0.342,
  0.334388,
  0.478,
  0.384,
  0.292388,
  0.351374,
  0.352612,
  0.624043,
  0.409612,
  0.633,
  0.618,
  0.803,
  0.451,
  0.369612,
  0.356,
  0.597,
  0.372,
  0.601612,
  0.367,
  0.349,
  0.365612,
  0.618,
  0.389,
  0.401597,
  0.421612,
  0.408,
  0.466061,
  0.357,
  0.333612,
  0.459,
  0.335,
  0.36,
  0.323612,
  0.38,
  0.638,
  0.364151,
  0.361612,
  0.446,
  0.448,
  0.192927,
  0.2994,
  0.358612,
  0.267078,
  0.382,
  0.382612,
  0.366392,
  0.625,
  0.644,
  0.401676,
  0.469,
  0.464131,
  0.545111,
  0.395,
  0.425,
  0.506536,
  0.426,
  0.489,
  0.411,
  0.616779,
  0.415,
  0.739,
  0.476,
  0.416,
  0.581111,
  0.461324,
  0.388,
  0.434111,
  0.453324,
  0.384,
  0.414,
  0.517111,
  0.45,
  0.398919,
  0.572208,
  0.348,
  0.505,
  0.564,
  0.392,
  0.383,
  0.464111,
  0.81,
  0.412111,
  0.478,
  0.443565,
  0.364,
  0.396111,
  0.493,
  0.452,
  0.461324,
  0.459,
  0.382111,
  0.398,
  0.429,
  0.667111,
  0.442324,
  0.482,
  1.296,
  0.363885,
  0.436,
  0.409,
  0.404,
  0.794,
  0.427,
  0.626,
  0.47,
  0.482,
  0.472,
  0.38266,
  0.337,
  0.385,
  0.392,
  0.739,
  0.373,
  0.403,
  0.39,
  0.457,
  0.4,
  0.365,
  0.393,
  0.38866,
  0.43,
  0.488,
  0.775,
  0.275827,
  0.31666,
  0.321,
  0.41,
  1.05566,
  0.667,
  0.447,
  0.554,
  0.365,
  0.376,
  0.31,
  0.342,
  0.322,
  0.31766,
  0.565,
  0.049278,
  0.266,
  0.581,
  0.523,
  0.272,
  1.34666,
  0.374,
  0.376,
  0.437,
  0.336,
  0.416,
  0.25566,
  0.449,
  0.44566,
  0.342,
  0.274,
  0.411,
  0.40966,
  0.400889,
  0.602,
  0.357,
  0.359,
  0.736,
  0.377,
  0.149054,
  0.47138,
  0.365544,
  0.659728,
  0.333,
  0.323,
  0.388,
  0.365568,
  0.275976,
  0.349913,
  0.392377,
  0.456874,
  0.363744,
  0.310237,
  0.412,
  0.663763,
  0.053942,
  0.323,
  0.391,
  0.431845,
  0.704041,
  0.373424,
  0.558,
  0.375407,
  0.387763,
  0.385,
  0.34,
  0.332763,
  0.392767,
  0.606432,
  0.385,
  0.339763,
  0.340763,
  0.595281,
  0.425549,
  0.056237,
  1.162,
  0.506763,
  0.347,
  0.3,
  0.448763,
  0.349844,
  0.387,
  0.373,
  0.359,
  0.319763,
  0.761,
  0.360763,
  0.384526,
  0.291731,
  0.288401,
  0.380966,
  0.230763,
  0.446,
  0.366432,
  0.326763,
  0.321237,
  0.34,
  0.423,
  0.904258,
  0.922,
  1.283,
  0.887,
  1.040194,
  0.881932,
  0.92274,
  0.896,
  0.864,
  0.996,
  0.937,
  0.865106,
  0.879,
  0.895277,
  0.871,
  0.916932,
  0.914,
  15.633,
  1.28292,
  0.866932,
  0.934,
  0.915461,
  0.947,
  0.974,
  0.943932,
  0.883499,
  0.873932,
  0.833,
  0.878461,
  0.999461,
  0.918,
  0.883932,
  0.948,
  0.887,
  0.955,
  0.851,
  0.896932,
  1.069932,
  0.947,
  0.972,
  0.896,
  0.893932,
  0.940167,
  0.939,
  0.92,
  0.874195,
  0.829,
  1.081,
  0.910932,
  1.29726,
  0.899932,
  0.884,
  0.889,
  0.912932,
  1.043,
  0.973,
  0.96,
  0.888,
  0.904882,
  0.977922,
  1.501936,
  0.143432,
  0.772,
  0.708268,
  0.829716,
  0.894959,
  0.883512,
  0.90515,
  0.783136,
  0.82142,
  0.787346,
  0.819284,
  0.811795,
  0.764,
  0.815312,
  0.896717,
  0.853999,
  0.901766,
  0.805972,
  0.87669,
  1.20531,
  0.826,
  0.735205,
  0.8759,
  0.244896,
  0.820104,
  2.939468,
  0.833284,
  0.811716,
  0.830716,
  0.82,
  0.758716,
  0.836,
  0.862766,
  0.734,
  0.785716,
  0.883,
  0.762812,
  0.762,
  0.054896,
  0.746716,
  0.775,
  1.061,
  0.845284,
  0.783716,
  0.864249,
  0.819316,
  0.793104,
  0.886716,
  0.792458,
  0.818688,
  0.858284,
  0.859311,
  0.717052,
  0.88251,
  0.830313,
  0.953,
  0.817618,
  0.880634,
  1.199,
  1.064,
  1.066894,
  1.057,
  1.035996,
  0.969,
  1.22,
  1.024,
  1.032,
  1.043,
  1.12,
  1.0,
  1.542,
  1.234,
  1.015,
  1.007,
  1.034343,
  1.012727,
  1.007,
  1.069343,
  1.091,
  1.071,
  1.131,
  1.21,
  1.109343,
  1.083,
  1.068,
  1.025343,
  1.243,
  0.965,
  1.088,
  1.114343,
  1.051398,
  1.042,
  1.041,
  1.193,
  1.268343,
  1.021,
  1.283778,
  0.981343,
  1.094,
  1.064816,
  1.111889,
  1.008343,
  1.051,
  1.042,
  1.019,
  1.028996,
  1.146004,
  1.068343,
  1.245,
  1.54,
  1.074343,
  1.038,
  1.653,
  1.014343,
  1.211,
  1.088,
  1.04,
  1.029,
  0.33,
  0.276,
  0.294103,
  0.330617,
  0.275,
  0.312,
  0.35,
  0.267023,
  0.540856,
  0.335,
  0.29368,
  0.317908,
  0.335952,
  0.42,
  0.350103,
  0.245715,
  0.285,
  0.497,
  0.321,
  0.476103,
  0.361,
  0.656388,
  0.349103,
  0.335,
  0.382,
  0.33,
  0.320103,
  0.365,
  0.483,
  0.336,
  0.339,
  0.315103,
  0.307,
  0.658,
  0.355103,
  0.309,
  0.371,
  0.824,
  0.301904,
  0.518897,
  0.335,
  0.316,
  0.309,
  0.578103,
  0.454,
  0.341,
  0.712103,
  0.589,
  0.497,
  0.533103,
  0.772,
  0.408,
  0.277617,
  0.293,
  0.322,
  0.247509,
  0.334,
  0.347768,
  0.295,
  0.322,
  0.355103,
  0.321,
  0.301,
  0.269,
  0.356,
  0.442,
  0.366,
  0.298,
  0.329,
  0.46,
  0.451037,
  0.351897,
  0.386103,
  0.344,
  0.357,
  0.359103,
  0.335,
  0.294,
  0.306,
  0.291777,
  0.359103,
  0.299778,
  0.321,
  0.562,
  0.416103,
  0.343897,
  0.358,
  0.340103,
  0.352,
  0.426,
  0.785021,
  0.285777,
  0.313103,
  0.313897,
  0.272897,
  0.344103,
  0.326,
  0.357805,
  0.353,
  0.326103,
  0.358,
  0.422,
  0.418,
  0.481103,
  0.321897,
  0.299,
  0.484103,
  0.338897,
  0.376,
  0.345,
  0.343,
  0.350897,
  0.305778,
  0.322,
  0.418,
  0.341,
  0.353449,
  0.358877,
  0.322,
  0.312,
  0.377,
  0.275897,
  0.382,
  0.903,
  0.343153,
  0.508768,
  0.283,
  0.275,
  0.333,
  0.512877,
  0.369798,
  0.385,
  0.283,
  0.258877,
  0.4287,
  0.134218,
  0.349,
  0.654187,
  0.347877,
  0.652,
  0.351,
  0.383877,
  0.293,
  0.358,
  0.324,
  0.312877,
  0.835,
  0.393768,
  0.324826,
  0.412867,
  0.608,
  0.328177,
  0.285877,
  0.376,
  0.376,
  0.359,
  0.389,
  0.366877,
  0.384608,
  0.346768,
  0.541877,
  0.381328,
  0.351768,
  0.32196,
  0.342877,
  0.054,
  0.607574,
  0.376,
  0.308,
  0.448,
  0.383765,
  0.436,
  0.405,
  0.352331,
  0.442,
  0.417,
  0.38,
  1.321,
  0.381104,
  0.396,
  0.402682,
  0.39413,
  0.393003,
  0.43,
  0.35128,
  0.491382,
  0.70806,
  0.447743,
  0.423257,
  0.358608,
  0.474379,
  0.396,
  0.208495,
  0.406393,
  0.807861,
  0.371608,
  0.39179,
  0.422608,
  0.420639,
  0.443608,
  0.424112,
  0.504608,
  0.463392,
  0.36834,
  0.350317,
  0.379446,
  0.404614,
  0.420991,
  0.498386,
  1.412608,
  0.425014,
  0.418946,
  0.435,
  0.411608,
  0.377,
  0.685302,
  0.05528,
  0.38949,
  0.39948,
  0.43,
  0.43371,
  0.344608,
  0.421608,
  0.418211,
  0.604789,
  0.419,
  0.554,
  0.431639,
  0.527197,
  1.839,
  1.097288,
  1.318748,
  1.032222,
  0.929343,
  1.025575,
  1.065643,
  1.011,
  0.985,
  0.977,
  1.02332,
  1.01747,
  0.978889,
  1.164,
  0.978641,
  1.186263,
  1.06397,
  0.967,
  1.005343,
  1.015857,
  1.03,
  1.131,
  1.319056,
  1.018119,
  1.090094,
  1.025343,
  0.964,
  1.025,
  0.92,
  1.157438,
  0.991343,
  1.009,
  1.083,
  1.009,
  0.98,
  1.049343,
  1.037613,
  1.012343,
  1.041,
  1.052,
  1.031152,
  1.342343,
  1.084412,
  1.074,
  1.053,
  0.931318,
  1.056857,
  1.028343,
  1.038011,
  1.093343,
  0.960547,
  0.277,
  1.202438,
  1.011,
  1.386,
  1.013,
  1.008,
  1.014,
  1.257,
  1.016,
  1.013,
  1.086,
  1.106,
  1.120388,
  1.239849,
  1.633,
  1.0064,
  1.004363,
  1.02,
  0.937,
  1.01,
  1.149,
  1.025,
  1.40591,
  1.0,
  1.034,
  1.015011,
  0.937151,
  1.102011,
  1.627671,
  1.04,
  1.025,
  0.994,
  1.004623,
  1.000676,
  0.942804,
  1.303011,
  1.044804,
  1.088862,
  1.052,
  1.144459,
  0.998224,
  0.973776,
  1.046,
  0.992,
  0.987,
  1.01,
  1.384011,
  0.941,
  0.273,
  1.232414,
  1.025,
  1.022011,
  1.02,
  0.998957,
  1.001043,
  1.044388,
  1.487,
  1.029011,
  1.0,
  1.004011,
  1.018208,
  0.921,
  0.943011,
  1.056,
  1.057,
  1.039612,
  0.996,
  0.966208,
  1.18537,
  0.341,
  0.339,
  0.314,
  0.325103,
  0.368,
  0.919,
  0.906529,
  0.382,
  0.316851,
  0.457,
  0.335,
  0.319,
  0.328,
  0.305,
  0.428,
  0.365103,
  0.305897,
  0.341,
  0.274056,
  4.054103,
  0.356,
  0.309,
  0.380103,
  0.514,
  0.360897,
  0.381,
  0.303103,
  0.406,
  0.37,
  0.345,
  0.404103,
  0.29,
  0.2,
  0.463,
  0.654,
  0.346103,
  0.506,
  0.503,
  0.301103,
  0.342,
  0.466,
  0.33,
  4.732,
  0.576103,
  0.8,
  0.313,
  0.322,
  0.381103,
  0.326,
  0.321,
  0.66009,
  32.382103,
  0.363,
  0.45,
  0.457,
  0.443,
  0.863,
  1.030936,
  1.019064,
  1.057,
  1.179777,
  1.336957,
  0.203,
  1.007064,
  1.268,
  1.247864,
  1.225,
  1.020166,
  1.279457,
  1.208395,
  0.956,
  1.99727,
  1.044876,
  1.051957,
  1.049188,
  1.071876,
  1.264893,
  1.246,
  1.261408,
  1.311876,
  1.035,
  1.055957,
  1.053,
  1.028,
  1.150893,
  1.014,
  1.016267,
  1.117,
  1.021081,
  1.252,
  1.24494,
  1.2072,
  1.009702,
  1.014957,
  1.118012,
  0.966988,
  3.326957,
  1.606023,
  1.043,
  1.112,
  1.013626,
  1.045893,
  1.244064,
  1.280562,
  1.301,
  1.022,
  1.219957,
  1.016,
  1.366,
  1.241722,
  1.236,
  1.257764,
  1.033331,
  1.028146,
  1.252064,
  1.250292,
  1.218,
  1.085,
  2.008,
  1.099,
  1.256398,
  1.18,
  0.327,
  1.189,
  1.153721,
  1.323,
  1.129,
  1.214,
  1.579097,
  1.131,
  1.251,
  1.2,
  1.31065,
  2.025254,
  1.107,
  1.306,
  1.144254,
  1.21,
  1.236,
  1.166,
  1.282,
  1.225254,
  1.094,
  1.360097,
  1.152254,
  1.146,
  1.156,
  1.221666,
  1.154254,
  1.142,
  1.202,
  1.186,
  1.14,
  1.171254,
  0.339,
  1.147,
  1.188,
  1.095254,
  1.203,
  1.13,
  1.251912,
  1.232254,
  1.187,
  1.148,
  1.18,
  1.12,
  1.212254,
  1.108892,
  1.248984,
  1.232254,
  1.168,
  1.087,
  1.194254,
  1.368,
  1.209,
  1.303,
  1.198,
  1.874,
  1.038604,
  1.213,
  1.13669,
  0.962765,
  1.229721,
  0.971281,
  0.971,
  0.967,
  1.024875,
  1.088125,
  1.292669,
  1.335,
  1.012,
  1.1402,
  1.327874,
  1.208,
  1.046097,
  1.134208,
  1.049874,
  1.016,
  1.433,
  0.966,
  0.956,
  1.081874,
  1.043,
  1.028,
  1.015655,
  1.025,
  1.02,
  0.985874,
  1.042256,
  1.098,
  1.002114,
  1.364,
  1.164828,
  1.037874,
  1.17,
  1.130177,
  1.061874,
  1.213144,
  1.005,
  0.922873,
  0.966,
  1.032,
  2.032,
  1.025,
  1.09027,
  1.083,
  1.185,
  1.020874,
  1.048,
  1.400645,
  0.994944,
  1.200874,
  1.081388,
  0.982,
  0.97772,
  1.036094,
  1.345,
  1.03,
  1.139,
  1.041,
  1.048897,
  1.168352,
  1.152794,
  1.161,
  1.115,
  1.072,
  1.055,
  1.119,
  1.020897,
  1.141,
  1.309,
  1.073,
  1.106352,
  1.205,
  1.109897,
  1.064352,
  1.055,
  1.08,
  1.08,
  1.045352,
  1.119,
  1.063,
  1.068352,
  1.024,
  0.285,
  1.059,
  1.033,
  1.006352,
  1.08,
  1.087,
  1.083,
  1.029,
  1.005352,
  1.079778,
  1.765261,
  1.309,
  1.189707,
  1.088698,
  1.305352,
  1.66,
  1.181,
  1.089,
  1.15,
  1.155,
  1.068352,
  1.053,
  1.064352,
  1.020839,
  1.053,
  1.488767,
  1.049897,
  1.052,
  1.616,
  1.084,
  1.093,
  1.119794,
  1.068,
  1.101,
  1.329,
  1.046,
  1.085,
  1.148,
  1.05,
  1.066388,
  1.103,
  1.045,
  1.034,
  1.337,
  1.049897,
  1.052,
  1.158,
  1.326,
  0.98796,
  1.068,
  1.042,
  1.074,
  1.096352,
  1.133,
  1.026,
  1.104,
  1.067889,
  1.189352,
  1.167,
  1.197,
  1.064352,
  1.123,
  1.192897,
  1.152,
  1.252352,
  1.122,
  1.113,
  1.119,
  1.029,
  1.175901,
  1.033,
  1.063,
  1.203,
  1.069352,
  1.256,
  1.006,
  1.035352,
  1.101,
  1.056,
  1.042,
  1.229,
  1.038,
  1.050352,
  1.032897,
  1.395,
  1.035352,
  1.051452,
  1.01059,
  1.102352,
  1.033,
  1.061,
  1.081,
  1.081743,
  1.018353,
  0.926307,
  1.111693,
  0.933822,
  0.959192,
  0.904,
  1.034,
  0.978,
  0.976348,
  0.998662,
  1.010962,
  0.98781,
  1.065348,
  1.124,
  0.978624,
  0.938192,
  0.974175,
  0.989,
  0.966192,
  0.974281,
  0.973166,
  0.999553,
  0.946,
  0.934203,
  0.994,
  1.169,
  1.030192,
  0.946,
  1.132,
  1.027111,
  0.265889,
  1.0059,
  0.997,
  1.033,
  0.961841,
  1.538159,
  1.915998,
  0.910916,
  0.907889,
  1.021192,
  0.988,
  0.988435,
  1.070647,
  1.567549,
  0.99075,
  0.977849,
  1.001151,
  1.154219,
  0.992192,
  0.954334,
  1.063841,
  0.930545,
  0.978889,
  1.029889,
  0.978192,
  1.145159,
  0.99173,
  0.999111,
  1.017889,
  0.519977,
  1.232,
  0.675223,
  0.729,
  0.664,
  0.751,
  0.055,
  0.464,
  0.322,
  0.55,
  0.355812,
  0.555,
  0.378,
  0.336,
  0.299,
  0.394223,
  0.367119,
  0.418349,
  0.34,
  0.454223,
  0.251,
  0.427675,
  0.463418,
  0.627223,
  0.311,
  0.378806,
  0.432,
  0.270911,
  0.350312,
  0.687,
  0.74,
  0.334223,
  0.456777,
  0.384675,
  0.290223,
  0.35,
  0.360239,
  0.309777,
  0.358223,
  0.427125,
  0.058,
  0.762956,
  0.365223,
  0.349777,
  0.491223,
  0.241,
  0.377312,
  0.312223,
  0.36273,
  0.365,
  0.336,
  0.354223,
  0.258422,
  0.748214,
  0.370675,
  0.355,
  0.361322,
  0.376,
  0.967,
  1.15,
  0.879863,
  1.167833,
  0.23,
  0.839232,
  0.973,
  0.815,
  0.99,
  1.033,
  0.852,
  1.0463,
  1.048,
  0.956,
  0.817,
  0.887,
  0.955232,
  0.864673,
  1.036232,
  0.989,
  0.989,
  1.004,
  0.854,
  0.23584,
  1.171232,
  1.1,
  0.923885,
  1.148,
  0.869232,
  0.937897,
  1.29,
  0.983232,
  0.784,
  0.786,
  0.806,
  0.912,
  0.884232,
  1.05484,
  0.852,
  0.963,
  0.974,
  0.84535,
  0.939192,
  1.133232,
  0.235,
  0.991,
  1.003,
  0.812,
  0.815897,
  0.872232,
  0.877,
  0.982,
  0.920232,
  0.924354,
  0.939886,
  1.291232,
  0.805,
  0.791,
  0.995,
  0.793,
  0.795,
  0.319,
  0.293,
  0.317103,
  0.298897,
  0.316,
  0.338,
  0.322,
  0.321,
  0.295,
  0.476,
  0.364,
  0.43,
  0.557,
  0.429,
  0.411103,
  0.374,
  0.356,
  0.384,
  0.316103,
  0.637,
  0.361,
  0.374,
  0.420103,
  0.275,
  0.349,
  0.307,
  0.346103,
  0.32,
  0.321,
  0.394,
  0.365103,
  0.373,
  0.205,
  0.634897,
  0.425103,
  0.295,
  0.401,
  0.557103,
  0.395,
  0.334,
  0.364,
  0.308,
  0.294103,
  0.372,
  0.290777,
  0.379103,
  0.34,
  0.317,
  0.369,
  0.370103,
  0.452897,
  0.44,
  0.329,
  0.32,
  0.317,
  0.555,
  1.19,
  0.662,
  0.394,
  1.147,
  0.482111,
  0.953,
  0.581,
  0.566,
  0.421,
  0.426,
  0.414,
  2.430363,
  0.382,
  1.357,
  0.389,
  0.379111,
  0.378,
  0.989,
  0.954,
  0.399111,
  0.635,
  0.601,
  0.553,
  0.500111,
  1.772,
  0.951,
  0.687111,
  0.483,
  0.502,
  1.233,
  0.508,
  0.079252,
  0.431111,
  0.93,
  0.500567,
  0.523111,
  0.445,
  0.429,
  0.406,
  0.726111,
  0.438,
  0.457,
  0.902,
  0.524,
  0.392111,
  0.92,
  0.45,
  0.443111,
  0.409,
  0.483,
  0.479,
  0.406111,
  0.512866,
  0.202992,
  0.441008,
  1.181,
  0.487,
  0.411,
  0.755,
  1.217685,
  0.341077,
  2.331385,
  1.148778,
  2.557031,
  2.683097,
  1.389681,
  1.350346,
  1.272,
  1.290778,
  1.197,
  1.25174,
  1.16483,
  1.21174,
  1.216,
  1.157885,
  1.354,
  1.312255,
  1.236597,
  1.324217,
  1.572808,
  1.273,
  1.238872,
  1.62574,
  1.212862,
  2.096,
  1.134533,
  1.430939,
  1.319028,
  1.143,
  1.237335,
  1.659047,
  1.243,
  1.238,
  1.373,
  1.303,
  0.334944,
  1.182153,
  1.292,
  1.228385,
  1.172472,
  1.117657,
  1.400026,
  1.298472,
  1.372752,
  1.428,
  1.302,
  1.475,
  1.150723,
  1.247457,
  1.218893,
  1.931804,
  2.006087,
  3.497,
  1.311,
  1.205472,
  1.221218,
  1.235403,
  1.294,
  1.212217,
  1.055,
  1.153,
  1.18,
  1.012897,
  1.877352,
  1.039,
  1.107,
  1.099,
  1.175,
  1.074,
  1.018,
  1.126889,
  1.092,
  1.039897,
  1.026576,
  1.022352,
  1.029,
  1.052,
  1.075352,
  1.095,
  1.107,
  1.077,
  1.094897,
  1.213352,
  1.064,
  1.049897,
  1.182352,
  1.038,
  1.088,
  1.192117,
  1.018352,
  1.083,
  1.37,
  1.092,
  1.203,
  1.375991,
  1.098352,
  1.132,
  1.092763,
  1.108352,
  1.038,
  1.046,
  1.393352,
  1.062,
  1.098,
  1.159,
  1.068897,
  1.042,
  1.115352,
  1.017,
  1.039897,
  1.164352,
  1.435,
  1.079,
  1.073352,
  1.081,
  1.046,
  1.058,
  1.189,
  0.263,
  0.284,
  0.316,
  0.418103,
  0.337689,
  0.277691,
  0.383,
  0.282,
  0.371806,
  0.733,
  0.298,
  0.274003,
  0.759763,
  0.319,
  0.296,
  1.343897,
  1.024103,
  0.298235,
  0.284,
  0.277,
  0.392,
  0.336103,
  0.297889,
  0.540103,
  0.408,
  0.410994,
  0.327803,
  0.347103,
  0.303,
  0.332681,
  0.317,
  0.284,
  0.413,
  0.302103,
  0.427,
  0.273103,
  0.318,
  0.324,
  1.867103,
  0.413998,
  0.617,
  0.289,
  0.271331,
  0.378,
  0.329,
  0.630103,
  0.195783,
  0.294,
  0.283103,
  0.419,
  0.31,
  0.493103,
  0.301164,
  0.293,
  0.347,
  0.306,
  0.345,
  0.271,
  0.331,
  0.326,
  0.425,
  0.131,
  0.844,
  0.369,
  3.682,
  4.689,
  16.913,
  1.447,
  0.392,
  1.52,
  1.265,
  0.445,
  1.004,
  0.995103,
  0.413,
  1.618,
  0.434,
  0.628,
  3.573,
  0.478103,
  0.494,
  0.787,
  0.500103,
  0.632,
  0.427103,
  0.425,
  0.24666,
  0.366,
  0.418,
  0.851,
  0.374,
  0.628,
  1.644,
  0.602,
  5.439,
  0.548103,
  4.628,
  0.846103,
  0.467,
  4.958,
  0.539,
  0.45,
  0.351,
  0.474,
  0.418,
  0.957,
  0.955326,
  0.459,
  0.601103,
  0.635,
  0.425,
  0.464,
  0.731,
  0.965,
  0.47,
  5.462103,
  3.207,
  0.299,
  0.322,
  0.415,
  0.320103,
  0.774,
  0.351,
  0.294,
  0.447,
  0.355,
  0.328,
  0.284,
  0.331,
  0.458,
  0.415897,
  0.334103,
  0.313,
  0.262,
  0.848,
  0.885,
  0.279103,
  0.329629,
  0.374897,
  0.298776,
  0.342103,
  0.346776,
  0.338952,
  0.433103,
  0.297,
  0.048805,
  0.821173,
  0.84,
  0.81,
  0.312103,
  0.375,
  0.321657,
  0.313103,
  0.413,
  0.302,
  0.380103,
  0.455,
  0.454743,
  0.319,
  0.329,
  0.287,
  0.449103,
  0.668,
  0.385,
  0.327103,
  0.292,
  0.455,
  0.335103,
  0.467,
  0.86,
  0.29,
  0.303,
  0.327,
  0.32,
  1.019,
  1.178,
  1.218,
  1.056,
  1.051352,
  1.029,
  1.153,
  1.101,
  1.111,
  1.041,
  1.039,
  1.032,
  1.154,
  1.276,
  1.053,
  1.127352,
  1.109,
  1.088934,
  1.410258,
  1.057352,
  1.097,
  1.032,
  1.014,
  1.12,
  1.030352,
  1.241,
  1.118,
  1.068352,
  1.182,
  1.016897,
  1.377,
  1.225352,
  0.993,
  1.002,
  0.957,
  1.087,
  1.339654,
  1.142,
  1.079,
  1.255352,
  1.308,
  1.089,
  1.18,
  1.065352,
  0.965897,
  0.963,
  0.987,
  1.526268,
  1.398389,
  1.377,
  1.047,
  1.412258,
  1.040352,
  1.125,
  1.192,
  1.061352,
  1.091,
  1.002,
  1.072,
  1.012,
  1.21,
  1.233,
  1.17761,
  1.18,
  1.187472,
  1.168,
  0.339262,
  1.171597,
  1.16126,
  1.276,
  1.202,
  1.22574,
  1.582783,
  1.224292,
  1.23562,
  1.235236,
  1.228472,
  1.21025,
  1.19574,
  1.2516,
  1.142,
  1.112676,
  1.164872,
  1.213539,
  1.264694,
  1.175092,
  1.271554,
  1.271472,
  1.284,
  1.537637,
  1.203385,
  1.43888,
  1.226416,
  1.171,
  1.242,
  1.23,
  1.52974,
  1.157913,
  1.228403,
  1.494,
  1.323955,
  2.558597,
  1.247905,
  1.213,
  1.279472,
  1.270403,
  1.288403,
  1.269222,
  1.318184,
  1.195472,
  1.264075,
  1.199522,
  1.533472,
  1.234,
  1.24,
  1.230472,
  1.168705,
  1.166078,
  1.228641,
  1.267819,
  0.382,
  0.521,
  0.81127,
  0.6,
  0.337,
  0.332,
  0.403816,
  0.98,
  0.427,
  0.375,
  0.284,
  0.341,
  0.345,
  0.505,
  0.41327,
  0.334,
  0.32,
  0.328,
  0.66327,
  0.315,
  0.386,
  0.171004,
  0.332778,
  0.49827,
  0.343,
  0.309,
  0.365,
  0.50335,
  0.529889,
  0.672,
  0.43,
  0.79927,
  0.27,
  0.346096,
  0.35627,
  0.377,
  0.526,
  0.266,
  0.31727,
  0.405889,
  0.579889,
  0.434,
  0.359,
  0.50827,
  0.355,
  0.282616,
  0.54227,
  0.327,
  0.393,
  0.384,
  0.28627,
  0.172005,
  0.559,
  0.321,
  0.365,
  0.346,
  0.488,
  0.332,
  1.179889,
  1.257,
  1.152362,
  1.527204,
  1.713,
  1.404531,
  1.180966,
  1.153,
  1.201531,
  1.325408,
  1.409076,
  1.167889,
  1.323,
  1.105,
  1.144342,
  2.789531,
  1.274,
  1.118,
  1.417531,
  1.198,
  1.184,
  1.173,
  1.116742,
  1.191531,
  1.172,
  1.266,
  1.227531,
  1.202,
  1.135,
  1.091,
  1.418821,
  1.130531,
  1.204,
  1.226,
  1.23108,
  1.274,
  1.180531,
  1.149,
  1.245889,
  1.190531,
  1.15692,
  1.185,
  1.104,
  1.125531,
  1.204921,
  1.16,
  1.179,
  1.337582,
  1.171531,
  1.200386,
  1.135,
  1.100531,
  1.282,
  1.193,
  1.149531,
  1.072431,
  1.173921,
  1.134,
  1.179,
  1.07321,
  1.091,
  1.118,
  1.025,
  1.352713,
  1.705,
  1.046,
  1.838,
  1.06,
  1.019,
  1.135,
  1.256,
  0.984354,
  1.712594,
  1.028574,
  1.0,
  1.169,
  1.002,
  0.965713,
  1.105,
  0.99,
  1.036,
  1.104713,
  1.252,
  1.369,
  1.077713,
  1.218,
  1.024768,
  1.066908,
  1.406547,
  1.020713,
  1.003,
  1.088,
  1.133,
  1.097912,
  0.974713,
  1.455243,
  1.051,
  1.015713,
  1.228952,
  1.04361,
  1.37,
  1.067713,
  0.983,
  1.006,
  1.034,
  0.976,
  1.010713,
  0.994,
  0.979,
  1.018713,
  1.357,
  1.049719,
  1.058713,
  0.28,
  1.051,
  1.01,
  1.205,
  0.998,
  1.058,
  1.499391,
  0.922474,
  1.406786,
  0.873945,
  0.855544,
  0.856456,
  1.709234,
  0.705314,
  0.815481,
  1.354829,
  0.931332,
  1.07628,
  0.800637,
  0.889248,
  1.443938,
  0.882227,
  0.840754,
  0.968246,
  0.925118,
  1.059381,
  0.823494,
  0.895124,
  0.920136,
  1.606337,
  0.784668,
  0.881132,
  0.762875,
  0.154248,
  0.997097,
  0.967,
  0.862246,
  1.076828,
  0.965875,
  0.960465,
  0.881498,
  0.957504,
  1.545785,
  0.949949,
  0.772699,
  0.837848,
  0.881196,
  0.849565,
  0.853189,
  0.793088,
  0.815026,
  0.857273,
  1.391749,
  0.901124,
  0.868752,
  0.847732,
  0.849593,
  0.849502,
  0.835,
  0.838,
  2.208643,
  0.930266,
  1.303,
  1.32,
  1.233752,
  1.141117,
  1.068352,
  1.049,
  1.100897,
  1.022,
  1.017,
  1.272,
  1.153,
  1.057,
  1.066,
  1.07,
  1.345,
  1.283352,
  1.18,
  1.061,
  1.069352,
  1.111097,
  1.201,
  1.009,
  1.079,
  2.237352,
  1.012,
  0.292,
  1.156097,
  1.085352,
  1.087,
  1.028,
  1.072352,
  1.001,
  1.129,
  1.092,
  1.157897,
  1.160352,
  1.025,
  1.208752,
  1.171352,
  1.058,
  1.105097,
  1.389,
  1.042352,
  1.102,
  1.149,
  1.102,
  1.168,
  1.353352,
  1.057,
  1.027,
  1.030352,
  1.031897,
  1.090897,
  1.066352,
  1.137897,
  1.177,
  1.082,
  1.19,
  1.062897,
  2.305,
  1.216632,
  1.075,
  1.093,
  1.073276,
  1.06649,
  1.119,
  1.125,
  1.078,
  1.077007,
  1.093,
  1.102734,
  1.109666,
  1.182,
  1.082,
  1.15349,
  1.2,
  1.101949,
  1.07349,
  1.135632,
  1.117,
  1.091,
  1.083056,
  1.09649,
  1.202816,
  1.023,
  2.39949,
  1.032849,
  1.073,
  1.324151,
  1.062,
  1.15649,
  1.233,
  1.093,
  1.106,
  1.079,
  1.05949,
  1.36,
  1.097,
  1.09049,
  1.065808,
  1.438,
  1.103276,
  1.87449,
  1.13,
  1.120713,
  1.142,
  1.022,
  1.09749,
  1.023986,
  1.142155,
  1.07849,
  1.074734,
  1.026,
  1.131542,
  1.091,
  1.110224,
  1.102,
  1.034849,
  1.203,
  1.241,
  0.843,
  0.914,
  0.876,
  0.813,
  1.230339,
  0.918,
  0.772883,
  0.759117,
  1.142,
  0.854,
  0.864117,
  0.918895,
  0.872,
  0.83,
  0.847,
  0.869339,
  0.83,
  0.8,
  0.829339,
  1.178,
  0.985,
  0.791,
  0.838898,
  0.806339,
  0.856,
  0.228,
  0.857,
  0.903339,
  0.893,
  0.866561,
  0.733117,
  0.846339,
  1.136,
  1.047,
  1.129,
  0.832038,
  1.099339,
  0.875,
  1.16,
  0.824339,
  0.796,
  0.797,
  0.835,
  1.47978,
  0.85,
  1.178117,
  1.192,
  0.734,
  0.833,
  0.863339,
  0.836,
  0.777,
  0.962339,
  0.8,
  0.836663,
  0.834339,
  0.802,
  0.788,
  0.745,
  0.722,
  0.284,
  0.346,
  2.607,
  0.209866,
  0.480237,
  0.418,
  0.457,
  0.374,
  0.365,
  0.338,
  0.271,
  0.519,
  0.746,
  0.683,
  0.901,
  0.479,
  0.402237,
  0.464618,
  0.565382,
  0.641237,
  0.678,
  0.615,
  0.866237,
  0.578,
  0.782,
  0.757,
  0.404,
  0.557,
  0.494,
  0.522,
  0.548,
  0.557237,
  0.51,
  0.544,
  0.202866,
  0.655237,
  0.351,
  0.479237,
  0.482,
  0.508,
  0.304,
  0.713,
  0.441,
  0.496,
  0.994,
  0.555,
  0.461,
  0.557237,
  0.452,
  0.572237,
  0.412,
  0.436,
  0.472,
  0.447,
  0.636,
  0.53,
  0.636,
  0.581,
  1.022728,
  1.065,
  1.086,
  1.674862,
  1.111306,
  1.034,
  1.507,
  1.098,
  1.117,
  1.022,
  1.362,
  1.532211,
  1.028,
  1.052,
  1.258,
  1.037,
  1.00661,
  1.177,
  2.194,
  1.14461,
  1.084,
  1.182548,
  1.082,
  1.072,
  1.53061,
  1.061,
  1.097932,
  1.09961,
  1.06956,
  1.66572,
  1.057649,
  1.156,
  1.11661,
  1.125,
  1.072,
  1.166,
  1.023,
  1.06761,
  1.012,
  1.075,
  1.03761,
  1.291,
  1.178,
  1.022,
  1.05861,
  1.085,
  1.039,
  1.112,
  1.606,
  1.30761,
  1.028,
  1.08,
  1.17361,
  1.169,
  1.079,
  1.008,
  1.18661,
  1.024,
  1.089,
  1.074,
  0.284,
  1.08,
  1.102,
  1.154,
  1.078,
  1.176,
  1.045806,
  0.297,
  1.025,
  1.07,
  1.082,
  1.03,
  1.104,
  1.040097,
  1.037,
  1.0,
  1.06661,
  0.971,
  1.569,
  1.092411,
  1.123,
  1.04161,
  1.063861,
  1.338,
  1.124,
  1.037562,
  1.211,
  1.06861,
  1.134,
  1.269337,
  1.029,
  1.49961,
  1.076,
  0.987,
  1.064,
  1.574088,
  1.115961,
  1.22361,
  1.55,
  1.05361,
  1.092,
  1.140763,
  1.05861,
  1.041,
  1.016,
  1.048,
  0.288,
  1.019012,
  1.069994,
  1.079218,
  1.061,
  0.983,
  1.34061,
  1.038303,
  1.083,
  0.99361,
  1.105897,
  1.343,
  0.996,
  1.488715,
  1.157903,
  1.18,
  0.606,
  0.37,
  0.429,
  0.318103,
  0.313,
  0.474,
  0.33861,
  0.275,
  0.294097,
  0.611,
  0.311,
  0.323531,
  0.574097,
  0.433,
  0.301752,
  0.042805,
  0.307687,
  0.334,
  0.624,
  0.302103,
  0.325,
  0.349876,
  0.305284,
  0.622103,
  0.316,
  0.355,
  0.300821,
  0.609103,
  0.314778,
  0.301,
  0.336,
  0.476103,
  0.319839,
  0.644,
  0.155053,
  0.378,
  0.309805,
  0.335,
  0.351,
  0.332103,
  0.456,
  0.285,
  0.301,
  0.321,
  0.323103,
  0.318,
  0.354,
  0.329103,
  0.289897,
  0.328897,
  0.282,
  0.295,
  0.295698,
  0.996897,
  0.327,
  0.38194,
  0.315554,
  0.396,
  0.885281,
  0.74207,
  0.601,
  0.713443,
  0.696314,
  0.701,
  0.643649,
  0.609,
  0.581,
  0.881804,
  0.622805,
  0.67,
  0.599,
  0.741475,
  0.919321,
  0.628443,
  0.66779,
  0.57721,
  0.907443,
  0.6,
  0.119,
  0.638452,
  0.884,
  1.131443,
  0.669,
  0.890188,
  0.691,
  0.602054,
  0.612458,
  0.691,
  0.693542,
  0.641004,
  0.691062,
  0.659133,
  0.149696,
  1.12,
  0.698,
  1.101046,
  0.707,
  0.955443,
  1.822,
  0.614496,
  0.876171,
  0.679,
  0.671443,
  0.779211,
  0.79348,
  0.882443,
  0.713031,
  0.604,
  0.653878,
  0.624443,
  0.601614,
  0.684062,
  0.671938,
  0.719046,
  0.677,
  3.058,
  0.297,
  0.278,
  2.420103,
  0.302699,
  0.39328,
  0.370537,
  0.355,
  0.408461,
  0.261,
  0.315,
  0.339,
  0.434,
  0.323,
  0.3,
  0.3,
  0.294103,
  0.322,
  0.422221,
  0.374984,
  0.415892,
  0.332103,
  0.315,
  0.437932,
  0.297103,
  0.343897,
  0.605,
  0.342,
  0.331103,
  0.313,
  0.366897,
  0.384668,
  0.387879,
  0.348103,
  0.381351,
  0.331103,
  0.361,
  0.408,
  0.306698,
  0.426103,
  0.302462,
  0.294504,
  0.452897,
  0.388,
  0.347,
  1.213103,
  0.321,
  0.043897,
  0.352103,
  0.542,
  0.321,
  0.328,
  0.712103,
  0.316344,
  0.370091,
  0.35,
  0.361,
  0.385,
  0.195333,
  0.303897,
  0.887,
  0.859,
  0.827,
  0.29042,
  0.896227,
  0.925,
  0.881922,
  0.88,
  0.911,
  0.868651,
  0.864,
  0.828,
  0.932687,
  0.847,
  0.986,
  0.936932,
  0.974,
  1.307,
  0.864,
  0.854932,
  0.897349,
  0.982,
  0.901,
  0.906419,
  0.875932,
  0.919,
  0.864857,
  0.84298,
  1.287,
  1.951149,
  0.96,
  0.874932,
  0.891,
  0.88,
  0.877,
  0.982167,
  0.991932,
  0.857001,
  0.933866,
  2.258932,
  1.42042,
  1.124,
  0.877,
  1.038932,
  0.872,
  0.958539,
  0.873461,
  0.845,
  0.821805,
  0.879932,
  0.826,
  0.871,
  0.869932,
  0.881885,
  1.319,
  0.870932,
  0.898,
  0.902,
  0.897,
  1.173235,
  1.209799,
  1.24365,
  1.319,
  1.121,
  3.629934,
  1.217124,
  1.144519,
  1.138,
  1.169892,
  1.121718,
  1.043631,
  1.067543,
  1.25958,
  1.144038,
  1.161274,
  1.056876,
  1.089513,
  1.025,
  1.07058,
  1.119726,
  1.14,
  1.104544,
  1.078357,
  1.05558,
  1.25065,
  1.064,
  1.182426,
  1.270624,
  1.117,
  1.105288,
  1.177436,
  1.10858,
  1.12531,
  1.178,
  1.145,
  1.207,
  1.13858,
  1.175606,
  1.17935,
  1.25458,
  1.290969,
  1.178584,
  1.062,
  1.045793,
  1.13,
  1.142,
  1.158,
  1.074087,
  1.16358,
  1.251602,
  1.17835,
  1.188,
  1.15558,
  1.219924,
  1.058038,
  0.96558,
  1.046,
  1.156652,
  1.197,
  1.132,
  1.130485,
  1.028034,
  1.182,
  1.06454,
  0.902,
  0.925405,
  0.887,
  0.962174,
  0.908322,
  0.901253,
  0.92,
  0.816126,
  1.204134,
  1.539698,
  0.827373,
  0.909424,
  0.87807,
  0.904455,
  0.866429,
  0.904,
  0.919753,
  1.628972,
  1.167788,
  0.914,
  0.965,
  0.920516,
  0.831455,
  0.983454,
  1.109285,
  1.363394,
  0.872,
  0.926,
  0.877245,
  0.872525,
  0.909475,
  0.884424,
  0.995409,
  0.85735,
  1.107,
  0.85248,
  0.894285,
  1.086528,
  0.966946,
  0.937571,
  0.924673,
  0.938956,
  0.864629,
  0.881455,
  1.783607,
  1.072742,
  0.854812,
  0.937962,
  1.988704,
  0.91274,
  0.956455,
  0.923452,
  0.897629,
  0.875245,
  0.455,
  0.753,
  0.073,
  1.347454,
  0.463,
  0.464,
  0.51,
  0.479,
  0.446,
  0.466473,
  0.43,
  0.797889,
  0.621,
  0.459,
  0.466,
  0.449111,
  0.518,
  0.457,
  0.455111,
  0.832111,
  0.476,
  0.575,
  0.564889,
  0.458111,
  0.453111,
  0.44992,
  0.598,
  0.697111,
  0.723605,
  0.44,
  0.548,
  0.547111,
  0.576111,
  0.566,
  0.45,
  0.483111,
  0.474,
  0.496919,
  0.45,
  0.440111,
  0.477448,
  0.597111,
  0.477,
  0.459,
  0.393111,
  0.42692,
  0.749,
  0.628111,
  1.903,
  0.415,
  0.49332,
  0.457111,
  0.487,
  0.435,
  0.473,
  0.539111,
  0.585871,
  0.466816,
  0.965,
  1.011,
  0.996,
  1.011089,
  0.962,
  1.068267,
  0.97,
  0.918,
  1.083,
  1.001296,
  1.252,
  1.15125,
  1.194,
  0.896782,
  1.22,
  1.234267,
  1.049137,
  0.970429,
  1.764,
  1.009378,
  0.958,
  0.95,
  1.020992,
  1.098267,
  1.077,
  1.220267,
  1.005,
  1.072,
  0.945,
  0.943,
  0.971267,
  1.042,
  1.039,
  1.01,
  1.199,
  1.03916,
  1.071569,
  1.009267,
  1.300519,
  1.138,
  1.063822,
  1.169267,
  1.019101,
  1.058,
  0.946,
  1.221,
  1.052296,
  1.098267,
  0.928592,
  0.975267,
  0.276,
  0.94,
  1.43,
  0.977267,
  0.98268,
  1.108,
  1.054,
  0.951,
  0.987167,
  0.941,
  1.046,
  1.413598,
  1.323505,
  1.199,
  1.348,
  1.158,
  1.262,
  1.235,
  1.441,
  1.14,
  1.461,
  1.226,
  1.169,
  1.139981,
  1.242143,
  1.945402,
  1.142754,
  1.182,
  1.263,
  1.182,
  1.133478,
  1.187,
  1.22,
  1.168,
  1.208,
  1.222,
  1.172754,
  1.226,
  1.35,
  1.181754,
  1.14,
  1.269445,
  1.177,
  1.170754,
  1.465,
  1.505,
  1.174,
  1.237,
  1.128754,
  1.208,
  0.343,
  1.178909,
  1.357754,
  1.826,
  2.033276,
  1.649754,
  1.201,
  1.52,
  1.486,
  1.156468,
  1.165532,
  1.256754,
  1.219,
  1.173754,
  1.19,
  1.234206,
  1.152754,
  1.139206,
  1.154,
  1.159,
  3.747,
  1.116206,
  0.279,
  0.339,
  0.372103,
  0.360568,
  0.34,
  0.458,
  0.44484,
  0.25,
  0.326,
  1.028,
  0.331681,
  0.308,
  0.048,
  0.426,
  0.273,
  0.312103,
  0.291,
  0.382,
  0.36,
  0.457103,
  0.346986,
  0.324397,
  0.279,
  0.380103,
  0.467,
  0.332,
  0.425664,
  0.287,
  0.361852,
  0.43,
  0.487,
  0.375103,
  0.331617,
  0.319,
  0.259097,
  0.308,
  0.270354,
  0.373103,
  0.051,
  0.448388,
  0.319,
  0.379666,
  0.308,
  0.312,
  0.299103,
  0.513782,
  0.294103,
  0.297,
  0.347207,
  0.30984,
  0.353103,
  0.498606,
  0.374,
  0.35,
  0.358,
  0.437,
  0.326,
  0.236961,
  1.135,
  0.985,
  1.168,
  1.102,
  1.107573,
  1.086959,
  1.01,
  1.066,
  1.073,
  1.168,
  1.004898,
  1.015,
  1.159,
  1.444689,
  1.006573,
  1.006,
  1.208,
  1.262,
  1.049573,
  1.037,
  1.34,
  1.051,
  1.225,
  1.182573,
  1.268,
  1.0,
  1.247573,
  1.15,
  1.080083,
  0.286,
  1.213,
  1.064,
  1.101,
  1.095,
  1.178,
  1.529,
  1.092573,
  1.081,
  1.119889,
  1.241573,
  1.027,
  1.441,
  1.090573,
  1.134199,
  1.096,
  1.036,
  1.051,
  1.042,
  1.163573,
  1.083,
  1.304,
  1.122573,
  1.116,
  1.047617,
  1.151573,
  1.018,
  1.097,
  1.091,
  1.236,
  0.288,
  0.984,
  1.008,
  1.215,
  1.02,
  1.016,
  1.084396,
  1.085777,
  1.079,
  1.026,
  1.057,
  1.157,
  1.111,
  1.108,
  1.073,
  1.072,
  1.024,
  1.029,
  1.041,
  0.984396,
  1.032,
  1.076,
  1.014,
  1.007396,
  1.168,
  0.287,
  1.355643,
  1.482,
  1.021,
  1.094,
  1.04,
  1.8093,
  1.086,
  1.091,
  1.084,
  1.741396,
  1.146,
  1.045,
  1.060396,
  0.995,
  1.065,
  0.992,
  1.519,
  1.14,
  1.035,
  1.102,
  1.126135,
  1.031396,
  1.134,
  1.175,
  0.292,
  1.033,
  1.032,
  1.027879,
  1.144396,
  1.108,
  1.018,
  1.07,
  0.966,
  1.066,
  1.04,
  1.235725,
  1.076544,
  1.217427,
  1.12712,
  1.748826,
  1.042,
  1.03,
  1.107,
  1.068,
  1.102,
  1.206,
  1.19,
  1.111881,
  1.073,
  1.25,
  1.150826,
  1.286752,
  1.202,
  1.261826,
  1.083,
  1.112536,
  1.123,
  1.241,
  1.335826,
  0.973,
  1.28,
  1.281,
  1.319826,
  1.17212,
  1.168,
  1.085826,
  1.210124,
  1.173,
  1.13,
  1.25088,
  1.341681,
  1.180826,
  1.085,
  1.233306,
  1.153,
  1.274,
  1.126,
  1.160826,
  1.096,
  1.258,
  1.163,
  1.131,
  1.086826,
  1.169,
  1.202,
  1.24312,
  1.081826,
  1.081,
  1.069,
  1.114826,
  1.114,
  1.128,
  1.149,
  1.727951,
  0.968,
  1.07223,
  0.99343,
  1.259,
  0.955,
  1.095248,
  1.108,
  1.102,
  0.965,
  1.05823,
  1.064,
  0.933151,
  1.01,
  1.08523,
  1.02123,
  0.986,
  0.995,
  0.987,
  0.251,
  1.069,
  0.98023,
  0.964881,
  0.997,
  1.199,
  0.928,
  2.08723,
  1.035,
  1.22223,
  0.975,
  0.938,
  0.942,
  0.998,
  0.95823,
  1.337935,
  1.448,
  0.984151,
  1.024,
  1.228,
  0.893,
  0.963,
  0.93923,
  0.965,
  0.952,
  1.017,
  1.033,
  0.94923,
  1.147,
  1.177,
  1.03423,
  0.962,
  1.079925,
  1.011,
  0.94023,
  0.980248,
  1.088,
  0.937,
  0.952,
  1.09,
  0.719813,
  0.366425,
  0.462,
  0.452903,
  0.334306,
  0.332,
  0.386575,
  0.312,
  0.359948,
  0.525743,
  0.472148,
  1.231022,
  0.463,
  0.508425,
  0.577,
  0.302903,
  0.330061,
  0.469,
  0.432903,
  0.389,
  0.369,
  0.539,
  0.07,
  0.778903,
  0.445,
  0.383022,
  0.412,
  0.503903,
  0.53,
  0.319,
  0.369,
  0.493903,
  0.434,
  0.364,
  0.385903,
  0.367,
  0.305,
  0.491,
  0.344,
  0.435,
  0.317,
  0.45,
  0.325,
  0.456903,
  0.399,
  0.503,
  0.504903,
  0.411,
  0.37,
  0.721579,
  0.362903,
  0.435,
  0.392,
  0.363633,
  0.362,
  0.372351,
  0.413465,
  0.385,
  1.104,
  1.081,
  1.16,
  1.189,
  1.066119,
  1.422435,
  1.088,
  1.17,
  1.22,
  1.056,
  1.205,
  1.56,
  1.113,
  1.191,
  1.414675,
  1.102,
  1.100119,
  1.133,
  1.065,
  1.222119,
  1.219,
  1.074,
  1.225,
  1.094,
  1.702958,
  1.078,
  1.089,
  1.04,
  1.222119,
  1.151405,
  1.108,
  1.063,
  1.439119,
  1.236,
  1.062,
  1.243,
  1.157,
  0.347958,
  1.399,
  1.201,
  1.388467,
  1.074119,
  1.101897,
  1.081,
  1.248,
  1.100119,
  1.027,
  1.224,
  1.069,
  1.593,
  1.087119,
  2.3473,
  1.055,
  1.145119,
  1.051,
  1.082119,
  1.181893,
  1.07,
  1.054,
  1.173,
  1.093,
  0.305,
  1.049,
  1.013,
  0.985,
  1.049,
  1.182,
  1.03,
  1.088897,
  1.069,
  1.054,
  1.193,
  1.036897,
  1.103483,
  1.105,
  1.007796,
  1.021,
  0.988352,
  1.023,
  1.298889,
  0.987352,
  1.069,
  1.057,
  1.066,
  1.036876,
  1.505352,
  1.29483,
  1.141897,
  1.070352,
  1.063,
  1.15,
  1.33,
  1.053352,
  1.323,
  1.071,
  1.056,
  1.041,
  1.035352,
  48.519,
  1.037352,
  1.005,
  1.032,
  1.129794,
  1.053,
  1.036,
  1.077,
  1.071,
  1.045,
  0.996352,
  1.155,
  1.086,
  1.401044,
  1.040352,
  1.041777,
  1.019,
  1.110352,
  1.284522,
  1.105,
  1.083,
  1.062,
  1.141,
  1.003352,
  1.157,
  1.061,
  1.341,
  1.558,
  1.068897,
  1.348352,
  1.078,
  1.092,
  1.044,
  1.052,
  1.053638,
  1.225,
  1.01213,
  1.059,
  1.040352,
  1.239,
  1.067,
  1.034,
  1.178352,
  1.064,
  1.061,
  1.036,
  1.238352,
  1.047,
  1.150352,
  1.126296,
  1.078,
  1.038,
  1.08308,
  1.035352,
  1.069163,
  1.035,
  1.112,
  1.629596,
  1.962,
  1.048,
  1.14767,
  1.27,
  1.038,
  1.097645,
  1.101,
  1.439,
  1.087012,
  1.056,
  1.036,
  1.36,
  1.046352,
  1.058,
  1.055352,
  1.475,
  1.005,
  1.246352,
  1.016608,
  1.128,
  1.013,
  1.053,
  1.061,
  1.026591,
  1.098,
  1.113,
  1.19,
  1.290544,
  1.487592,
  0.996428,
  1.062429,
  1.535318,
  1.471445,
  1.543,
  1.052,
  1.211936,
  1.101,
  1.073426,
  1.18,
  1.126429,
  1.097,
  1.318259,
  1.149592,
  1.185429,
  1.069505,
  1.053,
  1.069,
  1.254429,
  1.019,
  1.135429,
  1.202,
  1.083544,
  1.338544,
  1.121,
  1.072429,
  1.064,
  1.504,
  1.074,
  1.236478,
  1.099167,
  0.993429,
  1.070364,
  1.067429,
  1.368716,
  1.148783,
  1.142471,
  1.328429,
  1.088547,
  1.476,
  1.485,
  1.057897,
  1.166988,
  1.098429,
  1.04681,
  1.110429,
  0.975478,
  1.039,
  1.192429,
  1.137,
  1.086,
  1.511,
  1.764,
  1.055,
  1.160478,
  1.069,
  1.013,
  1.372,
  1.189835,
  0.998271,
  1.045,
  0.979,
  0.94,
  0.919,
  0.913,
  1.018,
  1.011,
  0.993,
  0.91,
  0.984,
  0.965,
  0.978561,
  1.045,
  1.092,
  1.038561,
  0.912318,
  1.02,
  1.058,
  0.963091,
  0.990561,
  1.394,
  1.12,
  0.922561,
  1.185345,
  0.896356,
  1.015872,
  0.953,
  1.726561,
  0.946,
  0.918,
  0.945,
  0.915,
  0.962561,
  0.964,
  1.329777,
  0.265,
  0.909,
  0.992,
  1.004,
  0.948,
  1.74275,
  0.952575,
  1.041,
  0.937,
  1.026824,
  0.949561,
  0.912,
  1.02459,
  0.933561,
  1.642,
  1.258561,
  1.023824,
  0.885,
  0.923,
  0.93,
  1.026,
  1.022,
  1.475,
  1.022,
  1.133,
  1.055,
  1.078343,
  1.182,
  1.092,
  1.038,
  1.042,
  1.072,
  1.104,
  1.155,
  0.983,
  1.077023,
  1.328343,
  1.016,
  1.082343,
  1.048,
  0.994,
  1.58,
  2.651,
  1.165,
  1.105982,
  1.061,
  0.997,
  1.217,
  1.080343,
  1.187,
  1.127,
  1.601343,
  1.199,
  1.146,
  1.163,
  1.052,
  1.052,
  1.213343,
  1.115,
  1.418009,
  1.083,
  0.984343,
  0.979,
  1.124,
  1.059343,
  1.032,
  1.119,
  1.08,
  1.092,
  1.351,
  1.074343,
  1.314,
  1.055,
  1.114343,
  1.079,
  1.453,
  1.093343,
  1.207,
  1.217,
  1.071,
  1.098,
  0.41,
  0.427,
  0.391522,
  0.373653,
  0.421,
  0.424,
  0.47,
  0.421256,
  0.461,
  0.507,
  0.392692,
  0.383,
  0.436,
  0.692,
  0.552522,
  0.417624,
  0.511,
  0.42,
  0.44,
  0.409522,
  0.366,
  0.433306,
  0.484554,
  0.359522,
  0.349,
  0.387,
  0.322329,
  0.55,
  0.772411,
  0.396,
  0.647,
  0.454,
  0.375653,
  0.339975,
  0.383152,
  0.765,
  0.42,
  0.313,
  0.400522,
  0.371,
  0.769854,
  0.414,
  0.512,
  0.518522,
  0.413,
  0.723522,
  0.409,
  1.583,
  0.429897,
  0.43,
  0.191167,
  0.441478,
  0.395249,
  0.415,
  0.408,
  0.405,
  0.677,
  0.969075,
  0.838511,
  2.269592,
  0.795299,
  0.90282,
  0.850103,
  0.883532,
  1.323681,
  1.582569,
  0.797119,
  0.894125,
  0.807825,
  1.23522,
  1.459701,
  0.954877,
  0.874248,
  1.080635,
  0.843994,
  0.828501,
  0.838124,
  0.857665,
  0.859888,
  0.894054,
  0.88451,
  0.340863,
  1.077139,
  0.762796,
  1.396542,
  1.316704,
  0.858,
  1.103861,
  0.769386,
  0.827004,
  0.921773,
  0.877248,
  1.228487,
  1.230576,
  1.229078,
  1.270248,
  0.873703,
  0.887171,
  0.878493,
  0.856124,
  0.969,
  0.769117,
  0.860498,
  0.791807,
  0.767333,
  0.923,
  0.870248,
  1.751665,
  0.856196,
  0.861903,
  0.888976,
  0.883218,
  0.843852,
  0.833301,
  0.342758,
  0.365,
  0.278,
  0.265043,
  0.481725,
  0.363881,
  0.336,
  0.419,
  0.412,
  0.245,
  0.327334,
  0.251,
  0.398,
  0.358899,
  0.328,
  0.291,
  0.279369,
  0.437438,
  0.325,
  0.311,
  0.379195,
  0.290605,
  0.317081,
  0.262,
  1.258195,
  0.392,
  0.25646,
  0.389,
  0.295,
  0.3,
  0.347175,
  0.344,
  0.333,
  0.423195,
  0.383,
  0.382225,
  0.246195,
  0.628989,
  0.383,
  0.04892,
  0.358195,
  0.407,
  0.35,
  0.336,
  0.333,
  0.356,
  0.543195,
  0.414,
  0.309979,
  0.375195,
  0.37751,
  0.640537,
  0.401195,
  0.39847,
  0.491438,
  0.345,
  0.352,
  0.352,
  0.602172,
  0.049,
  0.414,
  0.469,
  0.416117,
  0.392883,
  0.419,
  0.415,
  0.77331,
  0.441,
  0.313,
  0.699,
  0.334117,
  0.392117,
  0.397,
  0.422117,
  0.378206,
  0.434,
  0.694883,
  0.409704,
  0.44,
  0.509289,
  0.498,
  0.673,
  0.441117,
  0.392883,
  0.519,
  0.386206,
  0.428565,
  0.424883,
  0.367,
  0.427,
  0.421,
  0.302883,
  0.406,
  0.338,
  0.77224,
  0.401,
  0.48,
  0.416164,
  0.422,
  0.679883,
  0.688206,
  0.43,
  0.387,
  0.425,
  0.398883,
  0.389117,
  0.328,
  0.378883,
  0.427708,
  0.374117,
  0.396,
  0.413883,
  0.401989,
  0.490743,
  0.395,
  0.488,
  0.656,
  0.412,
  1.136,
  0.982667,
  1.270852,
  1.064667,
  0.991379,
  0.98043,
  1.036,
  1.042946,
  1.249,
  1.119361,
  0.970639,
  1.027392,
  0.985449,
  1.937695,
  1.002,
  1.256379,
  1.498,
  1.029305,
  1.054379,
  1.315387,
  1.31475,
  1.321767,
  1.241172,
  0.996608,
  1.111379,
  1.028946,
  2.078099,
  1.070379,
  1.03,
  1.014001,
  1.060379,
  1.322305,
  1.041,
  1.02228,
  1.027,
  1.388317,
  1.055379,
  0.268215,
  1.04183,
  1.511602,
  0.990069,
  1.050584,
  1.14,
  1.708379,
  1.044392,
  1.036,
  1.023,
  0.988608,
  0.976949,
  1.227721,
  1.092,
  0.991417,
  1.022739,
  1.184305,
  1.135,
  0.992379,
  1.307,
  1.028034,
  1.302,
  1.306
]