{
  "1048576": [
    0.631,
    0.605,
    0.84,
    0.445,
    0.386,
    0.528,
    0.527,
    0.615,
    0.465,
    0.4,
    0.821,
    0.364,
    0.804,
    0.556694,
    0.5,
    0.382,
    0.553,
    0.694,
    0.849,
    0.57,
    0.468,
    0.464,
    0.316,
    0.345,
    0.71,
    0.591,
    0.496,
    0.469,
    0.602,
    0.254,
    0.482237,
    0.66262,
    0.497,
    0.617,
    0.565,
    0.488,
    0.763,
    0.582,
    0.421,
    0.268,
    0.313,
    0.467,
    0.334,
    0.273,
    0.391,
    0.51,
    0.585,
    0.637,
    0.718,
    0.603823,
    0.709,
    0.311,
    0.667429,
    0.713,
    0.651635,
    1.018651,
    0.683,
    0.482,
    0.724,
    0.593,
    0.668,
    0.5,
    0.614652,
    1.002981,
    0.305,
    0.581777,
    0.663,
    0.782,
    0.271,
    0.276,
    0.279,
    0.535,
    0.717,
    0.471,
    0.356,
    0.567403,
    0.983435,
    0.76,
    0.719,
    0.497,
    0.546,
    1.159,
    0.734,
    0.718,
    0.363,
    0.465,
    0.536,
    0.645,
    0.551734,
    0.688,
    1.054522,
    0.686,
    0.425,
    0.501,
    0.705,
    0.896,
    0.44,
    1.153,
    0.641,
    0.607,
    0.827,
    0.851,
    0.553422,
    0.86466,
    0.673,
    0.717,
    0.429,
    0.832,
    0.381,
    0.923,
    0.642,
    0.812,
    0.584,
    0.575,
    0.688,
    0.722,
    0.401,
    0.53,
    0.393,
    0.561,
    0.843,
    0.963854,
    0.974007,
    0.982,
    0.828004,
    0.574747,
    1.121956,
    0.476,
    0.488,
    0.85,
    0.684,
    0.978,
    0.395,
    0.595,
    0.549,
    0.895,
    0.699,
    0.81,
    0.90988,
    0.887,
    2.679,
    0.33,
    0.499,
    0.85,
    0.539,
    0.584,
    0.74,
    0.466,
    0.717,
    0.547,
    0.512,
    0.769,
    0.468,
    0.566,
    0.976,
    0.566,
    0.851,
    0.357,
    0.422,
    0.428,
    0.44,
    0.724,
    0.578,
    0.296,
    0.665,
    0.624,
    0.61,
    0.646
  ],
  "51200": [
    0.482,
    0.487,
    0.546,
    0.649,
    0.552,
    0.691,
    0.534,
    0.563,
    0.643,
    0.738,
    0.595,
    0.976,
    0.73,
    0.285,
    0.302,
    0.697,
    0.532,
    0.262,
    0.266,
    0.343,
    0.307,
    0.912,
    0.729,
    0.451,
    0.586,
    0.748,
    0.703,
    0.644,
    0.746,
    0.612,
    0.769,
    0.699,
    0.613,
    0.937,
    0.89,
    0.813,
    0.562,
    0.251,
    0.242,
    0.384,
    0.281,
    0.461,
    0.262,
    0.298,
    0.27,
    0.366,
    0.347,
    1.227876,
    0.269,
    0.221,
    0.622,
    0.499,
    0.535,
    0.224,
    0.25,
    0.311,
    0.343,
    0.616,
    0.422,
    0.437,
    0.689,
    0.633,
    0.385,
    0.23,
    0.269,
    0.405,
    0.283,
    0.571,
    0.342,
    0.584,
    0.693,
    0.404,
    0.473,
    0.699,
    0.413,
    0.236,
    0.413,
    0.283,
    0.407,
    0.301,
    0.543,
    0.377,
    0.687,
    0.373,
    0.725,
    0.665,
    0.562,
    0.566,
    0.26,
    0.268,
    0.277,
    0.672,
    0.299,
    0.518,
    0.303,
    0.419,
    0.369,
    0.836,
    0.396,
    1.024,
    0.481,
    0.474,
    0.242,
    0.368,
    0.493,
    0.856,
    0.55,
    0.272,
    0.422,
    0.45,
    0.411,
    0.642,
    1.213,
    0.473,
    0.497,
    0.887,
    0.625,
    0.69,
    0.638,
    0.574,
    0.572,
    0.77,
    0.867,
    0.668,
    0.886,
    0.694,
    0.829,
    0.274,
    0.239,
    0.282,
    0.363,
    0.52,
    0.611,
    0.334,
    0.507,
    0.343,
    0.501,
    0.387,
    0.418,
    0.767,
    0.61,
    0.408,
    0.279,
    0.542545,
    0.686462,
    0.572,
    0.496,
    0.574,
    0.359,
    0.583,
    0.444,
    0.427,
    0.529,
    0.674,
    0.559,
    0.612,
    0.294,
    0.278,
    0.706,
    0.329,
    0.515,
    0.568,
    0.631,
    0.461,
    0.411,
    0.716,
    0.545,
    0.503,
    0.312,
    0.365841,
    0.391,
    0.564,
    0.28,
    0.331,
    0.481,
    0.68,
    0.424,
    0.716,
    0.564,
    0.467,
    0.269,
    0.2,
    0.377,
    0.308,
    0.419,
    0.324,
    0.369,
    0.512,
    0.752,
    0.427,
    0.557,
    0.731,
    0.616,
    0.258,
    0.376,
    0.253196,
    0.452278,
    0.408,
    0.298,
    0.418924,
    0.672,
    0.531763,
    0.428,
    0.757756,
    0.503,
    0.490237,
    0.526,
    0.466777,
    0.521,
    0.756,
    0.749,
    0.566,
    0.67,
    0.771,
    0.639,
    0.95,
    0.713,
    0.702,
    0.451,
    0.431,
    0.47,
    0.648,
    0.483274,
    0.746,
    0.504538,
    0.942088,
    0.595284,
    0.706,
    0.603293,
    0.879,
    0.503,
    0.613,
    0.473,
    0.628,
    0.488,
    0.785,
    0.633,
    0.779,
    0.913,
    0.736,
    0.734,
    1.05,
    0.762,
    0.673,
    0.422,
    0.205,
    0.269,
    0.365,
    0.559,
    0.523,
    0.448,
    0.384,
    0.673,
    0.426,
    1.092,
    0.559,
    0.289,
    0.638,
    0.98,
    0.232,
    0.362,
    0.622,
    0.696,
    0.628,
    0.553,
    0.272,
    0.342,
    0.429,
    0.216,
    0.503,
    0.335,
    0.536,
    0.448,
    0.42,
    0.718,
    0.728,
    0.597,
    0.432508,
    0.25,
    0.305715,
    0.428,
    0.285,
    0.446,
    0.307,
    0.396,
    0.687986,
    0.644,
    0.396009,
    0.746,
    0.557,
    0.446671,
    0.49,
    0.754,
    0.496,
    0.633531,
    0.722,
    0.583,
    0.555,
    0.859,
    0.588549,
    0.901,
    1.147,
    0.838,
    0.613,
    0.473,
    0.641,
    0.844,
    0.849,
    0.715,
    0.511592,
    0.464,
    0.642,
    0.867,
    0.706,
    0.958531,
    0.333,
    0.255,
    0.345,
    0.444,
    0.361,
    0.434,
    0.242,
    0.462,
    0.392,
    0.431,
    0.408,
    0.829,
    0.823,
    0.391,
    0.627,
    0.519,
    0.565,
    0.871,
    0.604,
    0.601,
    0.554,
    0.798013,
    0.652,
    0.669876,
    0.992,
    0.896,
    0.516,
    0.692,
    0.576,
    1.036,
    0.543,
    0.739,
    0.876,
    0.903,
    0.674,
    0.789,
    0.795,
    1.061,
    0.659,
    0.812,
    0.510836,
    0.744,
    0.698,
    0.758,
    0.461,
    0.514,
    0.652,
    0.858496,
    0.654,
    1.192,
    0.638164,
    1.007,
    0.769,
    0.579,
    0.485,
    0.823,
    0.861,
    0.593,
    0.647,
    0.564,
    0.886,
    1.13,
    0.826,
    1.008,
    0.731,
    0.657,
    0.552,
    0.694,
    0.51,
    0.813,
    0.783,
    0.531,
    0.856,
    0.684,
    0.662,
    0.845,
    1.218,
    0.586,
    0.902,
    0.742,
    0.759,
    0.425008,
    0.482,
    0.637575,
    0.941,
    0.624453,
    0.486384,
    0.517,
    0.715126,
    0.735,
    0.62,
    1.151,
    0.781,
    0.74,
    0.3,
    0.313,
    0.517026,
    0.401,
    0.584,
    0.561,
    0.295,
    0.748,
    0.347,
    0.689,
    0.467,
    0.451,
    0.592,
    0.446,
    0.599,
    0.434,
    0.6,
    0.459,
    0.808,
    0.564,
    0.632,
    0.664,
    0.675,
    1.124,
    0.716,
    0.191,
    0.414,
    0.603,
    0.575,
    0.291,
    0.411,
    0.699,
    0.448,
    0.837,
    0.4,
    0.975,
    0.35,
    0.423,
    0.646771,
    0.409,
    0.285,
    0.477,
    0.643,
    0.3,
    0.491,
    0.443,
    0.761,
    0.664,
    0.468,
    0.601,
    1.002,
    0.686303,
    0.783651,
    0.74832,
    1.022884,
    0.54674,
    0.626404,
    0.637403,
    0.718685,
    1.01874,
    1.464597,
    0.499,
    0.832,
    0.545,
    0.582,
    0.677,
    0.498,
    0.609,
    1.01,
    0.887,
    0.6,
    0.862,
    0.904,
    0.797,
    0.25,
    0.205,
    0.366,
    0.288,
    0.489,
    0.281,
    0.278,
    0.506,
    0.621,
    0.862,
    0.363,
    0.544,
    0.354,
    0.398,
    0.219,
    0.39,
    0.5,
    0.438,
    0.621,
    0.804,
    0.792,
    0.902,
    0.484,
    0.654,
    0.454,
    0.437,
    0.698,
    0.642,
    0.417,
    0.518,
    0.198,
    0.278,
    0.359,
    0.677,
    0.426,
    0.303,
    0.28,
    0.352,
    1.623446,
    0.901,
    0.492,
    0.913,
    0.634,
    0.495,
    0.795,
    0.699,
    0.533,
    0.568,
    0.662,
    0.650268,
    0.847,
    0.812,
    0.701,
    1.14,
    0.826,
    0.64484,
    0.580681,
    0.606403,
    0.807038,
    0.545847,
    0.627295,
    0.767403,
    1.027973,
    0.690974,
    0.274,
    0.314,
    0.418,
    0.283,
    0.544,
    0.285,
    0.25,
    0.341,
    0.468,
    0.595,
    0.682,
    0.667,
    0.489,
    0.762,
    0.498,
    0.846,
    0.512,
    0.787,
    0.526,
    0.871,
    0.648,
    1.025,
    0.758,
    0.683,
    0.638,
    1.027,
    0.633,
    0.683917,
    0.461,
    0.843,
    0.507,
    0.662,
    0.514,
    0.971,
    0.627,
    0.643,
    0.882,
    0.616,
    1.218,
    0.936,
    0.529,
    0.468,
    0.454,
    0.556,
    0.423,
    0.677,
    0.494,
    0.560897,
    0.606388,
    0.750635,
    0.536,
    0.704,
    0.726,
    0.868,
    0.476,
    0.519,
    0.74,
    0.515,
    0.618,
    0.67,
    1.011,
    0.718,
    0.618,
    0.602,
    1.201,
    0.771,
    0.487,
    0.644,
    0.743,
    0.546,
    0.531,
    0.608,
    0.742,
    0.622,
    0.944,
    0.795,
    0.399,
    0.657,
    0.819,
    0.565,
    0.633,
    0.429,
    0.497,
    0.484,
    0.51,
    0.51,
    0.598,
    0.869,
    0.714,
    0.587,
    0.298,
    0.252,
    0.416,
    0.478,
    0.597,
    0.348,
    1.141,
    0.558,
    0.403,
    0.722,
    0.447,
    0.929,
    0.746,
    0.824,
    0.538,
    0.612,
    0.661,
    0.736,
    0.969,
    0.672,
    0.466,
    0.542,
    0.677,
    0.527,
    0.654,
    0.522,
    0.832,
    0.751,
    0.89,
    1.154,
    1.106,
    0.988,
    0.809,
    0.921,
    0.175,
    0.277,
    0.37,
    0.447,
    0.416,
    0.313,
    0.325,
    0.445,
    0.621,
    0.573,
    0.49,
    0.472,
    0.517458,
    0.716,
    0.438,
    0.497,
    0.368,
    0.401,
    0.570542,
    0.504593,
    0.753,
    0.808,
    0.645,
    0.743128,
    0.725542,
    0.656276,
    0.563889,
    0.174,
    0.292,
    0.371097,
    0.231934,
    0.489,
    0.274097,
    0.506,
    0.341,
    0.444,
    0.54,
    0.366,
    0.372,
    0.872,
    0.540897,
    0.681,
    0.425,
    0.496,
    0.495,
    0.981,
    0.445,
    0.456,
    0.816,
    0.588,
    0.533,
    0.876,
    0.679,
    0.613,
    0.501867,
    0.653631,
    0.612124,
    0.723721,
    0.558,
    0.876542,
    0.731,
    0.915,
    0.719,
    1.100619,
    0.512053,
    0.673957,
    0.438792,
    0.477,
    1.19488,
    0.598,
    0.582333,
    0.499484,
    0.584226,
    0.555969,
    0.768239,
    0.5542,
    0.659,
    0.805,
    0.632,
    0.348,
    0.455,
    0.518,
    0.501,
    0.3,
    0.286889,
    0.33,
    0.355,
    0.445,
    0.557,
    0.419,
    1.186,
    0.73,
    0.458897,
    0.449196,
    0.437,
    0.87,
    0.579704,
    0.621,
    0.634,
    0.755704,
    0.662,
    0.825968,
    0.663,
    0.737,
    0.607,
    0.868,
    0.581,
    0.514,
    0.65,
    0.76,
    0.56,
    0.668,
    0.638,
    0.735,
    0.91,
    0.676,
    0.927,
    0.775,
    0.572,
    0.29,
    0.613,
    0.318,
    0.439,
    0.358,
    0.6,
    0.357,
    0.319,
    0.672,
    0.442,
    0.498,
    0.61,
    0.58,
    0.754,
    0.683,
    0.711,
    0.51,
    0.659,
    0.957,
    0.655,
    0.614,
    0.665,
    0.999,
    0.912,
    0.573,
    0.818,
    0.888,
    0.736,
    0.642,
    0.566,
    0.503,
    0.989,
    0.854,
    0.647,
    0.948,
    1.017,
    0.81,
    0.515,
    0.548,
    0.53,
    1.059,
    0.702,
    0.926,
    0.914,
    1.079,
    0.834271,
    0.741,
    0.437,
    0.847,
    0.674,
    0.459,
    0.68,
    0.811,
    0.851,
    0.623,
    0.835,
    0.788,
    0.651,
    0.814,
    0.27,
    0.373,
    0.373,
    0.228,
    0.489,
    0.591,
    0.698,
    0.593,
    0.371,
    0.46,
    0.787,
    0.459,
    0.529,
    0.54,
    0.523,
    0.531,
    0.957,
    0.82,
    0.652,
    0.522,
    0.501,
    0.749,
    0.609,
    0.974,
    0.618,
    0.996,
    0.842,
    0.418,
    0.518,
    0.612,
    0.474,
    0.83,
    0.537,
    0.493,
    0.893,
    0.591,
    0.604,
    0.845,
    0.738,
    0.925,
    0.805,
    0.561,
    0.733,
    0.474,
    0.589,
    0.778,
    0.78,
    0.966,
    1.02,
    1.031,
    0.669,
    0.818101,
    0.495,
    0.624,
    0.496,
    0.823,
    0.899,
    0.668,
    0.911,
    0.664,
    0.882,
    0.962,
    0.959,
    0.489,
    0.462,
    0.697,
    0.465,
    0.677,
    0.496,
    0.792,
    0.593,
    0.573,
    0.937,
    0.737,
    0.816,
    0.53,
    0.553,
    0.63,
    0.725,
    0.927,
    0.77,
    0.644,
    0.914,
    0.599,
    0.662,
    1.169,
    0.804,
    0.666,
    0.277,
    0.298,
    0.305,
    0.274,
    0.349,
    0.333,
    0.357,
    0.658,
    0.415092,
    0.723124,
    0.596,
    0.3649,
    0.469,
    0.449,
    0.56614,
    0.407701,
    0.628,
    0.479,
    0.540511,
    0.72224,
    0.812,
    0.838017,
    0.618124,
    0.693,
    0.925,
    0.894273,
    0.557,
    0.29,
    0.507,
    0.322783,
    0.403,
    0.26153,
    0.33,
    0.356,
    0.438,
    0.424,
    0.621,
    0.329,
    0.593,
    0.425,
    0.359,
    0.369,
    0.738,
    0.742,
    0.468,
    0.326,
    0.542,
    0.552,
    0.639,
    0.433,
    0.722,
    0.804,
    0.511393,
    0.509,
    0.592,
    1.008,
    0.495,
    0.731,
    0.608119,
    1.147,
    0.695009,
    1.022,
    0.63,
    0.637
  ],
  "5242880": [
    0.586,
    0.551,
    0.231,
    0.222,
    0.583,
    0.515,
    0.5,
    0.384,
    0.494,
    0.738,
    0.307,
    0.585,
    0.387,
    0.334,
    0.308,
    0.373,
    0.857,
    0.776299,
    0.852,
    0.415,
    0.409,
    0.494189,
    0.555,
    0.608,
    0.509,
    0.782,
    0.882283,
    0.987212,
    0.686,
    0.646,
    0.568,
    0.795,
    0.865,
    0.627,
    0.765,
    0.909,
    0.895,
    0.64818,
    0.883,
    0.453,
    0.532,
    1.248,
    0.703876,
    1.436,
    0.63,
    0.48,
    0.396,
    0.611,
    0.334
  ],
  "ALL": [
    0.482,
    0.487,
    0.546,
    0.649,
    0.552,
    0.691,
    0.534,
    0.563,
    0.643,
    0.738,
    0.595,
    0.976,
    0.73,
    0.631,
    0.605,
    0.84,
    0.285,
    0.302,
    0.697,
    0.532,
    0.262,
    0.266,
    0.343,
    0.307,
    0.912,
    0.729,
    0.445,
    0.386,
    0.528,
    0.527,
    0.586,
    0.451,
    0.586,
    0.748,
    0.703,
    0.644,
    0.746,
    0.612,
    0.769,
    0.699,
    0.613,
    0.937,
    0.89,
    0.813,
    0.615,
    0.562,
    0.251,
    0.242,
    0.384,
    0.281,
    0.461,
    0.262,
    0.298,
    0.27,
    0.366,
    0.347,
    1.227876,
    0.465,
    0.4,
    0.821,
    0.269,
    0.221,
    0.622,
    0.499,
    0.535,
    0.224,
    0.25,
    0.311,
    0.343,
    0.616,
    0.422,
    0.437,
    0.689,
    0.633,
    0.385,
    0.23,
    0.269,
    0.405,
    0.283,
    0.571,
    0.342,
    0.584,
    0.693,
    0.404,
    0.473,
    0.699,
    0.413,
    0.364,
    0.804,
    0.551,
    0.236,
    0.413,
    0.283,
    0.407,
    0.301,
    0.543,
    0.377,
    0.687,
    0.373,
    0.725,
    0.665,
    0.562,
    0.566,
    0.556694,
    0.231,
    0.222,
    0.26,
    0.268,
    0.277,
    0.672,
    0.299,
    0.518,
    0.303,
    0.419,
    0.369,
    0.836,
    0.396,
    1.024,
    0.481,
    0.5,
    0.382,
    0.553,
    0.474,
    0.242,
    0.368,
    0.493,
    0.856,
    0.55,
    0.272,
    0.422,
    0.45,
    0.411,
    0.642,
    1.213,
    0.694,
    0.849,
    0.57,
    0.583,
    0.473,
    0.497,
    0.887,
    0.625,
    0.69,
    0.638,
    0.574,
    0.572,
    0.77,
    0.867,
    0.668,
    0.886,
    0.694,
    0.829,
    0.468,
    0.274,
    0.239,
    0.282,
    0.363,
    0.52,
    0.611,
    0.334,
    0.507,
    0.343,
    0.501,
    0.387,
    0.418,
    0.767,
    0.61,
    0.408,
    0.464,
    0.279,
    0.542545,
    0.686462,
    0.572,
    0.496,
    0.574,
    0.359,
    0.583,
    0.444,
    0.427,
    0.529,
    0.674,
    0.559,
    0.316,
    0.515,
    0.612,
    0.294,
    0.278,
    0.706,
    0.329,
    0.515,
    0.568,
    0.631,
    0.461,
    0.411,
    0.716,
    0.545,
    0.503,
    0.345,
    0.5,
    0.384,
    0.312,
    0.365841,
    0.391,
    0.564,
    0.28,
    0.331,
    0.481,
    0.68,
    0.424,
    0.716,
    0.564,
    0.467,
    0.71,
    0.591,
    0.496,
    0.469,
    0.269,
    0.2,
    0.377,
    0.308,
    0.419,
    0.324,
    0.369,
    0.512,
    0.752,
    0.427,
    0.557,
    0.731,
    0.616,
    0.602,
    0.494,
    0.258,
    0.376,
    0.253196,
    0.452278,
    0.408,
    0.298,
    0.418924,
    0.672,
    0.531763,
    0.428,
    0.757756,
    0.503,
    0.490237,
    0.254,
    0.482237,
    0.66262,
    0.526,
    0.466777,
    0.521,
    0.756,
    0.749,
    0.566,
    0.67,
    0.771,
    0.639,
    0.95,
    0.713,
    0.702,
    0.497,
    0.617,
    0.451,
    0.431,
    0.47,
    0.648,
    0.483274,
    0.746,
    0.504538,
    0.942088,
    0.595284,
    0.706,
    0.603293,
    0.879,
    0.503,
    0.613,
    0.565,
    0.473,
    0.628,
    0.488,
    0.785,
    0.633,
    0.779,
    0.913,
    0.736,
    0.734,
    1.05,
    0.762,
    0.673,
    0.488,
    0.763,
    0.738,
    0.422,
    0.205,
    0.269,
    0.365,
    0.559,
    0.523,
    0.448,
    0.384,
    0.673,
    0.426,
    1.092,
    0.582,
    0.421,
    0.307,
    0.585,
    0.559,
    0.289,
    0.638,
    0.98,
    0.232,
    0.362,
    0.622,
    0.696,
    0.628,
    0.553,
    0.268,
    0.313,
    0.467,
    0.334,
    0.387,
    0.334,
    0.272,
    0.342,
    0.429,
    0.216,
    0.503,
    0.335,
    0.536,
    0.448,
    0.42,
    0.718,
    0.728,
    0.597,
    0.308,
    0.373,
    0.432508,
    0.25,
    0.305715,
    0.428,
    0.285,
    0.446,
    0.307,
    0.396,
    0.687986,
    0.644,
    0.396009,
    0.746,
    0.557,
    0.446671,
    0.273,
    0.391,
    0.49,
    0.754,
    0.496,
    0.633531,
    0.722,
    0.583,
    0.555,
    0.859,
    0.588549,
    0.901,
    1.147,
    0.838,
    0.613,
    0.51,
    0.585,
    0.473,
    0.641,
    0.844,
    0.849,
    0.715,
    0.511592,
    0.464,
    0.642,
    0.867,
    0.706,
    0.958531,
    0.637,
    0.718,
    0.603823,
    0.709,
    0.857,
    0.333,
    0.255,
    0.345,
    0.444,
    0.361,
    0.434,
    0.242,
    0.462,
    0.392,
    0.431,
    0.408,
    0.829,
    0.823,
    0.391,
    0.311,
    0.667429,
    0.627,
    0.519,
    0.565,
    0.871,
    0.604,
    0.601,
    0.554,
    0.798013,
    0.652,
    0.669876,
    0.992,
    0.896,
    0.713,
    0.651635,
    1.018651,
    0.776299,
    0.516,
    0.692,
    0.576,
    1.036,
    0.543,
    0.739,
    0.876,
    0.903,
    0.674,
    0.789,
    0.795,
    1.061,
    0.659,
    0.683,
    0.852,
    0.812,
    0.510836,
    0.744,
    0.698,
    0.758,
    0.461,
    0.514,
    0.652,
    0.858496,
    0.654,
    1.192,
    0.638164,
    1.007,
    0.769,
    0.579,
    0.482,
    0.485,
    0.823,
    0.861,
    0.593,
    0.647,
    0.564,
    0.886,
    1.13,
    0.826,
    1.008,
    0.731,
    0.657,
    0.724,
    0.593,
    0.552,
    0.694,
    0.51,
    0.813,
    0.783,
    0.531,
    0.856,
    0.684,
    0.662,
    0.845,
    1.218,
    0.586,
    0.902,
    0.742,
    0.759,
    0.668,
    0.425008,
    0.482,
    0.637575,
    0.941,
    0.624453,
    0.486384,
    0.517,
    0.715126,
    0.735,
    0.62,
    1.151,
    0.781,
    0.74,
    0.5,
    0.614652,
    1.002981,
    0.3,
    0.313,
    0.517026,
    0.401,
    0.584,
    0.561,
    0.295,
    0.748,
    0.347,
    0.689,
    0.467,
    0.305,
    0.581777,
    0.415,
    0.409,
    0.494189,
    0.451,
    0.592,
    0.446,
    0.599,
    0.434,
    0.6,
    0.459,
    0.808,
    0.564,
    0.632,
    0.664,
    0.675,
    1.124,
    0.716,
    0.663,
    0.782,
    0.191,
    0.414,
    0.603,
    0.575,
    0.291,
    0.411,
    0.699,
    0.448,
    0.837,
    0.4,
    0.975,
    0.35,
    0.423,
    0.271,
    0.276,
    0.279,
    0.646771,
    0.409,
    0.285,
    0.477,
    0.643,
    0.3,
    0.491,
    0.443,
    0.761,
    0.664,
    0.468,
    0.535,
    0.717,
    0.471,
    0.356,
    0.555,
    0.601,
    1.002,
    0.686303,
    0.783651,
    0.74832,
    1.022884,
    0.54674,
    0.626404,
    0.637403,
    0.718685,
    1.01874,
    1.464597,
    0.567403,
    0.983435,
    0.76,
    0.719,
    0.499,
    0.832,
    0.545,
    0.582,
    0.677,
    0.498,
    0.609,
    1.01,
    0.887,
    0.6,
    0.862,
    0.904,
    0.797,
    0.497,
    0.546,
    1.159,
    0.25,
    0.205,
    0.366,
    0.288,
    0.489,
    0.281,
    0.278,
    0.506,
    0.621,
    0.862,
    0.363,
    0.544,
    0.354,
    0.734,
    0.718,
    0.608,
    0.398,
    0.219,
    0.39,
    0.5,
    0.438,
    0.621,
    0.804,
    0.792,
    0.902,
    0.484,
    0.654,
    0.454,
    0.437,
    0.698,
    0.642,
    0.417,
    0.518,
    0.198,
    0.278,
    0.359,
    0.677,
    0.426,
    0.303,
    0.28,
    0.352,
    1.623446,
    0.901,
    0.492,
    0.913,
    0.634,
    0.363,
    0.509,
    0.495,
    0.795,
    0.699,
    0.533,
    0.568,
    0.662,
    0.650268,
    0.847,
    0.812,
    0.701,
    1.14,
    0.826,
    0.465,
    0.536,
    0.645,
    0.782,
    0.64484,
    0.580681,
    0.606403,
    0.807038,
    0.545847,
    0.627295,
    0.767403,
    1.027973,
    0.690974,
    0.551734,
    0.688,
    1.054522,
    0.686,
    0.882283,
    0.987212,
    0.274,
    0.314,
    0.418,
    0.283,
    0.544,
    0.285,
    0.25,
    0.341,
    0.468,
    0.595,
    0.682,
    0.667,
    0.489,
    0.425,
    0.501,
    0.705,
    0.762,
    0.498,
    0.846,
    0.512,
    0.787,
    0.526,
    0.871,
    0.648,
    1.025,
    0.758,
    0.683,
    0.638,
    1.027,
    0.633,
    0.683917,
    0.896,
    0.461,
    0.843,
    0.507,
    0.662,
    0.514,
    0.971,
    0.627,
    0.643,
    0.882,
    0.616,
    1.218,
    0.936,
    0.529,
    0.686,
    0.468,
    0.454,
    0.556,
    0.423,
    0.677,
    0.494,
    0.560897,
    0.606388,
    0.750635,
    0.536,
    0.704,
    0.726,
    0.44,
    1.153,
    0.646,
    0.868,
    0.476,
    0.519,
    0.74,
    0.515,
    0.618,
    0.67,
    1.011,
    0.718,
    0.618,
    0.602,
    1.201,
    0.771,
    0.641,
    0.607,
    0.827,
    0.487,
    0.644,
    0.743,
    0.546,
    0.531,
    0.608,
    0.742,
    0.622,
    0.944,
    0.795,
    0.851,
    0.553422,
    0.86466,
    0.673,
    0.717,
    0.399,
    0.657,
    0.819,
    0.565,
    0.633,
    0.429,
    0.497,
    0.484,
    0.51,
    0.51,
    0.598,
    0.869,
    0.714,
    0.587,
    0.429,
    0.832,
    0.298,
    0.252,
    0.416,
    0.478,
    0.597,
    0.348,
    1.141,
    0.558,
    0.403,
    0.722,
    0.381,
    0.923,
    0.642,
    0.568,
    0.447,
    0.929,
    0.746,
    0.824,
    0.538,
    0.612,
    0.661,
    0.736,
    0.969,
    0.672,
    0.812,
    0.584,
    0.575,
    0.688,
    0.795,
    0.865,
    0.466,
    0.542,
    0.677,
    0.527,
    0.654,
    0.522,
    0.832,
    0.751,
    0.89,
    1.154,
    1.106,
    0.988,
    0.809,
    0.722,
    0.627,
    0.921,
    0.175,
    0.277,
    0.37,
    0.447,
    0.416,
    0.313,
    0.325,
    0.445,
    0.621,
    0.573,
    0.49,
    0.472,
    0.401,
    0.765,
    0.909,
    0.517458,
    0.716,
    0.438,
    0.497,
    0.368,
    0.401,
    0.570542,
    0.504593,
    0.753,
    0.808,
    0.645,
    0.743128,
    0.725542,
    0.656276,
    0.53,
    0.393,
    0.563889,
    0.174,
    0.292,
    0.371097,
    0.231934,
    0.489,
    0.274097,
    0.506,
    0.341,
    0.444,
    0.54,
    0.366,
    0.372,
    0.872,
    0.540897,
    0.681,
    0.425,
    0.496,
    0.495,
    0.981,
    0.445,
    0.456,
    0.816,
    0.588,
    0.533,
    0.876,
    0.679,
    0.613,
    0.561,
    0.843,
    0.895,
    0.501867,
    0.653631,
    0.612124,
    0.723721,
    0.558,
    0.876542,
    0.731,
    0.915,
    0.719,
    1.100619,
    0.512053,
    0.673957,
    0.963854,
    0.974007,
    0.982,
    0.438792,
    0.477,
    1.19488,
    0.598,
    0.582333,
    0.499484,
    0.584226,
    0.555969,
    0.768239,
    0.5542,
    0.659,
    0.805,
    0.632,
    0.828004,
    0.574747,
    1.121956,
    0.348,
    0.455,
    0.518,
    0.501,
    0.3,
    0.286889,
    0.33,
    0.355,
    0.445,
    0.557,
    0.419,
    1.186,
    0.73,
    0.458897,
    0.476,
    0.488,
    0.449196,
    0.437,
    0.87,
    0.579704,
    0.621,
    0.634,
    0.755704,
    0.662,
    0.825968,
    0.663,
    0.737,
    0.607,
    0.85,
    0.64818,
    0.883,
    0.868,
    0.581,
    0.514,
    0.65,
    0.76,
    0.56,
    0.668,
    0.638,
    0.735,
    0.91,
    0.676,
    0.927,
    0.775,
    0.684,
    0.978,
    0.572,
    0.29,
    0.613,
    0.318,
    0.439,
    0.358,
    0.6,
    0.357,
    0.319,
    0.672,
    0.442,
    0.395,
    0.595,
    0.453,
    0.532,
    0.498,
    0.61,
    0.58,
    0.754,
    0.683,
    0.711,
    0.51,
    0.659,
    0.957,
    0.655,
    0.614,
    0.665,
    0.999,
    0.912,
    0.573,
    0.818,
    0.888,
    0.736,
    0.642,
    0.566,
    0.503,
    0.989,
    0.854,
    0.647,
    0.948,
    1.017,
    0.81,
    0.549,
    0.895,
    0.699,
    0.515,
    0.548,
    0.53,
    1.059,
    0.702,
    0.926,
    0.914,
    1.079,
    0.834271,
    0.741,
    0.81,
    0.90988,
    1.248,
    0.703876,
    0.437,
    0.847,
    0.674,
    0.459,
    0.68,
    0.811,
    0.851,
    0.623,
    0.835,
    0.788,
    0.651,
    0.814,
    0.887,
    2.679,
    1.436,
    0.27,
    0.373,
    0.373,
    0.228,
    0.489,
    0.591,
    0.698,
    0.593,
    0.371,
    0.46,
    0.787,
    0.459,
    0.529,
    0.33,
    0.499,
    0.54,
    0.523,
    0.531,
    0.957,
    0.82,
    0.652,
    0.522,
    0.501,
    0.749,
    0.609,
    0.974,
    0.618,
    0.996,
    0.842,
    0.85,
    0.418,
    0.518,
    0.612,
    0.474,
    0.83,
    0.537,
    0.493,
    0.893,
    0.591,
    0.604,
    0.845,
    0.738,
    0.925,
    0.539,
    0.584,
    0.805,
    0.561,
    0.733,
    0.474,
    0.589,
    0.778,
    0.78,
    0.966,
    1.02,
    1.031,
    0.669,
    0.74,
    0.466,
    0.717,
    0.818101,
    0.495,
    0.624,
    0.496,
    0.823,
    0.899,
    0.668,
    0.911,
    0.664,
    0.882,
    0.962,
    0.959,
    0.547,
    0.512,
    0.769,
    0.489,
    0.462,
    0.697,
    0.465,
    0.677,
    0.496,
    0.792,
    0.593,
    0.573,
    0.937,
    0.737,
    0.816,
    0.468,
    0.566,
    0.976,
    0.63,
    0.53,
    0.553,
    0.63,
    0.725,
    0.927,
    0.77,
    0.644,
    0.914,
    0.599,
    0.662,
    1.169,
    0.804,
    0.666,
    0.566,
    0.851,
    0.277,
    0.298,
    0.305,
    0.274,
    0.349,
    0.333,
    0.357,
    0.658,
    0.415092,
    0.723124,
    0.596,
    0.357,
    0.422,
    0.428,
    0.48,
    0.396,
    0.3649,
    0.469,
    0.449,
    0.56614,
    0.407701,
    0.628,
    0.479,
    0.540511,
    0.72224,
    0.812,
    0.838017,
    0.618124,
    0.693,
    0.925,
    0.894273,
    0.557,
    0.29,
    0.507,
    0.322783,
    0.403,
    0.26153,
    0.33,
    0.356,
    0.438,
    0.424,
    0.621,
    0.329,
    0.593,
    0.425,
    0.44,
    0.724,
    0.611,
    0.359,
    0.369,
    0.738,
    0.742,
    0.468,
    0.326,
    0.542,
    0.552,
    0.639,
    0.433,
    0.722,
    0.578,
    0.296,
    0.665,
    0.624,
    0.334,
    0.804,
    0.511393,
    0.509,
    0.592,
    1.008,
    0.495,
    0.731,
    0.608119,
    1.147,
    0.695009,
    1.022,
    0.63,
    0.637,
    0.61,
    0.646
  ]
}