[
  0.545,
  0.752,
  0.553,
  0.558,
  0.683,
  0.493,
  0.557,
  0.615,
  0.548,
  0.528,
  0.791,
  0.659,
  0.669,
  0.457,
  0.525,
  0.461,
  0.5,
  0.681,
  0.6,
  0.554,
  0.659,
  0.612,
  0.637,
  0.687,
  0.762,
  0.791,
  0.599,
  0.497,
  0.45,
  0.923,
  0.718,
  0.671261,
  0.430897,
  0.455,
  0.443,
  0.670458,
  0.43,
  0.567,
  0.624,
  0.546762,
  0.489,
  0.425,
  0.596,
  0.419,
  0.614,
  0.387,
  0.939,
  0.708,
  0.397,
  0.482,
  0.555,
  0.881,
  0.576,
  0.495,
  0.601432,
  0.595506,
  0.41,
  0.537,
  0.355719,
  0.653998,
  0.416,
  0.52,
  0.264,
  0.371,
  1.437,
  0.437,
  0.55,
  0.446,
  0.358,
  0.404,
  0.351,
  0.293,
  0.69,
  0.274,
  0.665,
  0.486,
  0.467369,
  0.790756,
  0.544,
  0.621,
  0.716,
  0.465928,
  0.691,
  0.78585,
  0.584076,
  0.595,
  0.548,
  0.452,
  0.694172,
  0.422,
  0.470723,
  0.338,
  0.294,
  0.359,
  0.453,
  0.447,
  0.279,
  0.396,
  0.377,
  0.311,
  0.278,
  0.361,
  0.369,
  0.31,
  0.293,
  0.496,
  0.477291,
  0.406,
  0.676828,
  0.665,
  0.637123,
  0.553,
  0.526233,
  0.593948,
  0.452897,
  0.922244,
  0.549125,
  0.605,
  0.611124,
  0.621876,
  0.887201,
  0.371,
  0.397,
  0.554,
  1.733,
  0.655,
  0.788,
  1.51,
  0.681,
  0.565,
  0.681,
  0.441,
  0.531,
  0.438,
  0.47,
  0.481,
  0.601,
  0.355,
  0.54,
  0.264,
  0.27,
  0.461,
  0.463,
  0.569,
  0.458,
  0.7,
  0.311,
  0.264,
  0.311,
  0.225,
  0.285,
  0.434,
  0.209,
  0.737,
  0.58,
  0.584,
  0.626,
  0.815,
  0.726,
  0.971,
  0.829,
  0.575,
  0.701583,
  0.513,
  0.767,
  0.722,
  0.531,
  0.664,
  0.701,
  0.693,
  0.538,
  0.812,
  0.537,
  0.592,
  0.869,
  0.606,
  0.523,
  0.692,
  0.64,
  0.495,
  0.489,
  0.475,
  0.764,
  0.447681,
  0.270226,
  0.487902,
  0.283,
  0.466357,
  0.464,
  0.345134,
  0.638,
  0.387204,
  0.424,
  0.231698,
  0.431,
  0.245,
  0.458,
  0.392,
  0.529,
  0.496,
  0.248,
  0.324,
  0.348,
  0.626,
  0.502,
  0.424,
  0.376,
  0.418,
  0.544,
  0.506,
  0.635,
  0.348,
  0.304,
  0.294,
  0.499,
  0.54,
  0.762,
  0.658,
  0.878,
  0.582,
  0.798,
  0.499,
  0.391,
  0.464,
  0.557,
  0.403,
  0.412,
  0.676,
  0.394,
  0.467,
  0.41,
  0.347,
  0.301,
  0.447,
  0.251,
  0.386,
  0.391,
  0.363,
  0.344,
  0.286,
  0.43,
  0.437,
  0.455,
  0.3,
  0.271,
  0.444,
  0.435,
  0.659,
  0.55148,
  0.655989,
  0.536011,
  0.556927,
  0.59,
  0.595,
  0.429,
  0.442,
  0.542,
  0.47,
  0.464,
  0.592,
  0.620391,
  0.581823,
  0.663692,
  0.703,
  0.839,
  0.617941,
  0.532,
  0.648,
  0.608876,
  0.657752,
  0.625876,
  0.564,
  0.687,
  0.794142,
  0.487752,
  0.588,
  0.563,
  0.507,
  0.616,
  0.745,
  0.59,
  0.653,
  0.482,
  0.487,
  0.69,
  0.738,
  0.588,
  1.053,
  0.623,
  1.889,
  0.458,
  0.458642,
  0.365889,
  0.704,
  0.803,
  0.464108,
  0.553,
  0.554,
  0.484,
  0.432,
  0.548,
  0.566,
  0.448,
  0.596,
  0.444,
  0.486,
  0.586,
  0.697,
  0.807,
  0.539,
  0.846,
  0.483,
  0.712,
  0.637,
  0.703,
  0.502,
  0.555,
  0.618,
  0.567,
  0.501,
  0.783,
  0.544,
  0.566231,
  0.456,
  0.724,
  0.67,
  0.648,
  0.572,
  0.722,
  0.633,
  0.781322,
  0.532,
  0.698,
  0.508,
  0.509,
  0.695,
  0.684,
  0.327,
  0.158,
  0.366,
  0.281,
  0.48,
  0.305,
  0.377,
  0.408,
  0.351,
  0.609,
  0.677,
  0.789,
  0.314,
  0.446,
  0.223,
  0.252,
  0.62,
  0.486,
  0.638,
  0.599,
  0.469,
  0.47,
  0.509,
  0.513,
  0.43,
  0.477,
  0.675,
  0.812,
  0.635,
  0.362,
  0.608,
  0.689737,
  0.489,
  0.506,
  0.36192,
  0.556063,
  0.356709,
  0.424,
  0.42198,
  0.416508,
  0.325504,
  0.413446,
  0.507,
  0.615,
  0.36,
  0.391,
  0.462,
  0.327,
  0.248,
  0.366,
  0.507,
  0.461,
  0.583,
  0.703,
  0.349,
  1.333578,
  0.243,
  0.318,
  0.305,
  0.502,
  0.279,
  0.554,
  0.676,
  0.665,
  0.552,
  0.729,
  0.572,
  0.652,
  0.748,
  0.539,
  0.648,
  0.51,
  0.579,
  0.717,
  0.63,
  0.5,
  0.748,
  0.486,
  0.297,
  0.372,
  0.496214,
  0.445314,
  0.574993,
  0.381,
  0.386013,
  0.307,
  0.476,
  0.269,
  0.372,
  0.258924,
  0.307,
  0.479,
  0.468,
  0.279,
  0.301,
  0.276,
  0.578,
  0.317,
  0.53,
  0.358,
  0.589,
  0.245,
  0.225,
  0.34,
  0.387,
  0.411,
  0.223,
  0.27,
  0.528392,
  0.417335,
  0.561,
  0.508,
  0.68,
  0.452,
  0.563,
  0.590403,
  0.606343,
  0.509,
  0.485,
  0.528743,
  0.442,
  0.44,
  0.630103,
  0.536889,
  0.531,
  0.696,
  0.533,
  0.642,
  1.351,
  0.48,
  0.738,
  0.889,
  0.545,
  1.938,
  0.601,
  0.853,
  0.421,
  0.478,
  0.655,
  0.528,
  0.495,
  0.758,
  0.589,
  0.518,
  0.739,
  0.629,
  0.606,
  0.89,
  0.586,
  0.498,
  0.724,
  0.623,
  0.492,
  0.715,
  0.474,
  0.532,
  0.330117,
  0.31,
  0.362714,
  0.526,
  0.242808,
  0.405467,
  0.365085,
  0.335714,
  0.522091,
  0.396,
  0.416316,
  0.542,
  0.414714,
  0.273,
  0.496,
  0.780905,
  0.482,
  0.481,
  0.43,
  0.666591,
  0.454111,
  0.866,
  0.544,
  0.564,
  0.692,
  0.494,
  0.771,
  0.461,
  0.5739,
  0.365,
  0.424,
  0.453,
  0.513,
  0.75,
  0.637,
  0.528,
  0.576,
  0.787,
  0.552,
  0.709,
  0.763,
  0.519,
  0.469,
  0.466,
  0.603,
  1.918,
  0.301714,
  0.368,
  0.292,
  0.642,
  0.249328,
  0.382206,
  0.744,
  0.684,
  0.249266,
  0.215439,
  0.300267,
  0.206,
  0.28354,
  0.440611,
  0.268,
  0.514902,
  0.186,
  0.473,
  0.304,
  0.555,
  0.252762,
  0.404,
  0.422302,
  0.553415,
  0.201302,
  0.483346,
  0.318408,
  0.465302,
  0.397681,
  0.24046,
  0.3612,
  0.253,
  0.202939,
  0.290333,
  0.380043,
  0.424284,
  0.27163,
  0.402935,
  0.399925,
  0.33602,
  0.474,
  0.251557,
  0.560453,
  0.456593,
  0.494,
  0.224478,
  0.270111,
  0.471,
  0.163,
  0.249,
  0.428,
  0.463,
  0.199,
  0.513,
  0.420388,
  0.308,
  0.421,
  0.402,
  0.335,
  0.233351,
  0.494883,
  0.463,
  0.245,
  0.601412,
  0.437306,
  0.509,
  0.525,
  0.866,
  0.498181,
  0.567474,
  0.399,
  0.625403,
  0.724,
  0.650467,
  0.458038,
  0.377,
  0.394698,
  0.520066,
  0.532612,
  0.371,
  0.283,
  0.346,
  0.32,
  0.458,
  0.634,
  0.392,
  0.375,
  0.332,
  0.24,
  0.168,
  0.341,
  0.212,
  0.268,
  0.406,
  0.332,
  0.248,
  0.278,
  0.226,
  0.269,
  0.537,
  0.471,
  0.354,
  0.359,
  0.357,
  0.262,
  0.259,
  0.322,
  0.358,
  0.264,
  0.407,
  0.222,
  0.489,
  0.459,
  0.579,
  0.545,
  0.683,
  0.495,
  0.661,
  0.648953,
  0.52,
  0.448,
  0.421,
  0.505,
  0.477,
  0.445,
  0.529,
  0.707,
  0.496,
  0.393,
  0.612,
  0.99,
  0.704,
  0.681,
  0.585,
  0.842,
  0.576,
  0.634,
  0.611,
  0.605,
  0.51,
  0.536,
  0.479,
  0.501,
  0.516,
  0.543,
  0.783,
  0.911,
  0.472,
  0.605,
  0.645,
  0.634,
  0.876,
  0.455,
  0.59,
  0.483,
  0.486,
  0.652,
  0.534,
  0.507,
  0.515,
  0.713,
  0.839,
  0.605,
  0.513,
  0.664,
  0.585,
  0.746,
  0.503,
  0.632,
  0.439,
  0.643,
  0.499,
  0.789,
  0.496,
  0.522,
  0.869,
  0.584,
  0.696,
  0.492,
  0.591,
  0.712,
  0.68,
  0.796,
  0.492,
  0.664,
  0.528,
  0.729,
  0.481,
  0.275,
  0.513,
  0.257,
  0.556,
  0.538,
  0.273,
  0.288,
  0.557,
  0.471,
  0.253,
  0.351,
  0.431,
  0.432,
  0.438,
  0.577,
  0.717,
  0.627,
  0.701,
  0.728,
  0.781,
  0.65,
  0.647,
  0.612,
  0.574,
  0.534,
  0.737,
  0.499,
  0.731,
  1.029,
  0.241,
  0.234,
  0.363,
  0.221,
  0.395,
  0.26,
  0.328,
  0.421,
  0.36,
  0.209,
  0.357,
  0.276,
  0.198,
  0.327,
  0.317,
  0.267,
  0.426,
  0.292,
  0.433,
  0.286,
  0.338,
  0.332,
  0.362,
  0.2,
  0.235,
  0.38,
  0.405,
  0.443,
  0.321,
  0.27,
  0.51,
  0.539,
  0.526,
  0.703203,
  0.516,
  0.552,
  0.695,
  0.679,
  0.467,
  0.465,
  0.507,
  0.516,
  0.453,
  0.518,
  0.633,
  1.022,
  0.528,
  0.552,
  0.853,
  1.268,
  0.772,
  0.581,
  0.675,
  0.645,
  0.518,
  0.713,
  1.03,
  0.466,
  1.011,
  0.562,
  0.26,
  0.442,
  0.251,
  0.418,
  0.59,
  0.478,
  0.363,
  0.301,
  0.593,
  0.228,
  0.439,
  0.256,
  0.788,
  0.221,
  0.525,
  0.427,
  0.527,
  0.647,
  0.724,
  0.496,
  0.636,
  0.406,
  0.563,
  0.554,
  0.469,
  0.467,
  0.477,
  0.549,
  0.397,
  0.656645,
  0.652,
  0.488,
  0.618,
  0.527,
  0.578,
  0.75,
  0.445,
  0.591,
  0.57,
  0.544,
  0.669,
  0.478,
  0.85,
  0.504,
  0.445,
  0.448,
  0.436,
  0.669,
  0.445,
  0.545731,
  0.738,
  0.725,
  0.555,
  0.869,
  0.748,
  0.51,
  0.403,
  0.494,
  0.53,
  0.475,
  0.457,
  0.666,
  0.609,
  0.301,
  0.403,
  0.453,
  0.653,
  0.392,
  0.415,
  0.467,
  0.31,
  0.501,
  0.573,
  0.839,
  0.275,
  0.358,
  0.326,
  0.338,
  0.23,
  0.397,
  0.367,
  0.657,
  0.252,
  0.407,
  0.373,
  0.517,
  0.279,
  0.611,
  0.364,
  0.456,
  0.291,
  0.349,
  0.262,
  0.468,
  0.47,
  0.519,
  0.549,
  1.045,
  0.651,
  0.664,
  0.586,
  0.556,
  0.405,
  0.741,
  1.105,
  0.485,
  0.499,
  0.396,
  0.468,
  0.179,
  0.187,
  0.544,
  0.217,
  0.455,
  0.167,
  0.359,
  0.367,
  0.334,
  0.454,
  0.257,
  0.224,
  0.219,
  0.508,
  0.483,
  0.482,
  0.557,
  0.425,
  0.518,
  0.521,
  0.346,
  0.458,
  0.419,
  0.307,
  0.371,
  0.488,
  0.346,
  0.522,
  0.326,
  0.444,
  0.433,
  0.569,
  0.473,
  0.803,
  0.595,
  0.614,
  0.614,
  0.456,
  0.458,
  0.538,
  1.063,
  0.402,
  0.654,
  0.475,
  0.534,
  0.44,
  0.568,
  0.656,
  0.589,
  0.795,
  0.602,
  0.548,
  0.418,
  0.437,
  0.668,
  0.374,
  0.436,
  0.534,
  0.611,
  0.526,
  0.854,
  0.705,
  0.451,
  0.655,
  0.713,
  0.611,
  0.55,
  0.63,
  0.607,
  0.751,
  0.517,
  0.482,
  0.507,
  0.471,
  0.44,
  0.462,
  1.003024,
  0.613,
  0.537,
  0.568,
  0.581,
  0.554,
  0.605,
  0.432,
  0.533,
  0.593,
  0.42,
  0.467,
  0.482,
  0.182,
  0.367,
  0.31,
  0.68,
  0.478,
  13.062,
  0.383,
  0.44,
  0.283,
  0.338,
  0.487,
  0.566,
  0.293,
  0.484,
  0.571,
  0.539,
  0.518,
  0.683,
  0.657,
  0.5,
  0.855,
  0.705,
  0.575,
  0.4949,
  0.449,
  0.568,
  0.468,
  0.455,
  0.528,
  0.505416,
  0.305,
  0.189,
  0.328,
  0.377,
  0.458,
  0.327,
  0.325,
  0.317,
  0.519832,
  0.544,
  0.261,
  0.489,
  0.427,
  0.221,
  0.382,
  0.274,
  0.671,
  0.714,
  0.5,
  0.681,
  0.715,
  0.713,
  0.631,
  0.842,
  0.554,
  0.513,
  0.681,
  0.472,
  0.721,
  0.695,
  0.493,
  0.357,
  0.227,
  0.293,
  0.316,
  0.447,
  0.155,
  0.306,
  0.286,
  0.251,
  0.493,
  0.595,
  0.222,
  0.203,
  0.145,
  0.242,
  0.466,
  0.611,
  1.156,
  0.824,
  0.578,
  0.724,
  0.758,
  0.692,
  0.587,
  0.527,
  0.654,
  0.58,
  0.528,
  0.584219,
  0.793,
  0.511,
  0.472,
  0.504,
  0.527,
  0.667,
  0.623,
  0.573,
  0.657,
  0.679,
  0.421,
  0.541,
  0.513,
  0.491,
  0.719,
  0.448,
  0.475,
  0.511,
  0.613,
  0.499,
  0.957,
  0.422,
  0.531,
  0.778,
  0.543,
  0.521,
  0.781,
  0.773,
  0.449,
  0.688,
  0.556129,
  0.568284,
  0.518,
  0.777957,
  0.841974,
  0.838026,
  0.499381,
  0.731908,
  0.722574,
  0.712,
  0.855,
  0.546093,
  0.481284,
  0.479052,
  0.52318,
  0.504129,
  0.575,
  0.467,
  0.59,
  0.569,
  0.71,
  0.61,
  0.592,
  0.687,
  0.535,
  0.445,
  0.797,
  0.569,
  0.518,
  0.678,
  0.49,
  0.559,
  0.521,
  0.741,
  0.599,
  0.698,
  0.475,
  0.666,
  0.573,
  0.613,
  0.492,
  0.581,
  0.52,
  0.766,
  0.814,
  0.553,
  0.498,
  0.495,
  0.504,
  1.135,
  0.85,
  1.145,
  0.607,
  0.784,
  0.443,
  0.683,
  1.14,
  0.494,
  1.425,
  0.549716,
  0.649061,
  0.710786,
  0.516,
  0.698422,
  0.511,
  0.545071,
  0.633,
  0.579,
  0.811327,
  0.555,
  0.619804,
  0.463,
  0.456,
  0.505348
]