{
  "1048576": [
    5.467,
    5.672,
    5.47,
    12.823,
    4.912458,
    5.335,
    5.821305,
    6.501,
    6.984,
    4.148,
    4.087,
    8.413,
    7.384506,
    5.893,
    2.963,
    4.1,
    2.391,
    4.226,
    27.391,
    40.438,
    4.717,
    5.214,
    2.62,
    5.411,
    6.039,
    5.332,
    2.786558,
    4.220357,
    4.846,
    2.95,
    3.473,
    6.123,
    4.255,
    4.657,
    3.984,
    2.969,
    3.48,
    4.688,
    8.099989,
    8.356,
    14.592,
    5.194,
    7.986,
    7.556,
    5.059809,
    6.606,
    5.744,
    6.693915,
    5.38,
    8.446,
    3.235,
    3.587,
    3.848,
    5.375,
    4.41616,
    6.214,
    5.114,
    7.215,
    4.967619,
    4.052223,
    3.771,
    3.12,
    3.519288,
    6.213,
    3.122013,
    3.926,
    3.076,
    4.237,
    4.5,
    4.350103,
    6.642,
    8.836,
    4.999,
    5.213,
    6.133,
    5.161,
    5.904,
    6.697,
    3.186117,
    4.624,
    4.482218,
    3.94,
    20.416,
    11.13,
    3.563,
    2.794,
    5.334902,
    7.270967,
    3.524983,
    4.749,
    3.787388,
    5.435,
    3.967,
    6.165246,
    2.592206,
    2.692,
    5.521,
    10.756,
    5.763,
    5.219,
    14.092,
    7.045,
    5.59,
    4.924,
    7.332,
    4.57,
    5.526,
    6.681,
    2.265,
    2.747,
    9.103,
    1.843,
    2.287,
    2.028,
    3.573,
    3.562,
    2.064,
    3.3,
    6.32,
    7.195,
    4.709,
    5.355,
    10.095,
    5.027,
    5.741,
    5.915,
    5.275,
    4.559,
    5.749731,
    4.981,
    5.605,
    5.552,
    3.337,
    3.62,
    5.895,
    3.157,
    3.946,
    10.681,
    4.058,
    5.47,
    5.955,
    4.93,
    7.074,
    6.209,
    6.546,
    5.624,
    4.088,
    4.866,
    7.447922,
    8.093,
    4.635,
    2.876,
    5.161,
    6.846,
    4.710887,
    1.763,
    2.841,
    5.7,
    7.822,
    6.581,
    5.378,
    5.503,
    7.747,
    6.518,
    5.395,
    5.993,
    5.688,
    10.863,
    9.538
  ],
  "51200": [
    1.703,
    2.261,
    1.779,
    2.289,
    1.454,
    1.812,
    2.05,
    1.747,
    1.595,
    2.577,
    2.234,
    2.139,
    1.518,
    1.617,
    2.105,
    1.873,
    2.232,
    1.959,
    2.015,
    2.156,
    2.466,
    1.835,
    1.466,
    1.408,
    2.786,
    2.32,
    2.185261,
    1.861897,
    1.459,
    1.439,
    1.347,
    1.751,
    2.029,
    1.767,
    1.491,
    1.353,
    2.015,
    1.231,
    2.812,
    1.169432,
    1.534,
    2.941,
    1.782,
    1.636,
    1.852,
    1.889506,
    1.763,
    2.111,
    1.207,
    1.578,
    0.752,
    1.75,
    2.74,
    1.534,
    2.004,
    1.617,
    1.812,
    1.464,
    1.265,
    0.863,
    2.081,
    8.717,
    1.365,
    2.563342,
    1.692342,
    2.035,
    2.426,
    1.396928,
    2.19,
    1.855,
    1.997,
    1.703,
    1.398,
    1.514,
    1.03,
    0.946,
    1.23,
    1.471,
    1.743,
    1.132,
    0.868,
    1.047,
    1.12,
    0.995,
    0.9,
    1.663,
    1.499167,
    1.290406,
    2.120897,
    2.076,
    2.137767,
    1.660876,
    1.736632,
    1.990975,
    1.501897,
    3.024709,
    1.733757,
    1.925,
    2.051124,
    2.074406,
    2.836201,
    1.188154,
    1.818,
    2.241,
    2.537,
    2.229,
    1.78,
    2.173,
    1.335,
    1.653,
    1.374,
    1.984,
    1.038,
    1.647,
    0.875,
    0.94,
    1.766,
    1.564,
    1.87,
    1.419,
    3.287,
    0.933,
    1.07,
    0.718,
    0.869,
    0.647,
    2.37,
    1.769,
    1.809,
    2.647,
    2.354,
    2.997,
    2.884,
    1.842,
    2.281,
    1.556,
    2.348,
    2.2,
    1.61,
    2.064,
    2.231,
    2.19,
    1.696,
    2.705,
    1.968,
    2.382,
    2.018,
    1.676,
    2.218,
    2.034,
    1.553,
    1.499,
    1.902,
    2.395,
    1.508681,
    1.548902,
    0.934,
    1.517,
    1.229,
    2.109098,
    1.179266,
    1.287,
    0.68376,
    1.355,
    0.703,
    1.477,
    1.294856,
    1.746,
    0.748,
    1.036,
    1.168,
    2.065,
    1.701,
    1.392,
    1.319,
    1.861,
    1.646,
    2.058,
    1.058,
    0.978,
    1.582,
    1.691,
    2.389,
    2.933,
    1.808,
    2.606,
    1.606,
    1.406,
    1.686,
    1.263,
    2.121,
    1.26,
    1.466,
    1.058,
    1.791,
    0.82,
    1.189,
    1.096,
    0.84,
    1.511,
    1.495,
    0.978,
    0.864,
    1.406,
    2.071,
    1.691998,
    1.612,
    1.775989,
    1.892,
    1.876,
    1.378,
    1.395,
    1.681,
    1.447,
    1.334,
    1.855,
    1.961849,
    1.970233,
    2.141,
    1.899,
    1.674,
    2.232,
    1.919876,
    1.997752,
    1.867876,
    2.06,
    2.521142,
    1.549752,
    1.859,
    1.674,
    1.617,
    2.024,
    2.33,
    1.74,
    1.624,
    1.538,
    2.199,
    1.71,
    1.792,
    1.958,
    2.802,
    1.478,
    1.480642,
    1.123889,
    2.25,
    2.66,
    2.387,
    1.901,
    1.573,
    1.322,
    1.735,
    1.823,
    1.314,
    1.924,
    1.346,
    1.519,
    1.825,
    2.588,
    1.703,
    2.792,
    1.456,
    2.234,
    2.112,
    2.131,
    1.576,
    1.737,
    2.023,
    1.736,
    1.545,
    1.717,
    1.794231,
    1.481,
    2.278,
    2.098,
    2.292,
    2.254,
    2.560322,
    1.503408,
    2.238649,
    1.083,
    0.562,
    0.911,
    0.86,
    1.137,
    1.579,
    2.209,
    1.949,
    1.0,
    1.504,
    0.729,
    1.989,
    1.408,
    1.542,
    1.727,
    1.691,
    1.369,
    1.464,
    2.372,
    2.541,
    2.055,
    1.189,
    1.874,
    2.288979,
    1.561,
    1.416,
    1.016504,
    1.296,
    1.584,
    2.009,
    1.09,
    1.129,
    1.538,
    1.052,
    0.74,
    1.21,
    1.655,
    1.812,
    2.323,
    1.853,
    0.961,
    0.907,
    1.613,
    0.862,
    1.714,
    2.507,
    2.047,
    1.844,
    2.598,
    1.702,
    2.037,
    2.478,
    1.861,
    10.832,
    2.442,
    2.146,
    2.321,
    1.745,
    1.78,
    2.324,
    1.68,
    0.904,
    1.192,
    1.679,
    1.225,
    0.971076,
    1.56,
    0.797,
    1.195,
    0.779924,
    0.988,
    1.63,
    1.541,
    1.059,
    1.970248,
    0.841,
    1.742,
    1.392,
    1.918,
    0.771,
    0.715,
    1.188,
    1.271,
    0.719,
    0.866,
    1.626392,
    1.277013,
    1.753763,
    1.421,
    1.817,
    1.882,
    2.008897,
    1.568712,
    1.496,
    1.727743,
    1.389,
    1.658889,
    8.213,
    2.177,
    2.306,
    2.893,
    1.432,
    2.162,
    2.868,
    2.132,
    3.929,
    1.794,
    1.949,
    1.365,
    1.619,
    2.173,
    1.988,
    2.464,
    1.662,
    2.425,
    1.85,
    1.946,
    2.735,
    2.315,
    1.496,
    1.456,
    1.58,
    1.025,
    1.084,
    1.828373,
    0.719492,
    1.416,
    1.299453,
    1.058,
    1.78348,
    1.274272,
    1.39104,
    1.911079,
    1.43,
    0.824,
    2.554905,
    1.523,
    2.205,
    1.380316,
    2.729,
    1.703,
    1.796,
    2.292,
    1.549163,
    2.48,
    1.586591,
    2.060684,
    1.131,
    1.315,
    1.413,
    4.052,
    2.669,
    1.565,
    1.879,
    2.781,
    2.14,
    1.519,
    2.708,
    1.84,
    2.798,
    2.164,
    0.836328,
    1.29927,
    2.50827,
    2.226,
    0.695439,
    1.228317,
    0.678,
    0.93311,
    1.479001,
    0.877,
    0.595,
    1.504114,
    1.101,
    1.899,
    0.838,
    1.255,
    1.319319,
    1.790778,
    1.630346,
    1.045629,
    1.571,
    1.355681,
    0.728762,
    0.870477,
    0.820284,
    0.635968,
    0.982264,
    1.175043,
    1.674354,
    0.863597,
    1.403925,
    1.432925,
    1.154931,
    1.514247,
    0.78796,
    1.938622,
    0.696403,
    0.565,
    0.844,
    1.361,
    1.748,
    0.637,
    1.092,
    1.315,
    1.288,
    0.715,
    1.543,
    1.534,
    1.015,
    2.049914,
    1.347,
    1.612,
    1.724,
    2.838,
    1.664,
    1.823474,
    1.976403,
    2.240637,
    1.486038,
    1.155956,
    1.232599,
    1.57514,
    1.847,
    1.185,
    0.832,
    1.128,
    1.092,
    1.95216,
    2.103,
    1.34,
    1.40111,
    0.774,
    0.569,
    1.265,
    0.647,
    0.837,
    1.341,
    0.88,
    0.798,
    0.964,
    0.755257,
    1.887,
    1.579,
    1.24125,
    1.393903,
    0.802,
    0.84,
    1.038,
    1.16,
    0.777,
    1.264,
    0.763,
    1.426,
    1.88,
    1.774,
    1.483,
    2.001,
    2.146953,
    1.651,
    1.353,
    1.288,
    1.603,
    1.431554,
    1.399,
    1.643,
    2.253,
    1.496,
    1.226,
    1.957,
    2.344,
    1.855,
    2.644,
    1.808,
    1.965,
    1.748,
    1.896,
    1.593,
    1.665,
    1.515,
    1.731,
    1.755,
    2.474,
    3.009,
    1.959,
    2.785,
    1.405,
    1.872,
    1.551,
    1.51,
    2.127,
    1.635,
    1.84,
    2.186,
    2.784,
    1.963,
    1.611,
    2.201,
    1.816,
    1.56,
    1.938,
    1.915,
    1.62,
    2.475,
    1.601,
    1.574,
    2.715,
    1.819,
    2.312,
    1.878,
    2.204,
    1.517,
    2.167,
    1.653,
    2.35,
    1.49,
    0.875,
    1.568,
    1.716,
    1.941103,
    0.945,
    1.858,
    1.554,
    0.781,
    1.512,
    1.453,
    1.969,
    1.091,
    2.34,
    2.147,
    2.706,
    2.289,
    2.144,
    1.713,
    1.633,
    2.416,
    1.55,
    2.337,
    3.493,
    0.786,
    0.743,
    1.106,
    1.701533,
    1.138,
    1.565604,
    1.099,
    0.86,
    0.61,
    1.044,
    1.032,
    0.831,
    1.306,
    0.994,
    1.761,
    0.826,
    1.142,
    1.334,
    0.792,
    1.229,
    1.235,
    1.454,
    0.841,
    1.587,
    1.686,
    2.364203,
    1.504,
    2.152,
    1.433,
    1.384,
    1.574469,
    1.669,
    1.586,
    2.083,
    3.331,
    1.605,
    2.621,
    3.613,
    2.237,
    1.832,
    2.194,
    2.008,
    1.544,
    2.301,
    3.243,
    1.458,
    1.81,
    0.79,
    1.488,
    0.88,
    1.352,
    1.564,
    1.261,
    1.064072,
    1.938,
    0.717,
    1.466,
    0.866636,
    2.626,
    0.686,
    2.062,
    1.467,
    1.651,
    2.093,
    2.284,
    1.52,
    2.196,
    1.211,
    1.803,
    1.827,
    1.539,
    1.378,
    1.519,
    1.714,
    1.27343,
    2.115645,
    2.07,
    1.526,
    1.938,
    1.877,
    1.371,
    1.956,
    1.669,
    1.472,
    2.556,
    1.33,
    1.345,
    1.36,
    2.189,
    2.315,
    2.454,
    1.722,
    2.157,
    2.447,
    1.23,
    1.435,
    1.693,
    2.231,
    1.946,
    1.446,
    2.196,
    1.224,
    1.454468,
    1.502,
    0.945,
    2.624,
    4.669111,
    1.053,
    1.05,
    0.739,
    1.345,
    1.51,
    2.247,
    0.811,
    1.256,
    1.707,
    0.906,
    2.0,
    1.262,
    0.887,
    1.065,
    1.488,
    1.499,
    1.732,
    1.848,
    2.496,
    1.929,
    2.158,
    2.033,
    1.647,
    1.572,
    2.334,
    2.522,
    1.838,
    1.476,
    1.547,
    0.637,
    0.571,
    1.657,
    0.738,
    0.537,
    7.345,
    1.147,
    1.184,
    1.499,
    0.856,
    0.778,
    0.685,
    1.71,
    1.623,
    1.462,
    1.745,
    1.79908,
    1.748,
    1.611,
    1.388,
    0.984,
    1.398,
    1.621,
    1.0,
    1.587,
    1.087,
    1.417,
    1.329,
    1.741,
    1.459,
    2.653,
    2.023,
    1.411,
    1.479,
    1.683,
    2.54,
    1.291,
    2.346,
    1.438,
    1.868,
    2.259,
    3.577,
    3.114416,
    1.924,
    1.768,
    1.675,
    1.66,
    2.313,
    1.771,
    1.546,
    1.656,
    1.868,
    1.719,
    2.663,
    2.399,
    1.381,
    2.138,
    1.655,
    1.871,
    1.937,
    2.414,
    1.596,
    1.499,
    1.586,
    1.461,
    1.33,
    1.468,
    1.667,
    2.001,
    1.673,
    1.75,
    1.801,
    1.895,
    1.214,
    1.619,
    1.967,
    1.491,
    1.532,
    0.601,
    1.173,
    1.047,
    2.287,
    1.591,
    13.655,
    1.274,
    1.595,
    1.125,
    1.187,
    1.702,
    0.902,
    1.573,
    1.815,
    1.69,
    2.23,
    1.394,
    2.241,
    1.861,
    1.5579,
    1.437,
    1.806,
    1.521,
    1.654,
    1.632,
    1.019,
    0.533,
    1.112,
    1.09,
    1.628,
    1.422,
    1.057,
    1.643,
    1.668,
    0.841,
    1.612,
    1.326,
    0.725,
    1.123,
    0.825,
    2.332,
    2.249,
    2.177,
    2.418,
    2.294,
    1.921,
    2.675,
    1.777,
    1.578,
    2.296,
    2.277,
    1.479,
    1.117,
    0.729,
    0.979,
    0.898,
    0.481,
    1.075,
    1.138,
    0.909,
    1.652,
    1.827,
    0.61,
    0.762,
    1.881,
    2.834,
    1.78,
    2.263,
    2.461166,
    1.755,
    1.649,
    1.914,
    1.654,
    1.774219,
    2.547,
    1.643,
    1.484,
    1.602,
    1.623,
    2.282,
    1.958,
    1.836,
    2.008,
    1.335,
    1.647,
    1.509,
    2.235,
    1.347,
    1.495,
    1.978,
    1.563,
    3.148,
    1.314,
    1.655,
    2.308,
    2.572,
    2.7,
    1.364,
    2.599,
    1.829715,
    1.712,
    2.483184,
    2.840599,
    2.705366,
    1.582381,
    2.409908,
    2.298936,
    2.352,
    2.830019,
    1.784808,
    1.472284,
    1.494,
    1.598309,
    1.528716,
    1.733,
    1.378,
    1.855,
    2.429,
    1.831,
    1.937,
    2.233,
    1.628,
    1.513,
    1.837,
    2.091,
    1.493,
    1.621,
    1.907,
    1.431,
    2.118,
    1.818,
    1.863,
    1.513,
    1.862,
    1.583,
    2.463,
    2.552,
    1.726,
    1.592,
    1.387,
    3.411,
    2.264,
    4.316,
    2.134,
    2.053,
    1.736,
    2.071,
    2.709,
    1.501,
    1.623159,
    1.989254,
    2.254,
    1.608,
    2.319825,
    1.634667,
    1.886064,
    2.127,
    1.879408,
    2.445,
    1.80922,
    1.56,
    1.389169,
    1.42,
    1.574348
  ],
  "5242880": [
    11.691,
    10.497719,
    12.003,
    10.367,
    11.636,
    18.461,
    17.065,
    14.801,
    5.966,
    8.813,
    11.293,
    7.191,
    7.87,
    13.02,
    32.103,
    43.120684,
    7.350889,
    7.324266,
    7.42,
    12.023593,
    11.813,
    6.251,
    13.548,
    19.802,
    10.303,
    15.795,
    15.251,
    15.272,
    25.882,
    15.335,
    11.219,
    8.041,
    12.827,
    9.994,
    8.616,
    12.224,
    9.953,
    20.267,
    18.141,
    29.386,
    14.874,
    19.307,
    18.687
  ],
  "ALL": [
    1.703,
    2.261,
    1.779,
    2.289,
    1.454,
    1.812,
    2.05,
    1.747,
    1.595,
    2.577,
    2.234,
    2.139,
    1.518,
    5.467,
    5.672,
    11.691,
    1.617,
    2.105,
    1.873,
    2.232,
    1.959,
    2.015,
    2.156,
    2.466,
    1.835,
    1.466,
    1.408,
    2.786,
    2.32,
    5.47,
    12.823,
    2.185261,
    1.861897,
    1.459,
    1.439,
    1.347,
    1.751,
    2.029,
    1.767,
    1.491,
    1.353,
    2.015,
    1.231,
    2.812,
    4.912458,
    5.335,
    5.821305,
    1.169432,
    1.534,
    2.941,
    1.782,
    1.636,
    1.852,
    1.889506,
    1.763,
    2.111,
    1.207,
    1.578,
    6.501,
    6.984,
    4.148,
    10.497719,
    0.752,
    1.75,
    2.74,
    1.534,
    2.004,
    1.617,
    1.812,
    1.464,
    1.265,
    0.863,
    2.081,
    8.717,
    1.365,
    4.087,
    2.563342,
    1.692342,
    2.035,
    2.426,
    1.396928,
    2.19,
    1.855,
    1.997,
    1.703,
    1.398,
    1.514,
    8.413,
    7.384506,
    5.893,
    12.003,
    1.03,
    0.946,
    1.23,
    1.471,
    1.743,
    1.132,
    0.868,
    1.047,
    1.12,
    0.995,
    0.9,
    1.663,
    2.963,
    4.1,
    2.391,
    1.499167,
    1.290406,
    2.120897,
    2.076,
    2.137767,
    1.660876,
    1.736632,
    1.990975,
    1.501897,
    3.024709,
    1.733757,
    1.925,
    2.051124,
    2.074406,
    2.836201,
    1.188154,
    1.818,
    2.241,
    2.537,
    2.229,
    1.78,
    2.173,
    1.335,
    1.653,
    1.374,
    1.984,
    4.226,
    27.391,
    40.438,
    4.717,
    5.214,
    1.038,
    1.647,
    0.875,
    0.94,
    1.766,
    1.564,
    1.87,
    1.419,
    3.287,
    0.933,
    1.07,
    0.718,
    0.869,
    0.647,
    2.62,
    5.411,
    2.37,
    1.769,
    1.809,
    2.647,
    2.354,
    2.997,
    2.884,
    1.842,
    2.281,
    1.556,
    2.348,
    2.2,
    1.61,
    2.064,
    6.039,
    2.231,
    2.19,
    1.696,
    2.705,
    1.968,
    2.382,
    2.018,
    1.676,
    2.218,
    2.034,
    1.553,
    1.499,
    1.902,
    2.395,
    5.332,
    1.508681,
    1.548902,
    0.934,
    1.517,
    1.229,
    2.109098,
    1.179266,
    1.287,
    0.68376,
    1.355,
    0.703,
    1.477,
    1.294856,
    1.746,
    2.786558,
    4.220357,
    0.748,
    1.036,
    1.168,
    2.065,
    1.701,
    1.392,
    1.319,
    1.861,
    1.646,
    2.058,
    1.058,
    0.978,
    4.846,
    2.95,
    3.473,
    1.582,
    1.691,
    2.389,
    2.933,
    1.808,
    2.606,
    1.606,
    1.406,
    1.686,
    1.263,
    2.121,
    1.26,
    6.123,
    4.255,
    4.657,
    1.466,
    1.058,
    1.791,
    0.82,
    1.189,
    1.096,
    0.84,
    1.511,
    1.495,
    0.978,
    0.864,
    3.984,
    2.969,
    3.48,
    10.367,
    11.636,
    1.406,
    2.071,
    1.691998,
    1.612,
    1.775989,
    1.892,
    1.876,
    1.378,
    1.395,
    1.681,
    1.447,
    1.334,
    1.855,
    4.688,
    8.099989,
    1.961849,
    1.970233,
    2.141,
    1.899,
    1.674,
    2.232,
    1.919876,
    1.997752,
    1.867876,
    2.06,
    2.521142,
    1.549752,
    18.461,
    17.065,
    14.801,
    1.859,
    1.674,
    1.617,
    2.024,
    2.33,
    1.74,
    1.624,
    1.538,
    2.199,
    1.71,
    1.792,
    1.958,
    2.802,
    1.478,
    8.356,
    14.592,
    1.480642,
    1.123889,
    2.25,
    2.66,
    2.387,
    1.901,
    1.573,
    1.322,
    1.735,
    1.823,
    1.314,
    1.924,
    1.346,
    1.519,
    5.194,
    1.825,
    2.588,
    1.703,
    2.792,
    1.456,
    2.234,
    2.112,
    2.131,
    1.576,
    1.737,
    2.023,
    1.736,
    1.545,
    1.717,
    7.986,
    7.556,
    1.794231,
    1.481,
    2.278,
    2.098,
    2.292,
    2.254,
    2.560322,
    1.503408,
    2.238649,
    5.059809,
    6.606,
    5.744,
    6.693915,
    5.38,
    8.446,
    1.083,
    0.562,
    0.911,
    0.86,
    1.137,
    1.579,
    2.209,
    1.949,
    1.0,
    1.504,
    0.729,
    3.235,
    3.587,
    3.848,
    5.375,
    5.966,
    1.989,
    1.408,
    1.542,
    1.727,
    1.691,
    1.369,
    1.464,
    2.372,
    2.541,
    2.055,
    1.189,
    1.874,
    4.41616,
    6.214,
    5.114,
    2.288979,
    1.561,
    1.416,
    1.016504,
    1.296,
    1.584,
    2.009,
    1.09,
    1.129,
    1.538,
    7.215,
    4.967619,
    4.052223,
    3.771,
    8.813,
    11.293,
    1.052,
    0.74,
    1.21,
    1.655,
    1.812,
    2.323,
    1.853,
    0.961,
    0.907,
    1.613,
    0.862,
    3.12,
    7.191,
    7.87,
    1.714,
    2.507,
    2.047,
    1.844,
    2.598,
    1.702,
    2.037,
    2.478,
    1.861,
    10.832,
    2.442,
    2.146,
    2.321,
    1.745,
    1.78,
    2.324,
    1.68,
    0.904,
    1.192,
    1.679,
    1.225,
    0.971076,
    1.56,
    0.797,
    1.195,
    0.779924,
    0.988,
    1.63,
    3.519288,
    6.213,
    3.122013,
    1.541,
    1.059,
    1.970248,
    0.841,
    1.742,
    1.392,
    1.918,
    0.771,
    0.715,
    1.188,
    1.271,
    0.719,
    0.866,
    3.926,
    3.076,
    4.237,
    1.626392,
    1.277013,
    1.753763,
    1.421,
    1.817,
    1.882,
    2.008897,
    1.568712,
    1.496,
    1.727743,
    1.389,
    1.658889,
    4.5,
    4.350103,
    6.642,
    13.02,
    8.213,
    2.177,
    2.306,
    2.893,
    1.432,
    2.162,
    2.868,
    2.132,
    3.929,
    1.794,
    1.949,
    1.365,
    1.619,
    2.173,
    1.988,
    8.836,
    2.464,
    1.662,
    2.425,
    1.85,
    1.946,
    2.735,
    2.315,
    1.496,
    1.456,
    1.58,
    4.999,
    5.213,
    6.133,
    5.161,
    5.904,
    6.697,
    1.025,
    1.084,
    1.828373,
    0.719492,
    1.416,
    1.299453,
    1.058,
    1.78348,
    1.274272,
    1.39104,
    1.911079,
    1.43,
    0.824,
    3.186117,
    4.624,
    2.554905,
    1.523,
    2.205,
    1.380316,
    2.729,
    1.703,
    1.796,
    2.292,
    1.549163,
    2.48,
    1.586591,
    2.060684,
    1.131,
    1.315,
    4.482218,
    3.94,
    1.413,
    4.052,
    2.669,
    1.565,
    1.879,
    2.781,
    2.14,
    1.519,
    2.708,
    1.84,
    2.798,
    20.416,
    11.13,
    32.103,
    43.120684,
    2.164,
    0.836328,
    1.29927,
    2.50827,
    2.226,
    0.695439,
    1.228317,
    0.678,
    0.93311,
    1.479001,
    0.877,
    3.563,
    2.794,
    7.350889,
    7.324266,
    0.595,
    1.504114,
    1.101,
    1.899,
    0.838,
    1.255,
    1.319319,
    1.790778,
    1.630346,
    1.045629,
    1.571,
    1.355681,
    0.728762,
    0.870477,
    5.334902,
    7.42,
    0.820284,
    0.635968,
    0.982264,
    1.175043,
    1.674354,
    0.863597,
    1.403925,
    1.432925,
    1.154931,
    1.514247,
    0.78796,
    1.938622,
    0.696403,
    7.270967,
    3.524983,
    12.023593,
    0.565,
    0.844,
    1.361,
    1.748,
    0.637,
    1.092,
    1.315,
    1.288,
    0.715,
    1.543,
    1.534,
    1.015,
    4.749,
    3.787388,
    5.435,
    11.813,
    2.049914,
    1.347,
    1.612,
    1.724,
    2.838,
    1.664,
    1.823474,
    1.976403,
    2.240637,
    1.486038,
    1.155956,
    1.232599,
    1.57514,
    1.847,
    3.967,
    6.165246,
    1.185,
    0.832,
    1.128,
    1.092,
    1.95216,
    2.103,
    1.34,
    1.40111,
    0.774,
    0.569,
    1.265,
    0.647,
    0.837,
    1.341,
    0.88,
    2.592206,
    0.798,
    0.964,
    0.755257,
    1.887,
    1.579,
    1.24125,
    1.393903,
    0.802,
    0.84,
    1.038,
    1.16,
    0.777,
    1.264,
    0.763,
    2.692,
    6.251,
    1.426,
    1.88,
    1.774,
    1.483,
    2.001,
    2.146953,
    1.651,
    1.353,
    1.288,
    1.603,
    1.431554,
    1.399,
    1.643,
    2.253,
    5.521,
    13.548,
    1.496,
    1.226,
    1.957,
    2.344,
    1.855,
    2.644,
    1.808,
    1.965,
    1.748,
    1.896,
    1.593,
    1.665,
    1.515,
    10.756,
    5.763,
    1.731,
    1.755,
    2.474,
    3.009,
    1.959,
    2.785,
    1.405,
    1.872,
    1.551,
    1.51,
    2.127,
    5.219,
    14.092,
    7.045,
    5.59,
    1.635,
    1.84,
    2.186,
    2.784,
    1.963,
    1.611,
    2.201,
    1.816,
    1.56,
    1.938,
    1.915,
    1.62,
    2.475,
    4.924,
    7.332,
    4.57,
    1.601,
    1.574,
    2.715,
    1.819,
    2.312,
    1.878,
    2.204,
    1.517,
    2.167,
    1.653,
    2.35,
    1.49,
    5.526,
    6.681,
    19.802,
    0.875,
    1.568,
    1.716,
    1.941103,
    0.945,
    1.858,
    1.554,
    0.781,
    1.512,
    1.453,
    1.969,
    1.091,
    2.265,
    2.747,
    10.303,
    2.34,
    2.147,
    2.706,
    2.289,
    2.144,
    1.713,
    1.633,
    2.416,
    1.55,
    2.337,
    3.493,
    9.103,
    15.795,
    15.251,
    0.786,
    0.743,
    1.106,
    1.701533,
    1.138,
    1.565604,
    1.099,
    0.86,
    0.61,
    1.044,
    1.032,
    1.843,
    2.287,
    2.028,
    3.573,
    0.831,
    1.306,
    0.994,
    1.761,
    0.826,
    1.142,
    1.334,
    0.792,
    1.229,
    1.235,
    1.454,
    0.841,
    3.562,
    2.064,
    3.3,
    1.587,
    1.686,
    2.364203,
    1.504,
    2.152,
    1.433,
    1.384,
    1.574469,
    1.669,
    1.586,
    2.083,
    6.32,
    7.195,
    4.709,
    15.272,
    3.331,
    1.605,
    2.621,
    3.613,
    2.237,
    1.832,
    2.194,
    2.008,
    1.544,
    2.301,
    3.243,
    1.458,
    1.81,
    5.355,
    10.095,
    0.79,
    1.488,
    0.88,
    1.352,
    1.564,
    1.261,
    1.064072,
    1.938,
    0.717,
    1.466,
    0.866636,
    2.626,
    0.686,
    2.062,
    1.467,
    25.882,
    1.651,
    2.093,
    2.284,
    1.52,
    2.196,
    1.211,
    1.803,
    1.827,
    1.539,
    1.378,
    1.519,
    1.714,
    1.27343,
    2.115645,
    2.07,
    1.526,
    1.938,
    1.877,
    1.371,
    1.956,
    1.669,
    1.472,
    2.556,
    1.33,
    1.345,
    1.36,
    5.027,
    5.741,
    5.915,
    5.275,
    15.335,
    2.189,
    2.315,
    2.454,
    1.722,
    2.157,
    2.447,
    1.23,
    1.435,
    1.693,
    2.231,
    1.946,
    4.559,
    5.749731,
    4.981,
    5.605,
    5.552,
    1.446,
    2.196,
    1.224,
    1.454468,
    1.502,
    0.945,
    2.624,
    4.669111,
    1.053,
    3.337,
    3.62,
    5.895,
    11.219,
    8.041,
    1.05,
    0.739,
    1.345,
    1.51,
    2.247,
    0.811,
    1.256,
    1.707,
    0.906,
    2.0,
    1.262,
    0.887,
    1.065,
    3.157,
    3.946,
    12.827,
    1.488,
    1.499,
    1.732,
    1.848,
    2.496,
    1.929,
    2.158,
    2.033,
    1.647,
    1.572,
    2.334,
    2.522,
    1.838,
    1.476,
    1.547,
    10.681,
    0.637,
    0.571,
    1.657,
    0.738,
    0.537,
    7.345,
    1.147,
    1.184,
    1.499,
    0.856,
    0.778,
    0.685,
    1.71,
    1.623,
    9.994,
    1.462,
    1.745,
    1.79908,
    1.748,
    1.611,
    1.388,
    0.984,
    1.398,
    1.621,
    1.0,
    1.587,
    1.087,
    4.058,
    8.616,
    1.417,
    1.329,
    1.741,
    1.459,
    2.653,
    2.023,
    1.411,
    1.479,
    1.683,
    2.54,
    1.291,
    2.346,
    5.47,
    5.955,
    4.93,
    1.438,
    1.868,
    2.259,
    3.577,
    3.114416,
    1.924,
    1.768,
    1.675,
    1.66,
    2.313,
    1.771,
    1.546,
    7.074,
    1.656,
    1.868,
    1.719,
    2.663,
    2.399,
    1.381,
    2.138,
    1.655,
    1.871,
    1.937,
    2.414,
    1.596,
    1.499,
    1.586,
    6.209,
    6.546,
    1.461,
    1.33,
    1.468,
    1.667,
    2.001,
    1.673,
    1.75,
    1.801,
    1.895,
    1.214,
    1.619,
    1.967,
    1.491,
    5.624,
    4.088,
    1.532,
    0.601,
    1.173,
    1.047,
    2.287,
    1.591,
    13.655,
    1.274,
    1.595,
    1.125,
    1.187,
    1.702,
    0.902,
    1.573,
    4.866,
    1.815,
    1.69,
    2.23,
    1.394,
    2.241,
    1.861,
    1.5579,
    1.437,
    1.806,
    1.521,
    1.654,
    1.632,
    7.447922,
    8.093,
    4.635,
    12.224,
    1.019,
    0.533,
    1.112,
    1.09,
    1.628,
    1.422,
    1.057,
    1.643,
    1.668,
    0.841,
    1.612,
    1.326,
    0.725,
    1.123,
    0.825,
    2.876,
    2.332,
    2.249,
    2.177,
    2.418,
    2.294,
    1.921,
    2.675,
    1.777,
    1.578,
    2.296,
    2.277,
    1.479,
    5.161,
    6.846,
    4.710887,
    1.117,
    0.729,
    0.979,
    0.898,
    0.481,
    1.075,
    1.138,
    0.909,
    1.652,
    1.827,
    0.61,
    0.762,
    1.763,
    2.841,
    5.7,
    9.953,
    1.881,
    2.834,
    1.78,
    2.263,
    2.461166,
    1.755,
    1.649,
    1.914,
    1.654,
    1.774219,
    2.547,
    7.822,
    20.267,
    18.141,
    1.643,
    1.484,
    1.602,
    1.623,
    2.282,
    1.958,
    1.836,
    2.008,
    1.335,
    1.647,
    1.509,
    2.235,
    1.347,
    6.581,
    5.378,
    5.503,
    1.495,
    1.978,
    1.563,
    3.148,
    1.314,
    1.655,
    2.308,
    2.572,
    2.7,
    1.364,
    2.599,
    7.747,
    29.386,
    1.829715,
    1.712,
    2.483184,
    2.840599,
    2.705366,
    1.582381,
    2.409908,
    2.298936,
    2.352,
    2.830019,
    1.784808,
    1.472284,
    1.494,
    1.598309,
    1.528716,
    6.518,
    1.733,
    1.378,
    1.855,
    2.429,
    1.831,
    1.937,
    2.233,
    1.628,
    1.513,
    1.837,
    2.091,
    1.493,
    5.395,
    14.874,
    19.307,
    1.621,
    1.907,
    1.431,
    2.118,
    1.818,
    1.863,
    1.513,
    1.862,
    1.583,
    2.463,
    2.552,
    1.726,
    5.993,
    5.688,
    18.687,
    1.592,
    1.387,
    3.411,
    2.264,
    4.316,
    2.134,
    2.053,
    1.736,
    2.071,
    2.709,
    1.501,
    10.863,
    9.538,
    1.623159,
    1.989254,
    2.254,
    1.608,
    2.319825,
    1.634667,
    1.886064,
    2.127,
    1.879408,
    2.445,
    1.80922,
    1.56,
    1.389169,
    1.42,
    1.574348
  ]
}