{
  "900": 3338734335,
  "901": 3431318278,
  "902": 3447446665,
  "903": 3427163816,
  "904": 3409684992,
  "905": 3382673951,
  "906": 3396145541,
  "907": 3374800335,
  "908": 3383180702,
  "909": 3326022828,
  "910": 3388023169,
  "911": 3337619880,
  "912": 3365681512,
  "913": 3408833854,
  "914": 3371634610,
  "915": 3329662234,
  "916": 3364187846,
  "917": 3402765087,
  "918": 3335067352,
  "919": 3399177728,
  "920": 3361837819,
  "921": 3342900075,
  "922": 3358161776,
  "923": 3289375806,
  "924": 3338552243,
  "925": 3403097651,
  "926": 3366261048,
  "927": 3379568801,
  "928": 3353447100,
  "929": 3352027809,
  "930": 3399778584,
  "931": 3410434105,
  "932": 3444331475,
  "933": 3421421433,
  "934": 3429616539,
  "935": 3413835735,
  "936": 3407940597,
  "937": 3410836001,
  "938": 3386639614,
  "939": 3401739240,
  "940": 3437912562,
  "941": 3432223523,
  "942": 3455170969,
  "943": 3408041539,
  "944": 3456628005,
  "945": 3419237868,
  "946": 3406257128,
  "947": 3337163303,
  "948": 3377856947,
  "949": 3391309618,
  "950": 3435297094,
  "951": 3415407702,
  "952": 3400207443,
  "953": 3436547813,
  "954": 3405534913,
  "955": 3415741909,
  "956": 3408739590,
  "957": 3443788435,
  "958": 3411264662,
  "959": 3440231953,
  "960": 3404905901,
  "961": 3427405124,
  "962": 3418936333,
  "963": 3383023552,
  "964": 3416006841,
  "965": 3469952109,
  "966": 3519839312,
  "967": 3474619232,
  "968": 3435167509,
  "969": 3435830223,
  "970": 3458411493,
  "971": 3474026835,
  "972": 3462701290,
  "973": 3524152460,
  "974": 3476133555,
  "975": 3471843399,
  "976": 3439579971,
  "977": 3425256587,
  "978": 3434715590,
  "979": 3451866202,
  "980": 3488470072,
  "981": 3496879037,
  "982": 3446340892,
  "983": 3478523164,
  "984": 3467280877,
  "985": 3469672890,
  "986": 3475164477,
  "987": 3520667763,
  "988": 3526556257,
  "989": 3509768234,
  "990": 3522784473,
  "991": 3486255741,
  "992": 3443584114,
  "993": 3474956247,
  "994": 3509526101,
  "995": 3512979243,
  "996": 3536874665,
  "997": 3500789162,
  "998": 3516925900,
  "999": 3504519044,
  "1000": 3567854824,
  "1001": 3497355626,
  "1002": 3459249758,
  "1003": 3513789034,
  "1004": 3471346002,
  "1005": 3511932749,
  "1006": 3533209019,
  "1007": 3529465747,
  "1008": 3540296342,
  "1009": 3546257427,
  "1010": 3554156827,
  "1011": 3551775040,
  "1012": 3562631697,
  "1013": 3581203940,
  "1014": 3554636694,
  "1015": 3506901711,
  "1016": 3533492406,
  "1017": 3577759891,
  "1018": 3534974745,
  "1019": 3560459303,
  "1020": 3560568695,
  "1021": 3555597277,
  "1022": 3583075430,
  "1023": 3571830863,
  "1024": 3535238343,
  "1025": 3461517574,
  "1026": 3521714726,
  "1027": 3552891467,
  "1028": 3529277311,
  "1029": 3509434593,
  "1030": 3484235055,
  "1031": 3508969290,
  "1032": 3502296379,
  "1033": 3496053876,
  "1034": 3538852196,
  "1035": 3539258297,
  "1036": 3577297487,
  "1037": 3583128702,
  "1038": 3562508378,
  "1039": 3536705947,
  "1040": 3569969797,
  "1041": 3573694440,
  "1042": 3545895169,
  "1043": 3579244247,
  "1044": 3577840780,
  "1045": 3491539814,
  "1046": 3550002421,
  "1047": 3557742026,
  "1048": 3536270860,
  "1049": 3592018326,
  "1050": 3492270774,
  "1051": 3513717659,
  "1052": 3518234649,
  "1053": 3536198769,
  "1054": 3600140038,
  "1055": 3567823217,
  "1056": 3508868498,
  "1057": 3492965597,
  "1058": 3539104344,
  "1059": 3544750277,
  "1060": 3555155382,
  "1061": 3567965142,
  "1062": 3565313396,
  "1063": 3517888252,
  "1064": 3586306966,
  "1065": 3622528992,
  "1066": 3625846648,
  "1067": 3592463583,
  "1068": 3589719343,
  "1069": 3607475874,
  "1070": 3606598590,
  "1071": 3571655387,
  "1072": 3624603495,
  "1073": 3659231460,
  "1074": 3626931483,
  "1075": 3638557146,
  "1076": 3574868761,
  "1077": 3609608821,
  "1078": 3607915282,
  "1079": 3616709110,
  "1080": 3580286022,
  "1081": 3626412031,
  "1082": 3587938142,
  "1083": 3504371300,
  "1084": 3554209382,
  "1085": 3586645442,
  "1086": 3581970212,
  "1087": 3576234765,
  "1088": 3606507227,
  "1089": 3655282259,
  "1090": 3574844119,
  "1091": 3631968921,
  "1092": 3626230667,
  "1093": 3639665771,
  "1094": 3634901383,
  "1095": 3631228627,
  "1096": 3539178693,
  "1097": 3554094419,
  "1098": 3591528598,
  "1099": 3596661940,
  "1100": 3653916436,
  "1101": 3614040990,
  "1102": 3606769589,
  "1103": 3635009532,
  "1104": 3619036581,
  "1105": 3633075834,
  "1106": 3657559413,
  "1107": 3612700412,
  "1108": 3603876234,
  "1109": 3563873875,
  "1110": 3587964684,
  "1111": 3594199082,
  "1112": 3589417654,
  "1113": 3597145691,
  "1114": 3599214979,
  "1115": 3646795847,
  "1116": 3684610895,
  "1117": 3670968211,
  "1118": 3705576572,
  "1119": 3625841825,
  "1120": 3617018773,
  "1121": 3646701241,
  "1122": 3655705026,
  "1123": 3618924147,
  "1124": 3619781874,
  "1125": 3652054407,
  "1126": 3642190325,
  "1127": 3607474873,
  "1128": 3625590694,
  "1129": 3650609488,
  "1130": 3657046225,
  "1131": 3684900922,
  "1132": 3689704218,
  "1133": 3644339685,
  "1134": 3639103299,
  "1135": 3637078511,
  "1136": 3682453536,
  "1137": 3633284730,
  "1138": 3621369914,
  "1139": 3621084246,
  "1140": 3641561725,
  "1141": 3630532656,
  "1142": 3662395339,
  "1143": 3711275759,
  "1144": 3692544831,
  "1145": 3662506242,
  "1146": 3664067203,
  "1147": 3654563651,
  "1148": 3658179090,
  "1149": 3640402011,
  "1150": 3659124047,
  "1151": 3713690929,
  "1152": 3732255794,
  "1153": 3731286430,
  "1154": 3619932391,
  "1155": 3683253448,
  "1156": 3631869479,
  "1157": 3666519452,
  "1158": 3645925317,
  "1159": 3562616538,
  "1160": 3589417675,
  "1161": 3593618271,
  "1162": 3546793452,
  "1163": 3592651063,
  "1164": 3576329065,
  "1165": 3572878153,
  "1166": 3551133045,
  "1167": 3556444334,
  "1168": 3567241236,
  "1169": 3567924032,
  "1170": 3625237003,
  "1171": 3617417043,
  "1172": 3558554632,
  "1173": 3646183850,
  "1174": 3634137717,
  "1175": 3619365829,
  "1176": 3625776289,
  "1177": 3643362399,
  "1178": 3643507438,
  "1179": 3591354141,
  "1180": 3619626085,
  "1181": 3622457808,
  "1182": 3626897985,
  "1183": 3649387363,
  "1184": 3654877075,
  "1185": 3650740479,
  "1186": 3656379484,
  "1187": 3687410590,
  "1188": 3639973020,
  "1189": 3665906825,
  "1190": 3572199152,
  "1191": 3581293395,
  "1192": 3587173716,
  "1193": 3559743783,
  "1194": 3577323244,
  "1195": 3627252823,
  "1196": 3700381177,
  "1197": 3653709351,
  "1198": 3669351921,
  "1199": 3614202300,
  "1200": 3638790916,
  "1201": 3681008510,
  "1202": 3695599822,
  "1203": 3698287456,
  "1204": 3757967998,
  "1205": 3742069933,
  "1206": 3671016963,
  "1207": 3634644355,
  "1208": 3614800800,
  "1209": 3678388114,
  "1210": 3593047768,
  "1211": 3635553099,
  "1212": 3677430357,
  "1213": 3646077392,
  "1214": 3667859434,
  "1215": 3628872358,
  "1216": 3632033551,
  "1217": 3592354729,
  "1218": 3657871411,
  "1219": 3614717088,
  "1220": 3583622932,
  "1221": 3610073587,
  "1222": 3653611482,
  "1223": 3627601989,
  "1224": 3631483116,
  "1225": 3606601809,
  "1226": 3674475490,
  "1227": 3672644067,
  "1228": 3660624965,
  "1229": 3635583693,
  "1230": 3617574643,
  "1231": 3576595533,
  "1232": 3565836660,
  "1233": 3560763670,
  "1234": 3580457115,
  "1235": 3641926327,
  "1236": 3654712494,
  "1237": 3621099190,
  "1238": 3679669726,
  "1239": 3696610942,
  "1240": 3667204990,
  "1241": 3665503445,
  "1242": 3669353747,
  "1243": 3671652525,
  "1244": 3651583014,
  "1245": 3650113842,
  "1246": 3703180597,
  "1247": 3649773684,
  "1248": 3612277991,
  "1249": 3627009015,
  "1250": 3670967235,
  "1251": 3674283421,
  "1252": 3642070836,
  "1253": 3650701066,
  "1254": 3685045073,
  "1255": 3674648141,
  "1256": 3702207149,
  "1257": 3702859312,
  "1258": 3677467600,
  "1259": 3677513436,
  "1260": 3675243826,
  "1261": 3691997972,
  "1262": 3731331451,
  "1263": 3688968680,
  "1264": 3654470529,
  "1265": 3676138040,
  "1266": 3659215483,
  "1267": 3703017356,
  "1268": 3627639186,
  "1269": 3600758870,
  "1270": 3616967377,
  "1271": 3616819254,
  "1272": 3635831563,
  "1273": 3662339018,
  "1274": 3619044241,
  "1275": 3688385977,
  "1276": 3678604449,
  "1277": 3637761284,
  "1278": 3663636191,
  "1279": 3633377759,
  "1280": 3629972022,
  "1281": 3664248703,
  "1282": 3612790990,
  "1283": 3639185537,
  "1284": 3700818382,
  "1285": 3686370768,
  "1286": 3681384716,
  "1287": 3607177646,
  "1288": 3679024130,
  "1289": 3673883662,
  "1290": 3627653907,
  "1291": 3621273799,
  "1292": 3649361548,
  "1293": 3712757643,
  "1294": 3738450500,
  "1295": 3657571278,
  "1296": 3709404596,
  "1297": 3761455067,
  "1298": 3687633476,
  "1299": 3660262059,
  "1300": 3637524992,
  "1301": 3652650933,
  "1302": 3652600063,
  "1303": 3647768807,
  "1304": 3660199439,
  "1305": 3598155035,
  "1306": 3648228842,
  "1307": 3719927701,
  "1308": 3605833915,
  "1309": 3634396228,
  "1310": 3689232166,
  "1311": 3674757062,
  "1312": 3669053898,
  "1313": 3695556396,
  "1314": 3696714002,
  "1315": 3683080277,
  "1316": 3668478388,
  "1317": 3646863611,
  "1318": 3661863372,
  "1319": 3622772351,
  "1320": 3578905894,
  "1321": 3679433670,
  "1322": 3693989796,
  "1323": 3647321740,
  "1324": 3688227703,
  "1325": 3705493327,
  "1326": 3735107855,
  "1327": 3708100875,
  "1328": 3689076543,
  "1329": 3697410921,
  "1330": 3687428373,
  "1331": 3723902798,
  "1332": 3714258863,
  "1333": 3701631393,
  "1334": 3723949143,
  "1335": 3709884102,
  "1336": 3656234519,
  "1337": 3683857112,
  "1338": 3667285441,
  "1339": 3711344949,
  "1340": 3664568229,
  "1341": 3645777745,
  "1342": 3611554582,
  "1343": 3623974408,
  "1344": 3668646191,
  "1345": 3701715123,
  "1346": 3660014673,
  "1347": 3642678476,
  "1348": 3690638615,
  "1349": 3646883068,
  "1350": 3655372598,
  "1351": 3669912215,
  "1352": 3607854128,
  "1353": 3741234285,
  "1354": 3732415110,
  "1355": 3701518639,
  "1356": 3662577545,
  "1357": 3681280062,
  "1358": 3712947309,
  "1359": 3719233371,
  "1360": 3667171987,
  "1361": 3722250851,
  "1362": 3689288257,
  "1363": 3638025526,
  "1364": 3629378074,
  "1365": 3664857213,
  "1366": 3666584073,
  "1367": 3641386896,
  "1368": 3618694019,
  "1369": 3658803861,
  "1370": 3577226572,
  "1371": 3622653478,
  "1372": 3688992204,
  "1373": 3727238943,
  "1374": 3692646597,
  "1375": 3683476379,
  "1376": 3727349904,
  "1377": 3714526058,
  "1378": 3699862971,
  "1379": 3716960006,
  "1380": 3711993707,
  "1381": 3700645846,
  "1382": 3695664407,
  "1383": 3683692492,
  "1384": 3717349919,
  "1385": 3697864006,
  "1386": 3714023567,
  "1387": 3617708188,
  "1388": 3678381640,
  "1389": 3767307890,
  "1390": 3679482978,
  "1391": 3721738195,
  "1392": 3679546220,
  "1393": 3745656296,
  "1394": 3725298371,
  "1395": 3801496990,
  "1396": 3771638877,
  "1397": 3733379555,
  "1398": 3713385284,
  "1399": 3788353836,
  "1400": 3711234365,
  "1401": 3692078329,
  "1402": 3709953285,
  "1403": 3684131670,
  "1404": 3713920216,
  "1405": 3681964534,
  "1406": 3713786951,
  "1407": 3759699177,
  "1408": 3687180666,
  "1409": 3676542907,
  "1410": 3654049865,
  "1411": 3689833657,
  "1412": 3691545378,
  "1413": 3677200053,
  "1414": 3779032760,
  "1415": 3804146622,
  "1416": 3747768197,
  "1417": 3696095430,
  "1418": 3697096861,
  "1419": 3694960578,
  "1420": 3676977064,
  "1421": 3726512261,
  "1422": 3701346416,
  "1423": 3696658994,
  "1424": 3687496320,
  "1425": 3703366843,
  "1426": 3751491923,
  "1427": 3682233155,
  "1428": 3609391985,
  "1429": 3600288336,
  "1430": 3648067022,
  "1431": 3688717469,
  "1432": 3734099703,
  "1433": 3714345210,
  "1434": 3744207617,
  "1435": 3757948599,
  "1436": 3731392447,
  "1437": 3683387238,
  "1438": 3688879277,
  "1439": 3651839828,
  "1440": 3643631782,
  "1441": 3659573544,
  "1442": 3694640985,
  "1443": 3699593338,
  "1444": 3709938543,
  "1445": 3735562792,
  "1446": 3765645428,
  "1447": 3709902281,
  "1448": 3668373256,
  "1449": 3685763110,
  "1450": 3701484391,
  "1451": 3760370429,
  "1452": 3798931598,
  "1453": 3760545858,
  "1454": 3748297813,
  "1455": 3729760707,
  "1456": 3744870496,
  "1457": 3754683458,
  "1458": 3703050400,
  "1459": 3685661991,
  "1460": 3753720741,
  "1461": 3764073699,
  "1462": 3737526220,
  "1463": 3697206475,
  "1464": 3710321806,
  "1465": 3694781313,
  "1466": 3717206240,
  "1467": 3719411476,
  "1468": 3720863010,
  "1469": 3707657074,
  "1470": 3702215017,
  "1471": 3669986239,
  "1472": 3734205002,
  "1473": 3748038323,
  "1474": 3747174809,
  "1475": 3706331970,
  "1476": 3711504114,
  "1477": 3693375874,
  "1478": 3726683307,
  "1479": 3726691519,
  "1480": 3718563542,
  "1481": 3665773141,
  "1482": 3623973751,
  "1483": 3631063070,
  "1484": 3670391878,
  "1485": 3702047667,
  "1486": 3714938011,
  "1487": 3733348602,
  "1488": 3735687256,
  "1489": 3741749605,
  "1490": 3748837020,
  "1491": 3703658656,
  "1492": 3703998578,
  "1493": 3720818466,
  "1494": 3704178444,
  "1495": 3775485930,
  "1496": 3728998219,
  "1497": 3759098107,
  "1498": 3736613199,
  "1499": 3718955567,
  "1500": 3756358377,
  "1501": 3794048203,
  "1502": 3806741408,
  "1503": 3853963030,
  "1504": 3766298035,
  "1505": 3780974901,
  "1506": 3795887018,
  "1507": 3762638206,
  "1508": 3764235129,
  "1509": 3761139870,
  "1510": 3735114688,
  "1511": 3755858353,
  "1512": 3717547471,
  "1513": 3662748495,
  "1514": 3748501400,
  "1515": 3670664604,
  "1516": 3619558805,
  "1517": 3691431686,
  "1518": 3669802290,
  "1519": 3677036325,
  "1520": 3800023628,
  "1521": 3720245862,
  "1522": 3679187971,
  "1523": 3680804164,
  "1524": 3656649048,
  "1525": 3681227840,
  "1526": 3669207954,
  "1527": 3767905024,
  "1528": 3713126882,
  "1529": 3715535317,
  "1530": 3752971979,
  "1531": 3662759870,
  "1532": 3669611770,
  "1533": 3743858829,
  "1534": 3725309089,
  "1535": 3709082792,
  "1536": 3719591629,
  "1537": 3734792139,
  "1538": 3727267978,
  "1539": 3749421122,
  "1540": 3731971917,
  "1541": 3681192959,
  "1542": 3694124873,
  "1543": 3680506957,
  "1544": 3731632502,
  "1545": 3686218167,
  "1546": 3711011502,
  "1547": 3776213037,
  "1548": 3688706325,
  "1549": 3696073593,
  "1550": 3730277087,
  "1551": 3703453775,
  "1552": 3777955561,
  "1553": 3741200585,
  "1554": 3804571035,
  "1555": 3775192605,
  "1556": 3769893802,
  "1557": 3769699678,
  "1558": 3781659770,
  "1559": 3780016522,
  "1560": 3772317214,
  "1561": 3720926726,
  "1562": 3763061264,
  "1563": 3756817317,
  "1564": 3787186964,
  "1565": 3826396188,
  "1566": 3730700858,
  "1567": 3728926242,
  "1568": 3704060859,
  "1569": 3696786208,
  "1570": 3702700162,
  "1571": 3751696747,
  "1572": 3800306436,
  "1573": 3782569313,
  "1574": 3763047568,
  "1575": 3753037209,
  "1576": 3701797182,
  "1577": 3713730938,
  "1578": 3702263172,
  "1579": 3738133386,
  "1580": 3833715144,
  "1581": 3824222155,
  "1582": 3743104872,
  "1583": 3733636728,
  "1584": 3692177327,
  "1585": 3686891794,
  "1586": 3673401240,
  "1587": 3716604018,
  "1588": 3740638541,
  "1589": 3720796824,
  "1590": 3756141347,
  "1591": 3611937561,
  "1592": 3677452997,
  "1593": 3707570761,
  "1594": 3740613128,
  "1595": 3790265749,
  "1596": 3705150240,
  "1597": 3710856579,
  "1598": 3672891272,
  "1599": 3746842227,
  "1600": 3733618016,
  "1601": 3740482533,
  "1602": 3687224674,
  "1603": 3739199181,
  "1604": 3771046798,
  "1605": 3763354507,
  "1606": 3803085073,
  "1607": 3734101619,
  "1608": 3705658442,
  "1609": 3737124000,
  "1610": 3735649029,
  "1611": 3730778867,
  "1612": 3781800271,
  "1613": 3781649591,
  "1614": 3752235956,
  "1615": 3747552400,
  "1616": 3704961069,
  "1617": 3739388601,
  "1618": 3766443790,
  "1619": 3675655890,
  "1620": 3684069581,
  "1621": 3694052920,
  "1622": 3698839565,
  "1623": 3731622371,
  "1624": 3743766393,
  "1625": 3705992803,
  "1626": 3683555945,
  "1627": 3776522714,
  "1628": 3742649387,
  "1629": 3712205886,
  "1630": 3719125514,
  "1631": 3775377880,
  "1632": 3748635961,
  "1633": 3744992466,
  "1634": 3714366146,
  "1635": 3704810026,
  "1636": 3725387201,
  "1637": 3730611745,
  "1638": 3725675003,
  "1639": 3772381303,
  "1640": 3782539362,
  "1641": 3803958852,
  "1642": 3782390039,
  "1643": 3772375446,
  "1644": 3749115782,
  "1645": 3750225239,
  "1646": 3745378742,
  "1647": 3735259654,
  "1648": 3764132026,
  "1649": 3823355409,
  "1650": 3791059635,
  "1651": 3775862429,
  "1652": 3766231299,
  "1653": 3709993599,
  "1654": 3704492694,
  "1655": 3774054016,
  "1656": 3734933296,
  "1657": 3716920638,
  "1658": 3771783592,
  "1659": 3762658300,
  "1660": 3747785078,
  "1661": 3747636159,
  "1662": 3732145964,
  "1663": 3741377285,
  "1664": 3805956279,
  "1665": 3820597328,
  "1666": 3810571830,
  "1667": 3744916085,
  "1668": 3754540269,
  "1669": 3713989627,
  "1670": 3720885732,
  "1671": 3782532966,
  "1672": 3800848766,
  "1673": 3821163900,
  "1674": 3847399498,
  "1675": 3898449795,
  "1676": 3858549648,
  "1677": 3771925726,
  "1678": 3764605119,
  "1679": 3802149233,
  "1680": 3767669327,
  "1681": 3797630364,
  "1682": 3786209210,
  "1683": 3809353091,
  "1684": 3763893311,
  "1685": 3782359658,
  "1686": 3691512584,
  "1687": 3732251180,
  "1688": 3750253718,
  "1689": 3743453162,
  "1690": 3739165203,
  "1691": 3751902132,
  "1692": 3776518402,
  "1693": 3816662712,
  "1694": 3769414048,
  "1695": 3757876693,
  "1696": 3729490390,
  "1697": 3780116044,
  "1698": 3754244456,
  "1699": 3762525394,
  "1700": 3766365017,
  "1701": 3778465273,
  "1702": 3774965934,
  "1703": 3795907596,
  "1704": 3765737191,
  "1705": 3800128513,
  "1706": 3766994687,
  "1707": 3780219753,
  "1708": 3757056670,
  "1709": 3774145082,
  "1710": 3822968360,
  "1711": 3780553210,
  "1712": 3846887807,
  "1713": 3853816600,
  "1714": 3831492307,
  "1715": 3807935373,
  "1716": 3760256146,
  "1717": 3732527888,
  "1718": 3746543898,
  "1719": 3791822553,
  "1720": 3775887650,
  "1721": 3751780862,
  "1722": 3803190888,
  "1723": 3744371407,
  "1724": 3734174564,
  "1725": 3739356621,
  "1726": 3768220247,
  "1727": 3780686585,
  "1728": 3785639388,
  "1729": 3771628003,
  "1730": 3786558068,
  "1731": 3726502740,
  "1732": 3761728875,
  "1733": 3738278436,
  "1734": 3771504149,
  "1735": 3759672313,
  "1736": 3761422789,
  "1737": 3752929042,
  "1738": 3759539787,
  "1739": 3684059304,
  "1740": 3720277467,
  "1741": 3747931271,
  "1742": 3838941476,
  "1743": 3805034502,
  "1744": 3761174994,
  "1745": 3795676045,
  "1746": 3814031187,
  "1747": 3731065518,
  "1748": 3787598391,
  "1749": 3822868737,
  "1750": 3765267169,
  "1751": 3757956519,
  "1752": 3720736890,
  "1753": 3728450163,
  "1754": 3766984348,
  "1755": 3767178293,
  "1756": 3733793393,
  "1757": 3767572112,
  "1758": 3728245175,
  "1759": 3807573401,
  "1760": 3772993562,
  "1761": 3792072473,
  "1762": 3818928886,
  "1763": 3794260547,
  "1764": 3682716287,
  "1765": 3718628051,
  "1766": 3715501912,
  "1767": 3775435534,
  "1768": 3780788687,
  "1769": 3766405861,
  "1770": 3722730130,
  "1771": 3693776566,
  "1772": 3758745466,
  "1773": 3791631447,
  "1774": 3764558708,
  "1775": 3770614024,
  "1776": 3753863942,
  "1777": 3797263255,
  "1778": 3784844676,
  "1779": 3748164921,
  "1780": 3746695771,
  "1781": 3771515376,
  "1782": 3803084614,
  "1783": 3769529126,
  "1784": 3655651211,
  "1785": 3724607765,
  "1786": 3785321573,
  "1787": 3798802921,
  "1788": 3798001859,
  "1789": 3736261808,
  "1790": 3711254574,
  "1791": 3758067655,
  "1792": 3717253870,
  "1793": 3688944882,
  "1794": 3726774955,
  "1795": 3780138902,
  "1796": 3747148935,
  "1797": 3797815751,
  "1798": 3814894685,
  "1799": 3793444857,
  "1800": 3790989958,
  "1801": 3888913100,
  "1802": 3789922591,
  "1803": 3794342285,
  "1804": 3754950374,
  "1805": 3748935944,
  "1806": 3742381419,
  "1807": 3819546259,
  "1808": 3782541161,
  "1809": 3816294341,
  "1810": 3759604644,
  "1811": 3682399361,
  "1812": 3720258917,
  "1813": 3811988134,
  "1814": 3800220196,
  "1815": 3671996877,
  "1816": 3745216046,
  "1817": 3733899760,
  "1818": 3729128036,
  "1819": 3799798507,
  "1820": 3778119913,
  "1821": 3824514632,
  "1822": 3824874559,
  "1823": 3816164044,
  "1824": 3796215268,
  "1825": 3796378282,
  "1826": 3726465458,
  "1827": 3743471154,
  "1828": 3816779498,
  "1829": 3775058566,
  "1830": 3738545891,
  "1831": 3854088298,
  "1832": 3817408267,
  "1833": 3783604210,
  "1834": 3778777839,
  "1835": 3784801277,
  "1836": 3803981304,
  "1837": 3807648626,
  "1838": 3794451281,
  "1839": 3766127149,
  "1840": 3843125488,
  "1841": 3763078803,
  "1842": 3812676782,
  "1843": 3772382332,
  "1844": 3788503488,
  "1845": 3792769390,
  "1846": 3815257651,
  "1847": 3777730654,
  "1848": 3702531554,
  "1849": 3745223824,
  "1850": 3771383259,
  "1851": 3773493739,
  "1852": 3752380445,
  "1853": 3778024886,
  "1854": 3773766197,
  "1855": 3736024953,
  "1856": 3696613522,
  "1857": 3749263707,
  "1858": 3758200858,
  "1859": 3768922194
}