[
  1.131769,
  1.053,
  1.166,
  1.075103,
  1.022889,
  1.676933,
  1.070352,
  1.034903,
  1.075,
  1.186103,
  1.075352,
  1.075237,
  1.068889,
  1.169463,
  1.066,
  1.009,
  1.066,
  1.188007,
  1.082352,
  1.084,
  1.05867,
  1.114698,
  1.027473,
  1.364,
  1.047,
  1.106352,
  1.429461,
  1.053103,
  1.045,
  1.139,
  1.68412,
  1.071,
  1.149,
  1.099613,
  1.041762,
  1.016876,
  1.205,
  0.975,
  1.056352,
  1.091,
  1.118666,
  16.740437,
  1.051388,
  0.402772,
  0.350312,
  0.453181,
  0.355,
  0.315,
  0.581377,
  0.405056,
  0.395052,
  0.454531,
  0.426717,
  0.395,
  0.439,
  0.405772,
  0.437021,
  0.396772,
  0.351802,
  0.337726,
  0.429772,
  0.531,
  0.385,
  0.372,
  0.413,
  0.396,
  0.544,
  0.413772,
  0.455,
  0.390772,
  0.35933,
  0.395624,
  0.061544,
  1.767772,
  0.319442,
  0.393336,
  0.395,
  0.424,
  0.424,
  0.526915,
  0.881184,
  0.869953,
  0.896047,
  0.83,
  1.191374,
  0.768078,
  0.790956,
  0.834754,
  0.905498,
  0.664281,
  0.878036,
  0.903964,
  0.826374,
  0.79575,
  0.848936,
  0.893327,
  0.902205,
  0.802026,
  0.771281,
  0.942124,
  0.84451,
  0.156748,
  0.85071,
  0.948126,
  0.880744,
  0.778,
  0.772038,
  0.889271,
  0.846748,
  0.901853,
  0.972773,
  0.863878,
  0.770163,
  0.738402,
  0.856785,
  0.698589,
  0.887352,
  1.003974,
  1.056977,
  0.995,
  1.026,
  1.425,
  0.984989,
  1.018591,
  1.1,
  1.061889,
  1.044977,
  1.227876,
  1.029,
  1.068,
  1.003977,
  1.062,
  1.089,
  0.983,
  0.939,
  1.025858,
  1.056705,
  1.150295,
  1.366977,
  1.013,
  0.989124,
  0.978525,
  0.918899,
  2.368287,
  1.122,
  1.005,
  1.080506,
  1.160101,
  1.01,
  0.975633,
  2.685977,
  1.015048,
  0.278,
  0.97,
  1.031,
  1.085038,
  1.093,
  1.026048,
  1.069007,
  0.881,
  0.895,
  0.935,
  0.986,
  1.425566,
  1.060007,
  1.511,
  0.923,
  0.939,
  0.871007,
  0.855,
  0.92,
  1.215007,
  0.932,
  0.916,
  0.957,
  0.987,
  0.922007,
  2.024889,
  1.235,
  1.155,
  0.968061,
  1.083,
  0.993,
  1.101007,
  0.975,
  1.153,
  0.929,
  0.956623,
  0.928007,
  1.15,
  0.928,
  1.177007,
  0.933,
  0.991,
  1.011,
  0.903007,
  1.249223,
  0.968777,
  0.91,
  0.987,
  0.384309,
  1.199,
  0.067,
  0.823,
  0.464,
  0.405309,
  1.175,
  0.489,
  0.425,
  0.379951,
  0.401388,
  0.509365,
  0.276,
  0.361309,
  0.39,
  0.498,
  0.355309,
  0.383,
  0.491,
  0.417,
  0.519309,
  1.607,
  0.643,
  0.47,
  0.409642,
  0.373309,
  0.338,
  0.79998,
  0.426211,
  0.521309,
  0.461957,
  0.548,
  1.739,
  0.462309,
  0.391,
  0.358,
  1.335,
  0.472,
  0.498,
  0.415849,
  0.940866,
  0.983,
  1.159,
  1.892802,
  0.977586,
  1.013866,
  1.044307,
  0.948243,
  0.989751,
  0.982561,
  1.241723,
  1.805249,
  1.186653,
  0.953262,
  0.979048,
  1.034248,
  1.46825,
  0.991701,
  0.97527,
  1.334158,
  0.912781,
  1.814285,
  1.114533,
  0.967,
  1.02483,
  1.044753,
  0.986441,
  1.003604,
  1.008083,
  1.059329,
  0.945866,
  3.561806,
  0.98,
  1.019204,
  0.994048,
  1.204199,
  1.047857,
  0.991668,
  1.313806,
  0.962,
  2.434799,
  0.201083,
  0.186142,
  0.281,
  0.205,
  0.323083,
  0.243,
  0.285,
  0.488,
  0.484083,
  0.101686,
  0.255,
  0.227442,
  0.668822,
  0.243083,
  0.206,
  0.307979,
  0.195083,
  0.244442,
  0.285616,
  0.258083,
  0.283,
  0.280821,
  0.697452,
  0.219,
  0.505,
  0.165083,
  0.501,
  0.279556,
  0.567083,
  0.272,
  0.274472,
  0.259083,
  0.286954,
  0.334821,
  0.504,
  0.267,
  0.307,
  0.284,
  0.029732,
  1.028352,
  1.099,
  1.082,
  1.024,
  1.11,
  1.257775,
  1.036,
  1.103,
  1.104,
  1.096352,
  1.021,
  1.032,
  1.095,
  1.050352,
  1.095,
  1.089,
  1.045,
  1.051,
  1.054352,
  1.037,
  1.019,
  1.095352,
  1.068,
  1.139897,
  1.049897,
  1.036352,
  1.206,
  1.113,
  1.078,
  0.992,
  1.257905,
  1.073461,
  2.185,
  1.956,
  1.127352,
  1.332,
  1.021,
  1.346352,
  1.151,
  0.973,
  1.354,
  1.036,
  0.408658,
  0.378,
  0.384,
  1.209,
  0.428658,
  0.801,
  0.21,
  0.291,
  0.450658,
  0.531,
  0.37,
  0.359,
  0.250658,
  0.214587,
  0.310245,
  0.324,
  0.300658,
  0.492,
  0.487184,
  0.219392,
  0.464658,
  0.495,
  0.273,
  0.327,
  0.367,
  0.244658,
  0.293,
  0.263833,
  0.219658,
  0.272,
  0.92,
  0.344,
  0.243658,
  0.352,
  0.715,
  0.621,
  1.619,
  0.271,
  0.282192,
  0.313119,
  0.544,
  0.322,
  0.293192,
  0.331,
  0.277639,
  0.437,
  0.248192,
  0.697,
  0.314,
  0.271398,
  0.269192,
  0.389,
  0.603694,
  0.034413,
  0.396,
  0.255,
  0.276,
  0.556,
  0.332192,
  0.211,
  0.295,
  0.213,
  0.483,
  0.188192,
  0.406,
  0.364,
  0.541192,
  0.232,
  0.187,
  0.345,
  0.335192,
  0.289,
  0.232,
  0.498,
  0.287,
  0.246,
  0.054,
  2.765058,
  1.505019,
  1.135195,
  1.107805,
  1.013557,
  0.997246,
  1.288,
  1.107,
  1.011452,
  1.087078,
  1.008841,
  2.053074,
  1.03974,
  0.980224,
  1.021799,
  1.014701,
  1.023805,
  1.034452,
  0.976,
  1.266805,
  1.066722,
  1.299411,
  1.033805,
  1.210863,
  1.010104,
  1.044,
  1.310079,
  0.995606,
  1.026799,
  1.443807,
  1.103,
  1.054,
  1.574257,
  0.99689,
  0.257346,
  1.00549,
  1.013452,
  1.067,
  1.081,
  1.087299,
  0.98042,
  1.189255,
  1.01227,
  0.990138,
  2.146981,
  0.922118,
  1.229906,
  0.91572,
  0.962582,
  1.408321,
  0.954124,
  0.899645,
  33.217634,
  0.987272,
  1.150926,
  0.942287,
  0.939,
  1.042011,
  1.125881,
  0.937192,
  1.240111,
  1.183771,
  1.007186,
  1.170214,
  1.015777,
  0.986492,
  1.012266,
  1.021286,
  1.141,
  1.013,
  0.943,
  0.981192,
  0.925124,
  0.902338,
  1.193192,
  1.350059,
  1.014205,
  0.918192,
  1.41416,
  0.901941,
  1.09827,
  0.956851,
  1.028,
  1.041119,
  1.097,
  1.103,
  1.081,
  1.010015,
  1.430119,
  1.078392,
  1.127061,
  1.063119,
  1.105,
  1.075,
  1.012,
  1.116119,
  1.054,
  1.146,
  1.156,
  1.06688,
  1.070119,
  1.183,
  1.382897,
  1.011119,
  1.046245,
  1.021,
  1.032,
  1.050119,
  1.144,
  1.283,
  2.095716,
  1.125284,
  1.485,
  2.341119,
  1.058284,
  1.165,
  1.151119,
  1.124284,
  1.133284,
  1.050119,
  1.46,
  1.081,
  1.109,
  1.082,
  1.062,
  0.940343,
  1.435443,
  1.066,
  1.07,
  0.897361,
  1.043343,
  1.33,
  0.990881,
  1.035343,
  1.007,
  1.052,
  1.048,
  0.963343,
  1.035,
  3.075557,
  1.273705,
  1.04276,
  1.406343,
  0.936,
  1.153908,
  1.028343,
  1.005769,
  1.046014,
  1.049343,
  1.243,
  1.268,
  1.668741,
  1.044562,
  0.931438,
  0.917343,
  1.083067,
  1.070167,
  0.924,
  1.038343,
  0.984438,
  1.050557,
  0.971343,
  1.031,
  1.064,
  0.894,
  1.051119,
  1.092,
  1.067,
  1.173,
  1.077,
  1.044119,
  1.079,
  1.40283,
  1.079119,
  1.115,
  1.028,
  1.051,
  1.073119,
  1.177,
  1.012,
  1.025,
  1.013,
  1.108119,
  0.305,
  1.071,
  1.048851,
  1.093119,
  1.04,
  1.091851,
  1.302185,
  1.344,
  1.237,
  1.326,
  1.181198,
  1.062119,
  1.092,
  1.14976,
  1.069,
  1.374119,
  1.063,
  1.062,
  1.084119,
  1.117851,
  1.258,
  1.061097,
  1.113,
  1.00523,
  0.937,
  0.986321,
  0.962679,
  0.949963,
  0.99423,
  0.969,
  0.9792,
  0.916,
  0.951396,
  0.945963,
  1.258,
  0.94623,
  0.953,
  0.948,
  0.972,
  0.948,
  1.32523,
  0.986,
  0.962963,
  0.994963,
  1.063055,
  0.95626,
  1.209,
  1.00123,
  0.939,
  1.017,
  1.085,
  0.986,
  1.14623,
  1.04,
  1.031,
  1.22023,
  0.935624,
  0.967,
  0.921,
  1.377037,
  0.961,
  1.199,
  0.951,
  0.985,
  1.211295,
  1.004,
  1.298,
  1.493,
  1.372295,
  1.034622,
  1.287,
  1.449017,
  0.933983,
  1.022295,
  0.971409,
  0.986591,
  0.959295,
  0.995,
  1.027,
  1.241,
  1.044,
  1.143295,
  1.039,
  1.263,
  1.052295,
  1.06,
  1.611,
  1.033,
  1.007295,
  1.062,
  1.206,
  1.047,
  1.039376,
  0.998295,
  1.663,
  1.028,
  1.000295,
  1.067,
  0.927,
  0.973704,
  1.005289,
  0.992,
  0.971,
  1.021,
  1.024,
  0.669301,
  0.736,
  0.727,
  0.682,
  0.805,
  0.687807,
  0.673648,
  0.986352,
  0.701352,
  0.969301,
  0.879594,
  0.706194,
  0.753301,
  0.683422,
  0.699049,
  0.684529,
  0.725014,
  1.172227,
  0.734,
  0.979,
  0.713438,
  0.732,
  0.703,
  0.68,
  0.737352,
  0.667301,
  0.631883,
  0.758,
  0.679,
  0.790033,
  0.714301,
  0.753,
  0.672723,
  0.778301,
  0.972456,
  0.716438,
  0.877301,
  0.672,
  0.713,
  0.689,
  0.608903,
  0.648528,
  0.794039,
  0.747,
  0.672903,
  0.648,
  0.625831,
  0.647,
  0.617,
  0.600903,
  0.718659,
  0.712052,
  0.589,
  0.848903,
  1.631,
  0.73,
  0.559641,
  0.573862,
  0.888,
  0.651315,
  0.620925,
  0.643391,
  0.564,
  0.630743,
  0.647,
  0.567903,
  0.647,
  0.64674,
  0.69,
  0.686903,
  0.672,
  0.633,
  0.657903,
  0.72864,
  0.621613,
  0.638,
  0.602105,
  0.594,
  0.643,
  0.637291,
  1.118,
  0.732,
  0.613291,
  0.607,
  0.65,
  0.608683,
  0.153317,
  0.601291,
  0.61,
  0.812,
  0.73,
  0.72,
  0.791291,
  0.673807,
  0.635,
  0.661291,
  0.781,
  0.634,
  1.072291,
  0.632418,
  0.63,
  0.857,
  0.592,
  0.56,
  0.971291,
  0.716,
  0.612,
  0.664291,
  0.639,
  0.601,
  0.692291,
  0.602,
  0.704,
  0.818,
  0.659,
  0.635,
  0.658,
  0.67,
  0.320545,
  0.396,
  0.365729,
  0.449,
  0.307223,
  0.242241,
  0.304674,
  0.311,
  0.352234,
  0.805223,
  0.307284,
  0.379486,
  0.264223,
  0.302,
  0.398845,
  0.05,
  0.585223,
  0.366465,
  0.28657,
  0.255103,
  0.491777,
  0.370428,
  0.347,
  0.327,
  0.370446,
  0.33322,
  0.455,
  0.27731,
  0.340223,
  0.601041,
  0.26238,
  0.344,
  0.296223,
  0.331,
  0.258491,
  0.379416,
  0.373,
  0.266741,
  0.504041,
  0.265724,
  0.497737,
  0.315442,
  0.246678,
  0.22519,
  0.415571,
  0.236438,
  0.279,
  0.307,
  0.303,
  0.880737,
  0.383192,
  0.363,
  0.369,
  0.257737,
  0.308889,
  0.377889,
  0.465438,
  0.378,
  0.252197,
  39.609384,
  20.608121,
  0.344218,
  0.252,
  0.382,
  0.58219,
  0.308737,
  0.237218,
  0.44381,
  0.414737,
  0.49,
  0.234461,
  0.254737,
  0.30481,
  0.378,
  0.992,
  0.588889,
  0.41181,
  0.417381,
  0.22319,
  0.377903,
  0.395,
  0.345967,
  0.395,
  0.368903,
  0.312,
  0.587,
  0.406777,
  0.383,
  0.339903,
  0.434,
  0.461,
  0.398,
  0.396903,
  0.367897,
  0.388,
  0.349903,
  0.443,
  0.407,
  0.436,
  0.401903,
  0.487,
  0.352,
  0.401806,
  0.441194,
  0.653903,
  0.558,
  0.358,
  0.383903,
  0.067,
  0.715224,
  0.345,
  0.369,
  0.349903,
  0.541,
  0.392673,
  0.467,
  0.423,
  0.41,
  0.714148,
  0.664,
  0.76,
  0.634,
  0.67,
  0.814148,
  0.737,
  0.636007,
  0.784,
  0.678148,
  0.69,
  1.218,
  0.817148,
  1.169,
  0.731,
  0.739,
  0.946148,
  0.639262,
  0.613,
  0.619,
  0.656148,
  0.779,
  0.74371,
  0.642698,
  0.640148,
  0.796,
  0.841,
  0.74,
  0.732148,
  0.753097,
  1.578023,
  0.678977,
  0.711897,
  0.629148,
  0.836,
  0.724284,
  0.764148,
  0.646,
  0.64,
  0.783,
  2.430208,
  1.029,
  1.359,
  24.746,
  1.017,
  1.046,
  1.462208,
  0.951,
  1.191,
  0.808,
  1.215,
  1.325208,
  1.853,
  1.983,
  1.943,
  2.389,
  2.146,
  2.267208,
  1.138,
  1.03,
  2.794,
  1.199,
  1.288,
  52.057,
  5.444208,
  1.117,
  1.038,
  1.248,
  2.352,
  2.115208,
  1.445,
  1.277,
  0.83,
  0.942,
  2.414,
  1.641,
  1.055,
  1.017,
  1.002,
  0.913,
  0.383763,
  0.402529,
  0.432368,
  0.345,
  0.316763,
  0.332,
  0.311794,
  0.428,
  0.642763,
  0.64734,
  0.444,
  0.338,
  0.337763,
  0.365992,
  0.609302,
  0.368763,
  0.389938,
  0.398173,
  0.576763,
  0.427897,
  46.22,
  0.399698,
  0.326111,
  0.384889,
  0.515763,
  0.535223,
  0.417,
  0.365111,
  0.306874,
  0.392461,
  0.378,
  1.162763,
  0.374,
  0.351903,
  0.314097,
  0.39,
  0.325359,
  0.055,
  0.390406,
  0.582,
  0.389,
  0.366,
  0.404406,
  0.357578,
  0.411,
  0.456,
  0.368406,
  0.343,
  0.34,
  0.374,
  0.318406,
  0.356,
  0.049,
  0.292,
  0.338406,
  0.369,
  0.267628,
  0.490406,
  0.311,
  0.388732,
  0.308,
  0.28,
  0.332406,
  0.367,
  0.466,
  0.300406,
  0.409,
  0.304,
  0.292,
  0.289406,
  0.386,
  0.349,
  0.353,
  0.332,
  0.046,
  0.373,
  0.473,
  0.388312,
  0.678992,
  0.542008,
  0.53354,
  0.464022,
  0.413049,
  0.539595,
  0.468312,
  0.423602,
  0.392,
  0.733,
  0.505312,
  0.544,
  0.43,
  0.48,
  0.419312,
  0.442,
  0.858,
  0.395,
  0.320807,
  0.416312,
  0.386902,
  0.416,
  0.485,
  0.456312,
  0.42852,
  0.375651,
  0.517168,
  0.518486,
  0.535676,
  1.305688,
  0.452,
  0.388312,
  0.513,
  0.491,
  0.401302,
  0.697,
  0.443,
  0.419,
  0.404102,
  0.287,
  0.215443,
  0.388643,
  0.433,
  0.269659,
  0.339105,
  0.21,
  0.233443,
  1.655072,
  0.362,
  0.289443,
  0.232,
  0.254072,
  0.284,
  0.318386,
  0.470072,
  0.399189,
  0.253,
  0.202,
  0.314072,
  0.349,
  0.228,
  0.034,
  0.417,
  0.327,
  0.548072,
  0.298,
  0.405,
  0.253102,
  0.261,
  0.224,
  0.289406,
  0.261072,
  0.227,
  0.27254,
  0.372,
  0.357241,
  0.04,
  0.301,
  0.358,
  1.042246,
  1.154,
  1.213,
  1.071,
  1.102,
  1.022257,
  1.339,
  1.144,
  1.419095,
  1.058257,
  1.08,
  1.052,
  1.074,
  1.572257,
  1.223,
  1.154,
  1.3504,
  1.337,
  1.026257,
  1.186,
  1.115,
  1.109257,
  2.413,
  0.993905,
  1.098827,
  1.077257,
  1.002,
  1.127,
  1.037,
  1.185,
  1.744257,
  1.328608,
  1.124,
  1.102257,
  1.266,
  1.152404,
  1.052257,
  1.148,
  1.016,
  1.066209,
  1.344,
  0.235484,
  0.158936,
  0.624241,
  25.29415,
  0.180484,
  0.260261,
  0.207724,
  0.268,
  0.243484,
  0.343456,
  0.162,
  0.294,
  0.397484,
  0.168,
  0.19909,
  0.194,
  0.17,
  0.692341,
  0.248111,
  0.284241,
  0.241484,
  0.255085,
  0.241,
  0.239,
  0.172,
  0.192931,
  0.259,
  0.291,
  0.277484,
  0.198,
  0.278,
  0.331,
  0.243484,
  0.326306,
  0.126514,
  1.089,
  0.156,
  0.19569,
  1.211242,
  1.034,
  2.141872,
  1.186128,
  1.186128,
  1.147242,
  1.392237,
  1.131,
  1.138478,
  1.191242,
  1.169,
  1.223128,
  1.313128,
  1.364242,
  1.255,
  1.218,
  1.175,
  1.33722,
  1.199242,
  1.201128,
  1.117,
  1.467242,
  1.203,
  1.185036,
  1.186897,
  1.276242,
  1.427128,
  1.154,
  1.29,
  1.215128,
  1.220242,
  1.174597,
  1.164,
  1.187242,
  1.45661,
  1.171,
  1.541242,
  0.335,
  1.187,
  1.201,
  1.24,
  1.167,
  0.690124,
  1.306,
  0.746897,
  0.664,
  0.780124,
  0.772,
  0.673376,
  0.708697,
  0.158624,
  0.948124,
  0.955847,
  0.651,
  0.745,
  0.705124,
  1.085,
  0.719,
  0.666124,
  0.683,
  0.644,
  0.676097,
  0.738124,
  0.683,
  0.631461,
  0.713,
  0.773,
  0.656124,
  0.677,
  0.634,
  0.679124,
  0.659,
  0.637897,
  0.668,
  0.689124,
  0.649,
  0.749969,
  0.984,
  0.689,
  0.624,
  0.331947,
  0.314,
  0.331539,
  0.372,
  0.308947,
  0.362,
  0.39,
  0.330415,
  0.392947,
  0.49727,
  0.34,
  0.346,
  0.288947,
  0.377,
  0.196099,
  0.292032,
  0.475947,
  0.331,
  0.328,
  0.36,
  0.529947,
  0.324554,
  0.344777,
  0.594,
  0.339,
  0.308947,
  0.423753,
  0.332,
  0.333947,
  0.459716,
  0.622,
  0.392,
  0.564947,
  0.410363,
  0.328,
  0.325,
  0.447,
  0.288,
  0.196988,
  0.383368,
  0.429,
  0.468,
  0.519,
  0.433991,
  0.640478,
  0.395,
  0.405522,
  0.416368,
  0.48,
  0.37044,
  0.35456,
  0.520124,
  0.326,
  0.315535,
  0.486465,
  0.365368,
  0.521,
  0.410874,
  0.563368,
  0.446478,
  0.676,
  0.364,
  0.457,
  0.719368,
  0.478,
  0.403743,
  0.465154,
  0.430368,
  0.433,
  0.353054,
  0.362368,
  0.661356,
  0.396227,
  0.489,
  0.361,
  0.404076,
  0.46,
  0.30779,
  0.715592,
  0.710672,
  0.719,
  0.754,
  0.759592,
  0.947,
  0.661,
  0.659468,
  0.974119,
  0.724,
  0.798468,
  0.917,
  0.738592,
  0.162778,
  0.765663,
  0.745592,
  3.628851,
  0.858,
  0.778592,
  0.752,
  0.648,
  0.755,
  0.795,
  0.688,
  0.688,
  0.761,
  0.739,
  0.733592,
  0.706,
  0.68,
  0.763592,
  0.795778,
  0.989363,
  0.639,
  0.632,
  0.789239,
  0.932,
  1.060111,
  0.874,
  0.49633,
  0.498074,
  0.407839,
  0.415436,
  0.393207,
  0.305799,
  0.791514,
  0.380052,
  0.39133,
  0.399293,
  0.339,
  0.41,
  0.29533,
  0.77138,
  0.452853,
  0.347792,
  0.30889,
  0.500716,
  0.354219,
  0.310556,
  0.32933,
  0.447074,
  0.27212,
  0.363,
  0.45,
  0.39933,
  0.588155,
  0.377514,
  0.53033,
  0.509,
  0.348522,
  0.328144,
  0.314192,
  0.360598,
  0.265684,
  0.589,
  0.6,
  0.32,
  0.639237,
  1.144208,
  1.469,
  0.998,
  0.940978,
  1.251208,
  1.624,
  1.892,
  0.866,
  0.879,
  1.044208,
  1.977,
  1.105,
  1.748208,
  2.662,
  2.770978,
  14.606,
  1.040208,
  1.12,
  3.546978,
  0.859978,
  5.715208,
  8.863,
  0.961,
  1.002,
  1.027208,
  1.611,
  1.469,
  1.194,
  1.722,
  0.282,
  1.476,
  1.438,
  1.038,
  1.262208,
  1.047,
  0.96,
  1.165208,
  1.38,
  1.046,
  1.06,
  0.997,
  0.426903,
  0.755777,
  0.325,
  0.401897,
  0.642903,
  0.395,
  0.68,
  0.551,
  0.365903,
  0.37,
  0.372,
  0.415,
  0.472903,
  0.515794,
  0.422,
  0.423903,
  0.067,
  0.42,
  0.686,
  0.464,
  0.446,
  0.417,
  0.727,
  0.485,
  0.41,
  0.382903,
  0.482,
  0.462,
  0.412903,
  0.408,
  0.439,
  0.512,
  0.368903,
  0.401,
  0.789,
  0.454,
  0.367,
  0.61,
  0.758238,
  0.633,
  0.541,
  0.497,
  0.578238,
  0.673,
  0.714114,
  0.592,
  0.559238,
  0.477,
  0.481,
  0.5,
  0.606238,
  0.867,
  0.845,
  0.466238,
  0.773,
  0.494,
  0.513186,
  0.595238,
  0.66,
  0.481,
  0.564,
  0.478,
  0.579238,
  0.575,
  0.905,
  0.555238,
  0.622,
  0.784,
  0.621,
  0.575253,
  0.114,
  3.394,
  0.607637,
  0.571363,
  0.574238,
  0.644338,
  0.789,
  0.573651,
  0.576,
  0.928897,
  0.538349,
  0.557651,
  0.58,
  0.624507,
  0.688,
  0.725651,
  0.643,
  0.621,
  0.885,
  0.653651,
  0.788473,
  0.569527,
  0.651,
  0.649651,
  0.619,
  0.604851,
  0.90573,
  0.566651,
  0.903,
  0.617851,
  0.624,
  0.586,
  0.920651,
  0.669,
  0.555,
  0.548651,
  0.961527,
  0.593,
  0.652934,
  0.747,
  0.629,
  0.633245,
  0.621,
  0.654,
  0.615647,
  0.86459,
  0.649,
  0.622,
  0.619,
  0.86859,
  0.67,
  0.62,
  0.638182,
  0.61859,
  0.668,
  0.562,
  0.618,
  0.65459,
  0.91077,
  0.788549,
  0.550354,
  0.63159,
  0.700018,
  0.534,
  0.54359,
  0.729,
  0.659,
  0.631,
  0.622,
  0.60459,
  0.709,
  1.635,
  0.629018,
  0.60959,
  0.592,
  0.55059,
  0.643901,
  1.08,
  0.66323,
  0.544763,
  0.723,
  0.682,
  0.592,
  0.641,
  1.061352,
  1.075,
  1.169,
  1.069,
  1.307,
  1.184352,
  1.032,
  1.248154,
  1.153846,
  1.429352,
  1.067,
  1.039,
  1.414904,
  1.071352,
  1.095,
  1.127,
  1.04,
  1.364,
  1.039352,
  1.051,
  1.114889,
  1.110352,
  1.346,
  1.085889,
  1.017,
  1.094352,
  1.049,
  1.165,
  1.153,
  1.128,
  1.063352,
  1.031097,
  1.008897,
  1.069352,
  1.056897,
  1.132,
  1.035352,
  1.057,
  1.092,
  1.09,
  1.066,
  1.691012,
  0.360898,
  0.331537,
  0.470038,
  0.451967,
  0.407364,
  0.414976,
  0.372613,
  0.063922,
  0.472026,
  0.746064,
  0.348592,
  0.445007,
  0.366139,
  0.528548,
  0.337052,
  0.380334,
  0.540636,
  2.622917,
  8.430863,
  0.340253,
  0.385267,
  0.480594,
  0.453732,
  0.419463,
  0.714209,
  0.453886,
  0.364136,
  0.381191,
  0.427263,
  0.425695,
  0.3749,
  0.396805,
  0.370396,
  0.60589,
  0.415304,
  0.477104,
  0.520701,
  14.808404,
  0.66281,
  0.672,
  0.679714,
  0.68,
  0.86281,
  0.799,
  0.701461,
  0.836,
  1.01581,
  0.692,
  0.778966,
  0.633,
  0.689,
  0.65881,
  0.709,
  0.846,
  0.64381,
  0.595256,
  0.717,
  0.701,
  0.72581,
  0.769,
  0.668,
  0.710943,
  0.692,
  0.66081,
  0.746,
  0.651,
  0.63381,
  0.608,
  0.664713,
  0.695,
  0.61881,
  0.706398,
  1.085,
  0.699,
  0.691,
  0.714,
  0.603,
  0.77587,
  0.976678,
  1.0,
  0.954,
  0.892841,
  0.851772,
  0.936259,
  1.221049,
  0.920209,
  0.877,
  0.953,
  0.860952,
  0.985723,
  1.012449,
  1.035259,
  0.982,
  0.934,
  1.069,
  0.909259,
  0.916,
  0.906217,
  1.03,
  1.055259,
  1.25412,
  0.93188,
  1.145,
  1.059259,
  0.973,
  0.942165,
  0.983835,
  0.958645,
  0.985,
  1.08,
  1.065806,
  0.962259,
  0.883,
  0.933,
  0.257177,
  0.97,
  0.937,
  0.98,
  1.026269,
  1.058299,
  1.262,
  1.578,
  1.609,
  1.0367,
  0.298,
  1.587299,
  1.014,
  1.135,
  1.258299,
  1.13,
  1.045,
  1.024,
  1.085299,
  1.187,
  1.045,
  1.509,
  1.049,
  1.089,
  1.039,
  1.113,
  1.080299,
  1.415053,
  1.059947,
  1.089,
  1.177482,
  1.146299,
  1.135,
  1.064,
  1.084,
  1.054,
  1.081299,
  1.24,
  1.058002,
  1.109299,
  1.147,
  1.09,
  1.152,
  1.599299,
  1.154841,
  1.103,
  1.191,
  0.312,
  0.749688,
  1.198,
  0.753,
  0.703,
  1.91,
  0.775688,
  0.987,
  0.709635,
  0.772,
  0.725688,
  0.78046,
  0.974566,
  0.827934,
  0.743688,
  0.779,
  1.029,
  0.912,
  0.685688,
  0.766,
  0.721,
  0.869,
  0.747688,
  0.761,
  0.855,
  1.288,
  0.704688,
  0.907,
  0.723,
  0.724,
  0.704688,
  0.796599,
  0.708,
  0.693143,
  0.741688,
  1.041162,
  0.858746,
  0.678688,
  0.769,
  0.756,
  0.755,
  1.778779,
  1.010163,
  1.517,
  1.304,
  1.066399,
  0.929017,
  0.961,
  0.956474,
  1.723289,
  0.303614,
  1.084,
  2.093854,
  1.102409,
  0.970289,
  1.262,
  1.618708,
  1.329289,
  1.009404,
  0.806809,
  0.88411,
  1.080289,
  1.41242,
  1.032806,
  1.593228,
  0.965124,
  0.885467,
  0.9,
  0.942283,
  1.159289,
  1.042,
  1.04849,
  1.199,
  1.788289,
  1.098352,
  1.001,
  0.957,
  1.726736,
  1.095,
  0.644831,
  0.904,
  0.712048,
  0.705292,
  0.716718,
  0.77161,
  0.674013,
  0.708554,
  0.650718,
  0.165632,
  0.703,
  0.658048,
  0.671,
  0.659718,
  0.783,
  0.795813,
  0.647718,
  0.683704,
  1.069,
  0.721897,
  0.697048,
  0.844662,
  0.677048,
  0.699,
  0.652,
  0.796718,
  0.68,
  0.714,
  0.722718,
  0.744,
  0.661,
  0.812,
  0.868718,
  1.105,
  0.651613,
  0.715,
  1.008,
  0.71,
  0.673,
  1.188472,
  1.15543,
  1.251297,
  1.241961,
  1.304031,
  1.200649,
  1.19174,
  1.2413,
  1.285964,
  1.209394,
  1.220778,
  1.185063,
  1.130732,
  1.643103,
  1.205,
  1.245,
  1.185472,
  1.236,
  1.20374,
  1.154551,
  1.229888,
  1.19474,
  1.199726,
  1.156352,
  1.254356,
  1.193801,
  1.263119,
  1.279155,
  1.385732,
  1.147281,
  1.17099,
  1.263472,
  0.34074,
  1.440409,
  1.198234,
  1.322875,
  1.205492,
  1.170254,
  1.218763,
  1.214078,
  1.244662,
  0.930047,
  0.956,
  0.898,
  1.318,
  0.959,
  0.886481,
  0.942,
  0.869,
  0.937047,
  0.976,
  0.94628,
  0.918,
  1.19196,
  0.982047,
  0.929,
  0.958716,
  0.936284,
  0.889,
  0.930047,
  1.29373,
  0.93278,
  0.844047,
  0.936,
  1.016,
  1.03622,
  0.886737,
  1.046424,
  0.843374,
  0.830626,
  0.731284,
  0.960047,
  1.178668,
  0.808568,
  0.887047,
  0.881,
  0.872,
  0.830047,
  0.983188,
  0.948,
  1.103413,
  0.967,
  0.97,
  0.649124,
  0.659,
  0.663,
  0.704897,
  0.654124,
  0.931,
  0.679778,
  0.576478,
  0.662889,
  0.628,
  0.694,
  0.731897,
  0.647,
  0.637,
  12.287124,
  0.691,
  0.704124,
  0.661897,
  0.639,
  0.744752,
  0.680124,
  1.587,
  0.737889,
  1.485097,
  0.653,
  0.851124,
  0.685752,
  0.668,
  0.619124,
  0.638,
  0.629,
  0.733,
  1.337124,
  0.892,
  0.568375,
  0.634897,
  0.654522,
  0.853,
  0.921,
  0.681897,
  2.08595,
  2.218896,
  1.931,
  1.938,
  2.324669,
  1.88995,
  1.825664,
  1.896733,
  1.94495,
  1.955,
  2.186,
  1.862506,
  1.96195,
  1.885852,
  2.914,
  2.065126,
  2.08408,
  0.58261,
  1.96,
  1.956,
  1.986488,
  1.88995,
  1.9129,
  1.8741,
  1.834,
  1.98995,
  2.474,
  2.228,
  1.97,
  1.886179,
  1.97895,
  1.982,
  1.885575,
  1.996853,
  1.912284,
  1.908425,
  1.95403,
  2.16,
  2.451456,
  1.972,
  1.964552,
  1.424,
  0.377429,
  0.719,
  0.358063,
  0.602956,
  0.524994,
  0.49808,
  1.64674,
  0.813834,
  0.523146,
  0.409796,
  0.395105,
  0.670643,
  0.71308,
  0.365425,
  1.266305,
  0.564599,
  0.390706,
  0.329612,
  0.39308,
  0.393193,
  0.387385,
  0.405701,
  0.372881,
  0.421731,
  0.363336,
  0.39529,
  0.660978,
  0.570899,
  0.412,
  0.713352,
  0.063626,
  0.632177,
  0.470716,
  0.453091,
  0.385193,
  0.476,
  0.532525,
  0.994031,
  0.95108,
  0.347312,
  0.932954,
  0.880882,
  0.890957,
  0.93904,
  0.909057,
  0.988079,
  0.960549,
  0.931034,
  0.980459,
  0.925967,
  0.948957,
  0.987393,
  0.904248,
  0.81523,
  0.863951,
  1.740608,
  0.901871,
  0.866818,
  1.001344,
  0.941663,
  0.968566,
  2.180093,
  0.304567,
  1.1022,
  0.878589,
  0.880958,
  0.935659,
  0.910205,
  0.908027,
  0.959501,
  0.939848,
  0.949466,
  0.959248,
  0.8858,
  0.997,
  0.353312,
  0.957748,
  0.921344,
  1.519,
  1.048,
  1.008,
  13.037208,
  0.9,
  1.191208,
  0.952,
  1.206755,
  1.051,
  1.655,
  1.645208,
  2.021,
  1.713,
  2.744208,
  2.225,
  2.07,
  1.964,
  1.912,
  1.748208,
  2.959285,
  1.011,
  1.906,
  0.951,
  1.188,
  1.444,
  0.25,
  1.694,
  2.033,
  1.331,
  1.144208,
  0.915,
  1.113,
  1.359,
  1.402,
  1.697208,
  3.124,
  1.334,
  2.959208,
  0.948,
  4.606,
  1.043,
  1.200266,
  0.477882,
  0.54229,
  0.995087,
  0.502194,
  0.684646,
  0.647167,
  0.038281,
  0.492876,
  0.428,
  0.41325,
  0.814,
  0.411038,
  0.511054,
  40.235376,
  0.503703,
  0.531455,
  0.516312,
  0.51986,
  0.421492,
  0.444674,
  0.553,
  0.559508,
  0.532501,
  0.514405,
  0.496876,
  0.533054,
  0.624054,
  0.626626,
  0.436525,
  0.510532,
  1.078038,
  0.442054,
  0.528319,
  0.62,
  0.504408,
  0.553,
  0.495,
  0.619,
  0.518038,
  0.42311,
  0.179,
  0.206,
  0.167,
  0.66311,
  0.238253,
  0.486,
  0.209,
  0.32411,
  0.261758,
  0.355,
  0.217,
  0.16811,
  0.185,
  0.40197,
  0.681,
  0.23011,
  0.186,
  0.259,
  0.18,
  0.29611,
  0.375,
  0.195,
  0.258,
  0.627,
  0.52711,
  0.518,
  0.317,
  0.28811,
  0.304,
  0.25,
  0.251,
  0.36011,
  0.136,
  0.193938,
  0.307,
  0.223,
  0.221,
  1.077352,
  1.04,
  1.114,
  1.044,
  1.371,
  1.051352,
  1.279,
  1.408972,
  1.13361,
  1.087352,
  1.085,
  1.339,
  1.072352,
  1.079,
  1.153,
  1.165,
  1.110097,
  1.113352,
  1.018,
  1.071,
  1.022,
  1.068,
  1.349,
  0.996,
  1.195352,
  1.061,
  1.064,
  1.084,
  1.031,
  1.055352,
  1.148,
  1.066,
  1.045352,
  1.087,
  1.038,
  0.295,
  1.091,
  1.341,
  1.119,
  1.047,
  1.07,
  1.198,
  0.449903,
  0.644,
  0.37,
  0.353903,
  0.385,
  0.468,
  0.419897,
  0.319,
  0.357,
  0.319659,
  0.433876,
  0.419,
  0.447,
  0.385006,
  0.492897,
  0.381903,
  0.357903,
  0.488515,
  0.392903,
  0.416889,
  0.355897,
  0.426,
  0.471,
  0.4,
  0.418,
  0.700404,
  0.482897,
  0.621903,
  0.380889,
  0.3732,
  0.363903,
  0.349,
  0.432897,
  0.377,
  0.474,
  0.363,
  0.634,
  0.561,
  0.068008,
  1.11554,
  0.747,
  0.882,
  1.138,
  0.894889,
  0.713768,
  0.739396,
  0.737988,
  0.676012,
  0.911823,
  0.782,
  0.803,
  0.750949,
  0.714,
  0.708,
  0.668,
  0.195,
  0.755216,
  0.7,
  0.682889,
  0.73092,
  1.052821,
  0.97,
  0.663889,
  0.692,
  0.935403,
  0.748798,
  0.772,
  0.953109,
  0.766423,
  0.699433,
  0.731398,
  0.875602,
  0.949821,
  0.762,
  0.82,
  0.728403,
  0.98323,
  0.786,
  0.757,
  0.674111,
  0.481111,
  0.363,
  0.204895,
  0.403,
  0.440111,
  0.377,
  0.402,
  0.401111,
  0.567549,
  0.719,
  0.379,
  0.461,
  0.417111,
  0.512,
  0.390889,
  0.442,
  0.417111,
  0.073,
  0.431148,
  0.557111,
  0.421,
  0.313,
  0.416107,
  0.376,
  0.389,
  0.889232,
  0.472,
  0.421,
  0.561762,
  0.440111,
  0.416061,
  0.468111,
  0.438061,
  0.467,
  1.315,
  0.41,
  0.434,
  0.380778,
  0.66,
  0.672,
  1.058702,
  1.542,
  1.016,
  1.097,
  1.209,
  0.999702,
  1.017,
  1.044,
  1.045702,
  1.001,
  0.937,
  1.023,
  1.040702,
  1.307,
  2.171,
  1.201,
  0.285,
  0.973,
  1.044702,
  1.081,
  0.991,
  1.554702,
  1.013,
  1.001,
  1.049,
  1.116942,
  1.059,
  0.997,
  1.028,
  0.961702,
  1.4,
  1.023,
  1.172256,
  1.013702,
  1.004,
  1.002989,
  1.039702,
  1.030596,
  1.056,
  1.047,
  1.032,
  0.754204,
  1.285227,
  0.59145,
  0.626164,
  1.125967,
  1.150294,
  1.29534,
  0.701153,
  0.601193,
  0.945802,
  0.779534,
  0.91721,
  0.727585,
  1.116287,
  0.698124,
  8.984162,
  0.621328,
  1.160559,
  1.366213,
  0.528523,
  1.096399,
  0.609319,
  0.543792,
  0.640115,
  0.772886,
  1.112728,
  0.741764,
  0.597283,
  0.66147,
  0.613907,
  0.722958,
  0.574727,
  1.959877,
  0.550073,
  0.622288,
  0.753101,
  0.668615,
  0.541227,
  0.537081,
  0.568646,
  1.426986,
  1.099331,
  1.44246,
  1.022418,
  1.013518,
  1.031233,
  1.194,
  1.352684,
  1.531081,
  1.036317,
  1.122908,
  1.460134,
  0.985606,
  1.380032,
  1.182177,
  1.10403,
  1.49394,
  1.077771,
  0.993238,
  1.114,
  1.035728,
  1.586016,
  1.587937,
  1.109494,
  1.446711,
  0.999737,
  1.123757,
  1.54538,
  1.065002,
  1.005711,
  1.207364,
  1.359824,
  0.235266,
  1.209,
  1.123181,
  1.584839,
  1.038311,
  1.033159,
  1.022733,
  1.010354,
  1.065847,
  1.850348,
  0.467539,
  0.40681,
  56.512,
  0.275,
  0.341,
  0.494539,
  0.335,
  0.616,
  0.414539,
  0.335,
  0.466,
  0.33,
  0.313,
  0.257539,
  0.356476,
  0.290713,
  0.343539,
  0.365,
  0.397,
  0.581539,
  51.504,
  0.363,
  0.365,
  0.318,
  0.347,
  0.251539,
  0.307,
  0.923989,
  0.298539,
  0.276,
  0.349,
  0.288,
  0.394539,
  0.601,
  0.42,
  0.258,
  0.325,
  0.277398,
  0.238684,
  1.247299,
  1.405,
  1.217,
  1.974,
  1.186,
  1.237299,
  1.208,
  1.37,
  1.284695,
  1.277,
  1.414596,
  1.152,
  0.321,
  1.383299,
  1.797,
  1.215,
  1.136,
  1.114,
  1.232299,
  1.334,
  1.136,
  1.296299,
  1.293098,
  1.209,
  1.139,
  1.166299,
  1.256836,
  1.218,
  1.28,
  1.734,
  1.160299,
  1.231,
  1.249,
  1.174299,
  1.157,
  1.239,
  1.245299,
  1.585,
  1.20396,
  1.212,
  1.239,
  0.975983,
  0.841,
  0.948,
  0.829,
  1.087,
  0.772983,
  0.767,
  0.767,
  1.667,
  0.787983,
  0.864,
  0.911064,
  0.877983,
  0.805,
  0.755,
  0.735,
  0.776983,
  0.859688,
  0.74865,
  1.192,
  1.032983,
  0.75,
  0.890436,
  1.523,
  0.775983,
  0.842778,
  0.798,
  0.835,
  0.731983,
  0.747,
  0.712,
  0.719,
  0.852983,
  0.825,
  0.826008,
  0.871983,
  0.799253,
  0.835,
  0.822,
  0.967,
  1.098654,
  1.432903,
  2.027072,
  1.092903,
  1.462425,
  1.06968,
  1.344352,
  1.16,
  1.066123,
  1.018,
  1.027,
  1.953124,
  1.310352,
  1.035993,
  1.287103,
  1.091411,
  1.064103,
  1.044352,
  1.014432,
  1.026897,
  0.999352,
  1.289,
  1.102903,
  1.191,
  1.143352,
  1.04,
  1.002,
  1.032,
  1.421221,
  2.542779,
  1.736352,
  1.261,
  1.287889,
  1.331455,
  1.157889,
  1.315097,
  1.029352,
  1.369,
  1.161897,
  1.056,
  1.103,
  1.044,
  0.440784,
  0.532677,
  0.513389,
  0.556677,
  0.735784,
  0.59,
  0.584,
  0.668087,
  0.519837,
  0.573674,
  0.77834,
  0.571457,
  0.517777,
  0.514784,
  0.58639,
  0.462,
  1.061784,
  0.410553,
  0.469716,
  0.654888,
  0.539394,
  0.392187,
  0.491,
  0.504674,
  0.456038,
  0.675838,
  0.697,
  0.684,
  0.513104,
  0.437913,
  0.475,
  0.687691,
  0.694098,
  0.445913,
  0.599,
  0.551732,
  0.498914,
  0.426627,
  0.583698,
  0.542993,
  0.711124,
  0.721,
  0.977,
  0.705,
  0.642124,
  0.722,
  0.566146,
  0.632,
  0.651124,
  0.991,
  0.9,
  0.697,
  0.942,
  0.651124,
  0.828,
  0.708,
  0.651124,
  0.828,
  0.752,
  0.699124,
  0.982,
  0.67,
  0.938,
  0.696,
  0.697,
  0.718124,
  0.625,
  0.815777,
  0.763,
  0.772,
  0.733124,
  0.687,
  0.662,
  1.139,
  0.727,
  0.673,
  0.64,
  1.066,
  0.605903,
  0.385,
  0.639,
  0.35266,
  0.37876,
  0.338903,
  0.363,
  0.525903,
  0.40831,
  0.339,
  0.361,
  0.726,
  0.358903,
  0.353,
  0.367746,
  0.388342,
  0.332871,
  0.505012,
  0.358,
  0.391903,
  0.388,
  0.474,
  0.667,
  0.382,
  0.402903,
  0.272075,
  0.353113,
  0.305,
  0.364903,
  0.316897,
  2.115,
  0.467,
  0.347903,
  0.299,
  0.449897,
  0.386,
  0.351,
  0.376,
  0.446,
  0.58308,
  0.452,
  0.347177,
  0.082238,
  0.527177,
  0.470989,
  0.421684,
  0.410177,
  0.42008,
  0.488,
  0.434274,
  0.48,
  0.527,
  0.35608,
  0.439702,
  0.503,
  0.71208,
  0.498763,
  0.377,
  0.373553,
  0.76008,
  0.324,
  0.426,
  0.754,
  0.451,
  0.46508,
  0.357553,
  0.517,
  0.44908,
  0.501,
  0.395,
  0.426876,
  0.35608,
  0.397,
  0.401,
  0.692,
  0.402,
  0.589,
  0.312823,
  1.173816,
  1.133507,
  1.016,
  1.011,
  1.384979,
  0.951989,
  0.987702,
  1.056,
  1.047,
  1.022702,
  1.006,
  1.326,
  0.992,
  1.062702,
  1.099,
  0.985,
  0.966,
  1.047,
  1.238702,
  1.13,
  1.090461,
  1.428702,
  1.037,
  1.032,
  1.045461,
  0.28,
  1.003702,
  1.037,
  1.028,
  1.092,
  1.007,
  1.088702,
  1.03,
  1.027,
  1.017702,
  1.02,
  1.144,
  1.045702,
  0.99681,
  1.325,
  1.39,
  1.373,
  0.753124,
  0.681,
  0.709,
  0.674124,
  0.698,
  0.995897,
  0.648,
  0.996124,
  0.733698,
  0.733,
  0.936,
  0.669,
  0.976124,
  0.836,
  0.685124,
  0.817,
  0.661,
  0.649,
  0.162,
  0.98,
  0.796,
  0.689,
  1.136897,
  0.748,
  2.07,
  0.699124,
  0.738,
  0.778124,
  0.705897,
  0.671,
  0.714,
  0.618124,
  0.701,
  0.686,
  0.748,
  0.645,
  0.672,
  0.343678,
  0.401,
  0.565,
  0.341,
  0.470678,
  0.437,
  0.635,
  0.349,
  0.712678,
  0.485,
  0.424,
  0.387,
  0.409678,
  0.59,
  0.414,
  0.547621,
  0.410678,
  0.312014,
  0.393,
  0.351889,
  0.398678,
  0.385,
  0.388,
  0.375,
  0.41,
  0.334678,
  0.821,
  0.324,
  0.430678,
  0.379,
  0.558,
  0.43,
  0.470678,
  0.515,
  0.37,
  0.442,
  0.374,
  0.518296,
  0.683236,
  0.655,
  0.671245,
  0.711,
  0.605236,
  0.615,
  0.661,
  0.629,
  0.666236,
  0.744806,
  0.762,
  0.785,
  0.913236,
  0.971,
  0.76466,
  0.160515,
  0.631236,
  0.868,
  0.577,
  2.649,
  0.737236,
  0.667,
  0.982731,
  0.622,
  0.698,
  0.776236,
  0.997,
  0.694,
  0.654236,
  0.877,
  0.867,
  0.76,
  0.639236,
  0.658,
  0.642,
  0.689,
  0.641,
  0.679
]