{
  "900": 3295428251,
  "901": 3332516607,
  "902": 3397496920,
  "903": 3328167762,
  "904": 3360928840,
  "905": 3418447309,
  "906": 3392893740,
  "907": 3370676266,
  "908": 3316967181,
  "909": 3290931441,
  "910": 3349670888,
  "911": 3359024742,
  "912": 3391068682,
  "913": 3328929952,
  "914": 3326165715,
  "915": 3313416424,
  "916": 3290398788,
  "917": 3344472410,
  "918": 3364845431,
  "919": 3348380281,
  "920": 3378122154,
  "921": 3360816611,
  "922": 3384572580,
  "923": 3398880698,
  "924": 3366973160,
  "925": 3366520968,
  "926": 3385344654,
  "927": 3382871519,
  "928": 3369278994,
  "929": 3386064337,
  "930": 3385732600,
  "931": 3397944950,
  "932": 3354941784,
  "933": 3395102316,
  "934": 3406848440,
  "935": 3416070932,
  "936": 3426363421,
  "937": 3403285273,
  "938": 3388960962,
  "939": 3369751227,
  "940": 3350900531,
  "941": 3371682692,
  "942": 3389327294,
  "943": 3420279358,
  "944": 3454858412,
  "945": 3428387430,
  "946": 3506342936,
  "947": 3447502017,
  "948": 3467627469,
  "949": 3461719345,
  "950": 3409788260,
  "951": 3454058876,
  "952": 3433531794,
  "953": 3449514510,
  "954": 3476624469,
  "955": 3421861890,
  "956": 3425849906,
  "957": 3482696497,
  "958": 3539426011,
  "959": 3441205081,
  "960": 3522457440,
  "961": 3532942777,
  "962": 3478965700,
  "963": 3460568489,
  "964": 3460962961,
  "965": 3481171201,
  "966": 3473434782,
  "967": 3497844375,
  "968": 3521589252,
  "969": 3521921278,
  "970": 3517380518,
  "971": 3508515782,
  "972": 3517530703,
  "973": 3450858293,
  "974": 3436598401,
  "975": 3474006781,
  "976": 3488542335,
  "977": 3495391140,
  "978": 3494078174,
  "979": 3595486618,
  "980": 3520735586,
  "981": 3506989856,
  "982": 3536393135,
  "983": 3501260352,
  "984": 3533059989,
  "985": 3529067150,
  "986": 3504410717,
  "987": 3520912998,
  "988": 3493219463,
  "989": 3442240733,
  "990": 3441946782,
  "991": 3456679330,
  "992": 3488215553,
  "993": 3509486498,
  "994": 3508376536,
  "995": 3508480777,
  "996": 3507277904,
  "997": 3477374357,
  "998": 3533904059,
  "999": 3545678789,
  "1000": 3558280768,
  "1001": 3517223888,
  "1002": 3585620618,
  "1003": 3607789431,
  "1004": 3602517067,
  "1005": 3612268061,
  "1006": 3564557105,
  "1007": 3551567588,
  "1008": 3588879976,
  "1009": 3601792727,
  "1010": 3589895031,
  "1011": 3596122501,
  "1012": 3551315363,
  "1013": 3611625122,
  "1014": 3580328044,
  "1015": 3567821701,
  "1016": 3544563827,
  "1017": 3538901120,
  "1018": 3531984168,
  "1019": 3546710216,
  "1020": 3580995003,
  "1021": 3573803836,
  "1022": 3557194773,
  "1023": 3633359580,
  "1024": 3610417365,
  "1025": 3639251403,
  "1026": 3608375554,
  "1027": 3624456234,
  "1028": 3588939743,
  "1029": 3602403425,
  "1030": 3557247936,
  "1031": 3535918466,
  "1032": 3606417667,
  "1033": 3576320938,
  "1034": 3612124012,
  "1035": 3669466090,
  "1036": 3608442503,
  "1037": 3592344889,
  "1038": 3575424904,
  "1039": 3614568355,
  "1040": 3643988141,
  "1041": 3611839553,
  "1042": 3646273258,
  "1043": 3636068157,
  "1044": 3583680466,
  "1045": 3567758752,
  "1046": 3601711061,
  "1047": 3590183197,
  "1048": 3645452600,
  "1049": 3634709456,
  "1050": 3572734091,
  "1051": 3661008971,
  "1052": 3643424229,
  "1053": 3617168525,
  "1054": 3626379960,
  "1055": 3600250798,
  "1056": 3599680850,
  "1057": 3602427751,
  "1058": 3623113348,
  "1059": 3597369715,
  "1060": 3620717144,
  "1061": 3590203081,
  "1062": 3595637428,
  "1063": 3605225239,
  "1064": 3664470626,
  "1065": 3631346503,
  "1066": 3645409010,
  "1067": 3693034560,
  "1068": 3590241175,
  "1069": 3573764966,
  "1070": 3614574407,
  "1071": 3601477153,
  "1072": 3643870115,
  "1073": 3652518662,
  "1074": 3660509878,
  "1075": 3667761842,
  "1076": 3634591581,
  "1077": 3625570749,
  "1078": 3638579105,
  "1079": 3642535961,
  "1080": 3643105428,
  "1081": 3620479123,
  "1082": 3592023348,
  "1083": 3658799462,
  "1084": 3616276032,
  "1085": 3633743765,
  "1086": 3693663385,
  "1087": 3619020096,
  "1088": 3639787328,
  "1089": 3615857194,
  "1090": 3611379241,
  "1091": 3587605485,
  "1092": 3588724610,
  "1093": 3661494075,
  "1094": 3658842739,
  "1095": 3639318112,
  "1096": 3604869593,
  "1097": 3647358369,
  "1098": 3666477175,
  "1099": 3598923413,
  "1100": 3596397868,
  "1101": 3584927800,
  "1102": 3565643377,
  "1103": 3606836287,
  "1104": 3633339386,
  "1105": 3633996740,
  "1106": 3685246098,
  "1107": 3632680650,
  "1108": 3649182321,
  "1109": 3640781025,
  "1110": 3655237882,
  "1111": 3678120723,
  "1112": 3662523014,
  "1113": 3605683210,
  "1114": 3627229806,
  "1115": 3626883527,
  "1116": 3692710588,
  "1117": 3680510244,
  "1118": 3675976778,
  "1119": 3664162119,
  "1120": 3624189627,
  "1121": 3599467236,
  "1122": 3605303021,
  "1123": 3637104995,
  "1124": 3711319741,
  "1125": 3679331331,
  "1126": 3612159611,
  "1127": 3631368157,
  "1128": 3707108967,
  "1129": 3676383334,
  "1130": 3727595865,
  "1131": 3639952652,
  "1132": 3681106459,
  "1133": 3704836518,
  "1134": 3648273245,
  "1135": 3661185727,
  "1136": 3739193831,
  "1137": 3694567203,
  "1138": 3680213091,
  "1139": 3671234351,
  "1140": 3676533972,
  "1141": 3678933509,
  "1142": 3702946080,
  "1143": 3663849287,
  "1144": 3631317134,
  "1145": 3649647117,
  "1146": 3602074803,
  "1147": 3659524438,
  "1148": 3668767000,
  "1149": 3585279233,
  "1150": 3624492247,
  "1151": 3655053862,
  "1152": 3626688084,
  "1153": 3660316835,
  "1154": 3636546648,
  "1155": 3640212060,
  "1156": 3660819400,
  "1157": 3631516637,
  "1158": 3618652996,
  "1159": 3689780334,
  "1160": 3620261472,
  "1161": 3629708575,
  "1162": 3636614041,
  "1163": 3630783270,
  "1164": 3603171644,
  "1165": 3645743219,
  "1166": 3614337975,
  "1167": 3677160088,
  "1168": 3718158518,
  "1169": 3631326797,
  "1170": 3662050000,
  "1171": 3703994098,
  "1172": 3746160751,
  "1173": 3702890211,
  "1174": 3675022464,
  "1175": 3660811300,
  "1176": 3664062425,
  "1177": 3678977978,
  "1178": 3671080784,
  "1179": 3650649404,
  "1180": 3702487559,
  "1181": 3630987142,
  "1182": 3641073100,
  "1183": 3611385235,
  "1184": 3608781250,
  "1185": 3639003930,
  "1186": 3660862360,
  "1187": 3624692933,
  "1188": 3643257762,
  "1189": 3690482390,
  "1190": 3674265038,
  "1191": 3611600045,
  "1192": 3697665443,
  "1193": 3673281326,
  "1194": 3677756629,
  "1195": 3699471627,
  "1196": 3700373511,
  "1197": 3698617882,
  "1198": 3731819767,
  "1199": 3768139774,
  "1200": 3738431611,
  "1201": 3784865023,
  "1202": 3733874753,
  "1203": 3736706583,
  "1204": 3745764815,
  "1205": 3643481915,
  "1206": 3643884232,
  "1207": 3611994890,
  "1208": 3686367996,
  "1209": 3709810394,
  "1210": 3698541679,
  "1211": 3657464124,
  "1212": 3720777330,
  "1213": 3681359507,
  "1214": 3696785037,
  "1215": 3680324897,
  "1216": 3730754269,
  "1217": 3718919655,
  "1218": 3747365126,
  "1219": 3674877987,
  "1220": 3767097360,
  "1221": 3648123728,
  "1222": 3748290860,
  "1223": 3710544078,
  "1224": 3716277318,
  "1225": 3716499566,
  "1226": 3702331734,
  "1227": 3727902478,
  "1228": 3696217949,
  "1229": 3646669645,
  "1230": 3706810827,
  "1231": 3723634457,
  "1232": 3652112708,
  "1233": 3662567429,
  "1234": 3676751022,
  "1235": 3752439403,
  "1236": 3810620843,
  "1237": 3774084444,
  "1238": 3744140152,
  "1239": 3669919676,
  "1240": 3670839610,
  "1241": 3715451302,
  "1242": 3684692936,
  "1243": 3675942226,
  "1244": 3737238814,
  "1245": 3745799872,
  "1246": 3787324625,
  "1247": 3737240327,
  "1248": 3711636125,
  "1249": 3712318008,
  "1250": 3686880418,
  "1251": 3673802361,
  "1252": 3708953210,
  "1253": 3673747684,
  "1254": 3787536806,
  "1255": 3786713894,
  "1256": 3721134350,
  "1257": 3700849928,
  "1258": 3732596071,
  "1259": 3756859375,
  "1260": 3733031397,
  "1261": 3786355175,
  "1262": 3752047520,
  "1263": 3747662399,
  "1264": 3719467346,
  "1265": 3711386993,
  "1266": 3741505320,
  "1267": 3767782291,
  "1268": 3769233602,
  "1269": 3768242434,
  "1270": 3806534883,
  "1271": 3757174720,
  "1272": 3761232685,
  "1273": 3738906722,
  "1274": 3771106709,
  "1275": 3758899235,
  "1276": 3756082204,
  "1277": 3768095818,
  "1278": 3729895190,
  "1279": 3744567259,
  "1280": 3762284754,
  "1281": 3681779788,
  "1282": 3680392671,
  "1283": 3763900258,
  "1284": 3756948568,
  "1285": 3746063535,
  "1286": 3700832720,
  "1287": 3742979806,
  "1288": 3727707237,
  "1289": 3745751037,
  "1290": 3759814530,
  "1291": 3814808263,
  "1292": 3750835034,
  "1293": 3779061906,
  "1294": 3803661507,
  "1295": 3802078289,
  "1296": 3773786561,
  "1297": 3766327775,
  "1298": 3868394892,
  "1299": 3819531071,
  "1300": 3800481941,
  "1301": 3814035636,
  "1302": 3750011916,
  "1303": 3808934960,
  "1304": 3773336438,
  "1305": 3789532130,
  "1306": 3751675961,
  "1307": 3751117914,
  "1308": 3796692080,
  "1309": 3760338732,
  "1310": 3764099230,
  "1311": 3710216193,
  "1312": 3773558918,
  "1313": 3820637960,
  "1314": 3764995870,
  "1315": 3798221214,
  "1316": 3807657639,
  "1317": 3716033425,
  "1318": 3780406396,
  "1319": 3787532945,
  "1320": 3842992101,
  "1321": 3728173667,
  "1322": 3727080215,
  "1323": 3804348852,
  "1324": 3800428707,
  "1325": 3796675047,
  "1326": 3799456640,
  "1327": 3789002786,
  "1328": 3762969115,
  "1329": 3791376402,
  "1330": 3789003782,
  "1331": 3815849825,
  "1332": 3834755184,
  "1333": 3768781152,
  "1334": 3759471097,
  "1335": 3784673536,
  "1336": 3792852197,
  "1337": 3780560594,
  "1338": 3776946815,
  "1339": 3754066321,
  "1340": 3814311123,
  "1341": 3772800859,
  "1342": 3802135964,
  "1343": 3745255741,
  "1344": 3747658875,
  "1345": 3765024504,
  "1346": 3772642164,
  "1347": 3772029461,
  "1348": 3800549117,
  "1349": 3817310197,
  "1350": 3799769869,
  "1351": 3747750721,
  "1352": 3796480731,
  "1353": 3770618365,
  "1354": 3778504444,
  "1355": 3784778724,
  "1356": 3788758327,
  "1357": 3790702153,
  "1358": 3769613215,
  "1359": 3803214041,
  "1360": 3825066694,
  "1361": 3777281219,
  "1362": 3757975074,
  "1363": 3789695745,
  "1364": 3776685378,
  "1365": 3757187670,
  "1366": 3744005404,
  "1367": 3734521722,
  "1368": 3692470009,
  "1369": 3711671146,
  "1370": 3782749759,
  "1371": 3787187374,
  "1372": 3769109171,
  "1373": 3778388947,
  "1374": 3696081910,
  "1375": 3733823133,
  "1376": 3721121205,
  "1377": 3731408973,
  "1378": 3760159482,
  "1379": 3802705109,
  "1380": 3802278312,
  "1381": 3820892243,
  "1382": 3809015089,
  "1383": 3828448851,
  "1384": 3827759970,
  "1385": 3791253261,
  "1386": 3780314218,
  "1387": 3794619506,
  "1388": 3736109014,
  "1389": 3703268683,
  "1390": 3775476507,
  "1391": 3740923399,
  "1392": 3783235038,
  "1393": 3780163986,
  "1394": 3755119071,
  "1395": 3759717039,
  "1396": 3728985223,
  "1397": 3770506082,
  "1398": 3755413103,
  "1399": 3698410149,
  "1400": 3691384617,
  "1401": 3780023382,
  "1402": 3739391962,
  "1403": 3735045759,
  "1404": 3758490887,
  "1405": 3752825272,
  "1406": 3735891345,
  "1407": 3724960061,
  "1408": 3753701899,
  "1409": 3740732277,
  "1410": 3741669937,
  "1411": 3742865258,
  "1412": 3770730591,
  "1413": 3746433527,
  "1414": 3711495925,
  "1415": 3719933577,
  "1416": 3821710923,
  "1417": 3795832019,
  "1418": 3790357361,
  "1419": 3757163310,
  "1420": 3756106854,
  "1421": 3730042483,
  "1422": 3744316805,
  "1423": 3758791095,
  "1424": 3742802477,
  "1425": 3764174626,
  "1426": 3735088859,
  "1427": 3742672845,
  "1428": 3762295420,
  "1429": 3724278134,
  "1430": 3707203285,
  "1431": 3737962932,
  "1432": 3780766175,
  "1433": 3768616079,
  "1434": 3734650015,
  "1435": 3758282567,
  "1436": 3749300052,
  "1437": 3741382640,
  "1438": 3701496220,
  "1439": 3727325851,
  "1440": 3685405740,
  "1441": 3732715935,
  "1442": 3784283529,
  "1443": 3771099858,
  "1444": 3741943259,
  "1445": 3720610041,
  "1446": 3716046852,
  "1447": 3741434123,
  "1448": 3729985301,
  "1449": 3703561259,
  "1450": 3745132808,
  "1451": 3716657030,
  "1452": 3714930257,
  "1453": 3739765669,
  "1454": 3743048638,
  "1455": 3750575070,
  "1456": 3759438422,
  "1457": 3774216313,
  "1458": 3774988241,
  "1459": 3760620933,
  "1460": 3754849747,
  "1461": 3745879720,
  "1462": 3744766827,
  "1463": 3751320310,
  "1464": 3715559349,
  "1465": 3714192312,
  "1466": 3731260788,
  "1467": 3721127391,
  "1468": 3746079723,
  "1469": 3705055311,
  "1470": 3760111035,
  "1471": 3754745188,
  "1472": 3705988384,
  "1473": 3780999303,
  "1474": 3724693422,
  "1475": 3656316415,
  "1476": 3717816847,
  "1477": 3737592364,
  "1478": 3781287189,
  "1479": 3703744182,
  "1480": 3714417353,
  "1481": 3699274042,
  "1482": 3733796919,
  "1483": 3678384163,
  "1484": 3703184677,
  "1485": 3690298166,
  "1486": 3710732992,
  "1487": 3739893485,
  "1488": 3705013713,
  "1489": 3711757676,
  "1490": 3727220243,
  "1491": 3729798053,
  "1492": 3685387937,
  "1493": 3751601867,
  "1494": 3758436185,
  "1495": 3727613899,
  "1496": 3699869614,
  "1497": 3770501457,
  "1498": 3812612987,
  "1499": 3744537532,
  "1500": 3725774771,
  "1501": 3796350906,
  "1502": 3848971076,
  "1503": 3822630132,
  "1504": 3746363855,
  "1505": 3728987340,
  "1506": 3758621986,
  "1507": 3787533640,
  "1508": 3775358398,
  "1509": 3716599433,
  "1510": 3717221044,
  "1511": 3745762088,
  "1512": 3752492162,
  "1513": 3727931759,
  "1514": 3729700403,
  "1515": 3688841875,
  "1516": 3698056395,
  "1517": 3738734458,
  "1518": 3718856340,
  "1519": 3738388755,
  "1520": 3785989754,
  "1521": 3789729107,
  "1522": 3811155987,
  "1523": 3751439197,
  "1524": 3719963748,
  "1525": 3680706675,
  "1526": 3744957056,
  "1527": 3726994923,
  "1528": 3802043837,
  "1529": 3780006941,
  "1530": 3754492082,
  "1531": 3822466746,
  "1532": 3747328912,
  "1533": 3750607728,
  "1534": 3775279817,
  "1535": 3835073433,
  "1536": 3796749404,
  "1537": 3750935728,
  "1538": 3746178558,
  "1539": 3786122978,
  "1540": 3774577844,
  "1541": 3786004054,
  "1542": 3768108338,
  "1543": 3797183840,
  "1544": 3764873004,
  "1545": 3745900810,
  "1546": 3758584301,
  "1547": 3736066516,
  "1548": 3747259668,
  "1549": 3751498040,
  "1550": 3776003000,
  "1551": 3769345683,
  "1552": 3703852586,
  "1553": 3771146551,
  "1554": 3782431526,
  "1555": 3702341186,
  "1556": 3711134487,
  "1557": 3733565712,
  "1558": 3732956715,
  "1559": 3702463641,
  "1560": 3711582652,
  "1561": 3742634434,
  "1562": 3701241943,
  "1563": 3732205275,
  "1564": 3769797296,
  "1565": 3788570109,
  "1566": 3792589997,
  "1567": 3822222769,
  "1568": 3785537894,
  "1569": 3821496149,
  "1570": 3799240085,
  "1571": 3802759527,
  "1572": 3835018471,
  "1573": 3851061816,
  "1574": 3851132707,
  "1575": 3830399910,
  "1576": 3791718416,
  "1577": 3836483938,
  "1578": 3877548543,
  "1579": 3866529864,
  "1580": 3801378989,
  "1581": 3832743374,
  "1582": 3833036059,
  "1583": 3859476118,
  "1584": 3815610235,
  "1585": 3861616016,
  "1586": 3839855365,
  "1587": 3833505405,
  "1588": 3764038971,
  "1589": 3782181849,
  "1590": 3761048627,
  "1591": 3827103874,
  "1592": 3793507109,
  "1593": 3816534083,
  "1594": 3782533203,
  "1595": 3808725049,
  "1596": 3780757413,
  "1597": 3822211597,
  "1598": 3889416220,
  "1599": 3841340362,
  "1600": 3715696067,
  "1601": 3792061772,
  "1602": 3779940479,
  "1603": 3806890890,
  "1604": 3796751889,
  "1605": 3813799544,
  "1606": 3828317465,
  "1607": 3770583429,
  "1608": 3737562686,
  "1609": 3811545668,
  "1610": 3847691082,
  "1611": 3803396526,
  "1612": 3756668937,
  "1613": 3807117171,
  "1614": 3801588786,
  "1615": 3819093729,
  "1616": 3805733224,
  "1617": 3793502271,
  "1618": 3751634715,
  "1619": 3757103078,
  "1620": 3780379283,
  "1621": 3847358937,
  "1622": 3803176516,
  "1623": 3819653937,
  "1624": 3795925336,
  "1625": 3816055298,
  "1626": 3820829344,
  "1627": 3739997363,
  "1628": 3722434045,
  "1629": 3808048088,
  "1630": 3763066610,
  "1631": 3805633002,
  "1632": 3834782627,
  "1633": 3798667414,
  "1634": 3740703822,
  "1635": 3758396986,
  "1636": 3810567229,
  "1637": 3806266832,
  "1638": 3780420999,
  "1639": 3804828297,
  "1640": 3767961075,
  "1641": 3797266950,
  "1642": 3784185967,
  "1643": 3808387799,
  "1644": 3736936757,
  "1645": 3720083808,
  "1646": 3738764377,
  "1647": 3782246979,
  "1648": 3754139773,
  "1649": 3757856300,
  "1650": 3715807579,
  "1651": 3760281858,
  "1652": 3744590216,
  "1653": 3729733796,
  "1654": 3751044086,
  "1655": 3733678500,
  "1656": 3666764625,
  "1657": 3711846652,
  "1658": 3726376750,
  "1659": 3747547435,
  "1660": 3797951399,
  "1661": 3767205018,
  "1662": 3776527114,
  "1663": 3864848401,
  "1664": 3799634566,
  "1665": 3803130370,
  "1666": 3821761922,
  "1667": 3761893226,
  "1668": 3793719887,
  "1669": 3773187479,
  "1670": 3734341702,
  "1671": 3763127749,
  "1672": 3762918103,
  "1673": 3778383769,
  "1674": 3780809233,
  "1675": 3760079447,
  "1676": 3812497333,
  "1677": 3776709985,
  "1678": 3789281084,
  "1679": 3779255463,
  "1680": 3821965553,
  "1681": 3748171301,
  "1682": 3750312061,
  "1683": 3756121058,
  "1684": 3750669852,
  "1685": 3791638666,
  "1686": 3832921730,
  "1687": 3860222278,
  "1688": 3798565045,
  "1689": 3821002773,
  "1690": 3754539599,
  "1691": 3791444331,
  "1692": 3821335231,
  "1693": 3797681170,
  "1694": 3760775299,
  "1695": 3775840492,
  "1696": 3782267670,
  "1697": 3828180046,
  "1698": 3837654757,
  "1699": 3825599411,
  "1700": 3793512231,
  "1701": 3775348046,
  "1702": 3766487913,
  "1703": 3758663748,
  "1704": 3710355467,
  "1705": 3781931056,
  "1706": 3778438536,
  "1707": 3765806204,
  "1708": 3770014373,
  "1709": 3797014317,
  "1710": 3755508293,
  "1711": 3715632078,
  "1712": 3747565535,
  "1713": 3758457921,
  "1714": 3746158549,
  "1715": 3740701015,
  "1716": 3740986780,
  "1717": 3779570224,
  "1718": 3745646582,
  "1719": 3784481556,
  "1720": 3795469824,
  "1721": 3773635613,
  "1722": 3730395753,
  "1723": 3714159378,
  "1724": 3724620668,
  "1725": 3715333288,
  "1726": 3680333410,
  "1727": 3758347699,
  "1728": 3690346050,
  "1729": 3730494702,
  "1730": 3719148279,
  "1731": 3669318823,
  "1732": 3811541083,
  "1733": 3757568981,
  "1734": 3790361797,
  "1735": 3745714147,
  "1736": 3715516396,
  "1737": 3710252295,
  "1738": 3773614476,
  "1739": 3769771744,
  "1740": 3787542596,
  "1741": 3696482296,
  "1742": 3695739634,
  "1743": 3717384948,
  "1744": 3770834539,
  "1745": 3803939745,
  "1746": 3826614262,
  "1747": 3767470030,
  "1748": 3762203037,
  "1749": 3800246089,
  "1750": 3772630149,
  "1751": 3711900052,
  "1752": 3722038094,
  "1753": 3803534076,
  "1754": 3785646131,
  "1755": 3797230934,
  "1756": 3750985243,
  "1757": 3801397704,
  "1758": 3816168908,
  "1759": 3793680909,
  "1760": 3760793174,
  "1761": 3763209170,
  "1762": 3703723844,
  "1763": 3742510145,
  "1764": 3771351041,
  "1765": 3792012587,
  "1766": 3791274312,
  "1767": 3803133498,
  "1768": 3844110130,
  "1769": 3741277610,
  "1770": 3763757415,
  "1771": 3767141423,
  "1772": 3818291424,
  "1773": 3812240584,
  "1774": 3763142982,
  "1775": 3814331547,
  "1776": 3862703686,
  "1777": 3821329316,
  "1778": 3865216211,
  "1779": 3841845718,
  "1780": 3782522828,
  "1781": 3803572412,
  "1782": 3765182898,
  "1783": 3779777798,
  "1784": 3763232073,
  "1785": 3799087367,
  "1786": 3816061303,
  "1787": 3765725971,
  "1788": 3763423534,
  "1789": 3793614908,
  "1790": 3821436522,
  "1791": 3827593918,
  "1792": 3824118702,
  "1793": 3778571962,
  "1794": 3838090118,
  "1795": 3816335489,
  "1796": 3836291892,
  "1797": 3808088283,
  "1798": 3820030222,
  "1799": 3807400988,
  "1800": 3779874335,
  "1801": 3835796826,
  "1802": 3821692085,
  "1803": 3849473265,
  "1804": 3734748547,
  "1805": 3766143513,
  "1806": 3760646364,
  "1807": 3758043066,
  "1808": 3832198705,
  "1809": 3797050806,
  "1810": 3780827169,
  "1811": 3807091598,
  "1812": 3752104393,
  "1813": 3760578420,
  "1814": 3843353087,
  "1815": 3830756664,
  "1816": 3825115365,
  "1817": 3788704455,
  "1818": 3719761555,
  "1819": 3733973292,
  "1820": 3680961014,
  "1821": 3757657567,
  "1822": 3718240179,
  "1823": 3761673245,
  "1824": 3804772123,
  "1825": 3775430728,
  "1826": 3780244802,
  "1827": 3857534641,
  "1828": 3807041046,
  "1829": 3758768783,
  "1830": 3837396675,
  "1831": 3768952516,
  "1832": 3753280360,
  "1833": 3735846846,
  "1834": 3773022028,
  "1835": 3774827213,
  "1836": 3752972054,
  "1837": 3782837727,
  "1838": 3722422720,
  "1839": 3766460315,
  "1840": 3762663311,
  "1841": 3814030456,
  "1842": 3810564853,
  "1843": 3736654884,
  "1844": 3792244458,
  "1845": 3790557803,
  "1846": 3755124471,
  "1847": 3738071309,
  "1848": 3745216762,
  "1849": 3751431471,
  "1850": 3766038164,
  "1851": 3721253472,
  "1852": 3731460842,
  "1853": 3698141617,
  "1854": 3710572605,
  "1855": 3748834209,
  "1856": 3686507847,
  "1857": 3713623692,
  "1858": 3742709196,
  "1859": 3724322259
}