{
  "ram": {
    "bytes_used_max": 145602727936,
    "gib_used_max": 135.60310745239258,
    "gib_used_per_minute": {
      "0": 2.160735511779785,
      "1": 3.551055972859011,
      "2": 4.013498985161216,
      "3": 5.361938993809587,
      "4": 6.058042299949516,
      "5": 6.512920638262215,
      "6": 6.887887146513341,
      "7": 7.289132651636156,
      "8": 7.853368791483216,
      "9": 9.820423772779561,
      "10": 11.423219001899332,
      "11": 12.630405490681277,
      "12": 13.725683567887646,
      "13": 14.434616606114274,
      "14": 15.11156961473368,
      "15": 15.819026882365598,
      "16": 16.908221810551012,
      "17": 18.02231268155373,
      "18": 18.83967357570842,
      "19": 19.73109048099841,
      "20": 20.699502182006835,
      "21": 21.67824638496011,
      "22": 22.741269709700244,
      "23": 23.681861877441406,
      "24": 24.49873135884603,
      "25": 25.371510004593155,
      "26": 26.134431160102455,
      "27": 26.85143292960474,
      "28": 27.606647809346516,
      "29": 28.239733097916943,
      "30": 28.866967799299854,
      "31": 29.495329920450846,
      "32": 29.991043866690944,
      "33": 30.403420917058394,
      "34": 30.91448159945213,
      "35": 31.37162806624073,
      "36": 31.7403491391974,
      "37": 32.12878676592293,
      "38": 32.52866344128625,
      "39": 32.911232317908336,
      "40": 33.386426734924314,
      "41": 33.782968165510795,
      "42": 34.13903155569303,
      "43": 34.456244711148535,
      "44": 34.802890712932005,
      "45": 35.12166989859888,
      "46": 35.51526777623064,
      "47": 35.84459621623411,
      "48": 36.16721413930257,
      "49": 36.55087125099311,
      "50": 36.894301527637545,
      "51": 37.20356039273537,
      "52": 37.60716176437119,
      "53": 37.924927986274334,
      "54": 38.17828136379436,
      "55": 38.44641669321869,
      "56": 38.721953519185384,
      "57": 39.02391556562004,
      "58": 39.39190247099278,
      "59": 39.66296212147858,
      "60": 39.905249644134,
      "61": 40.16544742907508,
      "62": 40.43132730257713,
      "63": 40.71281368449583,
      "64": 41.22347841424457,
      "65": 41.56871756860765,
      "66": 41.76962401072184,
      "67": 41.96882829827777,
      "68": 42.20576858520508,
      "69": 42.45109525777526,
      "70": 42.76543976088702,
      "71": 43.00694792149431,
      "72": 43.22902440216582,
      "73": 43.46126711570611,
      "74": 43.66538167403916,
      "75": 43.8555721282959,
      "76": 44.19497150485798,
      "77": 44.442253500728285,
      "78": 44.64684489621954,
      "79": 44.891917406502415,
      "80": 45.12650376659329,
      "81": 45.42195853540453,
      "82": 45.772209612528485,
      "83": 46.05440282013457,
      "84": 46.28971293821173,
      "85": 46.50350460763705,
      "86": 46.697647676629536,
      "87": 46.928504167977025,
      "88": 47.22709967295329,
      "89": 47.46436930510957,
      "90": 47.67717542486676,
      "91": 47.872517989853684,
      "92": 48.08183954529843,
      "93": 48.32119492353019,
      "94": 48.59476121266683,
      "95": 48.86152539010775,
      "96": 49.0608371799275,
      "97": 49.29049359337758,
      "98": 49.54035419528767,
      "99": 49.78655339903751,
      "100": 50.132087262471515,
      "101": 50.371915590965145,
      "102": 50.58546079215357,
      "103": 50.802191976773535,
      "104": 51.03054253529694,
      "105": 51.238618236477095,
      "106": 51.50884615580241,
      "107": 51.75477276818227,
      "108": 52.013891381732485,
      "109": 52.27706385467012,
      "110": 52.530883598327634,
      "111": 52.78350157656912,
      "112": 53.06510679600603,
      "113": 53.314680671691896,
      "114": 53.52954592947233,
      "115": 53.77465555223368,
      "116": 54.03665607258425,
      "117": 54.30139140759484,
      "118": 54.62658157348633,
      "119": 54.9152969101728,
      "120": 55.12153877646236,
      "121": 55.340059506691105,
      "122": 55.616348330179854,
      "123": 55.88514612488827,
      "124": 56.18012683674441,
      "125": 56.44744332631429,
      "126": 56.6476808321678,
      "127": 56.88540920968783,
      "128": 57.15227327508441,
      "129": 57.398353770627814,
      "130": 57.704406038920084,
      "131": 58.04416604769432,
      "132": 58.25886949442201,
      "133": 58.4528685101008,
      "134": 58.68929963192697,
      "135": 58.94286055484061,
      "136": 59.25457078319485,
      "137": 59.544557762146,
      "138": 59.79493816828324,
      "139": 60.04586927769548,
      "140": 60.28741189988993,
      "141": 60.47261131415933,
      "142": 60.754464424262615,
      "143": 61.130534931764764,
      "144": 61.36174366837841,
      "145": 61.58788881463519,
      "146": 61.816011137881524,
      "147": 62.04803550849527,
      "148": 62.38590361277262,
      "149": 62.73256082049871,
      "150": 62.965524641133975,
      "151": 63.20281432846845,
      "152": 63.46164179656465,
      "153": 63.70718235080525,
      "154": 63.97478679075079,
      "155": 64.33589922587076,
      "156": 64.58489214363745,
      "157": 64.83071899414062,
      "158": 65.11084346447961,
      "159": 65.42067039619057,
      "160": 65.69506202309819,
      "161": 66.07404047648112,
      "162": 66.34552693771104,
      "163": 66.61559392638125,
      "164": 66.92125346296925,
      "165": 67.24925005637994,
      "166": 67.53353707265046,
      "167": 67.95478911319022,
      "168": 68.29561506907145,
      "169": 68.60694348610053,
      "170": 68.96647495334432,
      "171": 69.30313886222193,
      "172": 69.62274583719544,
      "173": 70.0404473644192,
      "174": 70.32558104197184,
      "175": 70.63678515159478,
      "176": 70.96250818543515,
      "177": 71.26896176095737,
      "178": 71.65294020054704,
      "179": 72.16540800730387,
      "180": 72.57443754551774,
      "181": 72.9097145856437,
      "182": 73.30004501342773,
      "183": 73.66399422338453,
      "184": 73.98887068430582,
      "185": 74.43537456706419,
      "186": 74.80266596907276,
      "187": 75.15818948260808,
      "188": 75.50080706278483,
      "189": 75.86149526046495,
      "190": 76.21448542708058,
      "191": 76.66644636251159,
      "192": 77.01815013885498,
      "193": 77.35648986040536,
      "194": 77.73652222196935,
      "195": 78.15259254584878,
      "196": 78.5386780420939,
      "197": 78.97167406243793,
      "198": 79.32583566439354,
      "199": 79.6975468134476,
      "200": 80.09174257914225,
      "201": 80.46840176339877,
      "202": 80.82581271155406,
      "203": 81.25364866095074,
      "204": 81.65169118245443,
      "205": 81.97439607523255,
      "206": 82.37292655039641,
      "207": 82.75611851579052,
      "208": 82.9886621378236,
      "209": 83.27754470049325,
      "210": 83.64483242034912,
      "211": 83.97168246770309,
      "212": 84.31898356292207,
      "213": 84.64241486888821,
      "214": 84.97798732175666,
      "215": 85.31962494930978,
      "216": 85.68632876078287,
      "217": 85.93593526290636,
      "218": 86.22239025568558,
      "219": 86.55089400986493,
      "220": 86.82800512798762,
      "221": 87.15850080069849,
      "222": 87.53557670722573,
      "223": 87.85467425847457,
      "224": 88.2247126951056,
      "225": 88.53590115046097,
      "226": 88.85720837910971,
      "227": 89.19035507460772,
      "228": 89.58987407361047,
      "229": 89.86437341722392,
      "230": 90.1808958538508,
      "231": 90.49587812262067,
      "232": 90.82376363721944,
      "233": 91.15068972312798,
      "234": 91.55232865931625,
      "235": 91.82373282114665,
      "236": 92.1301301212634,
      "237": 92.43385276147875,
      "238": 92.76509411052122,
      "239": 93.13320896989208,
      "240": 93.58870225033517,
      "241": 93.94623242394398,
      "242": 94.34954274495443,
      "243": 94.72401790295618,
      "244": 95.06036499799308,
      "245": 95.3842736583645,
      "246": 95.83508520611262,
      "247": 96.13836805699235,
      "248": 96.4402692115913,
      "249": 96.78319384256999,
      "250": 97.07312373791711,
      "251": 97.33587484844661,
      "252": 97.72041391922255,
      "253": 98.01198054168184,
      "254": 98.26550215381687,
      "255": 98.60651876158633,
      "256": 99.01615582482289,
      "257": 99.45580418904622,
      "258": 99.94207860655703,
      "259": 100.30763509718038,
      "260": 100.64202977843203,
      "261": 100.99425054000596,
      "262": 101.33695330862271,
      "263": 101.68561878204346,
      "264": 102.13255613941257,
      "265": 102.50621155561026,
      "266": 102.80939890974659,
      "267": 103.16276873572399,
      "268": 103.4948945126291,
      "269": 103.77789719899495,
      "270": 104.21980990393688,
      "271": 104.58317546521204,
      "272": 104.95012748847573,
      "273": 105.32611892182948,
      "274": 105.71979910532633,
      "275": 106.09022386195296,
      "276": 106.49692011687715,
      "277": 106.92622828079482,
      "278": 107.28977836996822,
      "279": 107.68090057373047,
      "280": 108.05356429795087,
      "281": 108.4093127493131,
      "282": 108.82838220111394,
      "283": 109.23615245495813,
      "284": 109.60321928660075,
      "285": 109.99702020418846,
      "286": 110.3596374382407,
      "287": 110.57875875699318,
      "288": 110.91032008801477,
      "289": 111.32404799380545,
      "290": 111.66644927202645,
      "291": 112.03681964874268,
      "292": 112.32410185215836,
      "293": 112.63375789836302,
      "294": 113.00290699328406,
      "295": 113.40140798536397,
      "296": 113.65764482142562,
      "297": 113.93279499118611,
      "298": 114.24782619476318,
      "299": 114.57425844871392,
      "300": 114.88645256171792,
      "301": 115.31953423710193,
      "302": 115.61995638831188,
      "303": 115.91990681017859,
      "304": 116.26911169795666,
      "305": 116.66940540378377,
      "306": 117.00192235310872,
      "307": 117.46192253242104,
      "308": 117.75814146914725,
      "309": 118.08644854012182,
      "310": 118.43287775072001,
      "311": 118.76229884260792,
      "312": 119.10917320251465,
      "313": 119.58360937086202,
      "314": 119.82857300063311,
      "315": 120.06981180481992,
      "316": 120.37441156678281,
      "317": 120.70408391144316,
      "318": 120.97295373173084,
      "319": 121.3903242746989,
      "320": 121.71068838087179,
      "321": 121.98531651900987,
      "322": 122.34783082089182,
      "323": 122.71875407332081,
      "324": 123.01691650132001,
      "325": 123.42409331003824,
      "326": 123.76624026540982,
      "327": 124.05761253227622,
      "328": 124.37378731420485,
      "329": 124.69171983104641,
      "330": 125.02937103530108,
      "331": 125.44672368367513,
      "332": 125.80443747568938,
      "333": 126.11360246044094,
      "334": 126.52132402840307,
      "335": 126.86468706292621,
      "336": 127.212238635047,
      "337": 127.66286894480388,
      "338": 128.1111411401781,
      "339": 128.5026773355775,
      "340": 128.914467504469,
      "341": 129.32582238515218,
      "342": 129.69677805496474,
      "343": 130.10688005867652,
      "344": 130.54235904499635,
      "345": 130.90808080037434,
      "346": 131.26637177548167,
      "347": 131.57485690359343,
      "348": 131.88063430786133,
      "349": 132.22106506864904,
      "350": 132.60937293101165,
      "351": 133.0245190302531,
      "352": 133.44311846716928,
      "353": 133.85250175605387,
      "354": 134.0721705808478,
      "355": 134.14583911895753,
      "356": 134.22890776294773,
      "357": 134.2572475368694,
      "358": 134.2876670966714,
      "359": 134.33228848775227,
      "360": 134.37671971725206,
      "361": 134.43920536364539,
      "362": 134.54610268544343,
      "363": 134.56166903177896,
      "364": 134.5931958990582,
      "365": 134.64419212987866,
      "366": 134.674221814689,
      "367": 134.7085119990979,
      "368": 134.9307154973348,
      "369": 135.00717673867436,
      "370": 135.04454615964727,
      "371": 135.09435550237106,
      "372": 135.1165163719048,
      "373": 135.14946455874684,
      "374": 135.235018603007,
      "375": 135.26392991664045,
      "376": 135.30052469544492,
      "377": 135.33433105985998,
      "378": 135.35630281092756,
      "379": 135.38868997864805,
      "380": 135.47355836232504,
      "381": 135.49565286151434,
      "382": 135.49618355702546,
      "383": 135.53614289881818,
      "384": 135.5631016230179,
      "385": 134.98827781677247,
      "386": 64.9234130859375
    }
  },
  "run_time": {
    "hours": 6.429876008611111,
    "human": "6:25:47.553631",
    "minutes": 385.79256051666664,
    "real_seconds_per_sim_second": {
      "2.0": 33.439846,
      "3.002": 34.876992,
      "4.002868": 37.748431,
      "5.004612": 40.233593,
      "6.007024": 43.893087,
      "7.00906": 47.551302,
      "8.00998": 48.853658,
      "9.012049": 49.657149,
      "10.013803": 50.335661,
      "11.013833": 51.023711,
      "12.015441": 51.666637,
      "13.015851": 52.434353,
      "14.017258": 53.011302,
      "15.017439": 53.669253,
      "16.017456": 54.300478,
      "17.017964": 54.915542,
      "18.018744": 55.496301,
      "19.020586": 56.147924,
      "20.021531": 56.866227,
      "21.021627": 57.546831,
      "22.023309": 58.243901,
      "23.023418": 58.929417,
      "24.024387": 59.59796,
      "25.026398": 60.240825,
      "26.027008": 60.815564,
      "27.028748": 61.44266,
      "28.028815": 62.054726,
      "29.028864": 62.68553,
      "30.030857": 63.341061,
      "31.032857": 63.959029,
      "32.034857": 64.678727,
      "33.036298": 65.421378,
      "34.036301": 66.03277,
      "35.036368": 66.588643,
      "36.036426": 67.182701,
      "37.036594": 67.819635,
      "38.038457": 68.477351,
      "39.038509": 69.120713,
      "40.039782": 69.724388,
      "41.040723": 70.389562,
      "42.042702": 71.024405,
      "43.043176": 71.881725,
      "44.044469": 72.546652,
      "45.044566": 73.155784,
      "46.045192": 73.761271,
      "47.046717": 74.434628,
      "48.04862": 75.010886,
      "49.05055": 75.63579,
      "50.050556": 76.205244,
      "51.051722": 76.772995,
      "52.05265": 77.464385,
      "53.054467": 78.266453,
      "54.054623": 78.892621,
      "55.055241": 79.472752,
      "56.055247": 80.074962,
      "57.056078": 80.689446,
      "58.056503": 81.353073,
      "59.057397": 81.994686,
      "60.0589": 82.633628,
      "61.059996": 83.337941,
      "62.060982": 84.003481,
      "63.061682": 84.817457,
      "64.063266": 85.890349,
      "65.065266": 86.81744,
      "66.066078": 88.23998,
      "67.066192": 89.541622,
      "68.066644": 90.271696,
      "69.067798": 90.946686,
      "70.068563": 91.414169,
      "71.068727": 91.939229,
      "72.069231": 92.388964,
      "73.070987": 93.004942,
      "74.071543": 93.627133,
      "75.073428": 94.229948,
      "76.073648": 94.81619,
      "77.074466": 95.476221,
      "78.075326": 96.071958,
      "79.075354": 96.627335,
      "80.077058": 97.175718,
      "81.07777": 97.732599,
      "82.079652": 98.360816,
      "83.08169": 99.107888,
      "84.082003": 99.694426,
      "85.0825": 100.306391,
      "86.082956": 100.843462,
      "87.08413": 101.464835,
      "88.084464": 102.094144,
      "89.086435": 102.728898,
      "90.086904": 103.301007,
      "91.087053": 103.882785,
      "92.088881": 104.55877,
      "93.089105": 105.42747,
      "94.089578": 106.179337,
      "95.089599": 106.879154,
      "96.091571": 107.573119,
      "97.091698": 108.261831,
      "98.093108": 108.956843,
      "99.094232": 109.666415,
      "100.09448": 110.339273,
      "101.094806": 111.003308,
      "102.095005": 111.648929,
      "103.095038": 112.354165,
      "104.095471": 112.963862,
      "105.095777": 113.630737,
      "106.097722": 114.259349,
      "107.099362": 114.858783,
      "108.099616": 115.43767,
      "109.100108": 115.965464,
      "110.100203": 116.636334,
      "111.100306": 117.427383,
      "112.100559": 118.129569,
      "113.100651": 118.844461,
      "114.102509": 119.484928,
      "115.103172": 120.071465,
      "116.103745": 120.681868,
      "117.105287": 121.288167,
      "118.105503": 121.910527,
      "119.107419": 122.465628,
      "120.10795": 122.973875,
      "121.108308": 123.437579,
      "122.109308": 124.004276,
      "123.110734": 124.946019,
      "124.112419": 125.945968,
      "125.113004": 127.059662,
      "126.113474": 128.534202,
      "127.11407": 129.852101,
      "128.11431": 130.617634,
      "129.114718": 131.258514,
      "130.11659": 132.045865,
      "131.116798": 132.730101,
      "132.117749": 133.427103,
      "133.119129": 134.122035,
      "134.120936": 134.764586,
      "135.121342": 135.446425,
      "136.121704": 136.061584,
      "137.123528": 136.608533,
      "138.124186": 137.206421,
      "139.124374": 137.870184,
      "140.125445": 138.517253,
      "141.126584": 139.19671,
      "142.12804": 139.955755,
      "143.128744": 140.813788,
      "144.128956": 141.589416,
      "145.12915": 142.288628,
      "146.129528": 142.949379,
      "147.131502": 143.58456,
      "148.131517": 144.165467,
      "149.132479": 144.713153,
      "150.134051": 145.452399,
      "151.135449": 178.043599,
      "152.136499": 221.709421,
      "153.137188": 253.836958,
      "154.138652": 284.672506,
      "155.140159": 306.272206,
      "156.141766": 327.231866,
      "157.142094": 347.645417,
      "158.142102": 362.611466,
      "159.142154": 374.641174,
      "160.142303": 383.962049,
      "161.143985": 391.906571,
      "162.144819": 399.300215,
      "163.145276": 406.061934,
      "164.147162": 410.967557,
      "165.148324": 416.393792,
      "166.148739": 420.833664,
      "167.149514": 424.824814,
      "168.150194": 429.184478,
      "169.15196": 432.841704,
      "170.152524": 436.419849,
      "171.154375": 439.434675,
      "172.154507": 442.82328,
      "173.156486": 445.748779,
      "174.158335": 449.035473,
      "175.158572": 451.906675,
      "176.15881": 454.510001,
      "177.159309": 457.256755,
      "178.159335": 459.411012,
      "179.159904": 461.617383,
      "180.160149": 463.343628,
      "181.160624": 465.070821,
      "182.162307": 466.554072,
      "183.162591": 468.415887,
      "184.163677": 470.537939,
      "185.164565": 472.915986,
      "186.16628": 476.232797,
      "187.16678": 479.65913,
      "188.166875": 483.183664,
      "189.168348": 486.684715,
      "190.169516": 490.109468,
      "191.171338": 493.230429,
      "192.172689": 495.850871,
      "193.173738": 498.220131,
      "194.173965": 500.564783,
      "195.175918": 502.697771,
      "196.176516": 504.537958,
      "197.178104": 506.173538,
      "198.179439": 507.705218,
      "199.181153": 509.48502,
      "200.181666": 511.128565,
      "201.182085": 512.677584,
      "202.182377": 513.928248,
      "203.183493": 515.180752,
      "204.184544": 516.261774,
      "205.18512": 517.226807,
      "206.186663": 518.295772,
      "207.188582": 519.453517,
      "208.190251": 520.735535,
      "209.192164": 522.15193,
      "210.193142": 523.630202,
      "211.194584": 525.131073,
      "212.195084": 526.561084,
      "213.195779": 527.767648,
      "214.197133": 529.576617,
      "215.197577": 531.207184,
      "216.197603": 532.612905,
      "217.198732": 533.900559,
      "218.199701": 535.200739,
      "219.200813": 536.577275,
      "220.202023": 538.0375,
      "221.202265": 539.518362,
      "222.202591": 541.028656,
      "223.204526": 542.413254,
      "224.205278": 543.570788,
      "225.207064": 544.65623,
      "226.209189": 545.744677,
      "227.211183": 546.722547,
      "228.21248": 547.633775,
      "229.213974": 548.557733,
      "230.214764": 549.509759,
      "231.216709": 550.370128,
      "232.217765": 551.336684,
      "233.22083": 552.381363,
      "234.222149": 553.434379,
      "235.223882": 554.250031,
      "236.225648": 555.128078,
      "237.227362": 555.806082,
      "238.231189": 556.377653,
      "239.232189": 556.805274,
      "240.233796": 558.357227,
      "241.23445": 561.288387,
      "242.236376": 578.203649,
      "243.237852": 593.561983,
      "244.238979": 607.042741,
      "245.239318": 614.443825,
      "246.240739": 620.290188,
      "247.242675": 624.540346,
      "248.244286": 626.730739,
      "249.244388": 628.512915,
      "250.246214": 629.869716,
      "251.248239": 630.874033,
      "252.248416": 631.784389,
      "253.249214": 632.547541,
      "254.25016": 633.211595,
      "255.251189": 633.72955,
      "256.252275": 634.314247,
      "257.25419": 635.018317,
      "258.254552": 636.073257,
      "259.255411": 637.494126,
      "260.257445": 638.869606,
      "261.258032": 640.273454,
      "262.258419": 641.235049,
      "263.259554": 642.148735,
      "264.260032": 642.861196,
      "265.261068": 643.464691,
      "266.261669": 644.052568,
      "267.262732": 644.583208,
      "268.26312": 645.241002,
      "269.263327": 646.205707,
      "270.265022": 647.523815,
      "271.266518": 648.806113,
      "272.267801": 649.995222,
      "273.267934": 650.974566,
      "274.269706": 652.538866,
      "275.271471": 653.865543,
      "276.271895": 654.769274,
      "277.273481": 655.438629,
      "278.274092": 656.000954,
      "279.275816": 656.918745,
      "280.277246": 658.665776,
      "281.278377": 660.331195,
      "282.278909": 661.929401,
      "283.278937": 663.417607,
      "284.279791": 664.583384,
      "285.281055": 665.87742,
      "286.281337": 666.904407,
      "287.28181": 667.760479,
      "288.283186": 668.558921,
      "289.285641": 669.310735,
      "290.285929": 670.178324,
      "291.287991": 671.552225,
      "292.289369": 673.366331,
      "293.289834": 674.766109,
      "294.291448": 676.153683,
      "295.292306": 677.314925,
      "296.294141": 678.604428,
      "297.295141": 679.614251,
      "298.296233": 680.448859,
      "299.297326": 681.083092,
      "300.299": 683.482662,
      "301.301": 687.986175,
      "302.303": 692.096309,
      "303.305": 695.751087,
      "304.307": 698.574632,
      "305.309": 701.185846,
      "306.311": 703.994075,
      "307.313": 706.864059,
      "308.315": 709.85718,
      "309.317": 713.24864,
      "310.319": 716.650622,
      "311.321": 720.263136,
      "312.323": 723.805183,
      "313.325": 727.406249,
      "314.327": 731.215044,
      "315.329": 735.266186,
      "316.331": 739.393427,
      "317.333": 743.582862,
      "318.335": 748.462918,
      "319.337": 752.878074,
      "320.339": 757.497453,
      "321.341": 762.206206,
      "322.343": 767.427702,
      "323.345": 772.503686,
      "324.347": 778.071102,
      "325.349": 783.6476,
      "326.351": 789.185991,
      "327.353": 795.434834,
      "328.355": 801.652331,
      "329.357": 808.430455,
      "330.359": 814.813155,
      "331.361": 821.263016,
      "332.363": 827.876322,
      "333.365": 834.712435,
      "334.367": 841.65647,
      "335.369": 849.125035,
      "336.371": 858.657141,
      "337.373": 867.23269,
      "338.375": 875.435165,
      "339.377": 883.694359,
      "340.379": 891.685849,
      "341.381": 899.654534,
      "342.383": 907.698001,
      "343.385": 916.041287,
      "344.387": 924.211474,
      "345.389": 933.047977,
      "346.391": 941.486646,
      "347.393": 950.477007,
      "348.395": 959.705713,
      "349.397": 964.847864,
      "350.399": 970.476525,
      "351.401": 975.731931,
      "352.403": 980.951695,
      "353.405": 985.568639,
      "354.407": 990.886468,
      "355.409": 995.488511,
      "356.411": 1000.593263,
      "357.413": 1006.578996,
      "358.415": 1012.737682,
      "359.417": 1020.538744,
      "360.419": 1030.802312,
      "361.421": 1040.495229,
      "362.423": 1050.560307,
      "363.425": 1060.635749,
      "364.427": 1069.976319,
      "365.429": 1079.779171,
      "366.431": 1089.366893,
      "367.433": 1098.091729,
      "368.435": 1105.608252,
      "369.437": 1114.257736,
      "370.439": 1122.938283,
      "371.441": 1133.26441,
      "372.443": 1141.702522,
      "373.445": 1149.362836,
      "374.447": 1157.604105,
      "375.449": 1167.144394,
      "376.451": 1176.169885,
      "377.453": 1185.011711,
      "378.455": 1191.524257,
      "379.457": 1200.026659,
      "380.459": 1208.391948,
      "381.461": 1215.532372,
      "382.463": 1221.800415,
      "383.465": 1229.243814,
      "384.467": 1237.95346,
      "385.469": 1246.001996,
      "386.471": 1252.983934,
      "387.473": 1262.000233,
      "388.475": 1268.883273,
      "389.477": 1276.592863,
      "390.479": 1284.014081,
      "391.481": 1290.714543,
      "392.483": 1297.454861,
      "393.485": 1304.593539,
      "394.487": 1311.752058,
      "395.489": 1321.163698,
      "396.491": 1328.481077,
      "397.493": 1335.550653,
      "398.495": 1342.665495,
      "399.497": 1349.400228,
      "400.499": 1356.180122,
      "401.501": 1363.239886,
      "402.503": 1370.179951,
      "403.505": 1377.227252,
      "404.507": 1384.614001,
      "405.509": 1392.056235,
      "406.511": 1399.540282,
      "407.513": 1407.646842,
      "408.515": 1415.435609,
      "409.517": 1423.536457,
      "410.519": 1431.706037,
      "411.521": 1439.733292,
      "412.523": 1447.834596,
      "413.525": 1455.806283,
      "414.527": 1463.462152,
      "415.529": 1471.450463,
      "416.531": 1479.374331,
      "417.533": 1488.143162,
      "418.535": 1496.012256,
      "419.537": 1504.544319,
      "420.539": 1512.269918,
      "421.541": 1519.992002,
      "422.543": 1528.049277,
      "423.545": 1536.535803,
      "424.547": 1544.671852,
      "425.549": 1552.774677,
      "426.551": 1560.675513,
      "427.553": 1568.478733,
      "428.555": 1576.530256,
      "429.557": 1584.88119,
      "430.559": 1593.199899,
      "431.561": 1601.156172,
      "432.563": 1609.676666,
      "433.565": 1618.176029,
      "434.567": 1627.131791,
      "435.569": 1635.883493,
      "436.571": 1644.341574,
      "437.573": 1653.128735,
      "438.575": 1661.321617,
      "439.577": 1669.419041,
      "440.579": 1678.739108,
      "441.581": 1686.633861,
      "442.583": 1694.733631,
      "443.585": 1702.940883,
      "444.587": 1710.950026,
      "445.589": 1718.924343,
      "446.591": 1727.093978,
      "447.593": 1735.423069,
      "448.595": 1744.302312,
      "449.597": 1752.78004,
      "450.599": 1760.740533,
      "451.601": 1769.10839,
      "452.603": 1777.526055,
      "453.605": 1786.102818,
      "454.607": 1794.172062,
      "455.609": 1802.971141,
      "456.611": 1810.799052,
      "457.613": 1818.956771,
      "458.615": 1827.308333,
      "459.617": 1835.961881,
      "460.619": 1844.616758,
      "461.621": 1853.060899,
      "462.623": 1861.334464,
      "463.625": 1869.929667,
      "464.627": 1878.951754,
      "465.629": 1887.678492,
      "466.631": 1896.813657,
      "467.633": 1905.152699,
      "468.635": 1915.678856,
      "469.637": 1928.957951,
      "470.639": 1940.570199,
      "471.641": 1957.236982,
      "472.643": 1969.878769,
      "473.645": 1985.879108,
      "474.647": 2001.64618,
      "475.649": 2018.696119,
      "476.651": 2033.067577,
      "477.653": 2046.467599,
      "478.655": 2056.781248,
      "479.657": 2068.270032,
      "480.659": 2078.471966,
      "481.661": 2090.309072,
      "482.663": 2101.507566,
      "483.665": 2115.000485,
      "484.667": 2128.643253,
      "485.669": 2144.080842,
      "486.671": 2159.33895,
      "487.673": 2176.35377,
      "488.675": 2190.50175,
      "489.677": 2204.179399,
      "490.679": 2218.946621,
      "491.681": 2236.095712,
      "492.683": 2249.954281,
      "493.685": 2262.332675,
      "494.687": 2275.428281,
      "495.689": 2292.16219,
      "496.691": 2306.172431,
      "497.693": 2320.04369,
      "498.695": 2334.216651,
      "499.697": 2351.064901,
      "500.699": 2366.048679,
      "501.701": 2382.129018,
      "502.703": 2398.184943,
      "503.705": 2409.450614,
      "504.707": 2420.519973,
      "505.709": 2431.433448,
      "506.711": 2442.066823,
      "507.713": 2453.981559,
      "508.715": 2468.28812,
      "509.717": 2484.206623,
      "510.719": 2499.549731,
      "511.721": 2513.658167,
      "512.723": 2527.879898,
      "513.725": 2544.249729,
      "514.727": 2558.935844,
      "515.729": 2575.872803,
      "516.731": 2593.375564,
      "517.733": 2610.8137,
      "518.735": 2624.173951,
      "519.737": 2639.059174,
      "520.739": 2653.077124,
      "521.741": 2668.166515,
      "522.743": 2681.819842,
      "523.745": 2697.758604,
      "524.747": 2716.108076,
      "525.749": 2732.206168,
      "526.751": 2751.766677,
      "527.753": 2768.235202,
      "528.755": 2781.337774,
      "529.757": 2793.499516,
      "530.759": 2805.436598,
      "531.761": 2817.913399,
      "532.763": 2833.976335,
      "533.765": 2851.018118,
      "534.767": 2865.136967,
      "535.769": 2880.097211,
      "536.771": 2894.916736,
      "537.773": 2912.208772,
      "538.775": 2925.874061,
      "539.777": 2941.132238,
      "540.779": 2955.092518,
      "541.781": 2969.949529,
      "542.783": 2984.440438,
      "543.785": 2997.657016,
      "544.787": 3011.001638,
      "545.789": 3025.822823,
      "546.791": 3039.873882,
      "547.793": 3057.37301,
      "548.795": 3072.784982,
      "549.797": 3088.884155,
      "550.799": 3103.347214,
      "551.801": 3117.859622,
      "552.803": 3130.091752,
      "553.805": 3143.613684,
      "554.807": 3154.455092,
      "555.809": 3166.639076,
      "556.811": 3178.502811,
      "557.813": 3193.198585,
      "558.815": 3207.810187,
      "559.817": 3223.235718,
      "560.819": 3239.972606,
      "561.821": 3255.79566,
      "562.823": 3270.158143,
      "563.825": 3283.469845,
      "564.827": 3298.318196,
      "565.829": 3314.697526,
      "566.831": 3328.057956,
      "567.833": 3343.080778,
      "568.835": 3358.536626,
      "569.837": 3373.411985,
      "570.839": 3387.487393,
      "571.841": 3403.118041,
      "572.843": 3416.960907,
      "573.845": 3432.789074,
      "574.847": 3448.656452,
      "575.849": 3468.174246,
      "576.851": 3487.421568,
      "577.853": 3500.602402,
      "578.855": 3513.283329,
      "579.857": 3525.428697,
      "580.859": 3537.708338,
      "581.861": 3553.299843,
      "582.863": 3568.746067,
      "583.865": 3586.167555,
      "584.867": 3604.804745,
      "585.869": 3624.470944,
      "586.871": 3645.664059,
      "587.873": 3661.9658,
      "588.875": 3677.201575,
      "589.877": 3691.889232,
      "590.879": 3708.511629,
      "591.881": 3723.654026,
      "592.883": 3737.563517,
      "593.885": 3750.973888,
      "594.887": 3764.754194,
      "595.889": 3779.869831,
      "596.891": 3795.24199,
      "597.893": 3812.685703,
      "598.895": 3825.514261,
      "599.897": 3842.512392,
      "600.899": 3861.70197,
      "601.901": 3891.373815,
      "602.903": 3917.40579,
      "603.905": 3943.287685,
      "604.907": 3968.04691,
      "605.909": 3988.746148,
      "606.911": 4012.824727,
      "607.913": 4035.242935,
      "608.915": 4054.239863,
      "609.917": 4071.674584,
      "610.919": 4090.274568,
      "611.921": 4110.39873,
      "612.923": 4127.236965,
      "613.925": 4142.232885,
      "614.927": 4157.015826,
      "615.929": 4172.177732,
      "616.931": 4187.890957,
      "617.933": 4204.124592,
      "618.935": 4215.900938,
      "619.937": 4227.017973,
      "620.939": 4238.068547,
      "621.941": 4249.496734,
      "622.943": 4261.281955,
      "623.945": 4276.649181,
      "624.947": 4291.901051,
      "625.949": 4307.318797,
      "626.951": 4322.816576,
      "627.953": 4337.517293,
      "628.955": 4352.296423,
      "629.957": 4367.370963,
      "630.959": 4383.383071,
      "631.961": 4400.05048,
      "632.963": 4416.589894,
      "633.965": 4435.140753,
      "634.967": 4451.733642,
      "635.969": 4474.409815,
      "636.971": 4498.875898,
      "637.973": 4516.47322,
      "638.975": 4531.557523,
      "639.977": 4545.382183,
      "640.979": 4559.486959,
      "641.981": 4572.52328,
      "642.983": 4583.771708,
      "643.985": 4596.268798,
      "644.987": 4608.717402,
      "645.989": 4624.075591,
      "646.991": 4644.847429,
      "647.993": 4663.384684,
      "648.995": 4680.151284,
      "649.997": 4694.968052,
      "650.999": 4710.129724,
      "652.001": 4723.318136,
      "653.003": 4738.515393,
      "654.005": 4752.985358,
      "655.007": 4767.406531,
      "656.009": 4780.683358,
      "657.011": 4794.309402,
      "658.013": 4809.791997,
      "659.015": 4824.852737,
      "660.017": 4839.325809,
      "661.019": 4853.018378,
      "662.021": 4866.649057,
      "663.023": 4880.571275,
      "664.025": 4893.436516,
      "665.027": 4907.090317,
      "666.029": 4921.842694,
      "667.031": 4934.062444,
      "668.033": 4945.298497,
      "669.035": 4956.373675,
      "670.037": 4967.649144,
      "671.039": 4979.179419,
      "672.041": 4991.987186,
      "673.043": 5007.318316,
      "674.045": 5021.763953,
      "675.047": 5036.158201,
      "676.049": 5050.349034,
      "677.051": 5064.590586,
      "678.053": 5079.290258,
      "679.055": 5095.240667,
      "680.057": 5109.285972,
      "681.059": 5123.640641,
      "682.061": 5138.882736,
      "683.063": 5153.867745,
      "684.065": 5168.251046,
      "685.067": 5183.279723,
      "686.069": 5197.824503,
      "687.071": 5212.905765,
      "688.073": 5229.071127,
      "689.075": 5246.015371,
      "690.077": 5260.415471,
      "691.079": 5275.481161,
      "692.081": 5289.935465,
      "693.083": 5300.926841,
      "694.085": 5312.580212,
      "695.087": 5325.450929,
      "696.089": 5340.352532,
      "697.091": 5359.453741,
      "698.093": 5376.223483,
      "699.095": 5389.933261,
      "700.097": 5404.536276,
      "701.099": 5417.901089,
      "702.101": 5432.515982,
      "703.103": 5447.118676,
      "704.105": 5462.875218,
      "705.107": 5477.755913,
      "706.109": 5496.908742,
      "707.111": 5513.996714,
      "708.113": 5527.873943,
      "709.115": 5542.16701,
      "710.117": 5554.568283,
      "711.119": 5568.805137,
      "712.121": 5580.698083,
      "713.123": 5594.067572,
      "714.125": 5608.378133,
      "715.127": 5621.683182,
      "716.129": 5634.254629,
      "717.131": 5648.89481,
      "718.133": 5661.129846,
      "719.135": 5673.509663,
      "720.137": 5685.315065,
      "721.139": 5697.032143,
      "722.141": 5709.0723,
      "723.143": 5725.630589,
      "724.145": 5740.611484,
      "725.147": 5753.360323,
      "726.149": 5767.394721,
      "727.151": 5783.218549,
      "728.153": 5796.739318,
      "729.155": 5808.405658,
      "730.157": 5819.482417,
      "731.159": 5831.413911,
      "732.161": 5844.500693,
      "733.163": 5857.330441,
      "734.165": 5869.020056,
      "735.167": 5881.798877,
      "736.169": 5895.337215,
      "737.171": 5906.24625,
      "738.173": 5918.664259,
      "739.175": 5933.684877,
      "740.177": 5947.98405,
      "741.179": 5963.186143,
      "742.181": 5975.77763,
      "743.183": 5988.483986,
      "744.185": 6000.64973,
      "745.187": 6014.227077,
      "746.189": 6025.522019,
      "747.191": 6038.59624,
      "748.193": 6049.891821,
      "749.195": 6062.525417,
      "750.197": 6074.218357,
      "751.199": 6088.010067,
      "752.201": 6101.009182,
      "753.203": 6115.445213,
      "754.205": 6129.793143,
      "755.207": 6145.343262,
      "756.209": 6165.534001,
      "757.211": 6183.012109,
      "758.213": 6198.048288,
      "759.215": 6212.488151,
      "760.217": 6226.344791,
      "761.219": 6240.312086,
      "762.221": 6253.385807,
      "763.223": 6268.178141,
      "764.225": 6283.947254,
      "765.227": 6297.479133,
      "766.229": 6313.017995,
      "767.231": 6328.367416,
      "768.233": 6343.419683,
      "769.235": 6355.471243,
      "770.237": 6367.922756,
      "771.239": 6380.252024,
      "772.241": 6390.609148,
      "773.243": 6401.029087,
      "774.245": 6410.977478,
      "775.247": 6421.043741,
      "776.249": 6432.684636,
      "777.251": 6443.650181,
      "778.253": 6455.719333,
      "779.255": 6466.995326,
      "780.257": 6477.414391,
      "781.259": 6488.0822,
      "782.261": 6498.490144,
      "783.263": 6508.671346,
      "784.265": 6519.179554,
      "785.267": 6529.370044,
      "786.269": 6539.598615,
      "787.271": 6549.893582,
      "788.273": 6561.337152,
      "789.275": 6572.500009,
      "790.277": 6583.514037,
      "791.279": 6595.914805,
      "792.281": 6607.732669,
      "793.283": 6619.537415,
      "794.285": 6631.89264,
      "795.287": 6643.290645,
      "796.289": 6654.47969,
      "797.291": 6665.447977,
      "798.293": 6676.241625,
      "799.295": 6687.571536,
      "800.297": 6698.607598,
      "801.299": 6709.249797,
      "802.301": 6720.922651,
      "803.303": 6733.268955,
      "804.305": 6745.275556,
      "805.307": 6755.980625,
      "806.309": 6766.89889,
      "807.311": 6778.547102,
      "808.313": 6789.66154,
      "809.315": 6800.706206,
      "810.317": 6811.54022,
      "811.319": 6822.684757,
      "812.321": 6833.80006,
      "813.323": 6845.695594,
      "814.325": 6856.880694,
      "815.327": 6868.844287,
      "816.329": 6884.215315,
      "817.331": 6896.302756,
      "818.333": 6908.217802,
      "819.335": 6920.55078,
      "820.337": 6932.21187,
      "821.339": 6943.273924,
      "822.341": 6956.196806,
      "823.343": 6968.431974,
      "824.345": 6982.578129,
      "825.347": 6994.9815,
      "826.349": 7007.21235,
      "827.351": 7020.081749,
      "828.353": 7031.405807,
      "829.355": 7042.508357,
      "830.357": 7054.758731,
      "831.359": 7065.996126,
      "832.361": 7076.95113,
      "833.363": 7088.053451,
      "834.365": 7100.978074,
      "835.367": 7111.687431,
      "836.369": 7122.586589,
      "837.371": 7133.675648,
      "838.373": 7144.490962,
      "839.375": 7155.794599,
      "840.377": 7167.173821,
      "841.379": 7178.438924,
      "842.381": 7189.872099,
      "843.383": 7201.604136,
      "844.385": 7213.076609,
      "845.387": 7224.793388,
      "846.389": 7236.628811,
      "847.391": 7248.366961,
      "848.393": 7259.75942,
      "849.395": 7271.433567,
      "850.397": 7282.994855,
      "851.399": 7294.463598,
      "852.401": 7306.136403,
      "853.403": 7318.029563,
      "854.405": 7330.07369,
      "855.407": 7341.266625,
      "856.409": 7353.04381,
      "857.411": 7364.194273,
      "858.413": 7375.607908,
      "859.415": 7386.753227,
      "860.417": 7399.205584,
      "861.419": 7411.299461,
      "862.421": 7423.430114,
      "863.423": 7434.014487,
      "864.425": 7445.674703,
      "865.427": 7458.526565,
      "866.429": 7470.743059,
      "867.431": 7481.321682,
      "868.433": 7492.165022,
      "869.435": 7502.409445,
      "870.437": 7513.223074,
      "871.439": 7524.637934,
      "872.441": 7537.355461,
      "873.443": 7548.841902,
      "874.445": 7560.630323,
      "875.447": 7573.014661,
      "876.449": 7586.33767,
      "877.451": 7599.141825,
      "878.453": 7612.778263,
      "879.455": 7624.534133,
      "880.457": 7637.459174,
      "881.459": 7650.370516,
      "882.461": 7661.965484,
      "883.463": 7676.122392,
      "884.465": 7688.162178,
      "885.467": 7699.710032,
      "886.469": 7711.831151,
      "887.471": 7723.411867,
      "888.473": 7735.566095,
      "889.475": 7748.470932,
      "890.477": 7760.491394,
      "891.479": 7771.571638,
      "892.481": 7784.084021,
      "893.483": 7796.228858,
      "894.485": 7808.688445,
      "895.487": 7819.749489,
      "896.489": 7832.164043,
      "897.491": 7843.072127,
      "898.493": 7854.017577,
      "899.495": 7864.832074,
      "900.497": 7875.978685,
      "901.499": 7906.432667,
      "902.501": 7932.867526,
      "903.503": 7955.137343,
      "904.505": 7972.768787,
      "905.507": 7990.448462,
      "906.509": 8007.769668,
      "907.511": 8021.894133,
      "908.513": 8035.960949,
      "909.515": 8048.890784,
      "910.517": 8062.422725,
      "911.519": 8077.410169,
      "912.521": 8091.090711,
      "913.523": 8103.919955,
      "914.525": 8116.411361,
      "915.527": 8127.748553,
      "916.529": 8138.961921,
      "917.531": 8150.900487,
      "918.533": 8162.628985,
      "919.535": 8178.490395,
      "920.537": 8192.2767,
      "921.539": 8205.431398,
      "922.541": 8217.153363,
      "923.543": 8231.206177,
      "924.545": 8243.94416,
      "925.547": 8259.343499,
      "926.549": 8275.154361,
      "927.551": 8291.199179,
      "928.553": 8303.995289,
      "929.555": 8320.720888,
      "930.557": 8336.906091,
      "931.559": 8355.573933,
      "932.561": 8369.951265,
      "933.563": 8389.061483,
      "934.565": 8404.898595,
      "935.567": 8425.503839,
      "936.569": 8448.047257,
      "937.571": 8471.607879,
      "938.573": 8488.729571,
      "939.575": 8507.285536,
      "940.577": 8524.744086,
      "941.579": 8541.028003,
      "942.581": 8556.111314,
      "943.583": 8569.589524,
      "944.585": 8582.946467,
      "945.587": 8598.350545,
      "946.589": 8615.422587,
      "947.591": 8634.475562,
      "948.593": 8651.763924,
      "949.595": 8672.989652,
      "950.597": 8691.319615,
      "951.599": 8709.145433,
      "952.601": 8727.525394,
      "953.603": 8745.059535,
      "954.605": 8760.941339,
      "955.607": 8781.762173,
      "956.609": 8800.238739,
      "957.611": 8819.440212,
      "958.613": 8836.147197,
      "959.615": 8857.156643,
      "960.617": 8874.099799,
      "961.619": 8893.128813,
      "962.621": 8907.968363,
      "963.623": 8923.777012,
      "964.625": 8936.580409,
      "965.627": 8950.310819,
      "966.629": 8964.253423,
      "967.631": 8979.900496,
      "968.633": 8994.800947,
      "969.635": 9013.26107,
      "970.637": 9028.531133,
      "971.639": 9046.447229,
      "972.641": 9060.364337,
      "973.643": 9077.095549,
      "974.645": 9094.215086,
      "975.647": 9111.500878,
      "976.649": 9128.785067,
      "977.651": 9146.935433,
      "978.653": 9163.723517,
      "979.655": 9181.532943,
      "980.657": 9196.550535,
      "981.659": 9213.790152,
      "982.661": 9231.120138,
      "983.663": 9248.147886,
      "984.665": 9263.65291,
      "985.667": 9280.78453,
      "986.669": 9293.342256,
      "987.671": 9307.336889,
      "988.673": 9320.178297,
      "989.675": 9334.186837,
      "990.677": 9349.366534,
      "991.679": 9368.936282,
      "992.681": 9384.226283,
      "993.683": 9403.408418,
      "994.685": 9421.313188,
      "995.687": 9442.797076,
      "996.689": 9464.019907,
      "997.691": 9484.592042,
      "998.693": 9500.813483,
      "999.695": 9518.503093,
      "1000.697": 9533.611528,
      "1001.699": 9552.180938,
      "1002.701": 9567.20008,
      "1003.703": 9588.075869,
      "1004.705": 9606.858435,
      "1005.707": 9627.113697,
      "1006.709": 9647.172913,
      "1007.711": 9662.420948,
      "1008.713": 9676.247314,
      "1009.715": 9690.067064,
      "1010.717": 9703.502165,
      "1011.719": 9718.07973,
      "1012.721": 9733.323825,
      "1013.723": 9752.107844,
      "1014.725": 9768.768894,
      "1015.727": 9785.39094,
      "1016.729": 9802.925536,
      "1017.731": 9823.681376,
      "1018.733": 9840.249736,
      "1019.735": 9857.404798,
      "1020.737": 9872.548796,
      "1021.739": 9887.961257,
      "1022.741": 9904.443423,
      "1023.743": 9920.818135,
      "1024.745": 9937.38298,
      "1025.747": 9956.160218,
      "1026.749": 9971.227555,
      "1027.751": 9987.18031,
      "1028.753": 10004.237789,
      "1029.755": 10018.19693,
      "1030.757": 10030.32844,
      "1031.759": 10042.886405,
      "1032.761": 10055.038539,
      "1033.763": 10068.421352,
      "1034.765": 10082.371287,
      "1035.767": 10096.243721,
      "1036.769": 10110.436897,
      "1037.771": 10124.497749,
      "1038.773": 10139.205299,
      "1039.775": 10154.234122,
      "1040.777": 10170.907415,
      "1041.779": 10187.158014,
      "1042.781": 10200.137011,
      "1043.783": 10214.092704,
      "1044.785": 10227.087952,
      "1045.787": 10244.297518,
      "1046.789": 10260.895229,
      "1047.791": 10277.467021,
      "1048.793": 10293.171921,
      "1049.795": 10307.842311,
      "1050.797": 10323.485065,
      "1051.799": 10340.978525,
      "1052.801": 10357.900564,
      "1053.803": 10377.298459,
      "1054.805": 10390.757564,
      "1055.807": 10406.149263,
      "1056.809": 10422.25832,
      "1057.811": 10441.180698,
      "1058.813": 10457.407078,
      "1059.815": 10475.084035,
      "1060.817": 10490.057341,
      "1061.819": 10507.154442,
      "1062.821": 10523.090492,
      "1063.823": 10540.607368,
      "1064.825": 10557.242608,
      "1065.827": 10575.923465,
      "1066.829": 10592.236107,
      "1067.831": 10609.870895,
      "1068.833": 10624.806041,
      "1069.835": 10638.866318,
      "1070.837": 10652.78287,
      "1071.839": 10666.179889,
      "1072.841": 10679.256493,
      "1073.843": 10692.068595,
      "1074.845": 10705.708111,
      "1075.847": 10721.857863,
      "1076.849": 10738.682224,
      "1077.851": 10751.38963,
      "1078.853": 10763.899123,
      "1079.855": 10775.927783,
      "1080.857": 10787.827933,
      "1081.859": 10800.971232,
      "1082.861": 10814.197675,
      "1083.863": 10827.660578,
      "1084.865": 10840.795125,
      "1085.867": 10854.595123,
      "1086.869": 10868.107317,
      "1087.871": 10882.434124,
      "1088.873": 10895.621394,
      "1089.875": 10908.598381,
      "1090.877": 10920.446947,
      "1091.879": 10933.410785,
      "1092.881": 10946.985564,
      "1093.883": 10960.008886,
      "1094.885": 10972.889132,
      "1095.887": 10986.242231,
      "1096.889": 11000.262629,
      "1097.891": 11014.675064,
      "1098.893": 11029.029556,
      "1099.895": 11042.36882,
      "1100.897": 11055.95652,
      "1101.899": 11070.377234,
      "1102.901": 11084.12811,
      "1103.903": 11099.569249,
      "1104.905": 11112.36868,
      "1105.907": 11124.900912,
      "1106.909": 11137.439007,
      "1107.911": 11149.463799,
      "1108.913": 11162.17804,
      "1109.915": 11175.692304,
      "1110.917": 11188.966119,
      "1111.919": 11201.856745,
      "1112.921": 11215.845177,
      "1113.923": 11230.066636,
      "1114.925": 11243.857912,
      "1115.927": 11260.388705,
      "1116.929": 11276.472117,
      "1117.931": 11289.854123,
      "1118.933": 11302.323611,
      "1119.935": 11315.651317,
      "1120.937": 11329.799822,
      "1121.939": 11343.79577,
      "1122.941": 11358.069818,
      "1123.943": 11372.623827,
      "1124.945": 11386.2806,
      "1125.947": 11401.149779,
      "1126.949": 11415.102171,
      "1127.951": 11429.144226,
      "1128.953": 11442.93128,
      "1129.955": 11455.633614,
      "1130.957": 11470.275643,
      "1131.959": 11482.373763,
      "1132.961": 11494.726979,
      "1133.963": 11507.007744,
      "1134.965": 11519.760059,
      "1135.967": 11533.148115,
      "1136.969": 11547.176875,
      "1137.971": 11560.985544,
      "1138.973": 11573.975728,
      "1139.975": 11587.046974,
      "1140.977": 11600.208149,
      "1141.979": 11615.487483,
      "1142.981": 11629.963272,
      "1143.983": 11643.614686,
      "1144.985": 11655.931008,
      "1145.987": 11668.268929,
      "1146.989": 11680.42992,
      "1147.991": 11692.963917,
      "1148.993": 11706.048008,
      "1149.995": 11718.503781,
      "1150.997": 11730.934833,
      "1151.999": 11743.973062,
      "1153.001": 11756.996929,
      "1154.003": 11771.43622,
      "1155.005": 11784.539134,
      "1156.007": 11797.395793,
      "1157.009": 11812.162863,
      "1158.011": 11827.275859,
      "1159.013": 11839.32828,
      "1160.015": 11852.197418,
      "1161.017": 11864.709948,
      "1162.019": 11877.640242,
      "1163.021": 11890.003619,
      "1164.023": 11902.980767,
      "1165.025": 11915.796642,
      "1166.027": 11928.292308,
      "1167.029": 11940.181687,
      "1168.031": 11952.165603,
      "1169.033": 11963.979231,
      "1170.035": 11976.993663,
      "1171.037": 11989.58016,
      "1172.039": 12002.301429,
      "1173.041": 12016.011371,
      "1174.043": 12029.751109,
      "1175.045": 12043.701993,
      "1176.047": 12057.847589,
      "1177.049": 12070.854739,
      "1178.051": 12083.806488,
      "1179.053": 12097.253449,
      "1180.055": 12111.012834,
      "1181.057": 12124.025855,
      "1182.059": 12136.808548,
      "1183.061": 12149.884059,
      "1184.063": 12163.418942,
      "1185.065": 12176.375057,
      "1186.067": 12192.008705,
      "1187.069": 12204.229247,
      "1188.071": 12215.870254,
      "1189.073": 12228.139637,
      "1190.075": 12240.01404,
      "1191.077": 12252.470031,
      "1192.079": 12265.341765,
      "1193.081": 12278.525498,
      "1194.083": 12293.774591,
      "1195.085": 12307.062857,
      "1196.087": 12321.834171,
      "1197.089": 12336.392436,
      "1198.091": 12350.620727,
      "1199.093": 12365.132589,
      "1200.095": 12378.681402,
      "1201.097": 12408.12056,
      "1202.099": 12449.844306,
      "1203.101": 12479.713083,
      "1204.103": 12507.225398,
      "1205.105": 12530.328821,
      "1206.107": 12550.837146,
      "1207.109": 12568.512308,
      "1208.111": 12582.352919,
      "1209.113": 12596.363618,
      "1210.115": 12609.67897,
      "1211.117": 12624.492667,
      "1212.119": 12640.249164,
      "1213.121": 12655.47411,
      "1214.123": 12669.362358,
      "1215.125": 12683.211405,
      "1216.127": 12698.568552,
      "1217.129": 12713.267799,
      "1218.131": 12726.95061,
      "1219.133": 12741.238868,
      "1220.135": 12754.478629,
      "1221.137": 12769.959836,
      "1222.139": 12785.578114,
      "1223.141": 12802.434296,
      "1224.143": 12818.620685,
      "1225.145": 12834.473188,
      "1226.147": 12851.945834,
      "1227.149": 12869.142093,
      "1228.151": 12885.523269,
      "1229.153": 12902.250602,
      "1230.155": 12918.738186,
      "1231.157": 12934.712275,
      "1232.159": 12948.520239,
      "1233.161": 12963.305945,
      "1234.163": 12981.474607,
      "1235.165": 13001.83909,
      "1236.167": 13025.202966,
      "1237.169": 13048.315521,
      "1238.171": 13065.750619,
      "1239.173": 13083.200639,
      "1240.175": 13100.071705,
      "1241.177": 13118.35183,
      "1242.179": 13135.851036,
      "1243.181": 13151.061922,
      "1244.183": 13167.290009,
      "1245.185": 13184.018287,
      "1246.187": 13205.681106,
      "1247.189": 13226.512561,
      "1248.191": 13246.638919,
      "1249.193": 13265.597001,
      "1250.195": 13284.098523,
      "1251.197": 13301.533325,
      "1252.199": 13317.166795,
      "1253.201": 13332.269257,
      "1254.203": 13347.898829,
      "1255.205": 13365.793832,
      "1256.207": 13382.373235,
      "1257.209": 13401.626847,
      "1258.211": 13419.264896,
      "1259.213": 13435.66356,
      "1260.215": 13451.542686,
      "1261.217": 13469.094047,
      "1262.219": 13486.669501,
      "1263.221": 13505.049142,
      "1264.223": 13525.028142,
      "1265.225": 13543.25314,
      "1266.227": 13561.059298,
      "1267.229": 13580.244581,
      "1268.231": 13596.827029,
      "1269.233": 13616.425771,
      "1270.235": 13634.332513,
      "1271.237": 13654.214013,
      "1272.239": 13668.821173,
      "1273.241": 13684.282571,
      "1274.243": 13698.368431,
      "1275.245": 13714.126958,
      "1276.247": 13734.534462,
      "1277.249": 13752.37249,
      "1278.251": 13771.187826,
      "1279.253": 13790.899893,
      "1280.255": 13806.992304,
      "1281.257": 13824.489015,
      "1282.259": 13842.612465,
      "1283.261": 13862.868315,
      "1284.263": 13881.379191,
      "1285.265": 13899.048372,
      "1286.267": 13915.821295,
      "1287.269": 13934.426953,
      "1288.271": 13950.045961,
      "1289.273": 13968.399408,
      "1290.275": 13984.45226,
      "1291.277": 14001.881048,
      "1292.279": 14020.142277,
      "1293.281": 14033.721342,
      "1294.283": 14047.669895,
      "1295.285": 14062.65249,
      "1296.287": 14076.792703,
      "1297.289": 14095.371688,
      "1298.291": 14110.974332,
      "1299.293": 14127.660694,
      "1300.295": 14142.749495,
      "1301.297": 14160.158882,
      "1302.299": 14176.097046,
      "1303.301": 14194.158802,
      "1304.303": 14212.938335,
      "1305.305": 14229.552801,
      "1306.307": 14246.544205,
      "1307.309": 14263.725798,
      "1308.311": 14280.775785,
      "1309.313": 14297.102754,
      "1310.315": 14312.436524,
      "1311.317": 14328.018982,
      "1312.319": 14343.786517,
      "1313.321": 14361.114694,
      "1314.323": 14375.967798,
      "1315.325": 14393.680847,
      "1316.327": 14407.413493,
      "1317.329": 14422.30584,
      "1318.331": 14436.438893,
      "1319.333": 14454.628056,
      "1320.335": 14471.009941,
      "1321.337": 14488.031432,
      "1322.339": 14502.704658,
      "1323.341": 14518.04019,
      "1324.343": 14533.299199,
      "1325.345": 14548.520547,
      "1326.347": 14563.744662,
      "1327.349": 14579.716745,
      "1328.351": 14594.445503,
      "1329.353": 14609.598786,
      "1330.355": 14625.392565,
      "1331.357": 14642.47603,
      "1332.359": 14659.151536,
      "1333.361": 14676.127142,
      "1334.363": 14693.654067,
      "1335.365": 14712.118171,
      "1336.367": 14728.652306,
      "1337.369": 14746.057994,
      "1338.371": 14761.556084,
      "1339.373": 14775.817784,
      "1340.375": 14789.362331,
      "1341.377": 14804.843181,
      "1342.379": 14820.350318,
      "1343.381": 14835.992645,
      "1344.383": 14851.562279,
      "1345.385": 14868.225381,
      "1346.387": 14884.705141,
      "1347.389": 14903.500201,
      "1348.391": 14919.538467,
      "1349.393": 14937.077998,
      "1350.395": 14952.152451,
      "1351.397": 14968.663428,
      "1352.399": 14985.535955,
      "1353.401": 15005.529324,
      "1354.403": 15025.050006,
      "1355.405": 15045.54012,
      "1356.407": 15069.677173,
      "1357.409": 15092.711749,
      "1358.411": 15113.982252,
      "1359.413": 15130.324958,
      "1360.415": 15143.274004,
      "1361.417": 15156.835194,
      "1362.419": 15169.302923,
      "1363.421": 15186.761835,
      "1364.423": 15202.640213,
      "1365.425": 15223.170621,
      "1366.427": 15244.091146,
      "1367.429": 15266.928517,
      "1368.431": 15285.604323,
      "1369.433": 15301.805999,
      "1370.435": 15316.710146,
      "1371.437": 15331.638485,
      "1372.439": 15345.177691,
      "1373.441": 15358.308254,
      "1374.443": 15370.890731,
      "1375.445": 15383.440512,
      "1376.447": 15395.722848,
      "1377.449": 15408.531067,
      "1378.451": 15422.310075,
      "1379.453": 15436.049881,
      "1380.455": 15449.55107,
      "1381.457": 15463.839303,
      "1382.459": 15480.871173,
      "1383.461": 15494.033641,
      "1384.463": 15507.286866,
      "1385.465": 15520.42083,
      "1386.467": 15533.291384,
      "1387.469": 15547.991506,
      "1388.471": 15563.073217,
      "1389.473": 15577.995193,
      "1390.475": 15593.5582,
      "1391.477": 15608.043326,
      "1392.479": 15623.078985,
      "1393.481": 15636.893536,
      "1394.483": 15651.291314,
      "1395.485": 15665.04765,
      "1396.487": 15678.999127,
      "1397.489": 15693.209415,
      "1398.491": 15708.677158,
      "1399.493": 15723.599047,
      "1400.495": 15738.89471,
      "1401.497": 15752.796826,
      "1402.499": 15767.289599,
      "1403.501": 15781.650338,
      "1404.503": 15796.01874,
      "1405.505": 15809.461892,
      "1406.507": 15822.145886,
      "1407.509": 15835.061707,
      "1408.511": 15851.299798,
      "1409.513": 15863.435576,
      "1410.515": 15875.811693,
      "1411.517": 15888.255652,
      "1412.519": 15900.37091,
      "1413.521": 15915.946268,
      "1414.523": 15930.04253,
      "1415.525": 15945.225542,
      "1416.527": 15962.960823,
      "1417.529": 15983.6094,
      "1418.531": 15998.823724,
      "1419.533": 16013.666371,
      "1420.535": 16027.877075,
      "1421.537": 16040.963331,
      "1422.539": 16055.302541,
      "1423.541": 16070.557427,
      "1424.543": 16086.047731,
      "1425.545": 16102.874709,
      "1426.547": 16121.284386,
      "1427.549": 16137.281614,
      "1428.551": 16154.511151,
      "1429.553": 16170.915274,
      "1430.555": 16186.637012,
      "1431.557": 16201.012643,
      "1432.559": 16217.330099,
      "1433.561": 16230.366605,
      "1434.563": 16243.158827,
      "1435.565": 16255.958723,
      "1436.567": 16268.55954,
      "1437.569": 16282.613217,
      "1438.571": 16296.071951,
      "1439.573": 16308.9689,
      "1440.575": 16321.885202,
      "1441.577": 16335.127158,
      "1442.579": 16348.084434,
      "1443.581": 16361.94314,
      "1444.583": 16375.376253,
      "1445.585": 16388.577094,
      "1446.587": 16402.148692,
      "1447.589": 16415.169794,
      "1448.591": 16427.846931,
      "1449.593": 16441.162944,
      "1450.595": 16454.621495,
      "1451.597": 16468.171976,
      "1452.599": 16481.8242,
      "1453.601": 16496.453118,
      "1454.603": 16510.722429,
      "1455.605": 16523.642042,
      "1456.607": 16537.1531,
      "1457.609": 16550.716558,
      "1458.611": 16564.903743,
      "1459.613": 16581.222832,
      "1460.615": 16593.919188,
      "1461.617": 16607.570935,
      "1462.619": 16620.197017,
      "1463.621": 16632.591763,
      "1464.623": 16645.762573,
      "1465.625": 16660.196318,
      "1466.627": 16673.487375,
      "1467.629": 16687.038466,
      "1468.631": 16700.179363,
      "1469.633": 16713.214447,
      "1470.635": 16726.441591,
      "1471.637": 16739.53502,
      "1472.639": 16753.654475,
      "1473.641": 16768.54292,
      "1474.643": 16781.247696,
      "1475.645": 16797.73678,
      "1476.647": 16814.376514,
      "1477.649": 16828.843642,
      "1478.651": 16842.620933,
      "1479.653": 16857.254472,
      "1480.655": 16872.085039,
      "1481.657": 16885.372256,
      "1482.659": 16898.081371,
      "1483.661": 16911.394717,
      "1484.663": 16925.41184,
      "1485.665": 16942.527468,
      "1486.667": 16955.642615,
      "1487.669": 16968.67556,
      "1488.671": 16981.282258,
      "1489.673": 16993.334084,
      "1490.675": 17006.907138,
      "1491.677": 17020.952162,
      "1492.679": 17033.858341,
      "1493.681": 17047.118247,
      "1494.683": 17062.002371,
      "1495.685": 17076.393577,
      "1496.687": 17091.050101,
      "1497.689": 17106.230344,
      "1498.691": 17120.609019,
      "1499.693": 17133.908098,
      "1500.695": 17149.318174,
      "1501.697": 17186.447572,
      "1502.699": 17217.943061,
      "1503.701": 17245.116822,
      "1504.703": 17265.498246,
      "1505.705": 17286.373316,
      "1506.707": 17307.906139,
      "1507.709": 17323.673441,
      "1508.711": 17337.674069,
      "1509.713": 17350.837014,
      "1510.715": 17364.44868,
      "1511.717": 17379.246724,
      "1512.719": 17393.477648,
      "1513.721": 17407.534234,
      "1514.723": 17421.964998,
      "1515.725": 17434.810358,
      "1516.727": 17449.531456,
      "1517.729": 17462.839633,
      "1518.731": 17476.371866,
      "1519.733": 17495.809868,
      "1520.735": 17511.586909,
      "1521.737": 17532.288323,
      "1522.739": 17547.637231,
      "1523.741": 17567.309009,
      "1524.743": 17583.017903,
      "1525.745": 17601.983271,
      "1526.747": 17619.781143,
      "1527.749": 17640.13056,
      "1528.751": 17658.167221,
      "1529.753": 17679.535506,
      "1530.755": 17694.244871,
      "1531.757": 17710.204783,
      "1532.759": 17724.60406,
      "1533.761": 17743.026962,
      "1534.763": 17761.932688,
      "1535.765": 17783.761695,
      "1536.767": 17806.316674,
      "1537.769": 17827.660113,
      "1538.771": 17845.531,
      "1539.773": 17865.015107,
      "1540.775": 17881.111216,
      "1541.777": 17897.303025,
      "1542.779": 17912.878775,
      "1543.781": 17931.7867,
      "1544.783": 17949.600149,
      "1545.785": 17971.575678,
      "1546.787": 17993.681776,
      "1547.789": 18016.103305,
      "1548.791": 18034.741102,
      "1549.793": 18053.463912,
      "1550.795": 18067.238752,
      "1551.797": 18081.3504,
      "1552.799": 18095.109291,
      "1553.801": 18114.220305,
      "1554.803": 18131.739939,
      "1555.805": 18150.749896,
      "1556.807": 18168.186818,
      "1557.809": 18188.098108,
      "1558.811": 18204.471578,
      "1559.813": 18222.890087,
      "1560.815": 18238.50641,
      "1561.817": 18257.744045,
      "1562.819": 18275.765122,
      "1563.821": 18294.91399,
      "1564.823": 18310.881106,
      "1565.825": 18328.725216,
      "1566.827": 18344.700653,
      "1567.829": 18365.002409,
      "1568.831": 18382.52502,
      "1569.833": 18402.461993,
      "1570.835": 18419.532123,
      "1571.837": 18433.923741,
      "1572.839": 18447.569668,
      "1573.841": 18463.211012,
      "1574.843": 18478.883265,
      "1575.845": 18496.888795,
      "1576.847": 18514.143307,
      "1577.849": 18532.996966,
      "1578.851": 18550.681734,
      "1579.853": 18569.41976,
      "1580.855": 18585.461967,
      "1581.857": 18604.810792,
      "1582.859": 18622.306757,
      "1583.861": 18642.460827,
      "1584.863": 18660.207024,
      "1585.865": 18678.995554,
      "1586.867": 18695.900993,
      "1587.869": 18714.656481,
      "1588.871": 18732.191489,
      "1589.873": 18748.969223,
      "1590.875": 18766.290805,
      "1591.877": 18784.89691,
      "1592.879": 18799.066457,
      "1593.881": 18814.596301,
      "1594.883": 18829.270739,
      "1595.885": 18851.991773,
      "1596.887": 18875.448489,
      "1597.889": 18898.266393,
      "1598.891": 18917.582185,
      "1599.893": 18937.751343,
      "1600.895": 18957.982759,
      "1601.897": 18978.308629,
      "1602.899": 18997.281068,
      "1603.901": 19018.433657,
      "1604.903": 19037.202125,
      "1605.905": 19058.224491,
      "1606.907": 19078.940334,
      "1607.909": 19100.602435,
      "1608.911": 19120.37067,
      "1609.913": 19142.33826,
      "1610.915": 19157.055126,
      "1611.917": 19173.178086,
      "1612.919": 19188.471219,
      "1613.921": 19205.496485,
      "1614.923": 19224.029193,
      "1615.925": 19243.084665,
      "1616.927": 19261.809954,
      "1617.929": 19281.534405,
      "1618.931": 19300.272855,
      "1619.933": 19320.736461,
      "1620.935": 19336.738465,
      "1621.937": 19356.374634,
      "1622.939": 19374.683884,
      "1623.941": 19394.358096,
      "1624.943": 19412.29846,
      "1625.945": 19431.569901,
      "1626.947": 19449.348043,
      "1627.949": 19468.145938,
      "1628.951": 19486.854153,
      "1629.953": 19508.368745,
      "1630.955": 19523.6426,
      "1631.957": 19538.561814,
      "1632.959": 19553.43269,
      "1633.961": 19568.652334,
      "1634.963": 19585.07669,
      "1635.965": 19603.554677,
      "1636.967": 19620.072228,
      "1637.969": 19639.174897,
      "1638.971": 19657.739592,
      "1639.973": 19676.057681,
      "1640.975": 19693.047444,
      "1641.977": 19710.625524,
      "1642.979": 19726.524986,
      "1643.981": 19745.503501,
      "1644.983": 19764.417443,
      "1645.985": 19783.347256,
      "1646.987": 19800.790902,
      "1647.989": 19818.111745,
      "1648.991": 19833.821505,
      "1649.993": 19853.771107,
      "1650.995": 19872.841403,
      "1651.997": 19887.551501,
      "1652.999": 19901.699272,
      "1654.001": 19916.495089,
      "1655.003": 19931.106006,
      "1656.005": 19951.200541,
      "1657.007": 19970.662217,
      "1658.009": 19988.125629,
      "1659.011": 20003.807068,
      "1660.013": 20019.68803,
      "1661.015": 20036.385245,
      "1662.017": 20051.834873,
      "1663.019": 20067.819227,
      "1664.021": 20085.148975,
      "1665.023": 20103.245496,
      "1666.025": 20121.331056,
      "1667.027": 20139.493354,
      "1668.029": 20158.366742,
      "1669.031": 20174.812553,
      "1670.033": 20189.229946,
      "1671.035": 20204.331469,
      "1672.037": 20217.977563,
      "1673.039": 20234.843587,
      "1674.041": 20251.298908,
      "1675.043": 20264.213753,
      "1676.045": 20277.302977,
      "1677.047": 20290.957682,
      "1678.049": 20305.681203,
      "1679.051": 20319.450517,
      "1680.053": 20333.612798,
      "1681.055": 20347.26481,
      "1682.057": 20360.742613,
      "1683.059": 20374.77129,
      "1684.061": 20388.532096,
      "1685.063": 20403.237266,
      "1686.065": 20418.521426,
      "1687.067": 20433.774983,
      "1688.069": 20448.531451,
      "1689.071": 20462.578554,
      "1690.073": 20477.455588,
      "1691.075": 20491.912105,
      "1692.077": 20506.052249,
      "1693.079": 20521.001242,
      "1694.081": 20536.28273,
      "1695.083": 20551.888772,
      "1696.085": 20566.387518,
      "1697.087": 20581.526009,
      "1698.089": 20596.654733,
      "1699.091": 20614.166988,
      "1700.093": 20626.980451,
      "1701.095": 20639.599482,
      "1702.097": 20652.655614,
      "1703.099": 20665.576646,
      "1704.101": 20681.469004,
      "1705.103": 20696.835781,
      "1706.105": 20711.990968,
      "1707.107": 20726.854905,
      "1708.109": 20741.409049,
      "1709.111": 20755.776883,
      "1710.113": 20771.444443,
      "1711.115": 20786.141335,
      "1712.117": 20801.365323,
      "1713.119": 20816.856751,
      "1714.121": 20831.738934,
      "1715.123": 20847.93317,
      "1716.125": 20869.754525,
      "1717.127": 20889.328159,
      "1718.129": 20902.90914,
      "1719.131": 20918.666213,
      "1720.133": 20934.363568,
      "1721.135": 20949.79902,
      "1722.137": 20968.002474,
      "1723.139": 20985.080627,
      "1724.141": 20997.474106,
      "1725.143": 21010.442257,
      "1726.145": 21024.360766,
      "1727.147": 21038.440476,
      "1728.149": 21053.489641,
      "1729.151": 21067.945263,
      "1730.153": 21081.924516,
      "1731.155": 21096.113963,
      "1732.157": 21109.964811,
      "1733.159": 21124.612981,
      "1734.161": 21138.713907,
      "1735.163": 21153.519714,
      "1736.165": 21168.468712,
      "1737.167": 21184.982951,
      "1738.169": 21200.6989,
      "1739.171": 21216.230561,
      "1740.173": 21230.682488,
      "1741.175": 21245.772218,
      "1742.177": 21261.050133,
      "1743.179": 21275.698223,
      "1744.181": 21290.254462,
      "1745.183": 21304.581449,
      "1746.185": 21319.100999,
      "1747.187": 21334.218951,
      "1748.189": 21350.167445,
      "1749.191": 21363.415257,
      "1750.193": 21375.652804,
      "1751.195": 21387.785692,
      "1752.197": 21400.073198,
      "1753.199": 21413.415413,
      "1754.201": 21426.221774,
      "1755.203": 21438.836504,
      "1756.205": 21452.139777,
      "1757.207": 21465.465045,
      "1758.209": 21478.956831,
      "1759.211": 21492.248968,
      "1760.213": 21505.733834,
      "1761.215": 21519.751429,
      "1762.217": 21534.263994,
      "1763.219": 21548.079026,
      "1764.221": 21562.212716,
      "1765.223": 21575.711223,
      "1766.225": 21589.07188,
      "1767.227": 21603.226143,
      "1768.229": 21617.47046,
      "1769.231": 21631.103618,
      "1770.233": 21645.602177,
      "1771.235": 21659.870564,
      "1772.237": 21673.689996,
      "1773.239": 21688.329348,
      "1774.241": 21703.302607,
      "1775.243": 21718.396066,
      "1776.245": 21732.0634,
      "1777.247": 21745.610232,
      "1778.249": 21758.938604,
      "1779.251": 21772.424774,
      "1780.253": 21787.157795,
      "1781.255": 21801.756672,
      "1782.257": 21815.106045,
      "1783.259": 21828.812587,
      "1784.261": 21842.679977,
      "1785.263": 21857.716466,
      "1786.265": 21873.338532,
      "1787.267": 21891.024587,
      "1788.269": 21905.160001,
      "1789.271": 21919.774877,
      "1790.273": 21934.504839,
      "1791.275": 21949.202842,
      "1792.277": 21963.428558,
      "1793.279": 21979.174268,
      "1794.281": 21993.363978,
      "1795.283": 22008.094233,
      "1796.285": 22022.063046,
      "1797.287": 22035.699802,
      "1798.289": 22049.026208,
      "1799.291": 22061.931442,
      "1800.293": 22078.031238,
      "1801.295": 22103.237867,
      "1802.297": 22131.321112,
      "1803.299": 22158.374722,
      "1804.301": 22184.095518,
      "1805.303": 22206.272802,
      "1806.305": 22225.196491,
      "1807.307": 22243.168101,
      "1808.309": 22260.479071,
      "1809.311": 22278.025144,
      "1810.313": 22293.470069,
      "1811.315": 22307.582729,
      "1812.317": 22323.517426,
      "1813.319": 22338.8395,
      "1814.321": 22353.97124,
      "1815.323": 22368.574342,
      "1816.325": 22383.487246,
      "1817.327": 22397.398263,
      "1818.329": 22411.894941,
      "1819.331": 22429.442011,
      "1820.333": 22447.606536,
      "1821.335": 22462.493669,
      "1822.337": 22476.507635,
      "1823.339": 22491.160249,
      "1824.341": 22506.583163,
      "1825.343": 22526.512572,
      "1826.345": 22544.513209,
      "1827.347": 22564.797262,
      "1828.349": 22585.096674,
      "1829.351": 22603.125945,
      "1830.353": 22621.449295,
      "1831.355": 22638.168127,
      "1832.357": 22654.277196,
      "1833.359": 22672.120222,
      "1834.361": 22692.093664,
      "1835.363": 22711.320831,
      "1836.365": 22735.753291,
      "1837.367": 22758.172106,
      "1838.369": 22776.360147,
      "1839.371": 22794.924417,
      "1840.373": 22813.597956,
      "1841.375": 22828.752718,
      "1842.377": 22843.507425,
      "1843.379": 22858.038901,
      "1844.381": 22872.918283,
      "1845.383": 22892.013043,
      "1846.385": 22913.160228,
      "1847.387": 22932.941477,
      "1848.389": 22950.515376,
      "1849.391": 22967.755595,
      "1850.393": 22985.565313,
      "1851.395": 23003.048455,
      "1852.397": 23019.399434,
      "1853.399": 23036.523273,
      "1854.401": 23055.24131,
      "1855.403": 23072.797052,
      "1856.405": 23090.781641,
      "1857.407": 23111.446786,
      "1858.409": 23129.423624,
      "1859.411": 23147.553631
    },
    "seconds": 23147.553631
  }
}