{
  "1048576": [
    6.014,
    6.229,
    2.123,
    3.855,
    4.416,
    2.994293,
    2.583,
    3.257803,
    5.891621,
    5.482715,
    5.707,
    2.27,
    1.482,
    2.765,
    4.135,
    1.794,
    3.094,
    3.974999,
    5.07,
    5.956,
    5.457,
    6.407,
    3.427,
    2.712722,
    2.89,
    1.86,
    10.67,
    4.763,
    2.892,
    3.643,
    2.203,
    2.663394,
    3.441,
    5.242,
    4.773,
    6.224,
    7.719,
    7.925,
    5.273,
    5.23,
    2.283,
    1.639,
    2.305,
    4.827,
    4.77,
    5.304,
    7.189,
    2.767014,
    3.474379,
    7.50743,
    4.732,
    4.081,
    4.157,
    9.182,
    2.212,
    2.891,
    4.048,
    3.956848,
    2.778,
    4.054306,
    3.58921,
    5.836,
    4.896042,
    4.286,
    6.38,
    8.199,
    10.621,
    9.19,
    9.128,
    4.802,
    2.639,
    5.048127,
    3.136,
    6.131,
    2.683,
    3.819,
    3.214,
    2.666,
    5.584,
    4.664,
    3.587,
    4.794,
    3.576,
    1.952,
    4.063,
    2.517,
    5.837986,
    5.550046,
    5.236766,
    7.61,
    5.192,
    4.099,
    14.797,
    6.175,
    4.5,
    4.536,
    5.557,
    6.061,
    4.816,
    2.19,
    2.392,
    2.765,
    3.442,
    5.047,
    2.717,
    2.79,
    2.698,
    4.677,
    2.488,
    2.664522,
    4.598,
    5.184,
    3.53,
    4.902,
    3.399,
    7.777,
    7.184,
    4.803,
    4.913,
    6.807,
    4.697,
    4.996,
    6.298,
    6.002,
    5.201,
    6.678,
    4.85,
    2.472,
    4.562,
    8.866,
    3.221,
    3.874,
    3.723,
    6.072,
    6.102454,
    4.656,
    4.323,
    7.146,
    5.606,
    6.394,
    6.032,
    5.492,
    5.116,
    3.486,
    2.988,
    3.412,
    3.702,
    3.325,
    2.819,
    4.452,
    8.0,
    5.967,
    4.45,
    3.895,
    4.17,
    2.104,
    12.516,
    3.839,
    4.609,
    4.896403,
    5.673062,
    5.707463,
    2.53,
    3.832,
    2.571,
    4.048,
    2.764222,
    3.916,
    3.756,
    3.763,
    5.546,
    2.614,
    3.329206,
    5.383,
    2.732,
    4.128,
    4.86,
    8.633,
    6.051,
    6.107206,
    4.198,
    3.237
  ],
  "51200": [
    1.925,
    1.386,
    1.511,
    1.466,
    2.103,
    1.553,
    1.894,
    1.485,
    2.67,
    1.847,
    2.187,
    2.628,
    2.164,
    1.898,
    1.852889,
    0.865,
    0.813716,
    0.915897,
    0.625,
    1.631,
    1.192,
    1.026,
    1.01,
    1.455498,
    1.273897,
    1.228,
    1.62,
    1.354,
    2.35,
    1.397,
    1.639,
    1.868,
    2.661,
    2.354,
    1.515,
    2.076,
    2.734,
    1.757,
    2.299,
    1.78,
    2.32,
    1.398,
    1.842,
    1.554,
    1.454,
    1.484,
    2.264,
    2.241,
    2.288,
    1.69,
    1.891,
    1.243,
    0.863,
    1.189,
    0.954,
    0.592,
    1.150867,
    1.754117,
    0.976,
    1.355522,
    2.232,
    1.260146,
    2.066331,
    3.158,
    3.113,
    1.584,
    2.011,
    2.674,
    1.569539,
    2.353,
    2.1,
    3.121665,
    2.321447,
    2.104511,
    1.490181,
    1.119103,
    0.943,
    1.401,
    0.763,
    0.551,
    1.141,
    0.853222,
    0.814,
    1.348,
    1.816273,
    1.494,
    1.064,
    0.649,
    0.73,
    0.704,
    2.073,
    0.668,
    1.616,
    0.794,
    1.852,
    2.111,
    1.107,
    1.544612,
    1.031,
    0.795612,
    0.641,
    1.122922,
    0.783386,
    0.739328,
    0.78,
    2.616111,
    1.800592,
    1.263614,
    2.443206,
    0.971,
    0.719897,
    1.318712,
    0.678575,
    0.632,
    0.534794,
    1.105897,
    1.51,
    0.711605,
    0.85,
    1.317,
    1.867452,
    0.996,
    1.079395,
    0.953,
    1.5,
    1.595,
    2.048,
    1.025331,
    2.12,
    1.794,
    1.405,
    1.294,
    2.094,
    2.644,
    2.197,
    1.582,
    1.851,
    2.267,
    1.899,
    2.154,
    1.897,
    1.384,
    1.821,
    1.426,
    1.492,
    1.514,
    2.306,
    1.778,
    1.902,
    1.301,
    0.956591,
    1.321096,
    0.841318,
    1.016,
    1.862,
    1.297621,
    1.855738,
    1.723279,
    1.28443,
    1.368,
    2.479198,
    1.307,
    1.114,
    2.331,
    0.785474,
    1.224,
    0.695578,
    0.578,
    1.121,
    0.853,
    0.714142,
    0.727,
    1.541,
    1.754,
    1.261136,
    1.297,
    1.136,
    1.186,
    0.793,
    1.943,
    0.686,
    0.865,
    0.494,
    1.29,
    2.138876,
    1.611,
    1.567,
    0.895,
    1.527,
    2.035,
    1.473,
    1.48,
    1.983,
    0.666,
    0.665,
    2.069,
    0.986,
    0.852,
    0.765,
    1.627,
    1.86,
    1.115,
    1.192218,
    1.199238,
    1.208775,
    0.618,
    1.122587,
    1.297401,
    2.588,
    0.925,
    0.79526,
    1.335404,
    1.797394,
    1.105,
    1.562574,
    2.191,
    1.86,
    2.388,
    2.203,
    3.574,
    2.427,
    1.979,
    2.082,
    2.304,
    1.918,
    2.086,
    2.405,
    2.783,
    2.091,
    1.617,
    2.101,
    2.066,
    2.502,
    1.606,
    1.644,
    1.7,
    2.46,
    2.207,
    2.638,
    1.866,
    1.558,
    1.692,
    1.45,
    1.341,
    1.765,
    1.598,
    1.527,
    2.316,
    2.366,
    2.113,
    1.711,
    2.916542,
    1.02,
    0.817,
    1.258,
    1.106,
    1.111,
    1.626,
    0.686,
    1.746,
    1.52114,
    1.951084,
    1.437,
    0.934,
    1.743,
    1.839,
    2.467,
    1.527,
    1.897,
    1.724,
    2.317,
    1.453,
    2.008,
    2.229,
    1.703,
    1.875,
    0.869,
    1.704902,
    1.497,
    0.637705,
    1.229134,
    1.127,
    0.825,
    0.788,
    1.425413,
    2.205,
    2.200222,
    1.261,
    0.969648,
    1.571,
    1.041,
    1.813,
    1.109,
    1.698,
    2.026,
    1.367695,
    1.269,
    1.934,
    2.48,
    1.626,
    1.37284,
    0.38,
    0.877,
    0.727,
    0.452,
    0.532,
    1.176,
    0.697,
    0.648,
    1.361,
    1.148,
    1.097,
    0.77,
    1.582336,
    1.68,
    0.891858,
    1.00162,
    1.213552,
    1.176435,
    0.844854,
    1.52521,
    0.656448,
    1.87941,
    1.258,
    1.226448,
    0.941,
    1.813,
    1.417,
    1.666,
    1.28,
    1.238,
    1.319,
    1.86,
    2.81,
    2.253,
    1.498,
    2.432,
    1.774,
    2.016,
    1.834,
    1.761,
    1.536,
    1.247,
    2.36,
    1.616,
    2.183,
    1.824,
    2.126,
    2.764,
    1.984,
    2.672,
    2.0,
    1.616,
    1.828322,
    2.88,
    1.655913,
    4.331,
    3.256,
    2.058442,
    2.895227,
    2.083,
    1.964,
    1.837826,
    2.672,
    1.456,
    1.673,
    1.994,
    1.81,
    1.424,
    2.816,
    1.645,
    1.37,
    1.953,
    1.332,
    2.554,
    1.859,
    1.076847,
    0.697,
    0.815,
    0.761,
    0.609,
    0.583,
    1.53,
    0.81,
    0.575192,
    1.840649,
    1.098103,
    1.301,
    1.515,
    1.234,
    0.934,
    0.967,
    1.721,
    1.73,
    1.116,
    1.526,
    0.864,
    1.609,
    1.821,
    1.45,
    1.437,
    2.013,
    1.187,
    1.229,
    0.888,
    0.904,
    1.323,
    1.313,
    1.207,
    1.144,
    2.605,
    1.337,
    1.766,
    1.466,
    1.489,
    2.027,
    1.926,
    1.621,
    1.52,
    2.099,
    2.732,
    1.869,
    1.904,
    1.908,
    1.01,
    0.706,
    0.579,
    1.294,
    0.882,
    1.197,
    1.051,
    1.397,
    0.792,
    1.358879,
    2.242,
    1.00972,
    0.835,
    1.457,
    0.602,
    0.882,
    0.604,
    0.856,
    0.616,
    0.983,
    2.427366,
    0.825,
    1.412,
    1.805,
    1.147,
    1.062381,
    1.273,
    1.337769,
    1.449858,
    2.386688,
    2.08414,
    1.628766,
    2.409,
    1.684077,
    2.128,
    2.214716,
    1.747178,
    1.942503,
    1.686,
    1.915568,
    2.145,
    1.997,
    2.314,
    1.89,
    2.907,
    1.617,
    1.604,
    1.608,
    2.686,
    2.327,
    2.053,
    2.025,
    2.645,
    1.919662,
    1.405,
    1.395,
    1.195,
    1.996,
    1.849,
    1.64,
    1.435,
    2.238926,
    2.240826,
    1.926,
    1.790833,
    1.889,
    2.597,
    0.848,
    0.966,
    0.891,
    1.068,
    0.867,
    3.248,
    0.846,
    2.194,
    1.292,
    1.219,
    1.11,
    1.392,
    2.072,
    3.567,
    1.385,
    2.296,
    3.3,
    2.119,
    1.394,
    1.361,
    2.351,
    2.506,
    1.790062,
    1.474,
    1.552,
    1.271,
    1.199,
    1.57,
    1.25,
    2.177606,
    1.808,
    2.194,
    1.724,
    1.716,
    1.272,
    1.081,
    0.742,
    0.605,
    1.272,
    0.985,
    1.898,
    1.886,
    2.011,
    0.978,
    1.3,
    1.13,
    1.511,
    0.899,
    0.686,
    0.781,
    1.324,
    1.279,
    0.933,
    0.73,
    1.463,
    2.557,
    1.253,
    1.282,
    1.037,
    1.589,
    2.17,
    0.788,
    0.894,
    1.434,
    1.828,
    1.407,
    0.771,
    0.769,
    1.322,
    1.948,
    1.641,
    1.635,
    1.772,
    1.158,
    0.609,
    2.029,
    0.944,
    1.587,
    1.949,
    0.979,
    0.908,
    0.761,
    1.351,
    2.022,
    1.786,
    1.721,
    1.594,
    1.464,
    1.067492,
    0.602,
    0.590721,
    1.239,
    0.746,
    0.784,
    1.334,
    1.841,
    1.211254,
    0.904,
    1.052,
    1.256,
    0.986,
    1.647,
    2.426,
    1.061,
    1.262,
    0.895,
    1.513,
    1.599,
    1.179,
    1.638,
    1.662,
    0.871,
    1.072,
    1.086,
    1.679,
    1.9,
    1.847,
    1.093,
    0.971,
    0.91,
    0.886,
    1.377,
    1.16,
    1.709,
    2.312,
    1.571,
    1.532,
    1.904,
    3.6,
    1.613,
    1.596,
    1.845,
    2.048,
    2.408,
    1.873,
    3.764,
    1.664,
    1.08,
    1.008,
    0.683,
    0.707,
    0.812,
    1.176,
    2.143,
    1.393,
    1.631,
    1.898,
    1.240103,
    1.172,
    1.174,
    1.659243,
    1.883,
    1.356,
    1.173,
    1.616,
    1.749,
    1.99,
    2.191,
    2.914,
    1.763,
    1.51,
    2.101,
    1.37,
    2.357,
    2.215,
    1.517,
    1.462,
    1.463,
    2.833,
    2.192,
    1.098879,
    0.71937,
    0.957,
    0.891464,
    0.94302,
    1.39374,
    2.228,
    0.902392,
    1.375828,
    1.365279,
    1.430119,
    1.262,
    1.155,
    1.072,
    0.745,
    1.364,
    1.536,
    0.77,
    1.096,
    2.141,
    0.854,
    0.831,
    0.873,
    1.543,
    1.133,
    1.217,
    0.957,
    1.065,
    1.546,
    0.676,
    1.521,
    0.718,
    1.271,
    1.021,
    1.548,
    0.704,
    1.553,
    1.208,
    1.263,
    1.768,
    1.519,
    1.918,
    1.383,
    2.229,
    2.485,
    1.498,
    1.429,
    1.417,
    2.883,
    1.925,
    1.824909,
    1.715,
    2.494,
    1.373,
    1.251,
    1.165,
    1.723,
    1.652,
    1.469,
    1.342,
    2.157,
    1.842,
    3.249,
    1.786,
    1.764,
    1.436,
    1.418,
    1.44,
    1.824,
    2.005,
    1.61,
    1.597,
    2.01,
    2.371,
    1.837,
    1.818,
    1.614,
    1.923,
    1.542,
    2.524,
    2.112,
    2.017,
    2.17,
    2.23,
    2.089,
    1.82,
    1.883,
    1.498,
    1.103,
    1.463,
    0.644,
    0.813,
    1.805,
    1.275327,
    1.606,
    0.763,
    0.735,
    1.449,
    2.182,
    1.143,
    0.906,
    1.106,
    0.75,
    1.098,
    1.473,
    0.726,
    0.606,
    1.214,
    1.262,
    0.688,
    1.899,
    1.244,
    1.096,
    0.868,
    1.185,
    0.619,
    0.823,
    1.557,
    1.831,
    0.504,
    2.401,
    2.277,
    1.877,
    0.912,
    1.503,
    1.219,
    1.51,
    0.685,
    1.306,
    1.234,
    0.867,
    0.905,
    2.774,
    1.572,
    1.34,
    1.06,
    1.18701,
    0.769,
    2.256,
    0.829,
    0.97,
    1.494,
    1.678,
    1.056,
    1.435,
    1.098,
    1.848,
    1.045,
    1.007,
    1.408,
    0.793442,
    1.561,
    0.592,
    0.84,
    1.389,
    1.873,
    1.017,
    0.801,
    1.539689,
    2.079,
    1.695,
    1.74,
    0.991,
    2.985,
    1.014,
    0.643,
    1.268,
    1.74,
    1.267,
    0.896,
    0.764,
    2.086,
    1.583,
    1.109,
    1.028,
    0.898,
    1.763,
    1.597,
    1.629,
    1.322,
    1.189,
    1.166,
    1.553,
    1.836,
    1.352,
    1.076,
    1.735672,
    1.337198,
    1.676827,
    1.183,
    1.297559,
    1.750822,
    1.728,
    1.624918,
    1.452015,
    2.323014,
    1.656023,
    1.761303,
    1.26,
    1.367,
    1.077955,
    1.085,
    1.037,
    0.543,
    2.689,
    1.34,
    1.874,
    1.192,
    1.108,
    0.927,
    0.823,
    1.332,
    1.045,
    1.159,
    2.275,
    1.014,
    2.772,
    0.748,
    1.943,
    2.512,
    1.106,
    2.032,
    1.117,
    0.658,
    1.268,
    1.371,
    1.091,
    1.469316,
    1.625,
    1.580152,
    1.213,
    1.132,
    1.006,
    2.582,
    1.959,
    2.073,
    1.262,
    2.289,
    1.744,
    1.836,
    1.248,
    1.366,
    1.265,
    2.465,
    1.685,
    1.084,
    0.757,
    1.205,
    1.413311,
    0.791,
    1.246612,
    0.732,
    0.725,
    0.722103,
    1.755,
    1.150266,
    1.160038,
    0.90642,
    1.152,
    0.67,
    0.772,
    1.236,
    0.832,
    1.057,
    1.267,
    1.39,
    1.292,
    1.091,
    1.111,
    1.235,
    1.889,
    1.981,
    1.335,
    1.759952,
    2.278,
    1.975,
    2.976,
    2.248,
    2.121424,
    2.060515,
    2.505,
    1.884499,
    1.855,
    2.801103,
    1.265,
    1.518,
    1.237,
    2.178,
    1.237,
    2.752,
    2.145,
    1.462,
    1.74,
    2.160444,
    1.603,
    1.399,
    1.846,
    1.797845,
    2.314489,
    1.978,
    2.219,
    1.228,
    1.282,
    1.77,
    2.375,
    1.838188,
    2.065,
    2.403119,
    2.235,
    2.129,
    1.715316,
    1.558913,
    1.131,
    0.843,
    0.855,
    1.681,
    0.813,
    1.531,
    2.032,
    0.955,
    0.714,
    1.475,
    1.872113,
    1.12605,
    1.056,
    0.948997
  ],
  "5242880": [
    7.79,
    14.888,
    11.203,
    7.012,
    9.165,
    6.052,
    10.067,
    6.536,
    7.659,
    12.326388,
    9.109,
    17.888,
    10.074,
    23.521,
    13.015,
    20.006,
    9.916,
    8.637,
    14.804,
    9.102,
    9.867706,
    16.513,
    27.483,
    27.647,
    13.773,
    17.24,
    6.506,
    10.719,
    5.095,
    12.69,
    13.155,
    12.707,
    15.312,
    6.047,
    21.307,
    14.914,
    7.018067,
    17.573,
    11.922,
    16.394,
    20.01,
    7.591,
    34.338,
    12.094,
    7.859,
    16.123,
    8.362,
    12.267621,
    10.776,
    6.323,
    6.218,
    12.104,
    16.457,
    9.720393,
    7.584
  ],
  "ALL": [
    1.925,
    1.386,
    1.511,
    1.466,
    2.103,
    1.553,
    1.894,
    1.485,
    2.67,
    1.847,
    2.187,
    2.628,
    2.164,
    1.898,
    6.014,
    6.229,
    1.852889,
    0.865,
    0.813716,
    0.915897,
    0.625,
    1.631,
    1.192,
    1.026,
    1.01,
    1.455498,
    1.273897,
    1.228,
    2.123,
    3.855,
    7.79,
    1.62,
    1.354,
    2.35,
    1.397,
    1.639,
    1.868,
    2.661,
    2.354,
    1.515,
    2.076,
    2.734,
    1.757,
    2.299,
    14.888,
    1.78,
    2.32,
    1.398,
    1.842,
    1.554,
    1.454,
    1.484,
    2.264,
    2.241,
    2.288,
    1.69,
    1.891,
    4.416,
    11.203,
    1.243,
    0.863,
    1.189,
    0.954,
    0.592,
    1.150867,
    1.754117,
    0.976,
    1.355522,
    2.232,
    1.260146,
    2.994293,
    2.583,
    3.257803,
    7.012,
    2.066331,
    3.158,
    3.113,
    1.584,
    2.011,
    2.674,
    1.569539,
    2.353,
    2.1,
    3.121665,
    2.321447,
    2.104511,
    1.490181,
    5.891621,
    5.482715,
    1.119103,
    0.943,
    1.401,
    0.763,
    0.551,
    1.141,
    0.853222,
    0.814,
    1.348,
    1.816273,
    1.494,
    1.064,
    5.707,
    9.165,
    6.052,
    10.067,
    0.649,
    0.73,
    0.704,
    2.073,
    0.668,
    1.616,
    0.794,
    1.852,
    2.111,
    1.107,
    2.27,
    1.482,
    2.765,
    4.135,
    6.536,
    1.544612,
    1.031,
    0.795612,
    0.641,
    1.122922,
    0.783386,
    0.739328,
    0.78,
    2.616111,
    1.800592,
    1.263614,
    2.443206,
    1.794,
    7.659,
    12.326388,
    9.109,
    0.971,
    0.719897,
    1.318712,
    0.678575,
    0.632,
    0.534794,
    1.105897,
    1.51,
    0.711605,
    0.85,
    1.317,
    1.867452,
    0.996,
    1.079395,
    0.953,
    3.094,
    1.5,
    1.595,
    2.048,
    1.025331,
    2.12,
    1.794,
    1.405,
    1.294,
    2.094,
    2.644,
    2.197,
    1.582,
    1.851,
    3.974999,
    17.888,
    2.267,
    1.899,
    2.154,
    1.897,
    1.384,
    1.821,
    1.426,
    1.492,
    1.514,
    2.306,
    1.778,
    1.902,
    5.07,
    5.956,
    5.457,
    6.407,
    1.301,
    0.956591,
    1.321096,
    0.841318,
    1.016,
    1.862,
    1.297621,
    1.855738,
    1.723279,
    1.28443,
    1.368,
    2.479198,
    1.307,
    1.114,
    3.427,
    2.331,
    0.785474,
    1.224,
    0.695578,
    0.578,
    1.121,
    0.853,
    0.714142,
    0.727,
    1.541,
    1.754,
    1.261136,
    1.297,
    1.136,
    2.712722,
    10.074,
    1.186,
    0.793,
    1.943,
    0.686,
    0.865,
    0.494,
    1.29,
    2.138876,
    1.611,
    1.567,
    0.895,
    1.527,
    2.035,
    1.473,
    1.48,
    2.89,
    1.983,
    0.666,
    0.665,
    2.069,
    0.986,
    0.852,
    0.765,
    1.627,
    1.86,
    1.115,
    1.86,
    10.67,
    4.763,
    2.892,
    3.643,
    1.192218,
    1.199238,
    1.208775,
    0.618,
    1.122587,
    1.297401,
    2.588,
    0.925,
    0.79526,
    1.335404,
    1.797394,
    1.105,
    1.562574,
    2.203,
    2.663394,
    3.441,
    2.191,
    1.86,
    2.388,
    2.203,
    3.574,
    2.427,
    1.979,
    2.082,
    2.304,
    1.918,
    5.242,
    4.773,
    6.224,
    23.521,
    13.015,
    2.086,
    2.405,
    2.783,
    2.091,
    1.617,
    2.101,
    2.066,
    2.502,
    1.606,
    1.644,
    1.7,
    2.46,
    2.207,
    2.638,
    7.719,
    7.925,
    1.866,
    1.558,
    1.692,
    1.45,
    1.341,
    1.765,
    1.598,
    1.527,
    2.316,
    2.366,
    2.113,
    1.711,
    2.916542,
    5.273,
    5.23,
    20.006,
    1.02,
    0.817,
    1.258,
    1.106,
    1.111,
    1.626,
    0.686,
    1.746,
    1.52114,
    1.951084,
    1.437,
    0.934,
    2.283,
    1.639,
    2.305,
    9.916,
    1.743,
    1.839,
    2.467,
    1.527,
    1.897,
    1.724,
    2.317,
    1.453,
    2.008,
    2.229,
    1.703,
    1.875,
    4.827,
    4.77,
    5.304,
    7.189,
    0.869,
    1.704902,
    1.497,
    0.637705,
    1.229134,
    1.127,
    0.825,
    0.788,
    1.425413,
    2.205,
    2.200222,
    1.261,
    0.969648,
    2.767014,
    3.474379,
    7.50743,
    1.571,
    1.041,
    1.813,
    1.109,
    1.698,
    2.026,
    1.367695,
    1.269,
    1.934,
    2.48,
    1.626,
    1.37284,
    4.732,
    4.081,
    4.157,
    9.182,
    0.38,
    0.877,
    0.727,
    0.452,
    0.532,
    1.176,
    0.697,
    0.648,
    1.361,
    1.148,
    1.097,
    0.77,
    2.212,
    2.891,
    4.048,
    3.956848,
    1.582336,
    1.68,
    0.891858,
    1.00162,
    1.213552,
    1.176435,
    0.844854,
    1.52521,
    0.656448,
    1.87941,
    1.258,
    1.226448,
    0.941,
    2.778,
    4.054306,
    3.58921,
    1.813,
    1.417,
    1.666,
    1.28,
    1.238,
    1.319,
    1.86,
    2.81,
    2.253,
    1.498,
    2.432,
    1.774,
    2.016,
    5.836,
    4.896042,
    1.834,
    1.761,
    1.536,
    1.247,
    2.36,
    1.616,
    2.183,
    1.824,
    2.126,
    2.764,
    1.984,
    2.672,
    4.286,
    6.38,
    2.0,
    1.616,
    1.828322,
    2.88,
    1.655913,
    4.331,
    3.256,
    2.058442,
    2.895227,
    2.083,
    1.964,
    1.837826,
    8.199,
    10.621,
    9.19,
    2.672,
    1.456,
    1.673,
    1.994,
    1.81,
    1.424,
    2.816,
    1.645,
    1.37,
    1.953,
    1.332,
    2.554,
    1.859,
    9.128,
    4.802,
    1.076847,
    0.697,
    0.815,
    0.761,
    0.609,
    0.583,
    1.53,
    0.81,
    0.575192,
    1.840649,
    1.098103,
    1.301,
    1.515,
    2.639,
    5.048127,
    3.136,
    1.234,
    0.934,
    0.967,
    1.721,
    1.73,
    1.116,
    1.526,
    0.864,
    1.609,
    1.821,
    1.45,
    1.437,
    2.013,
    6.131,
    2.683,
    8.637,
    1.187,
    1.229,
    0.888,
    0.904,
    1.323,
    1.313,
    1.207,
    1.144,
    3.819,
    3.214,
    2.666,
    5.584,
    4.664,
    3.587,
    14.804,
    2.605,
    1.337,
    1.766,
    1.466,
    1.489,
    2.027,
    1.926,
    1.621,
    1.52,
    2.099,
    2.732,
    1.869,
    1.904,
    1.908,
    4.794,
    1.01,
    0.706,
    0.579,
    1.294,
    0.882,
    1.197,
    1.051,
    1.397,
    0.792,
    1.358879,
    2.242,
    1.00972,
    0.835,
    3.576,
    1.952,
    4.063,
    1.457,
    0.602,
    0.882,
    0.604,
    0.856,
    0.616,
    0.983,
    2.427366,
    0.825,
    1.412,
    1.805,
    1.147,
    1.062381,
    1.273,
    2.517,
    9.102,
    1.337769,
    1.449858,
    2.386688,
    2.08414,
    1.628766,
    2.409,
    1.684077,
    2.128,
    2.214716,
    1.747178,
    1.942503,
    1.686,
    5.837986,
    5.550046,
    5.236766,
    9.867706,
    1.915568,
    2.145,
    1.997,
    2.314,
    1.89,
    2.907,
    1.617,
    1.604,
    1.608,
    2.686,
    2.327,
    2.053,
    2.025,
    2.645,
    7.61,
    1.919662,
    1.405,
    1.395,
    1.195,
    1.996,
    1.849,
    1.64,
    1.435,
    2.238926,
    2.240826,
    1.926,
    1.790833,
    1.889,
    2.597,
    5.192,
    16.513,
    0.848,
    0.966,
    0.891,
    1.068,
    0.867,
    3.248,
    0.846,
    2.194,
    1.292,
    1.219,
    1.11,
    1.392,
    4.099,
    14.797,
    27.483,
    27.647,
    2.072,
    3.567,
    1.385,
    2.296,
    3.3,
    2.119,
    1.394,
    1.361,
    2.351,
    2.506,
    6.175,
    4.5,
    13.773,
    17.24,
    1.790062,
    1.474,
    1.552,
    1.271,
    1.199,
    1.57,
    1.25,
    2.177606,
    1.808,
    2.194,
    1.724,
    1.716,
    4.536,
    5.557,
    6.061,
    4.816,
    1.272,
    1.081,
    0.742,
    0.605,
    1.272,
    0.985,
    1.898,
    1.886,
    2.011,
    0.978,
    1.3,
    2.19,
    2.392,
    2.765,
    6.506,
    1.13,
    1.511,
    0.899,
    0.686,
    0.781,
    1.324,
    1.279,
    0.933,
    0.73,
    1.463,
    2.557,
    1.253,
    1.282,
    3.442,
    5.047,
    2.717,
    1.037,
    1.589,
    2.17,
    0.788,
    0.894,
    1.434,
    1.828,
    1.407,
    0.771,
    0.769,
    1.322,
    1.948,
    1.641,
    1.635,
    1.772,
    2.79,
    1.158,
    0.609,
    2.029,
    0.944,
    1.587,
    1.949,
    0.979,
    0.908,
    0.761,
    1.351,
    2.022,
    1.786,
    1.721,
    2.698,
    4.677,
    10.719,
    1.594,
    1.464,
    1.067492,
    0.602,
    0.590721,
    1.239,
    0.746,
    0.784,
    1.334,
    1.841,
    1.211254,
    0.904,
    1.052,
    2.488,
    5.095,
    12.69,
    1.256,
    0.986,
    1.647,
    2.426,
    1.061,
    1.262,
    0.895,
    1.513,
    1.599,
    1.179,
    1.638,
    2.664522,
    4.598,
    13.155,
    12.707,
    1.662,
    0.871,
    1.072,
    1.086,
    1.679,
    1.9,
    1.847,
    1.093,
    0.971,
    0.91,
    0.886,
    1.377,
    1.16,
    5.184,
    3.53,
    15.312,
    1.709,
    2.312,
    1.571,
    1.532,
    1.904,
    3.6,
    1.613,
    1.596,
    1.845,
    2.048,
    2.408,
    1.873,
    3.764,
    1.664,
    4.902,
    1.08,
    1.008,
    0.683,
    0.707,
    0.812,
    1.176,
    2.143,
    1.393,
    1.631,
    1.898,
    1.240103,
    1.172,
    1.174,
    3.399,
    6.047,
    1.659243,
    1.883,
    1.356,
    1.173,
    1.616,
    1.749,
    1.99,
    2.191,
    2.914,
    7.777,
    7.184,
    4.803,
    4.913,
    6.807,
    4.697,
    21.307,
    1.763,
    1.51,
    2.101,
    1.37,
    2.357,
    2.215,
    1.517,
    1.462,
    1.463,
    2.833,
    2.192,
    4.996,
    6.298,
    6.002,
    5.201,
    6.678,
    1.098879,
    0.71937,
    0.957,
    0.891464,
    0.94302,
    1.39374,
    2.228,
    0.902392,
    1.375828,
    1.365279,
    1.430119,
    1.262,
    1.155,
    4.85,
    14.914,
    7.018067,
    1.072,
    0.745,
    1.364,
    1.536,
    0.77,
    1.096,
    2.141,
    0.854,
    0.831,
    0.873,
    1.543,
    1.133,
    1.217,
    0.957,
    2.472,
    4.562,
    1.065,
    1.546,
    0.676,
    1.521,
    0.718,
    1.271,
    1.021,
    1.548,
    0.704,
    1.553,
    1.208,
    1.263,
    8.866,
    3.221,
    3.874,
    3.723,
    1.768,
    1.519,
    1.918,
    1.383,
    2.229,
    2.485,
    1.498,
    1.429,
    1.417,
    2.883,
    1.925,
    1.824909,
    6.072,
    17.573,
    11.922,
    1.715,
    2.494,
    1.373,
    1.251,
    1.165,
    1.723,
    1.652,
    1.469,
    1.342,
    2.157,
    1.842,
    3.249,
    1.786,
    6.102454,
    4.656,
    4.323,
    1.764,
    1.436,
    1.418,
    1.44,
    1.824,
    2.005,
    1.61,
    1.597,
    2.01,
    2.371,
    1.837,
    1.818,
    1.614,
    16.394,
    20.01,
    1.923,
    1.542,
    2.524,
    2.112,
    2.017,
    2.17,
    2.23,
    2.089,
    1.82,
    1.883,
    7.146,
    5.606,
    6.394,
    6.032,
    5.492,
    5.116,
    1.498,
    1.103,
    1.463,
    0.644,
    0.813,
    1.805,
    1.275327,
    1.606,
    0.763,
    0.735,
    1.449,
    2.182,
    1.143,
    0.906,
    3.486,
    7.591,
    1.106,
    0.75,
    1.098,
    1.473,
    0.726,
    0.606,
    1.214,
    1.262,
    0.688,
    1.899,
    1.244,
    1.096,
    0.868,
    2.988,
    34.338,
    1.185,
    0.619,
    0.823,
    1.557,
    1.831,
    0.504,
    2.401,
    2.277,
    1.877,
    0.912,
    1.503,
    3.412,
    3.702,
    3.325,
    2.819,
    1.219,
    1.51,
    0.685,
    1.306,
    1.234,
    0.867,
    0.905,
    2.774,
    1.572,
    1.34,
    1.06,
    4.452,
    8.0,
    5.967,
    4.45,
    12.094,
    1.18701,
    0.769,
    2.256,
    0.829,
    0.97,
    1.494,
    1.678,
    1.056,
    1.435,
    1.098,
    1.848,
    1.045,
    1.007,
    3.895,
    7.859,
    1.408,
    0.793442,
    1.561,
    0.592,
    0.84,
    1.389,
    1.873,
    1.017,
    0.801,
    1.539689,
    2.079,
    1.695,
    1.74,
    0.991,
    4.17,
    16.123,
    2.985,
    1.014,
    0.643,
    1.268,
    1.74,
    1.267,
    0.896,
    0.764,
    2.086,
    1.583,
    1.109,
    1.028,
    0.898,
    2.104,
    12.516,
    3.839,
    1.763,
    1.597,
    1.629,
    1.322,
    1.189,
    1.166,
    1.553,
    1.836,
    1.352,
    1.076,
    4.609,
    8.362,
    1.735672,
    1.337198,
    1.676827,
    1.183,
    1.297559,
    1.750822,
    1.728,
    1.624918,
    1.452015,
    2.323014,
    1.656023,
    1.761303,
    4.896403,
    5.673062,
    5.707463,
    12.267621,
    1.26,
    1.367,
    1.077955,
    1.085,
    1.037,
    0.543,
    2.689,
    1.34,
    1.874,
    1.192,
    1.108,
    2.53,
    3.832,
    2.571,
    10.776,
    0.927,
    0.823,
    1.332,
    1.045,
    1.159,
    2.275,
    1.014,
    2.772,
    0.748,
    1.943,
    2.512,
    1.106,
    2.032,
    4.048,
    2.764222,
    1.117,
    0.658,
    1.268,
    1.371,
    1.091,
    1.469316,
    1.625,
    1.580152,
    1.213,
    1.132,
    1.006,
    3.916,
    3.756,
    3.763,
    6.323,
    6.218,
    2.582,
    1.959,
    2.073,
    1.262,
    2.289,
    1.744,
    1.836,
    1.248,
    1.366,
    1.265,
    2.465,
    1.685,
    5.546,
    12.104,
    16.457,
    1.084,
    0.757,
    1.205,
    1.413311,
    0.791,
    1.246612,
    0.732,
    0.725,
    0.722103,
    1.755,
    1.150266,
    1.160038,
    0.90642,
    2.614,
    3.329206,
    9.720393,
    1.152,
    0.67,
    0.772,
    1.236,
    0.832,
    1.057,
    1.267,
    1.39,
    1.292,
    1.091,
    1.111,
    1.235,
    5.383,
    2.732,
    4.128,
    7.584,
    1.889,
    1.981,
    1.335,
    1.759952,
    2.278,
    1.975,
    2.976,
    2.248,
    2.121424,
    2.060515,
    2.505,
    1.884499,
    1.855,
    4.86,
    8.633,
    2.801103,
    1.265,
    1.518,
    1.237,
    2.178,
    1.237,
    2.752,
    2.145,
    1.462,
    1.74,
    2.160444,
    1.603,
    1.399,
    1.846,
    6.051,
    1.797845,
    2.314489,
    1.978,
    2.219,
    1.228,
    1.282,
    1.77,
    2.375,
    1.838188,
    2.065,
    2.403119,
    2.235,
    2.129,
    1.715316,
    1.558913,
    6.107206,
    1.131,
    0.843,
    0.855,
    1.681,
    0.813,
    1.531,
    2.032,
    0.955,
    0.714,
    1.475,
    1.872113,
    1.12605,
    1.056,
    0.948997,
    4.198,
    3.237
  ]
}