[
  0.634,
  0.423,
  0.606,
  0.482,
  0.452,
  0.504,
  0.77,
  0.527,
  0.501,
  0.447,
  0.518,
  0.69,
  0.705,
  0.555,
  0.661,
  1.479397,
  0.314,
  0.469,
  0.418,
  0.524,
  0.43,
  0.142,
  0.505,
  0.304,
  0.334,
  0.45,
  0.317,
  0.497,
  0.573,
  0.379,
  0.362,
  0.374,
  0.702,
  0.572,
  0.688,
  0.828,
  0.591461,
  0.753,
  0.679,
  0.825944,
  0.661017,
  0.642,
  0.83,
  0.78,
  0.818,
  0.701,
  0.71,
  0.66,
  0.564983,
  0.449,
  0.613,
  0.462,
  0.634,
  0.415,
  0.982,
  0.795,
  0.537,
  0.96,
  0.676,
  0.728,
  0.573,
  0.63,
  0.647876,
  0.242,
  0.14296,
  0.275103,
  0.380569,
  0.179,
  0.153,
  0.310721,
  0.549442,
  0.404279,
  0.196,
  0.149587,
  0.394,
  0.407,
  0.413,
  0.380822,
  0.222,
  0.634897,
  0.696,
  0.582,
  0.668,
  0.626,
  0.55,
  0.847,
  0.474,
  0.503,
  0.492,
  0.697,
  0.828,
  0.633,
  0.711,
  0.6,
  0.309296,
  0.216,
  0.303,
  0.416,
  0.248901,
  0.345,
  0.265,
  0.55,
  0.282,
  0.208,
  0.212392,
  0.573,
  0.533,
  0.46,
  0.307,
  0.32,
  0.313,
  0.179,
  0.32,
  0.415,
  0.647,
  0.241,
  0.286,
  0.258,
  0.488,
  0.532,
  0.448,
  0.446,
  0.645,
  0.316,
  0.255,
  0.494,
  0.556,
  0.312,
  0.494,
  0.238,
  0.308,
  0.414,
  0.534,
  0.253,
  0.238,
  0.255,
  0.411,
  0.487,
  0.397,
  0.706,
  0.294,
  0.307,
  0.217,
  0.23206,
  0.185,
  0.314,
  0.238,
  0.298,
  0.262,
  0.246,
  0.446,
  0.174,
  0.35,
  0.597,
  0.283,
  0.344,
  0.314,
  0.545,
  0.548006,
  0.495539,
  0.364842,
  0.42,
  0.546181,
  0.802,
  0.719539,
  0.472,
  0.46,
  0.613716,
  0.753404,
  0.566539,
  0.703,
  0.667181,
  0.631,
  0.65,
  0.488,
  0.628,
  0.46,
  0.391,
  0.547,
  0.911,
  0.383,
  0.669,
  0.431,
  0.589,
  0.656,
  0.583,
  0.546,
  0.519,
  0.392,
  0.235,
  0.254,
  0.224,
  0.442,
  0.239,
  0.366,
  0.542,
  0.425,
  0.491,
  0.452,
  0.397,
  0.44,
  0.309,
  0.329,
  0.299,
  0.283,
  0.244,
  0.323,
  0.266,
  0.187,
  0.396,
  0.29,
  0.32,
  0.208,
  0.466,
  0.223,
  0.415,
  0.397,
  0.293,
  0.364,
  0.398,
  0.343,
  0.381,
  0.437,
  0.311,
  0.16,
  0.187,
  0.278,
  0.479,
  0.187,
  0.204,
  0.377,
  0.376,
  0.367,
  0.302,
  0.366,
  0.271,
  0.309,
  0.225,
  0.271,
  0.285,
  0.161,
  0.483,
  0.307,
  0.468,
  0.496,
  0.502,
  0.432,
  0.442,
  0.48,
  0.319,
  0.327,
  0.208,
  0.343,
  0.202,
  0.309,
  0.219,
  0.233,
  0.44,
  0.291,
  0.722,
  0.23,
  0.281,
  0.269,
  0.468,
  0.411,
  0.346,
  0.322,
  0.524,
  0.45,
  0.531,
  0.669,
  0.634,
  0.571,
  0.57,
  0.517,
  0.783,
  0.65,
  0.598,
  0.587,
  0.688,
  0.583,
  0.603,
  0.485,
  0.447,
  0.359,
  0.498,
  0.743,
  0.607,
  0.356,
  0.555,
  0.693,
  0.413,
  0.373,
  0.434,
  0.615,
  0.634,
  0.776,
  0.435,
  0.446745,
  0.502288,
  0.66,
  0.408025,
  0.419,
  0.555,
  0.658664,
  0.475678,
  0.441,
  0.517186,
  0.770678,
  0.636,
  0.551288,
  0.56,
  0.635,
  0.295,
  0.247,
  0.52,
  0.284,
  0.18,
  0.234,
  0.34,
  0.241,
  0.249,
  0.233,
  0.245,
  0.341,
  0.885,
  0.359,
  0.32,
  0.301,
  0.624,
  0.667856,
  0.485719,
  0.524,
  0.504716,
  0.635,
  0.58774,
  0.445459,
  0.684,
  0.558,
  1.230144,
  0.714,
  0.595403,
  0.749144,
  0.647,
  0.365,
  0.267,
  0.336,
  0.262,
  0.21,
  0.193,
  0.361,
  0.366,
  0.284,
  0.265,
  0.345,
  0.475,
  0.419,
  0.368,
  0.312,
  0.299,
  0.585,
  0.675,
  0.668,
  0.454,
  0.451,
  0.395,
  0.548,
  0.786,
  0.613,
  0.459,
  0.428,
  0.63,
  0.698,
  0.585,
  0.58,
  0.45,
  0.361,
  0.435,
  0.35,
  0.24244,
  0.165567,
  0.22199,
  0.421,
  0.31714,
  0.473,
  0.220901,
  0.214,
  0.315881,
  0.404,
  0.346909,
  0.325111,
  0.352,
  0.378,
  0.349,
  0.375,
  0.287,
  0.35,
  0.366,
  0.644,
  0.479,
  0.24,
  0.376,
  0.44,
  0.669,
  0.772,
  0.446,
  0.263,
  0.581,
  0.91,
  0.569,
  0.613,
  0.466,
  0.538,
  0.768,
  0.444,
  0.513,
  0.708,
  0.604,
  0.799,
  0.519,
  0.602,
  0.514,
  0.567,
  0.446,
  0.462,
  0.413,
  0.605,
  0.729,
  0.461,
  0.699,
  0.703,
  0.621,
  0.91,
  0.587,
  0.582,
  0.482,
  0.597,
  0.495,
  0.475,
  0.522,
  0.499,
  0.51,
  0.836,
  0.854,
  0.653,
  0.561,
  0.93,
  0.52984,
  0.671,
  0.452,
  0.505,
  0.423,
  0.405,
  0.384,
  0.399,
  0.396,
  0.518,
  0.46,
  0.436,
  0.465,
  0.675,
  0.544,
  0.579,
  0.634,
  0.54,
  0.442,
  0.369,
  0.446,
  0.348,
  0.193,
  0.2,
  0.133,
  0.426,
  0.37,
  0.259,
  0.442,
  0.304,
  0.36,
  0.582,
  0.269,
  0.31,
  0.268,
  0.315,
  0.3,
  0.322,
  0.46,
  0.274,
  0.219,
  0.406,
  0.37,
  0.266,
  0.313,
  0.249,
  0.532,
  0.503,
  0.371,
  0.654,
  0.425,
  0.314,
  0.222,
  0.561,
  0.289,
  0.225,
  0.289,
  0.448,
  0.283,
  0.228,
  0.215,
  0.5,
  0.489,
  0.47,
  0.34,
  0.333,
  0.242,
  0.597,
  0.506,
  0.448,
  1.188,
  0.441,
  0.54,
  0.707,
  0.512,
  0.668,
  0.46,
  0.566,
  0.717,
  0.652,
  0.602,
  0.494,
  0.51251,
  0.421,
  0.51751,
  0.474103,
  0.598888,
  0.556663,
  0.518864,
  0.43014,
  0.403865,
  0.441941,
  0.572657,
  0.636334,
  0.514,
  0.569587,
  0.47469,
  0.291,
  0.261,
  0.292,
  0.245,
  0.237,
  0.306,
  0.261,
  0.242,
  0.241,
  0.485,
  0.364,
  0.494,
  0.363,
  0.294,
  0.373,
  0.28,
  0.471,
  0.276,
  0.236,
  0.412,
  0.497,
  0.38,
  0.564,
  0.442,
  0.409,
  0.398,
  0.592,
  0.352,
  0.267,
  0.543,
  0.515,
  0.538103,
  0.421,
  0.474903,
  0.58,
  0.562223,
  0.719876,
  0.507103,
  0.673,
  0.670103,
  0.672,
  0.616,
  0.67987,
  0.531571,
  0.304,
  0.224,
  0.497,
  0.22,
  0.378,
  0.227,
  0.313,
  0.457,
  0.258,
  0.447,
  0.262,
  0.411,
  0.433,
  0.394,
  0.275,
  0.317,
  0.53,
  0.346,
  0.554,
  0.231,
  0.298,
  0.354,
  0.522,
  0.49,
  0.277,
  0.372,
  0.601,
  0.395,
  0.366,
  0.303,
  0.77942,
  0.5,
  0.495006,
  0.684,
  0.453,
  0.644,
  0.563,
  0.532,
  0.489,
  0.663,
  0.442,
  0.67,
  0.678,
  0.587,
  0.648,
  0.487576,
  0.475,
  0.437,
  0.336,
  0.415,
  0.39,
  0.224,
  0.544,
  0.472,
  0.224,
  0.217,
  0.231,
  0.425,
  0.46,
  0.335,
  0.336,
  0.311,
  0.391,
  0.25,
  0.384,
  0.451,
  0.27569,
  0.190198,
  0.463909,
  0.451,
  0.310029,
  0.251,
  0.267,
  0.463,
  0.609,
  0.396952,
  0.464,
  0.355,
  0.39,
  0.212,
  0.403,
  0.307,
  0.515104,
  0.182,
  0.376413,
  0.384,
  0.274,
  0.355248,
  0.239,
  0.485,
  0.472,
  0.383,
  0.360917,
  0.367,
  0.706,
  0.599,
  0.709,
  0.605,
  0.572784,
  0.699,
  0.802799,
  0.658,
  0.594,
  0.812496,
  0.802,
  0.583,
  0.803,
  0.681,
  0.686,
  0.842,
  0.378,
  0.254,
  0.401,
  0.217,
  0.443,
  0.258,
  0.67,
  0.304,
  0.295,
  0.271,
  0.498,
  0.439,
  0.518,
  0.427,
  0.39,
  0.368,
  0.333,
  0.182,
  0.338,
  0.168,
  0.366,
  0.152,
  0.289241,
  0.284,
  0.369,
  0.1664,
  0.484,
  0.348,
  0.408,
  0.262,
  0.281,
  0.215,
  0.286,
  0.29,
  0.36,
  0.352,
  0.475,
  0.521,
  0.368,
  0.294,
  0.297,
  0.512,
  0.423,
  0.394,
  0.495,
  0.416,
  0.399,
  0.297,
  0.289,
  0.306,
  0.199,
  0.221,
  0.467,
  0.347,
  0.426,
  0.269,
  0.273,
  0.216,
  0.374,
  0.463,
  0.309,
  0.657,
  1.290168,
  0.59,
  0.509,
  0.607,
  0.964,
  0.575,
  0.56,
  0.514,
  0.613,
  0.903,
  0.826,
  0.782,
  0.572,
  0.595,
  0.53,
  0.363,
  0.206,
  0.352,
  0.309,
  0.675212,
  0.511,
  0.357,
  1.177,
  0.319,
  0.528,
  0.243,
  0.441,
  0.747,
  0.423,
  0.457,
  0.317,
  0.633,
  0.764,
  0.58,
  0.494,
  0.484,
  0.448,
  0.625,
  0.926,
  0.721,
  0.734,
  0.707,
  0.694755,
  0.735,
  0.589,
  0.791,
  0.64,
  0.556,
  0.809,
  0.514,
  0.41,
  0.505,
  0.55,
  0.641,
  0.394,
  0.498,
  0.617,
  0.602,
  0.803,
  0.585,
  0.528,
  0.459,
  0.299,
  0.185,
  0.542,
  0.207,
  0.275,
  0.208,
  0.352,
  0.286,
  0.23,
  0.225,
  0.403,
  0.538,
  0.65,
  0.365,
  0.363,
  0.387,
  0.336,
  0.192,
  0.296651,
  0.263,
  0.269,
  0.244,
  0.692,
  0.3,
  0.451403,
  0.262,
  0.412235,
  0.493,
  0.36,
  0.411453,
  0.683547,
  0.27,
  0.215,
  0.543,
  0.175,
  0.261,
  0.157,
  0.346,
  0.299,
  0.223,
  0.226,
  0.311,
  0.744,
  0.558,
  0.358,
  0.327,
  0.391,
  0.559,
  0.699,
  0.626,
  0.445,
  0.996,
  0.477,
  0.592,
  0.507,
  0.888,
  0.852,
  0.493,
  0.71,
  0.685,
  0.779,
  0.632,
  0.743,
  0.572,
  0.398,
  0.485,
  0.666,
  0.683,
  0.725,
  0.654,
  0.665,
  0.45,
  0.433,
  0.414,
  0.655,
  0.714,
  0.569,
  0.559,
  0.636,
  0.575,
  0.683,
  0.481,
  0.511,
  0.606,
  0.657,
  0.463,
  0.694,
  0.759,
  0.621,
  0.688,
  0.558,
  0.621,
  0.615,
  0.522,
  0.394,
  0.747,
  0.375,
  0.474,
  0.408,
  0.668,
  0.564,
  0.447,
  0.396,
  0.579,
  0.693,
  0.774,
  0.508,
  0.704,
  0.506,
  0.28,
  0.203,
  0.296,
  0.37,
  0.336,
  0.401,
  0.339,
  0.614,
  0.237,
  0.216113,
  0.217,
  0.425,
  0.561,
  0.378,
  0.327,
  0.269,
  0.35,
  0.256,
  0.76,
  0.428241,
  0.262,
  0.357,
  0.377,
  0.498,
  0.705,
  0.283,
  0.231,
  0.353,
  0.477,
  0.333,
  0.364,
  0.289,
  0.341,
  0.439,
  0.265,
  0.202,
  0.266,
  0.184,
  0.31,
  0.326,
  0.267,
  0.247,
  0.257,
  0.403,
  0.494,
  0.354,
  0.361,
  0.279,
  0.598,
  0.499,
  0.371,
  0.283,
  0.296,
  0.49,
  0.524,
  1.364,
  1.977,
  0.305,
  0.285,
  0.451,
  0.602,
  0.505,
  0.382,
  0.351,
  0.528,
  0.345,
  0.232,
  0.447,
  0.363,
  0.362881,
  0.237,
  0.445889,
  0.489,
  0.551559,
  0.440114,
  0.338,
  0.347111,
  0.342,
  0.53,
  0.262,
  0.445,
  0.168,
  0.428,
  0.456,
  0.394,
  0.435,
  0.466,
  0.22,
  0.398,
  0.554,
  0.444,
  0.358,
  0.387,
  0.327,
  0.53175,
  0.579876,
  0.558,
  0.464732,
  0.608089,
  0.502876,
  0.528124,
  0.423786,
  0.672294,
  0.414,
  0.593263,
  1.057418,
  0.658864,
  0.545139,
  0.520286,
  0.33,
  0.447,
  0.325,
  0.445,
  0.262,
  0.343,
  0.419,
  0.42,
  0.435,
  0.235,
  0.436,
  0.539,
  0.282,
  0.398,
  0.271,
  0.285,
  0.208,
  0.291,
  0.236,
  0.26,
  0.183,
  0.344,
  0.269,
  0.226,
  0.404,
  0.196,
  0.43,
  0.457,
  0.306,
  0.468,
  0.544,
  0.318,
  0.191,
  0.266,
  0.465,
  0.27,
  0.441,
  0.3,
  0.735,
  0.391,
  0.283,
  0.637,
  0.46,
  0.489,
  0.336,
  0.378,
  0.32,
  0.42,
  0.42,
  0.291,
  0.41,
  0.252,
  0.172,
  0.33,
  0.307,
  0.233,
  0.469,
  0.236,
  0.432,
  0.516,
  0.333,
  0.341,
  0.341,
  0.356,
  0.574,
  1.332,
  0.222,
  0.224,
  0.215,
  0.353,
  0.36,
  0.275,
  0.257,
  0.477,
  0.411,
  0.439,
  0.346,
  0.474,
  0.318,
  0.564,
  0.459,
  0.59,
  0.462,
  0.698,
  0.412,
  0.586,
  0.835,
  0.704,
  0.462,
  0.453,
  0.638,
  0.713,
  0.549,
  0.511,
  0.464,
  0.537,
  0.274,
  0.275,
  0.24,
  0.218,
  0.284,
  0.336,
  0.564,
  0.529,
  0.268,
  0.23,
  0.631,
  0.593,
  0.37,
  0.34,
  0.434,
  0.399557,
  0.300557,
  0.545,
  0.663585,
  0.514415,
  0.255,
  0.438667,
  0.36,
  0.29,
  0.283,
  0.301,
  0.472773,
  0.532,
  0.420585,
  0.392,
  0.331,
  0.526,
  0.896,
  0.504,
  0.652,
  6.68,
  0.644,
  0.621,
  0.735,
  0.471,
  0.991,
  0.843,
  0.707,
  0.6,
  0.591,
  0.516,
  0.548,
  0.431,
  0.849,
  0.487,
  0.656,
  0.422,
  0.584,
  0.502,
  0.651,
  0.45,
  0.598,
  0.664,
  0.553,
  0.564,
  0.68,
  0.626,
  0.637,
  0.575,
  0.468,
  0.598,
  0.515,
  0.624608,
  0.601,
  0.482,
  0.786,
  0.471,
  0.719,
  0.758,
  0.619,
  0.647,
  0.508,
  0.325,
  0.289,
  0.36,
  0.281,
  0.272,
  0.252,
  0.404,
  0.285,
  0.455,
  0.476,
  0.199,
  0.386,
  0.609,
  0.639,
  0.386,
  0.344
]