[
  1.351,
  1.325,
  0.292,
  1.193175,
  2.802,
  1.121461,
  1.309668,
  1.081,
  1.109,
  1.13,
  1.570461,
  1.399792,
  1.191367,
  1.046,
  1.1448,
  1.071,
  1.089254,
  1.178,
  1.427,
  1.347303,
  1.069,
  1.116,
  1.091,
  0.299,
  1.117461,
  1.058303,
  1.064254,
  1.108,
  1.340303,
  1.388,
  1.602,
  1.095,
  1.032303,
  1.181,
  1.068,
  1.089,
  1.035,
  1.054303,
  1.138668,
  1.084815,
  1.088303,
  1.052,
  1.199922,
  1.080737,
  1.055303,
  1.067353,
  1.095,
  1.08,
  1.062,
  1.073303,
  1.036,
  1.404307,
  1.183473,
  1.068303,
  1.061685,
  1.12,
  1.063303,
  1.012,
  1.205,
  1.227,
  1.112,
  1.005,
  0.955576,
  0.963,
  0.854,
  2.057,
  0.900356,
  0.90584,
  0.881,
  0.898,
  1.123,
  0.927,
  0.891,
  0.949,
  0.876,
  1.016,
  1.026356,
  0.898,
  1.148,
  1.33615,
  1.160356,
  0.987,
  0.884,
  0.887,
  0.961356,
  1.025,
  0.909,
  0.961356,
  0.895,
  0.963,
  0.898,
  1.058392,
  0.948356,
  0.875,
  0.906,
  0.913,
  0.987356,
  1.16,
  0.948,
  1.123356,
  0.242,
  0.98,
  0.906,
  0.946,
  0.977356,
  0.881,
  0.897,
  0.913,
  0.994,
  1.026356,
  0.930518,
  0.907,
  0.904356,
  1.109,
  1.193,
  0.976,
  0.934356,
  0.915,
  0.881,
  1.016,
  0.927,
  1.944,
  0.868479,
  0.816,
  0.937,
  1.281,
  0.922,
  1.505818,
  0.997,
  0.833,
  1.002,
  0.954,
  0.978,
  0.954381,
  0.987,
  1.02,
  0.799,
  0.946228,
  1.902,
  1.071,
  0.896228,
  0.891864,
  0.894,
  0.909,
  0.842,
  0.760228,
  0.801,
  0.908,
  1.060228,
  0.980047,
  0.813097,
  0.94,
  1.039228,
  0.898,
  1.013,
  0.876,
  0.982,
  0.854228,
  2.091,
  0.982946,
  0.845228,
  0.896,
  0.779,
  1.396,
  1.156228,
  0.842,
  0.96,
  1.009,
  0.839,
  0.933228,
  0.881,
  0.925,
  0.834228,
  0.851,
  1.060781,
  1.524303,
  0.99,
  0.953,
  0.888,
  0.852,
  0.931,
  0.378223,
  0.412,
  0.542,
  0.505223,
  0.476,
  0.389,
  0.404,
  0.484,
  0.647,
  0.537,
  0.929,
  1.25,
  0.842,
  1.553,
  0.666,
  0.522223,
  0.503,
  0.468,
  0.42,
  0.556223,
  0.415,
  0.424,
  0.6,
  0.068,
  0.51,
  0.427,
  1.388,
  0.664223,
  0.484,
  0.327,
  0.737,
  0.329,
  0.514223,
  0.672,
  0.532,
  0.797223,
  0.409,
  0.522,
  0.523,
  1.097223,
  1.083,
  0.347,
  0.381,
  1.01,
  0.408223,
  1.095,
  19.471,
  0.503223,
  0.703,
  0.684,
  0.58,
  0.19588,
  0.654,
  0.914,
  0.484,
  0.591,
  0.582,
  0.805,
  0.515,
  0.521,
  0.475,
  0.724605,
  0.578111,
  0.422881,
  0.475,
  0.449,
  0.363,
  0.91,
  0.583,
  0.407889,
  0.843,
  0.805,
  0.764,
  0.523724,
  0.460111,
  0.462395,
  0.435,
  0.524,
  0.886111,
  0.381,
  0.708,
  0.506,
  0.494111,
  0.429,
  0.441,
  0.428,
  0.395,
  0.473,
  0.463,
  0.517,
  0.475111,
  0.444491,
  0.476,
  0.282292,
  0.364,
  0.468,
  0.503,
  0.397111,
  0.593,
  0.789,
  0.536,
  0.495,
  0.573,
  0.401111,
  0.715,
  0.452111,
  0.394,
  0.984,
  0.885,
  0.527111,
  0.652,
  0.642889,
  0.461,
  0.441,
  0.492,
  0.426,
  0.944,
  0.26327,
  1.01,
  1.024,
  1.213,
  1.238192,
  0.917656,
  0.955,
  0.937,
  0.944,
  1.109,
  0.879047,
  1.326493,
  1.435,
  1.17,
  0.928889,
  0.912192,
  0.894,
  0.918,
  1.202192,
  0.994,
  1.008,
  0.981,
  1.119,
  0.920192,
  0.278,
  1.223,
  1.164703,
  1.272192,
  1.019,
  1.003,
  0.905281,
  1.424192,
  0.979885,
  0.987,
  1.005,
  0.99514,
  1.029192,
  0.927,
  0.95873,
  0.980192,
  1.333,
  1.238,
  0.940876,
  0.258,
  1.017926,
  1.016,
  1.007,
  1.015,
  1.047,
  0.954192,
  0.910266,
  1.068212,
  1.050192,
  0.967,
  0.957,
  0.975192,
  1.006,
  0.929,
  0.978119,
  0.976881,
  1.396204,
  0.601,
  0.283,
  0.742103,
  0.292,
  0.3,
  0.332,
  0.272,
  0.299,
  0.334,
  0.458,
  0.292,
  0.319,
  0.304,
  0.29,
  0.292103,
  0.311,
  0.34,
  0.305,
  0.392103,
  0.278593,
  0.325,
  0.360049,
  0.903,
  0.24712,
  0.415,
  0.28,
  0.32,
  0.292103,
  0.365,
  0.349,
  0.309,
  0.523103,
  0.454,
  1.106,
  0.305,
  0.287,
  0.803,
  0.338,
  0.346,
  0.622103,
  0.309,
  0.294,
  0.338,
  0.288103,
  0.345,
  0.33,
  0.348103,
  0.323909,
  0.291,
  0.398,
  0.324,
  0.787021,
  0.318,
  0.309,
  0.312,
  0.31,
  0.766,
  0.317691,
  1.9,
  1.016,
  0.981,
  1.070349,
  1.079657,
  1.389,
  1.052181,
  1.328,
  1.564,
  1.267,
  1.261,
  0.958,
  1.12,
  1.04,
  1.688,
  1.885657,
  0.991,
  1.291,
  1.001657,
  1.255,
  1.296,
  1.086606,
  1.193144,
  1.041657,
  0.987,
  1.043,
  1.017657,
  1.017,
  1.259,
  0.277,
  0.990993,
  1.055657,
  1.006212,
  1.329,
  1.017,
  0.986032,
  1.253657,
  1.034,
  1.004,
  1.322657,
  1.046,
  0.991,
  1.140356,
  1.426657,
  1.014,
  1.326,
  1.015644,
  1.020356,
  1.016657,
  1.136651,
  1.144349,
  0.274,
  0.961657,
  1.121,
  1.013,
  1.009657,
  1.037,
  1.037,
  1.184,
  1.358349,
  1.109538,
  1.182315,
  1.296232,
  1.073305,
  1.136138,
  1.089327,
  1.11,
  1.585,
  1.202,
  1.22,
  1.397435,
  0.965076,
  1.114876,
  1.167191,
  1.114236,
  1.150138,
  1.043662,
  1.2066,
  1.102662,
  1.237,
  1.184338,
  1.105876,
  1.463535,
  1.147376,
  1.116921,
  1.151079,
  1.267438,
  1.254994,
  1.195163,
  1.14161,
  1.095,
  1.219,
  1.23603,
  1.174325,
  0.261462,
  1.123219,
  1.293921,
  1.184618,
  1.102305,
  1.203939,
  1.136433,
  2.747863,
  1.102062,
  1.087,
  1.666102,
  1.671,
  1.312,
  1.310138,
  1.147538,
  1.113462,
  1.238138,
  1.278394,
  1.134273,
  1.097,
  1.0466,
  1.207243,
  1.177115,
  1.143115,
  1.236,
  0.732,
  0.35,
  0.391,
  0.455111,
  0.427514,
  0.47,
  0.41,
  0.458905,
  0.772,
  0.736,
  0.453,
  0.459362,
  0.433008,
  0.500881,
  0.441291,
  0.929111,
  0.456,
  0.697,
  0.435,
  0.403111,
  0.491,
  0.52,
  0.666,
  0.623111,
  0.531,
  0.599,
  0.344,
  0.631253,
  0.778,
  0.743,
  0.525,
  0.417,
  0.425111,
  0.458,
  0.402786,
  0.411111,
  0.436,
  0.464812,
  0.469,
  0.423111,
  0.565,
  0.471011,
  0.423,
  0.715,
  0.591111,
  0.461989,
  0.408412,
  0.464111,
  0.711,
  0.391473,
  0.438,
  0.534,
  0.731,
  0.537,
  0.438,
  0.487,
  0.426,
  0.078,
  0.407,
  0.890947,
  1.638093,
  1.261257,
  1.262903,
  0.941218,
  1.00004,
  1.143097,
  2.251,
  1.796,
  1.136684,
  0.993,
  1.432135,
  1.206143,
  1.392,
  0.963194,
  0.975376,
  0.998728,
  0.926684,
  0.899942,
  0.967876,
  1.925,
  1.136,
  1.863,
  1.237194,
  0.966876,
  1.208,
  1.003684,
  1.271685,
  0.913,
  17.228876,
  1.242,
  1.051,
  0.909876,
  1.127,
  1.177,
  1.838,
  1.11922,
  1.229876,
  0.867,
  1.108,
  1.383876,
  1.267,
  0.97,
  1.012,
  1.267685,
  1.044452,
  2.093,
  1.137452,
  2.389218,
  0.910627,
  0.983876,
  1.442,
  1.224,
  0.941876,
  0.946,
  0.92,
  0.998876,
  1.004973,
  1.137,
  2.400619,
  2.076,
  1.2619,
  1.45,
  1.050532,
  0.995,
  1.017,
  1.19661,
  1.077666,
  0.985783,
  1.01,
  1.131,
  2.318,
  1.038,
  1.020897,
  1.1,
  1.054314,
  1.005848,
  1.20061,
  1.019833,
  1.181,
  1.04461,
  1.017846,
  1.003,
  1.016,
  0.290818,
  1.040681,
  0.99461,
  1.144158,
  1.082796,
  1.47761,
  1.018,
  1.033701,
  1.24961,
  1.033,
  1.068,
  1.028,
  1.094,
  1.080666,
  1.01261,
  1.056,
  1.005681,
  1.015,
  1.161,
  1.04,
  1.48961,
  1.013,
  0.988,
  1.055,
  1.109,
  1.046388,
  1.02861,
  1.149,
  1.01261,
  1.045557,
  1.159,
  1.41,
  1.76861,
  1.05,
  1.026,
  1.008,
  1.048403,
  0.81919,
  0.696,
  0.287,
  0.424103,
  0.04249,
  0.344138,
  0.313,
  0.24,
  0.388284,
  0.276,
  0.324,
  0.326262,
  0.306,
  0.298,
  0.3,
  0.275103,
  0.813,
  0.467,
  1.493,
  0.519,
  0.797103,
  0.378645,
  0.307245,
  0.409,
  0.283103,
  0.402659,
  0.343405,
  0.268103,
  0.276,
  0.35026,
  1.003,
  0.347,
  0.344103,
  0.301846,
  0.404975,
  0.342103,
  0.76,
  0.277,
  0.328,
  0.369103,
  0.355331,
  0.464,
  0.445,
  2.498,
  0.792103,
  0.302346,
  0.411004,
  0.216753,
  0.278,
  0.289,
  0.425,
  0.363905,
  0.299103,
  1.408698,
  0.364,
  0.328,
  0.34,
  0.404,
  0.328675,
  0.446,
  0.428,
  0.583111,
  0.443,
  0.408,
  0.461,
  2.20273,
  0.808,
  0.464,
  0.561,
  0.422,
  0.822,
  0.327,
  0.37,
  0.231344,
  0.412111,
  0.425,
  0.447,
  0.481,
  0.371111,
  0.483,
  0.86673,
  0.364,
  0.372111,
  0.378,
  0.436,
  0.389,
  0.648111,
  0.468,
  0.437,
  0.459,
  0.858111,
  0.93,
  0.37,
  0.353111,
  0.565991,
  0.423,
  0.349,
  0.360111,
  0.653,
  0.463,
  0.442,
  0.406,
  0.382111,
  0.444,
  0.463743,
  0.483111,
  0.422,
  0.242112,
  0.397,
  0.383,
  0.616111,
  0.629669,
  0.414,
  0.447,
  0.447,
  0.405,
  0.483,
  1.159244,
  1.147194,
  1.42,
  1.135597,
  1.200472,
  1.181401,
  1.236215,
  1.227,
  1.254,
  1.217,
  1.355,
  1.322004,
  1.271,
  1.201597,
  1.555,
  1.335472,
  1.232238,
  1.355472,
  1.32474,
  1.249064,
  1.235,
  1.233,
  1.368472,
  0.903493,
  1.245931,
  1.230522,
  1.378,
  1.221472,
  1.26,
  1.163472,
  1.255,
  1.387,
  1.252,
  1.222948,
  1.24374,
  1.229472,
  1.309,
  1.494,
  1.33195,
  1.185348,
  1.342802,
  1.228,
  1.218472,
  1.259,
  1.344,
  1.208,
  1.166596,
  1.351238,
  1.270472,
  1.186675,
  1.223596,
  1.202472,
  1.15174,
  1.20461,
  1.361472,
  1.258182,
  1.263,
  1.259806,
  1.48215,
  1.212783,
  0.34474,
  0.319,
  0.411473,
  0.427532,
  0.721103,
  0.371,
  0.4,
  0.359,
  0.548,
  0.363,
  0.936,
  0.401712,
  0.355889,
  0.306,
  0.315,
  0.305897,
  0.336103,
  0.343909,
  0.345,
  0.365,
  0.360103,
  0.331,
  0.290791,
  0.556103,
  0.376008,
  0.323,
  0.616,
  0.596,
  0.324103,
  0.326,
  0.353,
  0.344,
  0.38,
  0.622103,
  0.29,
  0.456244,
  0.426103,
  0.521,
  0.391,
  0.454103,
  0.284,
  0.30225,
  0.24566,
  0.35834,
  0.343,
  0.331,
  0.318103,
  0.328,
  0.388,
  1.367103,
  0.329,
  0.601103,
  0.347,
  0.308,
  0.344,
  0.355,
  0.412,
  0.555,
  0.353,
  1.291,
  1.052,
  1.068,
  1.004,
  1.005983,
  1.052,
  1.034,
  1.102,
  1.062,
  1.065109,
  1.085676,
  0.988474,
  1.043,
  1.252641,
  2.305,
  1.407983,
  1.083,
  1.064303,
  1.056983,
  1.025,
  1.016,
  1.17,
  1.24,
  1.029983,
  1.048,
  1.045237,
  1.639983,
  1.072,
  1.125,
  1.041,
  1.013983,
  1.136,
  1.037,
  1.116,
  1.043,
  1.402536,
  0.969983,
  1.119,
  1.370905,
  1.036983,
  1.062,
  1.043696,
  1.33,
  1.053983,
  1.043,
  0.997,
  1.024,
  1.094132,
  1.127983,
  1.456474,
  1.027109,
  1.089983,
  1.041158,
  1.163,
  1.006983,
  1.102007,
  1.071,
  1.052,
  1.028,
  1.674731,
  1.121,
  1.283,
  1.024,
  1.324185,
  1.198752,
  1.237352,
  1.104,
  1.787,
  1.117,
  1.118233,
  1.069256,
  1.493,
  1.350897,
  1.042897,
  1.326752,
  1.102352,
  1.059,
  1.135,
  0.285,
  1.347352,
  1.083,
  1.104,
  1.138,
  1.050352,
  1.386,
  1.064897,
  1.152352,
  1.161903,
  1.068097,
  1.119889,
  0.992,
  1.178352,
  1.108,
  1.079,
  1.123,
  1.270352,
  1.081897,
  1.012897,
  1.109352,
  1.188,
  1.006876,
  1.320805,
  1.058352,
  1.108,
  1.128,
  1.405,
  1.367,
  1.298402,
  1.171352,
  1.087,
  1.051,
  1.310352,
  1.017,
  1.131,
  1.186352,
  1.21,
  1.089,
  1.164,
  1.077,
  1.263778,
  1.062097,
  1.193,
  0.820894,
  0.869,
  0.871208,
  0.76163,
  0.854,
  0.834,
  0.864,
  0.821889,
  0.785,
  1.214,
  1.029,
  0.758221,
  0.855,
  0.762,
  0.979208,
  0.894,
  0.874208,
  0.945,
  1.021,
  0.861,
  0.743,
  0.766208,
  0.932402,
  0.818,
  0.789,
  0.785208,
  0.894,
  0.745,
  1.321298,
  0.851208,
  1.372,
  0.96,
  0.871,
  1.082881,
  0.760208,
  0.971331,
  1.01246,
  0.795208,
  4.703135,
  0.887,
  0.818,
  0.865208,
  0.875702,
  0.872,
  1.392,
  0.987619,
  0.821208,
  0.9,
  0.896,
  0.930208,
  0.776889,
  1.237,
  1.181819,
  0.939208,
  0.869,
  0.946,
  0.926,
  0.213111,
  1.282,
  0.830218,
  1.039953,
  1.035,
  0.882228,
  1.281,
  0.866,
  1.016,
  0.978,
  0.87,
  0.893,
  0.884,
  1.000632,
  0.816111,
  1.06,
  0.804228,
  1.22,
  1.208,
  0.917228,
  0.969,
  0.847,
  1.085,
  1.699245,
  0.797,
  1.031228,
  0.811,
  0.94792,
  1.582228,
  0.837,
  1.08,
  0.907228,
  1.04,
  1.088,
  0.856,
  1.062,
  1.301,
  0.971228,
  0.919,
  1.09,
  1.282937,
  0.861,
  0.923559,
  0.808228,
  0.911,
  1.005,
  0.949,
  0.798,
  0.852,
  0.949228,
  0.800228,
  0.827,
  1.117,
  0.798,
  1.196,
  0.23,
  0.808314,
  0.987,
  0.951,
  0.965,
  0.785,
  0.929186,
  1.014288,
  1.287299,
  1.085,
  1.25574,
  0.917,
  0.957,
  1.051,
  1.017304,
  1.20774,
  1.208427,
  1.176,
  1.153419,
  1.230764,
  0.969,
  0.935419,
  1.073288,
  1.253419,
  0.948,
  0.904,
  1.03,
  1.067602,
  0.944419,
  0.961,
  0.9954,
  0.935807,
  0.950419,
  0.985304,
  1.240419,
  0.971849,
  0.959,
  1.291159,
  0.922,
  1.019841,
  1.034948,
  0.989257,
  0.9814,
  0.944304,
  1.001,
  0.974,
  1.43421,
  1.07525,
  0.912,
  0.961712,
  0.998288,
  0.959,
  0.990084,
  0.90974,
  1.022,
  1.006419,
  1.050282,
  1.017644,
  1.037938,
  0.942419,
  0.905555,
  1.258,
  0.918,
  0.906,
  1.05,
  1.056,
  1.427,
  1.111,
  0.948192,
  0.984314,
  0.972212,
  0.99,
  0.97,
  1.096,
  0.934112,
  1.034386,
  1.194889,
  0.974,
  0.954364,
  0.996192,
  1.206647,
  1.118,
  1.079192,
  0.952,
  0.959,
  0.937,
  0.923889,
  0.944192,
  0.958,
  0.954863,
  1.265192,
  1.144,
  0.969212,
  1.175,
  0.986192,
  1.021,
  1.016,
  1.306,
  1.381287,
  1.44716,
  0.965192,
  1.406,
  0.983889,
  0.996192,
  1.035889,
  1.137,
  1.095,
  1.010192,
  1.021,
  0.966,
  0.995,
  0.963,
  1.011192,
  1.01,
  0.972,
  0.997192,
  1.28,
  0.932687,
  1.180192,
  0.892,
  0.984135,
  0.972119,
  1.011881,
  0.444,
  0.202992,
  0.445167,
  1.118111,
  0.375,
  0.68,
  0.597,
  0.359,
  0.416,
  0.459762,
  0.335,
  0.568,
  0.445607,
  0.481,
  0.476111,
  0.453,
  0.372,
  0.513,
  0.391,
  0.540111,
  0.671,
  0.524,
  0.200992,
  0.585008,
  0.741111,
  0.569816,
  0.913,
  0.617111,
  0.517498,
  0.48,
  0.409,
  0.689471,
  0.354,
  0.427,
  0.400667,
  0.487111,
  0.493889,
  0.436522,
  1.368889,
  0.496111,
  0.202992,
  1.010816,
  0.504,
  0.388,
  0.526111,
  0.461,
  0.381,
  0.449,
  0.440111,
  0.499,
  0.702,
  0.68,
  0.717111,
  0.381,
  0.457,
  0.489,
  0.592762,
  0.496,
  1.358,
  0.827,
  0.814,
  0.846,
  0.817,
  1.412582,
  1.117,
  0.835032,
  0.851,
  0.816,
  0.769,
  0.938,
  0.803,
  0.87,
  0.886,
  0.831,
  0.223,
  0.84777,
  1.352,
  1.133,
  0.79277,
  0.989586,
  0.839,
  0.796,
  0.907,
  1.079618,
  1.018,
  0.785,
  1.04777,
  1.051631,
  0.849897,
  1.007297,
  0.82577,
  0.831,
  0.822,
  0.857,
  0.814,
  0.87077,
  0.934807,
  1.358573,
  0.85877,
  0.832,
  2.634,
  0.836,
  0.92777,
  0.946,
  0.793,
  0.835,
  1.093,
  0.783,
  0.84577,
  0.867,
  0.83977,
  1.06,
  0.832,
  0.72877,
  1.02,
  1.003,
  0.844,
  0.801,
  0.833657,
  0.854332,
  0.465,
  0.198449,
  0.336551,
  0.342654,
  0.436,
  0.416,
  0.42,
  0.403,
  0.263,
  0.297,
  0.265476,
  0.352,
  0.423,
  0.325,
  0.348,
  0.416654,
  0.496,
  2.758,
  0.758,
  0.856654,
  1.387,
  0.025308,
  6.107,
  0.482,
  0.735654,
  0.39,
  0.41,
  0.516,
  0.312654,
  0.34654,
  0.38846,
  0.417,
  0.226654,
  0.519,
  0.314,
  0.502654,
  0.928,
  0.326,
  0.267,
  0.372654,
  0.381,
  0.39,
  0.386,
  0.909,
  0.260654,
  0.891,
  0.41,
  0.360838,
  0.324,
  0.343457,
  0.917047,
  0.236,
  0.371654,
  0.333,
  0.33,
  0.380826,
  1.186174,
  0.529,
  0.202,
  0.383,
  0.435874,
  0.867,
  0.847223,
  0.418,
  0.355,
  0.351,
  0.42,
  0.492,
  0.5,
  0.378,
  0.35,
  0.384,
  0.81,
  0.464,
  0.428223,
  0.372,
  0.421,
  0.312223,
  0.359,
  0.432,
  0.382,
  0.379223,
  0.353,
  0.77224,
  0.344016,
  0.356,
  0.609223,
  0.591,
  0.401675,
  0.338,
  0.415223,
  0.566,
  0.714,
  0.483223,
  0.594,
  0.858988,
  0.415,
  0.465,
  1.451,
  0.358,
  0.356,
  0.33,
  0.496223,
  0.339,
  0.386,
  0.355223,
  0.401,
  0.305,
  0.407223,
  1.13,
  0.33,
  0.064,
  0.415,
  0.396,
  0.389,
  0.459,
  0.384,
  1.37128,
  1.444807,
  1.359807,
  1.495,
  1.355935,
  1.175,
  1.19,
  1.16,
  1.141,
  1.189,
  1.262274,
  1.39,
  1.281,
  1.277,
  1.378,
  1.299935,
  2.253,
  1.181935,
  1.159,
  1.226,
  1.188,
  1.32128,
  0.345,
  1.408,
  1.497,
  1.147,
  2.232,
  1.282935,
  1.488,
  1.17,
  1.156935,
  1.184,
  1.146,
  1.194,
  1.166,
  1.419935,
  1.429223,
  1.255,
  1.182935,
  1.121,
  1.24883,
  1.222,
  1.164935,
  1.321,
  1.181193,
  1.159022,
  1.49,
  1.263295,
  1.197935,
  1.259,
  1.267,
  1.282935,
  1.223,
  1.408,
  1.280935,
  1.25,
  1.204,
  1.16,
  1.206,
  1.638,
  0.893854,
  0.881,
  0.79607,
  0.78948,
  0.83752,
  0.757,
  0.908118,
  0.749602,
  0.778398,
  0.913,
  1.010795,
  0.941,
  0.923204,
  0.878,
  1.037124,
  0.799389,
  0.919204,
  0.824,
  0.928124,
  0.787876,
  0.705,
  1.000902,
  1.503124,
  0.159825,
  1.028,
  0.933374,
  0.813876,
  1.001124,
  0.806876,
  0.801916,
  0.843084,
  1.284124,
  0.876876,
  1.02,
  0.919124,
  0.821408,
  0.842,
  0.894,
  1.012095,
  0.937,
  0.749354,
  0.791,
  0.685,
  0.813124,
  0.929,
  0.846124,
  1.864124,
  0.93,
  0.995,
  0.203979,
  0.928021,
  0.85,
  0.831773,
  0.899,
  0.784139,
  0.798575,
  0.971502,
  0.972,
  0.356,
  0.51414,
  0.322602,
  0.267,
  0.398,
  0.257,
  0.419,
  0.311,
  0.611,
  0.391,
  0.334,
  0.296111,
  0.291,
  0.348,
  0.371612,
  0.379522,
  0.277,
  0.301,
  0.051,
  0.374612,
  0.397088,
  0.367,
  0.481,
  8.587,
  0.742612,
  0.511938,
  0.696,
  0.463612,
  0.312828,
  0.3624,
  0.257552,
  0.326612,
  0.418,
  0.595743,
  0.381,
  0.470242,
  0.53,
  0.392,
  0.339388,
  0.305612,
  0.229368,
  0.438,
  0.69,
  0.451,
  0.293612,
  0.364,
  0.376,
  0.413612,
  0.388,
  0.274,
  1.599,
  0.58,
  0.341612,
  0.275587,
  0.582,
  0.406,
  0.359,
  0.50078,
  0.377,
  1.073,
  1.038,
  0.938,
  1.252,
  1.056343,
  0.946506,
  0.958,
  0.984,
  0.964,
  1.166,
  1.154,
  1.042535,
  1.068,
  1.275965,
  1.035,
  1.089343,
  1.076,
  1.103,
  0.28,
  0.979,
  0.99,
  1.359,
  1.109,
  1.053399,
  2.404343,
  0.978,
  1.202979,
  2.182343,
  1.086,
  1.028626,
  1.296,
  1.029343,
  1.083,
  0.967,
  0.964,
  1.268,
  1.111343,
  1.17,
  1.077,
  1.146,
  1.066,
  1.121,
  0.282,
  1.103343,
  0.976778,
  0.981,
  1.223,
  1.113,
  0.986,
  1.081343,
  1.255,
  1.114343,
  1.064,
  0.929,
  1.033,
  1.348343,
  0.986,
  0.948,
  0.938,
  1.005979,
  1.077,
  0.993934,
  1.074,
  1.093,
  1.094,
  1.083119,
  1.227,
  1.252,
  1.083,
  1.109,
  1.168,
  1.235,
  2.775,
  1.347,
  1.112897,
  1.068119,
  1.052,
  1.131,
  1.073119,
  1.273,
  1.11,
  1.102,
  1.153505,
  1.138119,
  1.236,
  0.315,
  1.125,
  1.075119,
  1.429,
  1.093331,
  1.188,
  1.159119,
  1.075,
  1.071,
  1.09,
  1.064,
  2.827119,
  1.676353,
  2.627,
  1.634,
  1.113119,
  1.173,
  1.875,
  1.853119,
  1.199,
  1.109,
  1.089,
  1.071379,
  1.243,
  1.094119,
  1.051,
  1.259,
  1.255119,
  1.262,
  1.053,
  1.358119,
  1.098,
  0.318,
  1.1,
  1.117,
  1.125,
  0.926,
  1.018,
  1.099,
  1.14,
  0.933743,
  0.976165,
  0.954,
  1.01,
  1.012,
  0.95,
  1.006,
  1.31384,
  0.893,
  1.018,
  0.967,
  1.006165,
  1.034,
  1.106,
  1.071165,
  0.971,
  0.941,
  1.003,
  1.465031,
  1.197,
  0.897165,
  0.974,
  0.991094,
  1.069165,
  0.926,
  1.273,
  0.927,
  1.078165,
  0.98,
  0.97,
  0.987,
  1.078,
  0.960165,
  0.959969,
  1.256743,
  1.015165,
  1.211,
  1.018094,
  1.458051,
  1.079,
  0.970165,
  0.957675,
  1.151,
  1.009,
  1.321955,
  1.212373,
  0.984,
  1.246002,
  0.923165,
  0.963,
  1.187969,
  0.961165,
  1.207,
  0.99,
  1.104,
  0.975,
  1.468031,
  0.333103,
  0.398,
  0.457688,
  0.388103,
  0.297353,
  0.25,
  0.344,
  0.383148,
  0.341051,
  0.259,
  0.834771,
  0.874809,
  0.26,
  0.30559,
  0.37361,
  0.295103,
  0.383,
  0.33,
  0.413,
  0.367063,
  0.299118,
  0.338,
  0.257284,
  0.413103,
  0.334466,
  0.422,
  0.249103,
  0.888,
  0.326,
  0.29,
  0.296,
  0.353103,
  0.357,
  0.338114,
  0.429249,
  0.285103,
  0.877,
  0.619771,
  0.291103,
  0.291702,
  0.285238,
  0.269,
  0.283,
  0.308103,
  0.779,
  0.362,
  0.824,
  0.300103,
  0.383862,
  0.41518,
  0.297103,
  0.275,
  0.338897,
  0.305,
  0.28,
  0.99152,
  0.445897,
  0.347568,
  1.077,
  1.046,
  1.036,
  0.28762,
  1.082416,
  1.044,
  1.053,
  1.149,
  1.08,
  1.236,
  1.151,
  1.04,
  1.052,
  1.03,
  1.10654,
  1.124763,
  1.16861,
  1.031,
  1.017,
  1.05961,
  1.021,
  1.037,
  1.137,
  1.112,
  1.423457,
  1.12704,
  1.592,
  1.13,
  1.18361,
  1.061,
  1.023,
  1.065331,
  1.02761,
  1.008,
  1.053,
  1.079,
  1.041,
  1.22261,
  1.059,
  0.282704,
  1.091,
  1.076,
  1.054,
  1.06,
  1.044,
  1.049,
  1.089,
  1.019,
  1.111,
  1.042,
  1.06361,
  1.006,
  1.31461,
  1.05,
  1.054715,
  1.02761,
  1.050353,
  1.083,
  1.066,
  1.046,
  1.079,
  1.414742,
  1.226,
  1.180454,
  1.222,
  1.259,
  1.435754,
  1.137,
  1.169,
  1.244,
  1.236,
  1.188,
  1.232,
  1.189,
  1.192478,
  1.165,
  1.319907,
  1.244754,
  1.316,
  1.457,
  1.438754,
  1.248,
  1.178,
  1.352,
  1.322455,
  1.152545,
  1.205754,
  1.226,
  1.184754,
  1.246,
  1.261,
  1.439,
  1.295754,
  1.17,
  1.231,
  1.126,
  1.158,
  1.209754,
  1.175,
  1.168,
  1.180754,
  1.158,
  1.320455,
  1.455,
  1.427,
  1.246754,
  1.141,
  1.163,
  1.237,
  1.205,
  1.220754,
  1.170521,
  1.302754,
  1.171,
  0.266455,
  1.184,
  1.312,
  1.22663,
  1.155,
  1.273,
  1.157,
  1.137,
  1.176,
  0.413,
  0.797,
  0.390333,
  0.575,
  0.602,
  0.559,
  0.595,
  0.589,
  0.349432,
  0.772701,
  0.466,
  0.432,
  0.374,
  0.337554,
  0.459333,
  0.491,
  0.652,
  0.654,
  0.401333,
  0.378,
  0.513,
  0.413928,
  0.399333,
  0.415777,
  0.406,
  0.356,
  0.41489,
  0.502,
  0.672,
  0.408,
  0.415,
  0.357333,
  0.357,
  0.616,
  0.419333,
  0.412,
  0.568,
  0.656,
  0.382333,
  0.417,
  0.434,
  0.412,
  0.619,
  0.397333,
  0.382,
  0.340789,
  0.400333,
  0.366928,
  0.396973,
  0.394875,
  0.417333,
  0.468,
  0.478,
  0.435,
  0.429,
  0.374,
  0.609,
  0.397,
  0.594,
  0.473,
  0.300103,
  0.343,
  0.321,
  0.312,
  0.317,
  0.337,
  0.332,
  0.393,
  0.344452,
  0.559,
  0.303,
  0.474897,
  0.627103,
  0.325,
  0.35,
  0.318,
  0.336436,
  0.319,
  0.291,
  0.352,
  0.316103,
  0.637897,
  0.587,
  0.304,
  0.782021,
  0.705,
  0.325597,
  0.422,
  0.359,
  0.346103,
  0.437,
  0.586,
  0.324103,
  0.295,
  0.411,
  0.407,
  1.508103,
  0.31,
  0.301,
  0.386,
  0.377,
  0.323103,
  0.335097,
  0.289,
  0.341715,
  0.298,
  0.435097,
  0.435698,
  0.365103,
  0.500598,
  0.351,
  0.341,
  0.378,
  0.407,
  0.311097,
  0.782021,
  0.253,
  0.472354,
  0.482206,
  0.277662,
  0.249338,
  0.279,
  0.277,
  0.325,
  0.378,
  0.325103,
  0.363,
  0.484893,
  0.446732,
  0.290268,
  0.468103,
  0.776516,
  0.845484,
  0.267897,
  0.287103,
  0.324,
  0.532,
  0.313,
  0.288419,
  0.313721,
  0.414,
  0.672,
  0.351103,
  0.273,
  0.694016,
  0.827984,
  0.538103,
  0.404,
  0.046536,
  0.207,
  0.34802,
  0.434683,
  0.318103,
  0.419212,
  2.204186,
  0.262,
  0.823016,
  0.805984,
  0.257103,
  0.360344,
  0.269918,
  0.240159,
  0.414835,
  0.646436,
  0.373,
  0.744103,
  0.289897,
  0.303268,
  0.346,
  0.308,
  0.306,
  0.283,
  0.616,
  0.708,
  0.34349,
  0.411111,
  0.608,
  0.62,
  0.574,
  0.354862,
  0.533,
  0.415,
  0.569602,
  0.407,
  0.465,
  0.365,
  0.409,
  0.848111,
  0.647,
  0.724,
  0.597111,
  0.513,
  0.344,
  0.578778,
  0.431,
  0.415,
  0.567,
  0.404,
  0.719,
  0.506111,
  0.491,
  0.672,
  0.449111,
  0.888,
  0.466,
  0.429,
  0.495,
  0.463,
  0.406,
  0.075,
  0.498111,
  0.863,
  0.471,
  0.652,
  0.513,
  0.698111,
  0.797408,
  0.634,
  0.379111,
  0.359,
  0.878,
  0.469,
  0.399111,
  0.391,
  0.625,
  0.648,
  0.517,
  0.338,
  0.747,
  0.42,
  0.476,
  1.145,
  1.219,
  1.333872,
  1.335064,
  1.265472,
  1.329244,
  1.205597,
  1.233,
  1.193,
  1.186,
  1.187119,
  1.395597,
  1.621,
  1.223338,
  1.196662,
  1.243472,
  1.131238,
  1.715701,
  1.447537,
  1.518472,
  1.250402,
  1.771,
  1.277,
  1.236,
  1.342472,
  1.159,
  1.161,
  1.219472,
  1.311,
  1.221015,
  1.170918,
  1.483472,
  1.208,
  1.327,
  1.212,
  1.696,
  1.366472,
  1.199,
  1.207,
  1.238472,
  1.204,
  1.295547,
  1.166666,
  1.287472,
  1.188708,
  1.213,
  1.201,
  1.34,
  1.276472,
  1.299597,
  1.290064,
  1.216472,
  1.479,
  1.304513,
  1.706961,
  1.353895,
  1.19574,
  1.237,
  1.282,
  1.197,
  0.475,
  0.317,
  0.313103,
  0.336008,
  0.319992,
  0.341,
  0.356,
  0.324,
  0.306,
  0.466,
  0.388889,
  0.351,
  0.413,
  11.59,
  0.375103,
  0.362,
  0.444992,
  0.362,
  0.396,
  0.415103,
  0.398,
  0.376,
  0.565,
  0.371103,
  0.452,
  0.614,
  0.818103,
  0.427,
  0.31,
  0.307,
  0.779,
  0.051,
  0.351,
  0.412,
  0.399897,
  0.603103,
  0.315,
  0.421,
  0.75,
  0.702103,
  0.364,
  0.413,
  0.407,
  0.331,
  0.435103,
  0.532,
  0.337,
  0.409103,
  0.411,
  0.411,
  0.588277,
  0.413103,
  0.338,
  0.372,
  0.359,
  0.377,
  0.567,
  0.509,
  0.396,
  0.377,
  0.786563,
  0.508,
  0.519025,
  0.441,
  0.825,
  0.359,
  0.489,
  0.417875,
  0.404,
  0.659,
  0.377167,
  0.483412,
  0.632,
  0.285561,
  0.49325,
  0.532,
  0.478,
  0.296561,
  0.284027,
  0.424656,
  0.403,
  0.315561,
  0.049492,
  0.328218,
  0.342215,
  0.450916,
  0.254561,
  0.368916,
  0.368,
  3.644,
  0.393561,
  0.354044,
  0.650144,
  0.411561,
  0.397,
  0.363,
  0.314,
  1.012561,
  0.444656,
  0.401,
  0.462,
  0.341,
  0.423561,
  0.391,
  0.386558,
  0.309218,
  0.396815,
  0.4,
  0.402,
  0.378561,
  0.429,
  0.782563,
  0.399,
  0.477,
  0.382876,
  0.516,
  0.329,
  1.12,
  1.152,
  1.157,
  1.07,
  1.227531,
  1.319889,
  1.256483,
  1.186,
  1.178,
  1.072,
  1.307,
  1.199889,
  1.191,
  1.176889,
  1.104889,
  1.151531,
  1.203,
  1.185,
  1.361457,
  1.496,
  1.147,
  1.156,
  1.187889,
  1.16892,
  1.142,
  1.121531,
  1.18091,
  1.155531,
  1.132,
  1.172,
  1.17,
  1.356531,
  1.174,
  1.2,
  1.181,
  1.179889,
  1.172531,
  1.249,
  1.167,
  1.301531,
  1.319,
  1.291,
  1.182,
  1.142531,
  1.184,
  1.236,
  1.151,
  1.365102,
  1.071696,
  1.303531,
  1.48792,
  1.69,
  1.188531,
  1.194989,
  1.26,
  1.303531,
  1.349798,
  1.175408,
  1.184,
  1.208,
  1.156,
  1.017,
  1.536135,
  1.488156,
  1.049,
  1.038667,
  1.024,
  1.044,
  1.668,
  3.689,
  1.066,
  1.1,
  1.208,
  1.325135,
  1.057761,
  0.984396,
  1.02248,
  0.281,
  1.128,
  0.973,
  1.187396,
  1.019,
  1.082,
  1.099,
  1.024396,
  1.043,
  1.021396,
  1.135,
  1.103,
  1.139,
  1.214396,
  1.063,
  1.076,
  8.818,
  1.032795,
  1.064,
  1.066396,
  1.033,
  1.119396,
  1.012,
  0.973557,
  1.234,
  1.107396,
  1.15,
  1.283,
  1.099,
  1.489723,
  0.991778,
  1.261806,
  1.101,
  1.0,
  1.228396,
  1.083619,
  1.195,
  1.494396,
  1.126,
  1.280897,
  1.815,
  1.623,
  0.980753,
  1.008,
  1.024,
  1.208,
  1.215,
  1.032,
  0.97,
  1.522996,
  1.008989,
  1.03,
  1.054673,
  1.134,
  1.01938,
  0.992166,
  1.127,
  1.251,
  0.991,
  1.131702,
  1.05,
  1.408,
  0.282,
  1.104702,
  1.038,
  1.01,
  1.048,
  1.307,
  1.039702,
  1.025926,
  1.061713,
  1.058702,
  1.108,
  1.286,
  0.998855,
  1.094702,
  1.025,
  0.999,
  0.978,
  1.021,
  1.046702,
  1.248476,
  1.012,
  1.459702,
  1.027461,
  1.071,
  1.224,
  1.046702,
  1.004,
  1.034,
  1.144,
  0.998,
  1.021702,
  1.107,
  1.128875,
  1.097702,
  0.974,
  1.15,
  1.186654,
  1.048,
  1.109,
  1.026,
  1.028,
  1.004,
  1.222,
  1.367444,
  1.59,
  1.508,
  1.293,
  1.310473,
  1.217,
  1.247,
  1.259,
  1.506577,
  1.23227,
  1.301,
  1.181,
  1.202,
  1.205941,
  1.223473,
  1.216,
  1.517966,
  1.181473,
  1.299913,
  1.259,
  1.234,
  1.396,
  1.460473,
  1.295,
  1.341239,
  1.367473,
  1.194232,
  1.206,
  1.328097,
  1.292,
  1.257473,
  1.255,
  1.236,
  1.262,
  1.376577,
  1.221473,
  1.953,
  1.542432,
  1.537712,
  2.021286,
  1.44964,
  1.263,
  1.326473,
  1.782,
  1.232,
  1.242,
  1.217,
  1.164473,
  1.220502,
  1.269,
  1.168473,
  1.37092,
  1.449,
  1.286473,
  1.196,
  1.243,
  1.237,
  1.41,
  1.506247,
  2.287817,
  1.466,
  1.538,
  1.092196,
  1.079,
  1.095,
  1.171,
  1.177,
  1.074,
  2.719,
  1.554,
  1.155,
  1.193,
  1.537,
  1.391196,
  2.233,
  1.188,
  1.282196,
  1.329,
  1.165,
  1.343,
  1.130438,
  1.173,
  1.191196,
  2.351,
  1.060925,
  1.371196,
  1.198,
  1.209,
  1.166,
  2.149196,
  1.067,
  1.119,
  1.029,
  1.164,
  1.387196,
  1.463403,
  1.203,
  1.076196,
  1.411,
  1.073,
  1.167,
  1.213196,
  1.182,
  1.252,
  1.269,
  1.499,
  1.217196,
  1.506781,
  1.089,
  1.835,
  1.039196,
  1.222,
  1.116,
  1.163196,
  1.204,
  1.185,
  1.189,
  1.057,
  0.364,
  0.349708,
  0.393292,
  1.209508,
  0.33674,
  0.833,
  0.418,
  0.350148,
  0.390403,
  0.475254,
  0.395,
  1.548632,
  0.363,
  0.378385,
  0.61,
  0.368403,
  0.337558,
  0.369,
  0.3,
  0.374403,
  0.334,
  0.355011,
  0.385156,
  0.357403,
  0.611,
  0.412163,
  0.908403,
  0.487778,
  0.41374,
  0.351,
  0.345,
  0.627403,
  0.2017,
  0.644311,
  0.405264,
  0.359403,
  0.528,
  0.392,
  0.664403,
  0.375352,
  0.37,
  0.339266,
  0.432,
  0.474,
  0.369403,
  0.677,
  0.424,
  0.379403,
  0.627,
  0.734136,
  0.426403,
  0.324,
  0.319699,
  0.334,
  0.347,
  0.594,
  0.389,
  1.051,
  0.956,
  1.773,
  0.926,
  1.025,
  1.490192,
  1.047338,
  1.001,
  1.05,
  0.978,
  1.112041,
  0.881,
  1.021,
  1.423,
  0.942192,
  1.073,
  1.078739,
  1.104,
  1.034192,
  1.078,
  1.028,
  1.097,
  1.236192,
  1.438,
  1.231192,
  1.046,
  0.970881,
  1.136,
  1.232,
  0.964192,
  1.241,
  0.98,
  0.977,
  0.26,
  1.135,
  1.241192,
  1.02,
  1.040192,
  1.111,
  1.04,
  1.222,
  0.928192,
  0.997,
  1.125,
  0.941,
  1.064,
  0.902,
  1.018192,
  1.096,
  1.250192,
  1.179,
  1.090159,
  0.972192,
  1.025,
  1.07,
  0.976,
  1.031,
  1.426,
  1.108,
  0.997881,
  0.386,
  0.71645,
  0.977,
  1.328428,
  0.38945,
  0.344,
  0.399,
  0.317,
  0.45,
  5.896,
  0.308326,
  0.338,
  0.408,
  0.301587,
  0.407,
  0.283428,
  0.311,
  0.332,
  0.361,
  0.364428,
  0.412,
  0.518759,
  0.318428,
  0.337,
  0.353759,
  0.425,
  0.323226,
  0.457,
  0.419609,
  0.367,
  0.328,
  0.508428,
  0.553,
  0.463816,
  0.525428,
  0.06,
  0.496312,
  0.777777,
  0.362,
  0.401804,
  0.543,
  0.336897,
  0.362,
  0.319,
  0.311428,
  0.311,
  0.436,
  0.344428,
  0.365,
  0.454,
  0.355428,
  0.383,
  0.477,
  0.343617,
  0.343,
  0.355,
  0.524,
  0.295103,
  0.300432,
  0.568899,
  0.416103,
  0.433,
  0.285206,
  0.309096,
  0.328219,
  0.332897,
  0.516,
  0.264432,
  0.285,
  0.413167,
  0.472964,
  0.297103,
  0.397908,
  0.614,
  0.343,
  0.32,
  0.534103,
  0.386111,
  0.650809,
  0.307609,
  0.303405,
  0.332599,
  0.285277,
  0.274124,
  0.308103,
  0.343403,
  0.358693,
  0.399103,
  0.330897,
  0.540103,
  0.291103,
  0.309111,
  0.300103,
  0.337,
  0.58508,
  0.285103,
  3.021,
  0.304,
  0.406992,
  0.43012,
  0.350777,
  0.282103,
  0.46308,
  0.304,
  0.627227,
  0.402388,
  1.417,
  0.217,
  0.349206,
  0.452,
  0.291388,
  0.320302,
  0.295,
  1.772,
  0.43332,
  1.358,
  1.293,
  1.093889,
  1.541448,
  1.1,
  1.187,
  1.249352,
  1.16,
  1.181,
  1.129,
  1.321,
  1.137889,
  1.299,
  1.167796,
  1.119,
  1.186531,
  1.155,
  1.158,
  1.072531,
  1.178,
  1.13,
  1.148,
  1.208881,
  1.124531,
  1.189,
  1.269,
  1.216531,
  1.304,
  1.141889,
  1.194,
  1.177531,
  1.154,
  1.167,
  1.166,
  1.185,
  1.195531,
  1.10825,
  1.128846,
  1.156881,
  1.152531,
  1.166,
  1.2,
  1.164352,
  1.449531,
  1.137,
  1.155,
  1.179,
  1.20292,
  1.119531,
  1.288,
  1.145889,
  1.189531,
  1.405,
  1.279,
  1.278531,
  1.125,
  1.172,
  1.165,
  1.153,
  1.196,
  1.046,
  0.833,
  1.273,
  0.867229,
  0.898208,
  0.825,
  0.826,
  0.917,
  0.902,
  0.773,
  0.846,
  0.999948,
  0.834,
  0.926,
  1.311,
  0.883208,
  0.836,
  1.411144,
  0.920208,
  1.057,
  1.357,
  0.827,
  0.899533,
  0.785208,
  1.129,
  0.897697,
  0.897,
  0.939208,
  1.022,
  0.91,
  0.805208,
  0.934,
  0.924,
  0.924,
  1.026,
  1.038208,
  0.867,
  1.693,
  1.222,
  0.883,
  1.408144,
  0.874,
  0.776,
  0.754208,
  0.832,
  0.824784,
  1.044216,
  1.136,
  0.995208,
  1.005,
  0.815,
  0.817208,
  1.273,
  0.819,
  0.934208,
  0.891,
  0.816,
  0.851,
  1.1,
  1.009,
  0.297,
  0.768,
  0.346602,
  0.322008,
  0.305,
  0.272,
  0.305,
  0.259,
  0.341,
  0.46,
  0.410983,
  0.749552,
  0.344118,
  0.429979,
  0.401,
  0.549008,
  0.299,
  0.293,
  0.294,
  0.497008,
  0.367626,
  0.332555,
  0.279,
  0.300008,
  0.3,
  0.521008,
  0.525358,
  0.761008,
  0.288,
  0.303,
  0.319,
  0.326008,
  0.29,
  0.237753,
  0.349422,
  0.464008,
  0.308,
  0.37,
  0.272872,
  1.259008,
  0.381,
  0.281,
  0.241,
  0.309,
  0.487008,
  0.390032,
  0.316,
  0.602008,
  0.561555,
  0.26,
  0.318838,
  0.263008,
  0.493,
  0.28292,
  0.284,
  0.38,
  0.486008,
  0.356,
  1.109,
  1.097,
  1.125,
  1.056,
  1.102352,
  1.169897,
  1.104,
  1.077,
  1.076,
  1.154,
  1.02,
  1.079,
  1.218,
  1.085,
  1.106,
  1.383352,
  1.06,
  1.726352,
  1.157,
  1.044,
  1.04,
  1.331,
  1.522352,
  1.184,
  1.086,
  1.091,
  0.309,
  1.815,
  1.389,
  1.063,
  1.182352,
  1.624,
  1.139,
  1.105,
  1.175,
  9.075352,
  1.093,
  1.046,
  1.118352,
  1.518,
  1.303,
  1.026,
  1.087352,
  1.181,
  1.079,
  16.99,
  6.65,
  1.464352,
  1.12,
  1.32,
  1.287352,
  1.555,
  1.134,
  1.319352,
  1.353897,
  1.123,
  1.904,
  1.338975,
  1.518897,
  0.995,
  1.963,
  0.939,
  0.922,
  1.254,
  1.126192,
  1.011,
  0.985,
  1.061,
  1.033,
  0.971,
  1.108889,
  1.119,
  1.229,
  1.202347,
  0.984192,
  0.937,
  1.458,
  1.020192,
  0.991,
  1.08,
  0.928,
  0.268,
  0.996041,
  0.964192,
  1.006,
  1.156,
  0.973192,
  1.287,
  0.943,
  0.943,
  0.958192,
  0.961,
  0.995,
  1.077,
  1.022,
  1.021192,
  0.995,
  1.046,
  1.540339,
  1.465,
  0.988,
  1.05,
  1.098,
  0.997192,
  0.943,
  0.941,
  0.909,
  1.128627,
  0.966192,
  1.02,
  1.39,
  0.982192,
  0.975,
  0.947192,
  1.222,
  1.06995,
  0.963,
  0.942,
  1.118661,
  0.947,
  0.924,
  1.013,
  0.917417,
  0.927356,
  0.249,
  1.002351,
  0.855,
  0.904,
  0.86,
  0.876,
  1.044797,
  1.134962,
  0.91,
  1.04985,
  1.041356,
  0.974,
  1.03,
  1.017806,
  1.039356,
  0.89785,
  0.891,
  0.894,
  0.959,
  1.039527,
  0.932356,
  0.906,
  0.922,
  0.941356,
  0.865,
  0.972,
  0.98,
  0.911356,
  1.003,
  0.953,
  0.868,
  1.428,
  0.903356,
  0.959,
  0.838832,
  0.919356,
  1.046,
  0.969,
  0.940356,
  0.918,
  0.909,
  0.933,
  0.873,
  0.966787,
  1.139356,
  1.129,
  1.322,
  0.968356,
  1.01051,
  0.243,
  1.168,
  0.961356,
  0.931,
  0.929,
  0.907,
  0.909,
  0.419,
  0.476619,
  0.390111,
  0.386,
  0.844,
  0.389,
  0.56,
  0.505,
  0.471,
  0.438,
  0.468885,
  0.539,
  0.459386,
  0.382111,
  0.469881,
  0.556,
  0.585,
  0.425,
  0.505302,
  0.54,
  0.54,
  0.652,
  0.559111,
  0.432,
  0.416008,
  0.439111,
  0.678,
  0.405,
  0.634,
  0.578,
  0.378111,
  0.413,
  0.368,
  0.074,
  0.512111,
  0.482,
  0.429598,
  0.749,
  0.350111,
  0.484,
  0.377,
  0.409,
  0.582,
  0.460111,
  0.42146,
  0.39,
  0.459111,
  0.429,
  0.456,
  0.479402,
  0.374111,
  0.672,
  0.36975,
  0.807,
  0.4,
  0.189428,
  0.57173,
  0.467862,
  0.347,
  0.286,
  0.275103,
  0.245,
  0.25,
  0.277,
  0.318821,
  0.463,
  0.306,
  0.415,
  0.437715,
  0.339,
  0.409833,
  0.314593,
  0.842103,
  0.300442,
  0.316,
  0.31,
  0.293103,
  0.302,
  0.710619,
  0.410752,
  0.369103,
  0.305,
  0.283,
  0.327,
  0.324103,
  0.303862,
  0.36,
  0.349,
  0.274689,
  0.294103,
  0.374,
  0.304897,
  0.297103,
  0.342,
  0.708,
  0.333,
  0.722103,
  0.733,
  0.295,
  0.353,
  0.4,
  0.368103,
  0.33,
  0.38,
  0.397103,
  0.461,
  0.292118,
  0.330103,
  0.707,
  0.707,
  0.288,
  0.301,
  0.297,
  0.285,
  1.294,
  1.282,
  1.286,
  1.132,
  1.109633,
  1.215,
  1.405,
  1.598,
  1.038,
  1.02,
  1.098,
  1.454,
  1.679,
  2.315,
  1.14,
  1.211712,
  1.814,
  1.570633,
  1.197,
  1.09,
  1.255,
  1.052633,
  1.090751,
  1.713,
  1.143,
  1.126633,
  1.133,
  1.046,
  1.265,
  1.176633,
  1.187,
  1.109,
  1.532898,
  1.580102,
  1.243633,
  1.117638,
  1.138,
  1.046633,
  1.27,
  1.135,
  1.088,
  45.743,
  1.138633,
  1.227,
  1.13,
  1.088,
  1.137633,
  1.078,
  1.142,
  1.074633,
  1.112,
  1.097,
  1.198633,
  1.677,
  1.154,
  1.178,
  1.173,
  1.03,
  1.052633,
  0.946,
  0.341907,
  0.456111,
  0.406,
  0.444,
  0.43,
  0.385,
  0.419,
  0.468,
  0.554705,
  0.406492,
  0.468,
  0.579938,
  0.565,
  0.487111,
  0.44,
  0.415,
  0.446,
  0.492111,
  0.375,
  0.369,
  0.794,
  0.419111,
  0.34,
  0.368,
  0.337111,
  0.839206,
  0.513,
  0.456,
  0.488,
  0.448,
  0.447111,
  0.373,
  0.53,
  0.370111,
  0.955,
  0.411,
  0.392,
  0.384111,
  1.598,
  0.409,
  0.456,
  0.407,
  0.457111,
  0.363,
  0.429,
  0.469111,
  0.337,
  0.589051,
  0.479111,
  0.491,
  0.474,
  0.51,
  0.474,
  0.404,
  0.593,
  0.32023,
  0.903,
  0.578,
  0.617991,
  0.315912,
  0.603088,
  0.62,
  0.568777,
  0.853,
  0.668,
  0.67879,
  0.691,
  0.69479,
  0.664,
  0.710925,
  0.796,
  0.632991,
  0.644,
  0.607,
  0.627,
  0.665991,
  0.633,
  0.661703,
  0.782991,
  0.848,
  0.729,
  0.635,
  1.427991,
  0.799,
  0.632,
  0.67,
  0.608991,
  0.749556,
  0.647,
  0.625991,
  0.58,
  0.614,
  0.563,
  0.614991,
  0.143,
  0.877,
  0.787,
  0.633777,
  0.66,
  1.032991,
  0.838,
  0.622,
  0.640991,
  0.619,
  0.597,
  0.567,
  0.587991,
  0.639543,
  1.073,
  0.643,
  0.639,
  0.687952,
  0.61989,
  0.649406,
  1.033,
  1.042,
  1.061,
  1.104,
  1.35,
  1.218352,
  1.326392,
  1.132,
  1.323,
  1.075,
  1.394897,
  1.022,
  1.03,
  2.302,
  1.035934,
  0.289,
  1.046,
  1.266,
  1.006,
  1.128352,
  1.294103,
  1.167,
  1.166,
  1.058413,
  1.027352,
  1.093752,
  1.031352,
  1.095,
  1.217367,
  1.093,
  1.135352,
  1.211,
  1.136,
  1.265,
  1.121256,
  1.123897,
  1.135352,
  1.781897,
  1.055352,
  1.115,
  1.102,
  1.181,
  1.072,
  1.226,
  1.512,
  1.321,
  1.109897,
  1.051876,
  1.017255,
  1.009,
  1.151352,
  0.285,
  1.101139,
  1.483,
  1.072352,
  1.309897,
  1.16,
  1.336,
  1.486,
  1.0275,
  1.266752,
  1.048,
  1.008,
  2.207393,
  1.03,
  1.06354,
  1.077,
  0.28861,
  1.026681,
  1.061,
  1.064,
  1.092,
  1.001,
  1.324789,
  1.036789,
  0.996553,
  1.486,
  1.06261,
  1.112,
  1.118,
  1.05761,
  1.011848,
  1.01139,
  1.114,
  1.059,
  1.33261,
  1.035,
  0.29,
  1.189,
  1.14761,
  1.215,
  1.838806,
  1.225,
  1.05761,
  1.044799,
  1.161,
  1.154,
  1.012,
  1.06461,
  1.035,
  1.153,
  1.03161,
  1.077,
  1.118,
  1.006,
  1.11861,
  1.139,
  1.1,
  0.999,
  1.198777,
  0.97861,
  1.146,
  1.002,
  1.21561,
  1.108,
  1.183,
  1.35161,
  1.229848,
  1.011,
  1.041,
  1.042,
  1.047,
  1.397112,
  0.999,
  1.145,
  1.09,
  0.994,
  0.99861,
  1.534818,
  1.032,
  1.54,
  1.446,
  1.017331,
  1.068,
  1.232897,
  1.139,
  1.142,
  1.09361,
  1.028,
  1.012888,
  1.06461,
  1.054,
  1.532,
  1.453,
  0.982688,
  0.97761,
  1.256,
  1.442,
  1.12761,
  1.205,
  1.393112,
  1.069078,
  1.125,
  0.99461,
  1.562,
  1.027,
  1.01,
  0.998,
  1.04961,
  1.225,
  2.261,
  1.22161,
  0.997,
  1.057,
  1.027183,
  1.23561,
  1.032419,
  1.533,
  1.601,
  0.988,
  1.03061,
  1.107,
  1.014908,
  1.07261,
  1.026,
  1.058117,
  1.50361,
  1.231864,
  1.098846,
  1.53,
  1.099,
  0.975,
  0.99,
  1.015,
  1.009632,
  3.083164,
  1.052,
  0.977,
  0.972,
  0.95,
  0.902,
  1.016609,
  1.071,
  1.604104,
  1.416,
  0.936,
  0.916164,
  1.037,
  0.937,
  1.100164,
  0.962,
  1.251,
  1.048,
  0.949746,
  1.018164,
  1.307,
  1.418188,
  1.015,
  1.015164,
  1.122,
  0.994,
  1.056,
  0.948164,
  1.348672,
  2.439,
  2.099,
  1.022,
  1.147164,
  1.084,
  15.439835,
  1.467164,
  0.977,
  1.44,
  1.018,
  1.011164,
  1.29859,
  1.276,
  1.164,
  1.371,
  1.893,
  0.997164,
  1.597,
  1.082,
  1.067164,
  1.03,
  0.953,
  1.050164,
  0.959,
  1.353,
  1.035,
  0.952,
  0.393,
  0.821,
  0.043,
  0.298257,
  0.409,
  0.866,
  0.297,
  0.424,
  0.52,
  0.256993,
  0.314,
  0.808,
  0.291,
  0.412,
  0.277778,
  0.296257,
  0.21,
  0.246,
  0.251,
  0.413257,
  1.085,
  0.754,
  0.502,
  0.772257,
  0.339,
  0.358743,
  0.601,
  0.313257,
  0.181525,
  0.226,
  0.266,
  0.33,
  0.406257,
  0.562,
  0.299,
  0.248257,
  0.262,
  0.28,
  0.257,
  0.321257,
  0.26,
  0.36,
  0.337,
  0.319,
  0.242257,
  0.299442,
  1.19,
  0.198257,
  0.533,
  0.454,
  0.36,
  0.273257,
  0.272,
  0.318,
  0.262,
  0.262,
  0.774,
  0.42,
  1.496,
  1.195,
  1.259,
  1.269918,
  0.313,
  1.307531,
  1.175,
  1.232,
  2.239,
  1.172,
  1.19,
  1.629,
  1.18,
  1.183,
  1.313,
  1.191,
  1.219531,
  1.62394,
  1.269,
  1.673531,
  1.212,
  1.249,
  1.21,
  1.152,
  1.199531,
  1.238,
  1.165,
  1.413452,
  1.172,
  1.196,
  1.377,
  1.122,
  1.256531,
  1.17,
  1.168,
  1.288,
  1.947,
  1.385531,
  1.292,
  1.313,
  1.175,
  14.189531,
  1.572,
  1.374,
  1.526,
  1.651,
  1.46,
  1.408,
  1.174,
  1.513531,
  1.294938,
  1.567,
  1.453531,
  1.254,
  1.457,
  1.199531,
  1.207,
  1.216,
  1.2,
  1.419452,
  1.27292,
  0.292,
  0.335,
  0.28,
  0.301626,
  0.394466,
  0.344,
  0.308786,
  0.313,
  0.251752,
  0.29,
  0.324051,
  0.591681,
  0.291,
  0.272,
  0.261,
  0.392626,
  0.353,
  0.323,
  0.278626,
  0.343,
  0.485889,
  0.648,
  1.122626,
  1.212,
  0.3,
  0.328,
  0.403626,
  0.301957,
  0.345351,
  0.337,
  0.286626,
  0.327,
  0.277699,
  0.321301,
  0.416626,
  0.254394,
  0.31161,
  0.322897,
  0.331626,
  0.330009,
  0.297681,
  0.363,
  0.439,
  0.327626,
  0.341,
  0.334691,
  0.437626,
  0.782897,
  0.410681,
  0.348402,
  0.448626,
  0.469015,
  0.379593,
  0.3,
  0.357,
  0.426,
  0.471468,
  1.281,
  0.943,
  1.009,
  1.038,
  0.968165,
  1.019,
  1.004,
  0.993,
  1.246,
  1.085,
  1.231,
  1.048,
  0.975,
  1.04,
  1.057,
  1.008165,
  1.041,
  0.948,
  1.105165,
  1.294,
  1.082,
  1.198,
  0.95,
  1.045165,
  1.135125,
  1.494295,
  1.002,
  1.103165,
  1.096,
  1.099,
  1.122,
  1.011165,
  1.213,
  1.235,
  1.191,
  1.091,
  0.972165,
  0.988,
  0.227125,
  0.985,
  1.046165,
  0.953,
  1.014,
  1.358,
  1.078165,
  1.269,
  1.006,
  1.017,
  1.032,
  1.118165,
  1.318,
  1.044165,
  1.226,
  1.018,
  1.048,
  1.055165,
  1.009486,
  1.316027,
  1.028973,
  1.071,
  1.574,
  0.332,
  0.283,
  0.039097,
  0.326103,
  0.386,
  0.387,
  0.438,
  0.373752,
  0.439,
  0.311,
  0.328,
  0.394103,
  0.287,
  0.979,
  0.38,
  0.623103,
  0.482,
  0.392,
  0.387,
  0.344206,
  0.320166,
  0.044,
  0.548,
  0.402,
  0.578,
  0.32,
  0.384,
  0.434103,
  0.368,
  0.288,
  0.389,
  0.320103,
  0.321,
  0.326889,
  0.710103,
  0.296,
  0.628,
  0.341,
  0.2605,
  0.457103,
  0.34,
  0.325,
  0.524,
  0.28,
  0.355103,
  0.338897,
  0.647,
  0.307103,
  0.433,
  0.399,
  0.46,
  0.373103,
  0.333,
  0.373716,
  0.321,
  0.328,
  0.431,
  0.148637,
  0.415363,
  1.032,
  1.210284,
  0.992,
  1.432,
  0.946,
  0.949578,
  0.902396,
  0.989,
  1.094,
  0.962,
  1.005,
  1.090156,
  0.97,
  1.069344,
  1.048,
  0.916578,
  0.93,
  1.195865,
  0.956578,
  0.926,
  0.91,
  1.114,
  0.880026,
  1.086578,
  1.064,
  1.133,
  1.040578,
  0.952,
  1.127712,
  1.048288,
  0.964,
  0.945578,
  0.918,
  0.924,
  0.94,
  1.069,
  0.953578,
  1.01,
  0.901,
  0.964578,
  0.959,
  1.056,
  0.944288,
  0.983578,
  1.048396,
  0.985,
  0.885,
  1.160695,
  0.995578,
  1.036,
  0.93258,
  0.900578,
  0.886396,
  1.310897,
  0.940578,
  1.163897,
  0.922,
  0.899,
  1.197,
  0.268321,
  1.214,
  1.17238,
  2.18162,
  1.293472,
  1.223572,
  1.281,
  1.247,
  1.207,
  7.628,
  1.466,
  1.269,
  1.677,
  1.332055,
  1.15762,
  3.27,
  1.264472,
  1.307,
  1.321472,
  1.279,
  1.289,
  1.501,
  1.294,
  1.331472,
  1.56505,
  1.172834,
  1.229498,
  1.19,
  1.464472,
  1.243,
  1.209,
  1.412472,
  1.264,
  17.184289,
  16.499,
  6.009,
  1.334472,
  1.496,
  1.182472,
  1.221472,
  1.234,
  1.267559,
  0.34069,
  1.337,
  1.420472,
  1.368,
  1.406,
  2.192,
  1.337,
  1.268472,
  1.453,
  1.38831,
  2.039472,
  1.462,
  1.177128,
  1.229472,
  1.254,
  1.174,
  1.212,
  1.236,
  0.359,
  1.089,
  1.085,
  1.099,
  1.061,
  1.084,
  1.106,
  1.083,
  1.061,
  1.236,
  1.093,
  1.367,
  1.055,
  1.208,
  1.870765,
  1.107352,
  1.08,
  1.332,
  1.118,
  1.149352,
  1.122,
  1.247,
  1.236,
  1.12,
  0.3,
  1.077,
  1.4,
  1.232,
  1.102352,
  1.193,
  2.332,
  1.105,
  1.058352,
  1.041,
  1.137,
  1.109,
  1.232,
  1.063352,
  1.551,
  1.153121,
  1.207352,
  1.111,
  1.856,
  1.033352,
  1.091,
  1.151,
  1.227,
  1.125,
  1.198,
  1.255352,
  1.061,
  1.427388,
  1.467352,
  1.094,
  0.289,
  1.167352,
  1.202,
  1.149,
  1.054,
  1.04,
  1.082,
  1.295,
  1.389,
  1.149613,
  1.307,
  1.228,
  1.187,
  1.204,
  1.20574,
  1.443,
  1.396,
  1.256,
  1.192311,
  2.067,
  1.463,
  1.552059,
  1.255,
  1.152,
  1.612,
  1.225,
  1.302969,
  1.226472,
  1.440783,
  1.208734,
  1.182,
  1.166472,
  1.624,
  1.237,
  1.296472,
  1.276083,
  1.212584,
  1.553,
  1.200472,
  1.45226,
  1.436,
  1.2,
  1.169,
  1.221472,
  1.173597,
  1.23055,
  1.172472,
  1.178,
  1.214,
  1.460831,
  1.337472,
  1.44474,
  1.162,
  1.47,
  1.18,
  1.166772,
  1.511472,
  1.172,
  1.305,
  1.183472,
  1.201597,
  1.219,
  1.410472,
  1.174,
  1.43,
  1.417,
  1.309,
  1.18874,
  1.212975,
  16.853,
  1.726,
  1.072,
  1.034758,
  1.151953,
  1.071876,
  1.102252,
  1.191175,
  1.987,
  1.150252,
  1.128408,
  1.1516,
  1.708,
  1.720979,
  1.128473,
  1.000634,
  1.838855,
  1.422349,
  1.089634,
  1.149,
  2.22,
  1.452592,
  1.122532,
  1.061093,
  1.052459,
  1.113032,
  1.24087,
  0.999254,
  1.061254,
  0.997,
  1.105634,
  1.079,
  1.073,
  1.072,
  0.99775,
  1.069252,
  1.148634,
  1.08,
  1.209408,
  1.135634,
  1.084,
  1.112626,
  1.422975,
  1.081254,
  1.087974,
  1.265825,
  0.993592,
  1.125204,
  1.167347,
  1.089287,
  1.36,
  1.179634,
  1.125876,
  1.049236,
  1.214626,
  1.030346,
  1.075626,
  1.097,
  1.226128,
  1.098,
  1.151,
  1.482588,
  1.117079,
  1.186,
  1.672869,
  1.093473,
  1.143,
  1.099979,
  1.178785,
  1.193,
  1.219,
  1.309,
  1.08,
  1.424,
  1.277,
  1.214,
  1.280531,
  1.149,
  1.165,
  1.209,
  1.121531,
  1.189,
  1.21,
  1.204,
  1.502531,
  1.515,
  1.200531,
  1.278,
  1.206298,
  1.148,
  1.120614,
  1.317531,
  1.168,
  1.191,
  1.188785,
  1.129718,
  1.408079,
  1.240531,
  1.123,
  1.390531,
  1.161,
  1.134,
  1.199282,
  1.270531,
  1.206,
  1.245,
  1.136785,
  1.192,
  1.186011,
  1.229531,
  1.626,
  1.362531,
  1.608989,
  1.182502,
  1.250531,
  1.154,
  1.185,
  1.216215,
  1.16,
  1.439,
  1.195,
  1.405079,
  1.033,
  0.893,
  1.057897,
  0.919777,
  1.287,
  2.034356,
  0.942777,
  0.908,
  0.936,
  0.926897,
  1.026,
  0.989,
  0.921,
  0.943095,
  0.904,
  0.945356,
  0.923897,
  0.856,
  0.883356,
  0.938,
  0.953,
  0.935,
  0.987962,
  1.854356,
  0.919,
  0.241,
  1.299,
  0.927,
  0.889,
  1.023,
  4.023,
  1.008,
  0.956,
  0.994,
  0.841,
  1.126,
  0.937356,
  1.342,
  1.019356,
  1.118,
  1.334,
  1.371,
  0.946,
  0.957,
  0.875,
  0.992,
  1.064713,
  0.869777,
  0.940356,
  0.966789,
  0.869356,
  1.2605,
  1.179,
  0.943356,
  0.253,
  0.917,
  0.946,
  0.96,
  0.897,
  1.089,
  1.075,
  2.017897,
  1.203,
  1.327352,
  0.284903,
  1.123,
  1.382897,
  1.0242,
  1.344897,
  1.085,
  1.367889,
  1.213,
  1.212698,
  1.203,
  1.363767,
  1.330721,
  1.984455,
  1.134,
  0.990352,
  1.359,
  1.028876,
  1.066,
  1.527877,
  1.098,
  1.307068,
  1.001,
  1.072,
  1.036144,
  1.043,
  1.293876,
  1.028455,
  1.096,
  2.033,
  1.852,
  1.159103,
  1.019352,
  0.996,
  1.070205,
  1.243392,
  1.045,
  1.073,
  1.11521,
  1.105568,
  1.036455,
  1.0668,
  1.238,
  1.008,
  1.306,
  1.106352,
  1.075894,
  1.871698,
  1.365668,
  1.215777,
  1.030903,
  1.172777,
  1.288068,
  1.35,
  1.000987,
  1.029883,
  1.152117
]