/shadow/cap1outbuf/17119/51397/tornet/1/shadow.data/hosts/markovclient404/markovclient404.tor.1000.stdout:Jan 01 00:19:23.751 [warn] Sending XOFF: 249380 249000
/shadow/cap1outbuf/17119/51397/tornet/1/shadow.data/hosts/markovclient404/markovclient404.tor.1000.stdout:Jan 01 00:29:25.801 [warn] Sending XOFF: 249400 249000
/shadow/cap1outbuf/17119/51397/tornet/1/shadow.data/hosts/markovclient404/markovclient404.tor.1000.stdout:Jan 01 00:29:46.978 [warn] Sending XOFF: 249380 249000
/shadow/cap1outbuf/17119/51397/tornet/1/shadow.data/hosts/markovclient355/markovclient355.tor.1000.stdout:Jan 01 00:18:48.468 [warn] Sending XOFF: 249400 249000
/shadow/cap1outbuf/17119/51397/tornet/1/shadow.data/hosts/markovclient355/markovclient355.tor.1000.stdout:Jan 01 00:19:26.074 [warn] Sending XOFF: 249400 249000
/shadow/cap1outbuf/17119/51397/tornet/1/shadow.data/hosts/markovclient355/markovclient355.tor.1000.stdout:Jan 01 00:20:00.905 [warn] Sending XOFF: 249400 249000
/shadow/cap1outbuf/17119/51397/tornet/1/shadow.data/hosts/markovclient355/markovclient355.tor.1000.stdout:Jan 01 00:20:21.053 [warn] Sending XOFF: 249400 249000
/shadow/cap1outbuf/17119/51397/tornet/1/shadow.data/hosts/markovclient355/markovclient355.tor.1000.stdout:Jan 01 00:21:29.611 [warn] Sending XOFF: 249236 249000
/shadow/cap1outbuf/17119/51397/tornet/1/shadow.data/hosts/markovclient355/markovclient355.tor.1000.stdout:Jan 01 00:21:40.871 [warn] Sending XOFF: 249493 249000
/shadow/cap1outbuf/17119/51397/tornet/1/shadow.data/hosts/markovclient355/markovclient355.tor.1000.stdout:Jan 01 00:22:17.794 [warn] Sending XOFF: 249400 249000
/shadow/cap1outbuf/17119/51397/tornet/1/shadow.data/hosts/markovclient355/markovclient355.tor.1000.stdout:Jan 01 00:22:18.195 [warn] Sending XOFF: 249074 249000
/shadow/cap1outbuf/17119/51397/tornet/1/shadow.data/hosts/markovclient355/markovclient355.tor.1000.stdout:Jan 01 00:22:32.163 [warn] Sending XOFF: 249266 249000
/shadow/cap1outbuf/17119/51397/tornet/1/shadow.data/hosts/markovclient355/markovclient355.tor.1000.stdout:Jan 01 00:23:39.507 [warn] Sending XOFF: 249400 249000
/shadow/cap1outbuf/17119/51397/tornet/1/shadow.data/hosts/markovclient355/markovclient355.tor.1000.stdout:Jan 01 00:24:27.310 [warn] Sending XOFF: 249176 249000
/shadow/cap1outbuf/17119/51397/tornet/1/shadow.data/hosts/markovclient355/markovclient355.tor.1000.stdout:Jan 01 00:24:47.562 [warn] Sending XOFF: 249400 249000
/shadow/cap1outbuf/17119/51397/tornet/1/shadow.data/hosts/markovclient355/markovclient355.tor.1000.stdout:Jan 01 00:25:09.990 [warn] Sending XOFF: 249234 249000
/shadow/cap1outbuf/17119/51397/tornet/1/shadow.data/hosts/markovclient355/markovclient355.tor.1000.stdout:Jan 01 00:25:13.417 [warn] Sending XOFF: 249370 249000
/shadow/cap1outbuf/17119/51397/tornet/1/shadow.data/hosts/markovclient355/markovclient355.tor.1000.stdout:Jan 01 00:25:44.358 [warn] Sending XOFF: 249400 249000
/shadow/cap1outbuf/17119/51397/tornet/1/shadow.data/hosts/markovclient355/markovclient355.tor.1000.stdout:Jan 01 00:26:20.567 [warn] Sending XOFF: 249400 249000
/shadow/cap1outbuf/17119/51397/tornet/1/shadow.data/hosts/markovclient355/markovclient355.tor.1000.stdout:Jan 01 00:27:26.866 [warn] Sending XOFF: 249400 249000
/shadow/cap1outbuf/17119/51397/tornet/1/shadow.data/hosts/markovclient355/markovclient355.tor.1000.stdout:Jan 01 00:27:53.150 [warn] Sending XOFF: 249054 249000
/shadow/cap1outbuf/17119/51397/tornet/1/shadow.data/hosts/markovclient355/markovclient355.tor.1000.stdout:Jan 01 00:28:24.269 [warn] Sending XOFF: 249032 249000
/shadow/cap1outbuf/17119/51397/tornet/1/shadow.data/hosts/markovclient355/markovclient355.tor.1000.stdout:Jan 01 00:28:41.255 [warn] Sending XOFF: 249464 249000
/shadow/cap1outbuf/17119/51397/tornet/1/shadow.data/hosts/markovclient355/markovclient355.tor.1000.stdout:Jan 01 00:28:44.698 [warn] Sending XOFF: 249074 249000
/shadow/cap1outbuf/17119/51397/tornet/1/shadow.data/hosts/markovclient355/markovclient355.tor.1000.stdout:Jan 01 00:29:53.365 [warn] Sending XOFF: 249193 249000
/shadow/cap1outbuf/17119/51397/tornet/1/shadow.data/hosts/markovclient355/markovclient355.tor.1000.stdout:Jan 01 00:30:01.045 [warn] Sending XOFF: 249446 249000
/shadow/cap1outbuf/17119/51397/tornet/1/shadow.data/hosts/markovclient355/markovclient355.tor.1000.stdout:Jan 01 00:30:01.373 [warn] Sending XOFF: 249032 249000
/shadow/cap1outbuf/17119/51397/tornet/1/shadow.data/hosts/markovclient355/markovclient355.tor.1000.stdout:Jan 01 00:30:08.375 [warn] Sending XOFF: 249400 249000
/shadow/cap1outbuf/17119/51397/tornet/1/shadow.data/hosts/markovclient355/markovclient355.tor.1000.stdout:Jan 01 00:30:09.880 [warn] Sending XOFF: 249152 249000
/shadow/cap1outbuf/17119/51397/tornet/1/shadow.data/hosts/markovclient355/markovclient355.tor.1000.stdout:Jan 01 00:30:12.175 [warn] Sending XOFF: 249364 249000
/shadow/cap1outbuf/17119/51397/tornet/1/shadow.data/hosts/markovclient355/markovclient355.tor.1000.stdout:Jan 01 00:30:34.279 [warn] Sending XOFF: 249224 249000
/shadow/cap1outbuf/17119/51397/tornet/1/shadow.data/hosts/markovclient355/markovclient355.tor.1000.stdout:Jan 01 00:30:49.999 [warn] Sending XOFF: 249026 249000
/shadow/cap1outbuf/17119/51397/tornet/1/shadow.data/hosts/markovclient249/markovclient249.tor.1000.stdout:Jan 01 00:30:43.246 [warn] Sending XOFF: 249400 249000
/shadow/cap1outbuf/17119/51397/tornet/1/shadow.data/hosts/markovclient50/markovclient50.tor.1000.stdout:Jan 01 00:29:34.036 [warn] Sending XOFF: 249254 249000
/shadow/cap1outbuf/17119/51397/tornet/1/shadow.data/hosts/markovclient50/markovclient50.tor.1000.stdout:Jan 01 00:30:24.631 [warn] Sending XOFF: 249234 249000
/shadow/cap1outbuf/17119/51397/tornet/1/shadow.data/hosts/markovclient50/markovclient50.tor.1000.stdout:Jan 01 00:30:44.514 [warn] Sending XOFF: 249074 249000
/shadow/cap1outbuf/17119/51397/tornet/1/shadow.data/hosts/markovclient50/markovclient50.tor.1000.stdout:Jan 01 00:30:46.596 [warn] Sending XOFF: 249400 249000
/shadow/cap1outbuf/17119/51397/tornet/1/shadow.data/hosts/markovclient672/markovclient672.tor.1000.stdout:Jan 01 00:26:58.562 [warn] Sending XOFF: 249400 249000
/shadow/cap1outbuf/17119/51397/tornet/1/shadow.data/hosts/markovclient672/markovclient672.tor.1000.stdout:Jan 01 00:27:32.485 [warn] Sending XOFF: 249400 249000
/shadow/cap1outbuf/17119/51397/tornet/1/shadow.data/hosts/markovclient296/markovclient296.tor.1000.stdout:Jan 01 00:19:40.227 [warn] Sending XOFF: 249206 249000
/shadow/cap1outbuf/17119/51397/tornet/1/shadow.data/hosts/markovclient296/markovclient296.tor.1000.stdout:Jan 01 00:20:50.219 [warn] Sending XOFF: 249332 249000
/shadow/cap1outbuf/17119/51397/tornet/1/shadow.data/hosts/markovclient296/markovclient296.tor.1000.stdout:Jan 01 00:24:45.802 [warn] Sending XOFF: 249464 249000
/shadow/cap1outbuf/17119/51397/tornet/1/shadow.data/hosts/markovclient296/markovclient296.tor.1000.stdout:Jan 01 00:26:10.404 [warn] Sending XOFF: 249400 249000
/shadow/cap1outbuf/17119/51397/tornet/1/shadow.data/hosts/markovclient296/markovclient296.tor.1000.stdout:Jan 01 00:27:49.630 [warn] Sending XOFF: 249074 249000
/shadow/cap1outbuf/17119/51397/tornet/1/shadow.data/hosts/markovclient296/markovclient296.tor.1000.stdout:Jan 01 00:28:04.414 [warn] Sending XOFF: 249235 249000
/shadow/cap1outbuf/17119/51397/tornet/1/shadow.data/hosts/markovclient296/markovclient296.tor.1000.stdout:Jan 01 00:29:01.197 [warn] Sending XOFF: 249284 249000
/shadow/cap1outbuf/17119/51397/tornet/1/shadow.data/hosts/markovclient586/markovclient586.tor.1000.stdout:Jan 01 00:24:03.243 [warn] Sending XOFF: 249007 249000
/shadow/cap1outbuf/17119/51397/tornet/1/shadow.data/hosts/markovclient586/markovclient586.tor.1000.stdout:Jan 01 00:25:07.575 [warn] Sending XOFF: 249042 249000
/shadow/cap1outbuf/17119/51397/tornet/1/shadow.data/hosts/markovclient586/markovclient586.tor.1000.stdout:Jan 01 00:25:22.952 [warn] Sending XOFF: 249400 249000
/shadow/cap1outbuf/17119/51397/tornet/1/shadow.data/hosts/markovclient586/markovclient586.tor.1000.stdout:Jan 01 00:25:30.269 [warn] Sending XOFF: 249416 249000
/shadow/cap1outbuf/17119/51397/tornet/1/shadow.data/hosts/markovclient586/markovclient586.tor.1000.stdout:Jan 01 00:25:53.133 [warn] Sending XOFF: 249380 249000
/shadow/cap1outbuf/17119/51397/tornet/1/shadow.data/hosts/markovclient586/markovclient586.tor.1000.stdout:Jan 01 00:25:53.648 [warn] Sending XOFF: 249400 249000
/shadow/cap1outbuf/17119/51397/tornet/1/shadow.data/hosts/markovclient586/markovclient586.tor.1000.stdout:Jan 01 00:26:03.714 [warn] Sending XOFF: 249400 249000
/shadow/cap1outbuf/17119/51397/tornet/1/shadow.data/hosts/markovclient586/markovclient586.tor.1000.stdout:Jan 01 00:26:09.127 [warn] Sending XOFF: 249400 249000
/shadow/cap1outbuf/17119/51397/tornet/1/shadow.data/hosts/markovclient586/markovclient586.tor.1000.stdout:Jan 01 00:26:12.448 [warn] Sending XOFF: 249400 249000
/shadow/cap1outbuf/17119/51397/tornet/1/shadow.data/hosts/markovclient586/markovclient586.tor.1000.stdout:Jan 01 00:26:13.891 [warn] Sending XOFF: 249454 249000
/shadow/cap1outbuf/17119/51397/tornet/1/shadow.data/hosts/markovclient586/markovclient586.tor.1000.stdout:Jan 01 00:26:24.138 [warn] Sending XOFF: 249400 249000
/shadow/cap1outbuf/17119/51397/tornet/1/shadow.data/hosts/markovclient586/markovclient586.tor.1000.stdout:Jan 01 00:26:30.072 [warn] Sending XOFF: 249400 249000
/shadow/cap1outbuf/17119/51397/tornet/1/shadow.data/hosts/markovclient586/markovclient586.tor.1000.stdout:Jan 01 00:26:54.096 [warn] Sending XOFF: 249400 249000
/shadow/cap1outbuf/17119/51397/tornet/1/shadow.data/hosts/markovclient586/markovclient586.tor.1000.stdout:Jan 01 00:27:22.717 [warn] Sending XOFF: 249400 249000
/shadow/cap1outbuf/17119/51397/tornet/1/shadow.data/hosts/markovclient586/markovclient586.tor.1000.stdout:Jan 01 00:27:47.806 [warn] Sending XOFF: 249008 249000
/shadow/cap1outbuf/17119/51397/tornet/1/shadow.data/hosts/markovclient586/markovclient586.tor.1000.stdout:Jan 01 00:27:48.661 [warn] Sending XOFF: 249380 249000
/shadow/cap1outbuf/17119/51397/tornet/1/shadow.data/hosts/markovclient586/markovclient586.tor.1000.stdout:Jan 01 00:27:48.993 [warn] Sending XOFF: 249400 249000
/shadow/cap1outbuf/17119/51397/tornet/1/shadow.data/hosts/markovclient586/markovclient586.tor.1000.stdout:Jan 01 00:28:16.903 [warn] Sending XOFF: 249236 249000
/shadow/cap1outbuf/17119/51397/tornet/1/shadow.data/hosts/markovclient586/markovclient586.tor.1000.stdout:Jan 01 00:28:24.214 [warn] Sending XOFF: 249040 249000
/shadow/cap1outbuf/17119/51397/tornet/1/shadow.data/hosts/markovclient586/markovclient586.tor.1000.stdout:Jan 01 00:28:27.017 [warn] Sending XOFF: 249380 249000
/shadow/cap1outbuf/17119/51397/tornet/1/shadow.data/hosts/markovclient586/markovclient586.tor.1000.stdout:Jan 01 00:28:34.935 [warn] Sending XOFF: 249400 249000
/shadow/cap1outbuf/17119/51397/tornet/1/shadow.data/hosts/markovclient586/markovclient586.tor.1000.stdout:Jan 01 00:28:38.876 [warn] Sending XOFF: 249290 249000
/shadow/cap1outbuf/17119/51397/tornet/1/shadow.data/hosts/markovclient586/markovclient586.tor.1000.stdout:Jan 01 00:28:51.652 [warn] Sending XOFF: 249250 249000
/shadow/cap1outbuf/17119/51397/tornet/1/shadow.data/hosts/markovclient586/markovclient586.tor.1000.stdout:Jan 01 00:28:52.972 [warn] Sending XOFF: 249400 249000
/shadow/cap1outbuf/17119/51397/tornet/1/shadow.data/hosts/markovclient586/markovclient586.tor.1000.stdout:Jan 01 00:29:00.940 [warn] Sending XOFF: 249400 249000
/shadow/cap1outbuf/17119/51397/tornet/1/shadow.data/hosts/markovclient282/markovclient282.tor.1000.stdout:Jan 01 00:23:24.411 [warn] Sending XOFF: 249400 249000
/shadow/cap1outbuf/17119/51397/tornet/1/shadow.data/hosts/markovclient282/markovclient282.tor.1000.stdout:Jan 01 00:25:08.328 [warn] Sending XOFF: 249400 249000
/shadow/cap1outbuf/17119/51397/tornet/1/shadow.data/hosts/markovclient282/markovclient282.tor.1000.stdout:Jan 01 00:25:36.487 [warn] Sending XOFF: 249380 249000
/shadow/cap1outbuf/17119/51397/tornet/1/shadow.data/hosts/markovclient282/markovclient282.tor.1000.stdout:Jan 01 00:27:28.137 [warn] Sending XOFF: 249048 249000
/shadow/cap1outbuf/17119/51397/tornet/1/shadow.data/hosts/markovclient282/markovclient282.tor.1000.stdout:Jan 01 00:27:50.810 [warn] Sending XOFF: 249216 249000
/shadow/cap1outbuf/17119/51397/tornet/1/shadow.data/hosts/markovclient282/markovclient282.tor.1000.stdout:Jan 01 00:28:40.051 [warn] Sending XOFF: 249400 249000
/shadow/cap1outbuf/17119/51397/tornet/1/shadow.data/hosts/markovclient282/markovclient282.tor.1000.stdout:Jan 01 00:28:43.908 [warn] Sending XOFF: 249308 249000
/shadow/cap1outbuf/17119/51397/tornet/1/shadow.data/hosts/markovclient282/markovclient282.tor.1000.stdout:Jan 01 00:29:10.429 [warn] Sending XOFF: 249074 249000
/shadow/cap1outbuf/17119/51397/tornet/1/shadow.data/hosts/markovclient282/markovclient282.tor.1000.stdout:Jan 01 00:29:42.965 [warn] Sending XOFF: 249380 249000
/shadow/cap1outbuf/17119/51397/tornet/1/shadow.data/hosts/markovclient282/markovclient282.tor.1000.stdout:Jan 01 00:29:50.701 [warn] Sending XOFF: 249446 249000
/shadow/cap1outbuf/17119/51397/tornet/1/shadow.data/hosts/markovclient282/markovclient282.tor.1000.stdout:Jan 01 00:30:04.436 [warn] Sending XOFF: 249188 249000
/shadow/cap1outbuf/17119/51397/tornet/1/shadow.data/hosts/markovclient125/markovclient125.tor.1000.stdout:Jan 01 00:16:29.815 [warn] Sending XOFF: 249086 249000
/shadow/cap1outbuf/17119/51397/tornet/1/shadow.data/hosts/markovclient125/markovclient125.tor.1000.stdout:Jan 01 00:21:46.728 [warn] Sending XOFF: 249079 249000
/shadow/cap1outbuf/17119/51397/tornet/1/shadow.data/hosts/markovclient125/markovclient125.tor.1000.stdout:Jan 01 00:22:09.708 [warn] Sending XOFF: 249400 249000
/shadow/cap1outbuf/17119/51397/tornet/1/shadow.data/hosts/markovclient125/markovclient125.tor.1000.stdout:Jan 01 00:23:01.878 [warn] Sending XOFF: 249374 249000
/shadow/cap1outbuf/17119/51397/tornet/1/shadow.data/hosts/markovclient125/markovclient125.tor.1000.stdout:Jan 01 00:23:09.111 [warn] Sending XOFF: 249284 249000
/shadow/cap1outbuf/17119/51397/tornet/1/shadow.data/hosts/markovclient125/markovclient125.tor.1000.stdout:Jan 01 00:24:04.933 [warn] Sending XOFF: 249163 249000
/shadow/cap1outbuf/17119/51397/tornet/1/shadow.data/hosts/markovclient125/markovclient125.tor.1000.stdout:Jan 01 00:24:23.953 [warn] Sending XOFF: 249236 249000
/shadow/cap1outbuf/17119/51397/tornet/1/shadow.data/hosts/markovclient125/markovclient125.tor.1000.stdout:Jan 01 00:24:32.258 [warn] Sending XOFF: 249400 249000
/shadow/cap1outbuf/17119/51397/tornet/1/shadow.data/hosts/markovclient125/markovclient125.tor.1000.stdout:Jan 01 00:25:21.581 [warn] Sending XOFF: 249400 249000
/shadow/cap1outbuf/17119/51397/tornet/1/shadow.data/hosts/markovclient125/markovclient125.tor.1000.stdout:Jan 01 00:25:50.019 [warn] Sending XOFF: 249474 249000
/shadow/cap1outbuf/17119/51397/tornet/1/shadow.data/hosts/markovclient125/markovclient125.tor.1000.stdout:Jan 01 00:25:50.994 [warn] Sending XOFF: 249400 249000
/shadow/cap1outbuf/17119/51397/tornet/1/shadow.data/hosts/markovclient125/markovclient125.tor.1000.stdout:Jan 01 00:26:01.940 [warn] Sending XOFF: 249122 249000
/shadow/cap1outbuf/17119/51397/tornet/1/shadow.data/hosts/markovclient125/markovclient125.tor.1000.stdout:Jan 01 00:26:05.158 [warn] Sending XOFF: 249164 249000
/shadow/cap1outbuf/17119/51397/tornet/1/shadow.data/hosts/markovclient125/markovclient125.tor.1000.stdout:Jan 01 00:27:09.886 [warn] Sending XOFF: 249338 249000
/shadow/cap1outbuf/17119/51397/tornet/1/shadow.data/hosts/markovclient125/markovclient125.tor.1000.stdout:Jan 01 00:27:14.331 [warn] Sending XOFF: 249380 249000
/shadow/cap1outbuf/17119/51397/tornet/1/shadow.data/hosts/markovclient125/markovclient125.tor.1000.stdout:Jan 01 00:27:36.755 [warn] Sending XOFF: 249400 249000
/shadow/cap1outbuf/17119/51397/tornet/1/shadow.data/hosts/markovclient125/markovclient125.tor.1000.stdout:Jan 01 00:27:49.508 [warn] Sending XOFF: 249400 249000
/shadow/cap1outbuf/17119/51397/tornet/1/shadow.data/hosts/markovclient125/markovclient125.tor.1000.stdout:Jan 01 00:28:18.620 [warn] Sending XOFF: 249380 249000
/shadow/cap1outbuf/17119/51397/tornet/1/shadow.data/hosts/markovclient125/markovclient125.tor.1000.stdout:Jan 01 00:28:36.531 [warn] Sending XOFF: 249400 249000
/shadow/cap1outbuf/17119/51397/tornet/1/shadow.data/hosts/markovclient125/markovclient125.tor.1000.stdout:Jan 01 00:28:40.023 [warn] Sending XOFF: 249400 249000
/shadow/cap1outbuf/17119/51397/tornet/1/shadow.data/hosts/markovclient125/markovclient125.tor.1000.stdout:Jan 01 00:28:47.027 [warn] Sending XOFF: 249400 249000
/shadow/cap1outbuf/17119/51397/tornet/1/shadow.data/hosts/markovclient125/markovclient125.tor.1000.stdout:Jan 01 00:28:50.296 [warn] Sending XOFF: 249400 249000
/shadow/cap1outbuf/17119/51397/tornet/1/shadow.data/hosts/markovclient125/markovclient125.tor.1000.stdout:Jan 01 00:29:10.319 [warn] Sending XOFF: 249050 249000
/shadow/cap1outbuf/17119/51397/tornet/1/shadow.data/hosts/markovclient125/markovclient125.tor.1000.stdout:Jan 01 00:29:21.830 [warn] Sending XOFF: 249288 249000
/shadow/cap1outbuf/17119/51397/tornet/1/shadow.data/hosts/markovclient125/markovclient125.tor.1000.stdout:Jan 01 00:29:35.572 [warn] Sending XOFF: 249367 249000
/shadow/cap1outbuf/17119/51397/tornet/1/shadow.data/hosts/markovclient125/markovclient125.tor.1000.stdout:Jan 01 00:30:00.134 [warn] Sending XOFF: 249488 249000
/shadow/cap1outbuf/17119/51397/tornet/1/shadow.data/hosts/markovclient125/markovclient125.tor.1000.stdout:Jan 01 00:30:13.278 [warn] Sending XOFF: 249320 249000
/shadow/cap1outbuf/17119/51397/tornet/1/shadow.data/hosts/markovclient125/markovclient125.tor.1000.stdout:Jan 01 00:30:29.001 [warn] Sending XOFF: 249050 249000
/shadow/cap1outbuf/17119/51397/tornet/1/shadow.data/hosts/markovclient125/markovclient125.tor.1000.stdout:Jan 01 00:30:31.634 [warn] Sending XOFF: 249308 249000
/shadow/cap1outbuf/17119/51397/tornet/1/shadow.data/hosts/markovclient125/markovclient125.tor.1000.stdout:Jan 01 00:30:49.769 [warn] Sending XOFF: 249284 249000
/shadow/cap1outbuf/17119/51397/tornet/1/shadow.data/hosts/markovclient152/markovclient152.tor.1000.stdout:Jan 01 00:24:25.970 [warn] Sending XOFF: 249400 249000
/shadow/cap1outbuf/17119/51397/tornet/1/shadow.data/hosts/markovclient152/markovclient152.tor.1000.stdout:Jan 01 00:24:26.478 [warn] Sending XOFF: 249400 249000
/shadow/cap1outbuf/17119/51397/tornet/1/shadow.data/hosts/markovclient152/markovclient152.tor.1000.stdout:Jan 01 00:25:28.372 [warn] Sending XOFF: 249164 249000
/shadow/cap1outbuf/17119/51397/tornet/1/shadow.data/hosts/markovclient152/markovclient152.tor.1000.stdout:Jan 01 00:25:46.783 [warn] Sending XOFF: 249462 249000
/shadow/cap1outbuf/17119/51397/tornet/1/shadow.data/hosts/markovclient152/markovclient152.tor.1000.stdout:Jan 01 00:27:00.319 [warn] Sending XOFF: 249400 249000
/shadow/cap1outbuf/17119/51397/tornet/1/shadow.data/hosts/markovclient152/markovclient152.tor.1000.stdout:Jan 01 00:27:00.966 [warn] Sending XOFF: 249206 249000
/shadow/cap1outbuf/17119/51397/tornet/1/shadow.data/hosts/markovclient152/markovclient152.tor.1000.stdout:Jan 01 00:28:45.017 [warn] Sending XOFF: 249362 249000
/shadow/cap1outbuf/17119/51397/tornet/1/shadow.data/hosts/markovclient152/markovclient152.tor.1000.stdout:Jan 01 00:29:02.567 [warn] Sending XOFF: 249400 249000
/shadow/cap1outbuf/17119/51397/tornet/1/shadow.data/hosts/markovclient152/markovclient152.tor.1000.stdout:Jan 01 00:29:14.291 [warn] Sending XOFF: 249400 249000
/shadow/cap1outbuf/17119/51397/tornet/1/shadow.data/hosts/markovclient152/markovclient152.tor.1000.stdout:Jan 01 00:29:38.936 [warn] Sending XOFF: 249400 249000
/shadow/cap1outbuf/17119/51397/tornet/1/shadow.data/hosts/markovclient152/markovclient152.tor.1000.stdout:Jan 01 00:29:44.014 [warn] Sending XOFF: 249400 249000
/shadow/cap1outbuf/17119/51397/tornet/1/shadow.data/hosts/markovclient152/markovclient152.tor.1000.stdout:Jan 01 00:29:59.222 [warn] Sending XOFF: 249400 249000
/shadow/cap1outbuf/17119/51397/tornet/1/shadow.data/hosts/markovclient152/markovclient152.tor.1000.stdout:Jan 01 00:30:03.567 [warn] Sending XOFF: 249400 249000
/shadow/cap1outbuf/17119/51397/tornet/1/shadow.data/hosts/markovclient152/markovclient152.tor.1000.stdout:Jan 01 00:30:09.270 [warn] Sending XOFF: 249380 249000
/shadow/cap1outbuf/17119/51397/tornet/1/shadow.data/hosts/markovclient152/markovclient152.tor.1000.stdout:Jan 01 00:30:34.058 [warn] Sending XOFF: 249400 249000
/shadow/cap1outbuf/17119/51397/tornet/1/shadow.data/hosts/markovclient152/markovclient152.tor.1000.stdout:Jan 01 00:30:40.432 [warn] Sending XOFF: 249400 249000
/shadow/cap1outbuf/17119/51397/tornet/1/shadow.data/hosts/markovclient152/markovclient152.tor.1000.stdout:Jan 01 00:30:54.320 [warn] Sending XOFF: 249241 249000
/shadow/cap1outbuf/17119/51397/tornet/1/shadow.data/hosts/markovclient381/markovclient381.tor.1000.stdout:Jan 01 00:18:34.283 [warn] Sending XOFF: 249138 249000
/shadow/cap1outbuf/17119/51397/tornet/1/shadow.data/hosts/markovclient381/markovclient381.tor.1000.stdout:Jan 01 00:19:45.108 [warn] Sending XOFF: 249235 249000
/shadow/cap1outbuf/17119/51397/tornet/1/shadow.data/hosts/markovclient381/markovclient381.tor.1000.stdout:Jan 01 00:21:19.831 [warn] Sending XOFF: 249074 249000
/shadow/cap1outbuf/17119/51397/tornet/1/shadow.data/hosts/markovclient381/markovclient381.tor.1000.stdout:Jan 01 00:21:41.474 [warn] Sending XOFF: 249380 249000
/shadow/cap1outbuf/17119/51397/tornet/1/shadow.data/hosts/markovclient381/markovclient381.tor.1000.stdout:Jan 01 00:21:43.841 [warn] Sending XOFF: 249008 249000
/shadow/cap1outbuf/17119/51397/tornet/1/shadow.data/hosts/markovclient381/markovclient381.tor.1000.stdout:Jan 01 00:22:26.525 [warn] Sending XOFF: 249400 249000
/shadow/cap1outbuf/17119/51397/tornet/1/shadow.data/hosts/markovclient381/markovclient381.tor.1000.stdout:Jan 01 00:23:23.905 [warn] Sending XOFF: 249362 249000
/shadow/cap1outbuf/17119/51397/tornet/1/shadow.data/hosts/markovclient381/markovclient381.tor.1000.stdout:Jan 01 00:23:43.834 [warn] Sending XOFF: 249400 249000
/shadow/cap1outbuf/17119/51397/tornet/1/shadow.data/hosts/markovclient381/markovclient381.tor.1000.stdout:Jan 01 00:23:52.406 [warn] Sending XOFF: 249400 249000
/shadow/cap1outbuf/17119/51397/tornet/1/shadow.data/hosts/markovclient381/markovclient381.tor.1000.stdout:Jan 01 00:23:53.335 [warn] Sending XOFF: 249400 249000
/shadow/cap1outbuf/17119/51397/tornet/1/shadow.data/hosts/markovclient381/markovclient381.tor.1000.stdout:Jan 01 00:23:54.584 [warn] Sending XOFF: 249400 249000
/shadow/cap1outbuf/17119/51397/tornet/1/shadow.data/hosts/markovclient381/markovclient381.tor.1000.stdout:Jan 01 00:23:57.846 [warn] Sending XOFF: 249410 249000
/shadow/cap1outbuf/17119/51397/tornet/1/shadow.data/hosts/markovclient381/markovclient381.tor.1000.stdout:Jan 01 00:24:12.317 [warn] Sending XOFF: 249380 249000
/shadow/cap1outbuf/17119/51397/tornet/1/shadow.data/hosts/markovclient381/markovclient381.tor.1000.stdout:Jan 01 00:24:14.083 [warn] Sending XOFF: 249350 249000
/shadow/cap1outbuf/17119/51397/tornet/1/shadow.data/hosts/markovclient381/markovclient381.tor.1000.stdout:Jan 01 00:24:31.020 [warn] Sending XOFF: 249314 249000
/shadow/cap1outbuf/17119/51397/tornet/1/shadow.data/hosts/markovclient381/markovclient381.tor.1000.stdout:Jan 01 00:24:37.738 [warn] Sending XOFF: 249373 249000
/shadow/cap1outbuf/17119/51397/tornet/1/shadow.data/hosts/markovclient381/markovclient381.tor.1000.stdout:Jan 01 00:24:39.171 [warn] Sending XOFF: 249248 249000
/shadow/cap1outbuf/17119/51397/tornet/1/shadow.data/hosts/markovclient381/markovclient381.tor.1000.stdout:Jan 01 00:24:59.761 [warn] Sending XOFF: 249164 249000
/shadow/cap1outbuf/17119/51397/tornet/1/shadow.data/hosts/markovclient381/markovclient381.tor.1000.stdout:Jan 01 00:25:01.731 [warn] Sending XOFF: 249400 249000
/shadow/cap1outbuf/17119/51397/tornet/1/shadow.data/hosts/markovclient381/markovclient381.tor.1000.stdout:Jan 01 00:25:15.914 [warn] Sending XOFF: 249216 249000
/shadow/cap1outbuf/17119/51397/tornet/1/shadow.data/hosts/markovclient381/markovclient381.tor.1000.stdout:Jan 01 00:25:18.828 [warn] Sending XOFF: 249400 249000
/shadow/cap1outbuf/17119/51397/tornet/1/shadow.data/hosts/markovclient381/markovclient381.tor.1000.stdout:Jan 01 00:25:18.971 [warn] Sending XOFF: 249400 249000
/shadow/cap1outbuf/17119/51397/tornet/1/shadow.data/hosts/markovclient381/markovclient381.tor.1000.stdout:Jan 01 00:25:28.786 [warn] Sending XOFF: 249380 249000
/shadow/cap1outbuf/17119/51397/tornet/1/shadow.data/hosts/markovclient381/markovclient381.tor.1000.stdout:Jan 01 00:25:35.639 [warn] Sending XOFF: 249134 249000
/shadow/cap1outbuf/17119/51397/tornet/1/shadow.data/hosts/markovclient381/markovclient381.tor.1000.stdout:Jan 01 00:25:52.851 [warn] Sending XOFF: 249400 249000
/shadow/cap1outbuf/17119/51397/tornet/1/shadow.data/hosts/markovclient381/markovclient381.tor.1000.stdout:Jan 01 00:26:14.112 [warn] Sending XOFF: 249236 249000
/shadow/cap1outbuf/17119/51397/tornet/1/shadow.data/hosts/markovclient381/markovclient381.tor.1000.stdout:Jan 01 00:26:18.152 [warn] Sending XOFF: 249400 249000
/shadow/cap1outbuf/17119/51397/tornet/1/shadow.data/hosts/markovclient381/markovclient381.tor.1000.stdout:Jan 01 00:27:00.870 [warn] Sending XOFF: 249400 249000
/shadow/cap1outbuf/17119/51397/tornet/1/shadow.data/hosts/markovclient381/markovclient381.tor.1000.stdout:Jan 01 00:27:07.277 [warn] Sending XOFF: 249400 249000
/shadow/cap1outbuf/17119/51397/tornet/1/shadow.data/hosts/markovclient381/markovclient381.tor.1000.stdout:Jan 01 00:27:20.614 [warn] Sending XOFF: 249176 249000
/shadow/cap1outbuf/17119/51397/tornet/1/shadow.data/hosts/markovclient381/markovclient381.tor.1000.stdout:Jan 01 00:27:51.775 [warn] Sending XOFF: 249050 249000
/shadow/cap1outbuf/17119/51397/tornet/1/shadow.data/hosts/markovclient381/markovclient381.tor.1000.stdout:Jan 01 00:28:04.596 [warn] Sending XOFF: 249236 249000
/shadow/cap1outbuf/17119/51397/tornet/1/shadow.data/hosts/markovclient381/markovclient381.tor.1000.stdout:Jan 01 00:28:09.278 [warn] Sending XOFF: 249380 249000
/shadow/cap1outbuf/17119/51397/tornet/1/shadow.data/hosts/markovclient381/markovclient381.tor.1000.stdout:Jan 01 00:28:10.699 [warn] Sending XOFF: 249236 249000
/shadow/cap1outbuf/17119/51397/tornet/1/shadow.data/hosts/markovclient381/markovclient381.tor.1000.stdout:Jan 01 00:28:27.422 [warn] Sending XOFF: 249400 249000
/shadow/cap1outbuf/17119/51397/tornet/1/shadow.data/hosts/markovclient381/markovclient381.tor.1000.stdout:Jan 01 00:28:31.173 [warn] Sending XOFF: 249236 249000
/shadow/cap1outbuf/17119/51397/tornet/1/shadow.data/hosts/markovclient381/markovclient381.tor.1000.stdout:Jan 01 00:28:42.629 [warn] Sending XOFF: 249428 249000
/shadow/cap1outbuf/17119/51397/tornet/1/shadow.data/hosts/markovclient381/markovclient381.tor.1000.stdout:Jan 01 00:28:46.364 [warn] Sending XOFF: 249460 249000
/shadow/cap1outbuf/17119/51397/tornet/1/shadow.data/hosts/markovclient381/markovclient381.tor.1000.stdout:Jan 01 00:28:53.876 [warn] Sending XOFF: 249470 249000
/shadow/cap1outbuf/17119/51397/tornet/1/shadow.data/hosts/markovclient381/markovclient381.tor.1000.stdout:Jan 01 00:28:59.345 [warn] Sending XOFF: 249380 249000
/shadow/cap1outbuf/17119/51397/tornet/1/shadow.data/hosts/markovclient381/markovclient381.tor.1000.stdout:Jan 01 00:29:11.584 [warn] Sending XOFF: 249380 249000
/shadow/cap1outbuf/17119/51397/tornet/1/shadow.data/hosts/markovclient381/markovclient381.tor.1000.stdout:Jan 01 00:29:22.892 [warn] Sending XOFF: 249400 249000
/shadow/cap1outbuf/17119/51397/tornet/1/shadow.data/hosts/markovclient381/markovclient381.tor.1000.stdout:Jan 01 00:29:23.883 [warn] Sending XOFF: 249236 249000
/shadow/cap1outbuf/17119/51397/tornet/1/shadow.data/hosts/markovclient381/markovclient381.tor.1000.stdout:Jan 01 00:29:42.136 [warn] Sending XOFF: 249400 249000
/shadow/cap1outbuf/17119/51397/tornet/1/shadow.data/hosts/markovclient381/markovclient381.tor.1000.stdout:Jan 01 00:29:55.827 [warn] Sending XOFF: 249494 249000
/shadow/cap1outbuf/17119/51397/tornet/1/shadow.data/hosts/markovclient381/markovclient381.tor.1000.stdout:Jan 01 00:30:02.869 [warn] Sending XOFF: 249026 249000
/shadow/cap1outbuf/17119/51397/tornet/1/shadow.data/hosts/markovclient381/markovclient381.tor.1000.stdout:Jan 01 00:30:03.565 [warn] Sending XOFF: 249116 249000
/shadow/cap1outbuf/17119/51397/tornet/1/shadow.data/hosts/markovclient381/markovclient381.tor.1000.stdout:Jan 01 00:30:23.753 [warn] Sending XOFF: 249446 249000
/shadow/cap1outbuf/17119/51397/tornet/1/shadow.data/hosts/markovclient381/markovclient381.tor.1000.stdout:Jan 01 00:30:26.127 [warn] Sending XOFF: 249400 249000
/shadow/cap1outbuf/17119/51397/tornet/1/shadow.data/hosts/markovclient381/markovclient381.tor.1000.stdout:Jan 01 00:30:35.363 [warn] Sending XOFF: 249050 249000
/shadow/cap1outbuf/17119/51397/tornet/1/shadow.data/hosts/markovclient381/markovclient381.tor.1000.stdout:Jan 01 00:30:46.584 [warn] Sending XOFF: 249400 249000
/shadow/cap1outbuf/17119/51397/tornet/1/shadow.data/hosts/markovclient381/markovclient381.tor.1000.stdout:Jan 01 00:30:47.246 [warn] Sending XOFF: 249400 249000
/shadow/cap1outbuf/17119/51397/tornet/1/shadow.data/hosts/markovclient381/markovclient381.tor.1000.stdout:Jan 01 00:30:48.790 [warn] Sending XOFF: 249016 249000
/shadow/cap1outbuf/17119/51397/tornet/1/shadow.data/hosts/markovclient381/markovclient381.tor.1000.stdout:Jan 01 00:30:48.960 [warn] Sending XOFF: 249474 249000
/shadow/cap1outbuf/17119/51397/tornet/1/shadow.data/hosts/markovclient28/markovclient28.tor.1000.stdout:Jan 01 00:11:18.510 [warn] Got XOFF!
/shadow/cap1outbuf/17119/51397/tornet/1/shadow.data/hosts/markovclient28/markovclient28.tor.1000.stdout:Jan 01 00:11:18.510 [notice] Request to start reading on an edgeconn blocked with XOFF
/shadow/cap1outbuf/17119/51397/tornet/1/shadow.data/hosts/markovclient28/markovclient28.tor.1000.stdout:Jan 01 00:11:18.898 [warn] Got XON: 457
/shadow/cap1outbuf/17119/51397/tornet/1/shadow.data/hosts/markovclient287/markovclient287.tor.1000.stdout:Jan 01 00:28:54.044 [warn] Sending XOFF: 249400 249000
/shadow/cap1outbuf/17119/51397/tornet/1/shadow.data/hosts/markovclient287/markovclient287.tor.1000.stdout:Jan 01 00:29:31.409 [warn] Sending XOFF: 249400 249000
/shadow/cap1outbuf/17119/51397/tornet/1/shadow.data/hosts/markovclient287/markovclient287.tor.1000.stdout:Jan 01 00:30:09.734 [warn] Sending XOFF: 249400 249000
/shadow/cap1outbuf/17119/51397/tornet/1/shadow.data/hosts/markovclient287/markovclient287.tor.1000.stdout:Jan 01 00:30:44.741 [warn] Sending XOFF: 249400 249000
/shadow/cap1outbuf/17119/51397/tornet/1/shadow.data/hosts/markovclient737/markovclient737.tor.1000.stdout:Jan 01 00:16:41.971 [warn] Sending XOFF: 249400 249000
/shadow/cap1outbuf/17119/51397/tornet/1/shadow.data/hosts/markovclient737/markovclient737.tor.1000.stdout:Jan 01 00:17:20.896 [warn] Sending XOFF: 249380 249000
/shadow/cap1outbuf/17119/51397/tornet/1/shadow.data/hosts/markovclient737/markovclient737.tor.1000.stdout:Jan 01 00:17:50.201 [warn] Sending XOFF: 249400 249000
/shadow/cap1outbuf/17119/51397/tornet/1/shadow.data/hosts/markovclient737/markovclient737.tor.1000.stdout:Jan 01 00:17:53.533 [warn] Sending XOFF: 249400 249000
/shadow/cap1outbuf/17119/51397/tornet/1/shadow.data/hosts/markovclient737/markovclient737.tor.1000.stdout:Jan 01 00:18:04.064 [warn] Sending XOFF: 249400 249000
/shadow/cap1outbuf/17119/51397/tornet/1/shadow.data/hosts/markovclient737/markovclient737.tor.1000.stdout:Jan 01 00:18:27.563 [warn] Sending XOFF: 249073 249000
/shadow/cap1outbuf/17119/51397/tornet/1/shadow.data/hosts/markovclient737/markovclient737.tor.1000.stdout:Jan 01 00:24:45.649 [warn] Sending XOFF: 249400 249000
/shadow/cap1outbuf/17119/51397/tornet/1/shadow.data/hosts/markovclient737/markovclient737.tor.1000.stdout:Jan 01 00:24:46.648 [warn] Sending XOFF: 249380 249000
/shadow/cap1outbuf/17119/51397/tornet/1/shadow.data/hosts/markovclient737/markovclient737.tor.1000.stdout:Jan 01 00:26:03.933 [warn] Sending XOFF: 249290 249000
/shadow/cap1outbuf/17119/51397/tornet/1/shadow.data/hosts/markovclient737/markovclient737.tor.1000.stdout:Jan 01 00:28:57.757 [warn] Sending XOFF: 249400 249000
/shadow/cap1outbuf/17119/51397/tornet/1/shadow.data/hosts/markovclient737/markovclient737.tor.1000.stdout:Jan 01 00:29:31.151 [warn] Sending XOFF: 249400 249000
/shadow/cap1outbuf/17119/51397/tornet/1/shadow.data/hosts/markovclient605/markovclient605.tor.1000.stdout:Jan 01 00:26:14.944 [warn] Sending XOFF: 249014 249000
/shadow/cap1outbuf/17119/51397/tornet/1/shadow.data/hosts/markovclient605/markovclient605.tor.1000.stdout:Jan 01 00:27:58.417 [warn] Sending XOFF: 249050 249000
/shadow/cap1outbuf/17119/51397/tornet/1/shadow.data/hosts/markovclient605/markovclient605.tor.1000.stdout:Jan 01 00:29:40.889 [warn] Sending XOFF: 249380 249000
Jan 01 00:27:07.534 [warn] Got XOFF!
Jan 01 00:28:59.686 [warn] Got XOFF!
Jan 01 00:29:21.770 [warn] Got XOFF!
Jan 01 00:29:25.027 [notice] Request to start reading on an edgeconn blocked with XOFF
Jan 01 00:29:25.881 [notice] Request to start reading on an edgeconn blocked with XOFF
Jan 01 00:30:16.432 [warn] Got XOFF!
Jan 01 00:21:53.864 [warn] Got XOFF!
Jan 01 00:22:23.973 [warn] Got XOFF!
Jan 01 00:26:02.074 [warn] Got XOFF!
Jan 01 00:27:26.978 [warn] Got XOFF!
Jan 01 00:27:27.396 [warn] Got XOFF!
Jan 01 00:28:48.550 [warn] Got XOFF!
Jan 01 00:29:31.821 [warn] Got XOFF!
Jan 01 00:29:19.818 [warn] Got XOFF!
Jan 01 00:30:26.508 [warn] Got XOFF!
Jan 01 00:21:48.374 [warn] Got XOFF!
Jan 01 00:22:37.857 [warn] Got XOFF!
Jan 01 00:23:57.442 [warn] Got XOFF!
Jan 01 00:25:22.247 [warn] Got XOFF!
Jan 01 00:25:39.094 [notice] Request to start reading on an edgeconn blocked with XOFF
Jan 01 00:25:39.288 [notice] Request to start reading on an edgeconn blocked with XOFF
Jan 01 00:25:39.298 [notice] Request to start reading on an edgeconn blocked with XOFF
Jan 01 00:25:39.481 [notice] Request to start reading on an edgeconn blocked with XOFF
Jan 01 00:25:39.491 [notice] Request to start reading on an edgeconn blocked with XOFF
Jan 01 00:25:39.501 [notice] Request to start reading on an edgeconn blocked with XOFF
Jan 01 00:25:39.511 [notice] Request to start reading on an edgeconn blocked with XOFF
Jan 01 00:27:19.612 [notice] Request to start reading on an edgeconn blocked with XOFF
Jan 01 00:29:11.570 [notice] Request to start reading on an edgeconn blocked with XOFF
Jan 01 00:29:11.619 [notice] Request to start reading on an edgeconn blocked with XOFF
Jan 01 00:29:11.629 [notice] Request to start reading on an edgeconn blocked with XOFF
Jan 01 00:29:11.658 [notice] Request to start reading on an edgeconn blocked with XOFF
Jan 01 00:29:11.667 [notice] Request to start reading on an edgeconn blocked with XOFF
Jan 01 00:30:06.898 [notice] Request to start reading on an edgeconn blocked with XOFF
Jan 01 00:30:06.937 [notice] Request to start reading on an edgeconn blocked with XOFF
Jan 01 00:30:06.946 [notice] Request to start reading on an edgeconn blocked with XOFF
Jan 01 00:30:07.903 [notice] Request to start reading on an edgeconn blocked with XOFF
Jan 01 00:30:07.913 [notice] Request to start reading on an edgeconn blocked with XOFF
Jan 01 00:30:16.884 [warn] Got XOFF!
Jan 01 00:30:08.946 [warn] Got XOFF!
Jan 01 00:23:13.775 [warn] Got XOFF!
Jan 01 00:22:19.503 [warn] Got XOFF!
Jan 01 00:24:42.224 [warn] Got XOFF!
Jan 01 00:24:22.799 [warn] Got XOFF!
Jan 01 00:24:36.947 [warn] Got XOFF!
Jan 01 00:27:06.117 [warn] Got XOFF!
Jan 01 00:29:04.060 [warn] Got XOFF!
Jan 01 00:30:42.209 [warn] Got XOFF!
Jan 01 00:23:59.470 [warn] Got XOFF!
Jan 01 00:26:13.630 [warn] Got XOFF!
Jan 01 00:27:50.428 [warn] Got XOFF!
Jan 01 00:27:53.308 [warn] Got XOFF!
Jan 01 00:29:29.255 [warn] Got XOFF!
Jan 01 00:29:49.448 [warn] Got XOFF!
Jan 01 00:30:35.412 [notice] Request to start reading on an edgeconn blocked with XOFF
Jan 01 00:30:35.412 [notice] Request to start reading on an edgeconn blocked with XOFF
Jan 01 00:30:46.234 [notice] Request to start reading on an edgeconn blocked with XOFF
Jan 01 00:30:46.234 [notice] Request to start reading on an edgeconn blocked with XOFF
Jan 01 00:30:46.244 [notice] Request to start reading on an edgeconn blocked with XOFF
Jan 01 00:30:46.244 [notice] Request to start reading on an edgeconn blocked with XOFF
Jan 01 00:30:46.659 [notice] Request to start reading on an edgeconn blocked with XOFF
Jan 01 00:30:46.659 [notice] Request to start reading on an edgeconn blocked with XOFF
Jan 01 00:30:46.724 [notice] Request to start reading on an edgeconn blocked with XOFF
Jan 01 00:30:46.724 [notice] Request to start reading on an edgeconn blocked with XOFF
Jan 01 00:27:00.947 [warn] Got XOFF!
Jan 01 00:29:38.736 [warn] Got XOFF!
Jan 01 00:30:49.812 [warn] Got XOFF!
Jan 01 00:30:24.245 [warn] Got XOFF!
Jan 01 00:28:07.984 [warn] Got XOFF!
Jan 01 00:30:42.911 [warn] Got XOFF!
Jan 01 00:28:58.475 [warn] Got XOFF!
Jan 01 00:29:05.441 [warn] Got XOFF!
Jan 01 00:26:29.344 [warn] Got XOFF!
Jan 01 00:30:04.432 [warn] Got XOFF!
Jan 01 00:30:22.754 [warn] Got XOFF!
Jan 01 00:29:44.912 [warn] Got XOFF!
Jan 01 00:27:45.442 [warn] Got XOFF!
Jan 01 00:24:23.359 [warn] Got XOFF!
Jan 01 00:30:25.250 [warn] Got XOFF!
Jan 01 00:27:56.170 [warn] Got XOFF!
Jan 01 00:30:49.743 [warn] Got XOFF!
Jan 01 00:17:00.250 [warn] Got XOFF!
Jan 01 00:18:43.364 [warn] Got XOFF!
Jan 01 00:20:05.501 [warn] Got XOFF!
Jan 01 00:20:05.778 [notice] Request to start reading on an edgeconn blocked with XOFF
Jan 01 00:20:11.965 [notice] Request to start reading on an edgeconn blocked with XOFF
Jan 01 00:20:11.975 [notice] Request to start reading on an edgeconn blocked with XOFF
Jan 01 00:20:11.985 [notice] Request to start reading on an edgeconn blocked with XOFF
Jan 01 00:20:11.995 [notice] Request to start reading on an edgeconn blocked with XOFF
Jan 01 00:20:12.033 [notice] Request to start reading on an edgeconn blocked with XOFF
Jan 01 00:20:12.043 [notice] Request to start reading on an edgeconn blocked with XOFF
Jan 01 00:21:34.396 [warn] Got XOFF!
Jan 01 00:23:52.222 [warn] Got XOFF!
Jan 01 00:24:04.758 [warn] Got XOFF!
Jan 01 00:24:31.111 [warn] Got XOFF!
Jan 01 00:25:34.618 [warn] Got XOFF!
Jan 01 00:25:37.026 [warn] Got XOFF!
Jan 01 00:28:08.512 [warn] Got XOFF!
Jan 01 00:28:50.112 [warn] Got XOFF!
Jan 01 00:29:35.587 [warn] Got XOFF!
Jan 01 00:30:47.230 [notice] Request to start reading on an edgeconn blocked with XOFF
Jan 01 00:20:51.805 [warn] Got XOFF!
Jan 01 00:30:46.723 [warn] Got XOFF!
Jan 01 00:23:56.334 [warn] Got XOFF!
Jan 01 00:25:15.206 [warn] Got XOFF!
Jan 01 00:25:46.109 [notice] Request to start reading on an edgeconn blocked with XOFF
Jan 01 00:25:21.590 [warn] Got XOFF!
Jan 01 00:25:56.473 [warn] Got XOFF!
Jan 01 00:26:07.705 [warn] Got XOFF!
Jan 01 00:26:36.051 [warn] Got XOFF!
Jan 01 00:28:42.024 [warn] Got XOFF!
Jan 01 00:28:42.838 [warn] Got XOFF!
Jan 01 00:30:15.782 [warn] Got XOFF!
Jan 01 00:29:43.058 [warn] Got XOFF!
Jan 01 00:25:11.657 [warn] Got XOFF!
Jan 01 00:30:32.394 [warn] Got XOFF!
Jan 01 00:30:33.490 [notice] Request to start reading on an edgeconn blocked with XOFF
Jan 01 00:28:23.926 [warn] Got XOFF!
Jan 01 00:29:19.853 [warn] Got XOFF!
Jan 01 00:26:32.782 [warn] Got XOFF!
Jan 01 00:28:08.857 [warn] Got XOFF!
Jan 01 00:26:41.102 [warn] Got XOFF!
Jan 01 00:28:13.883 [warn] Got XOFF!
Jan 01 00:24:40.132 [warn] Got XOFF!
Jan 01 00:25:18.198 [warn] Got XOFF!
Jan 01 00:27:41.092 [warn] Got XOFF!
Jan 01 00:28:22.410 [warn] Got XOFF!
Jan 01 00:28:52.408 [warn] Got XOFF!
Jan 01 00:29:07.479 [warn] Got XOFF!
Jan 01 00:29:31.623 [notice] Request to start reading on an edgeconn blocked with XOFF
Jan 01 00:29:42.559 [notice] Request to start reading on an edgeconn blocked with XOFF
Jan 01 00:29:50.957 [warn] Got XOFF!
Jan 01 00:29:51.952 [warn] Got XOFF!
Jan 01 00:18:53.952 [warn] Got XOFF!
Jan 01 00:28:04.247 [warn] Got XOFF!
Jan 01 00:19:27.645 [warn] Got XOFF!
Jan 01 00:29:49.319 [warn] Got XOFF!
Jan 01 00:29:54.261 [notice] Request to start reading on an edgeconn blocked with XOFF
Jan 01 00:29:54.666 [notice] Request to start reading on an edgeconn blocked with XOFF
Jan 01 00:30:07.858 [notice] Request to start reading on an edgeconn blocked with XOFF
Jan 01 00:30:17.796 [notice] Request to start reading on an edgeconn blocked with XOFF
Jan 01 00:28:20.398 [warn] Got XOFF!
Jan 01 00:21:33.734 [warn] Got XOFF!
Jan 01 00:23:38.141 [warn] Got XOFF!
Jan 01 00:24:48.633 [warn] Got XOFF!
Jan 01 00:25:11.403 [warn] Got XOFF!
Jan 01 00:25:43.897 [warn] Got XOFF!
Jan 01 00:27:55.927 [warn] Got XOFF!
Jan 01 00:28:16.701 [warn] Got XOFF!
Jan 01 00:28:52.182 [warn] Got XOFF!
Jan 01 00:29:12.342 [warn] Got XOFF!
Jan 01 00:30:24.370 [warn] Got XOFF!
Jan 01 00:30:25.300 [warn] Got XOFF!
Jan 01 00:25:33.139 [warn] Got XOFF!
Jan 01 00:26:01.043 [warn] Got XOFF!
Jan 01 00:23:23.604 [warn] Got XOFF!
Jan 01 00:24:34.982 [warn] Got XOFF!
Jan 01 00:26:03.127 [warn] Got XOFF!
Jan 01 00:28:03.423 [warn] Got XOFF!
Jan 01 00:28:04.044 [notice] Request to start reading on an edgeconn blocked with XOFF
Jan 01 00:28:04.226 [notice] Request to start reading on an edgeconn blocked with XOFF
Jan 01 00:29:44.181 [warn] Got XOFF!
Jan 01 00:30:51.250 [warn] Got XOFF!
Jan 01 00:29:54.722 [warn] Got XOFF!
Jan 01 00:29:03.736 [warn] Got XOFF!
Jan 01 00:29:53.871 [warn] Got XOFF!
Jan 01 00:18:32.171 [warn] Got XOFF!
Jan 01 00:28:58.027 [warn] Got XOFF!
Jan 01 00:28:56.907 [warn] Got XOFF!
Jan 01 00:25:35.428 [warn] Got XOFF!
Jan 01 00:25:42.970 [warn] Got XOFF!
Jan 01 00:26:32.273 [warn] Got XOFF!
Jan 01 00:29:25.568 [warn] Got XOFF!
Jan 01 00:30:47.436 [warn] Got XOFF!
Jan 01 00:25:31.790 [warn] Got XOFF!
Jan 01 00:19:40.705 [warn] Got XOFF!
Jan 01 00:28:29.675 [warn] Got XOFF!
Jan 01 00:29:37.589 [notice] Request to start reading on an edgeconn blocked with XOFF
Jan 01 00:29:37.719 [notice] Request to start reading on an edgeconn blocked with XOFF
Jan 01 00:30:16.405 [warn] Got XOFF!
Jan 01 00:30:26.850 [notice] Request to start reading on an edgeconn blocked with XOFF
Jan 01 00:30:37.108 [warn] Got XOFF!
Jan 01 00:11:18.430 [warn] Sending XOFF: 249248 249000
Jan 01 00:11:18.711 [warn] Sending XON: 0 457 0
Jan 01 00:28:10.411 [warn] Got XOFF!
Jan 01 00:30:11.156 [warn] Got XOFF!
Jan 01 00:29:03.104 [warn] Got XOFF!
Jan 01 00:30:42.913 [warn] Got XOFF!
Jan 01 00:26:24.513 [warn] Got XOFF!
Jan 01 00:24:23.969 [warn] Got XOFF!
Jan 01 00:25:35.326 [warn] Got XOFF!
Jan 01 00:26:25.797 [warn] Got XOFF!
Jan 01 00:26:33.738 [notice] Request to start reading on an edgeconn blocked with XOFF
Jan 01 00:26:34.645 [notice] Request to start reading on an edgeconn blocked with XOFF
Jan 01 00:26:51.961 [notice] Request to start reading on an edgeconn blocked with XOFF
Jan 01 00:26:53.301 [notice] Request to start reading on an edgeconn blocked with XOFF
Jan 01 00:29:16.710 [warn] Got XOFF!
Jan 01 00:30:24.248 [warn] Got XOFF!
Jan 01 00:30:49.373 [warn] Got XOFF!
Jan 01 00:18:14.360 [warn] Got XOFF!
Jan 01 00:23:57.776 [warn] Got XOFF!
Jan 01 00:24:20.695 [warn] Got XOFF!
Jan 01 00:26:08.682 [warn] Got XOFF!
Jan 01 00:30:04.981 [warn] Got XOFF!
Jan 01 00:30:14.690 [warn] Got XOFF!
Jan 01 00:30:55.126 [notice] Request to start reading on an edgeconn blocked with XOFF
Jan 01 00:30:55.184 [notice] Request to start reading on an edgeconn blocked with XOFF
Jan 01 00:30:55.193 [notice] Request to start reading on an edgeconn blocked with XOFF
Jan 01 00:30:55.203 [notice] Request to start reading on an edgeconn blocked with XOFF
Jan 01 00:30:55.233 [notice] Request to start reading on an edgeconn blocked with XOFF
Jan 01 00:30:55.243 [notice] Request to start reading on an edgeconn blocked with XOFF
Jan 01 00:26:06.668 [warn] Got XOFF!
Jan 01 00:28:52.440 [warn] Got XOFF!
Jan 01 00:28:35.104 [warn] Got XOFF!
Jan 01 00:28:36.960 [warn] Got XOFF!
Jan 01 00:26:08.146 [warn] Got XOFF!
Jan 01 00:27:14.029 [warn] Got XOFF!
Jan 01 00:27:45.031 [notice] Request to start reading on an edgeconn blocked with XOFF
Jan 01 00:27:45.102 [notice] Request to start reading on an edgeconn blocked with XOFF
Jan 01 00:27:45.162 [notice] Request to start reading on an edgeconn blocked with XOFF
Jan 01 00:28:47.867 [warn] Got XOFF!
Jan 01 00:30:16.565 [warn] Got XOFF!
