{
  "1200": 3743664841,
  "1201": 3743955759,
  "1202": 3747632684,
  "1203": 3745811646,
  "1204": 3700274500,
  "1205": 3680926776,
  "1206": 3659821540,
  "1207": 3623648943,
  "1208": 3638046582,
  "1209": 3686170745,
  "1210": 3670811672,
  "1211": 3653592903,
  "1212": 3688687885,
  "1213": 3658262441,
  "1214": 3624925270,
  "1215": 3655208751,
  "1216": 3678337306,
  "1217": 3710791703,
  "1218": 3720591834,
  "1219": 3693425351,
  "1220": 3724858698,
  "1221": 3663217888,
  "1222": 3667367539,
  "1223": 3716963092,
  "1224": 3698800273,
  "1225": 3702693083,
  "1226": 3680065007,
  "1227": 3702746305,
  "1228": 3676908088,
  "1229": 3651198020,
  "1230": 3629767169,
  "1231": 3736145118,
  "1232": 3691754799,
  "1233": 3683770739,
  "1234": 3670167967,
  "1235": 3724373836,
  "1236": 3789050699,
  "1237": 3738835336,
  "1238": 3714992247,
  "1239": 3689411239,
  "1240": 3692818055,
  "1241": 3738738565,
  "1242": 3697657318,
  "1243": 3696106382,
  "1244": 3755336714,
  "1245": 3771053814,
  "1246": 3787545348,
  "1247": 3742414954,
  "1248": 3720173673,
  "1249": 3786237765,
  "1250": 3729003671,
  "1251": 3674490504,
  "1252": 3678695560,
  "1253": 3706584117,
  "1254": 3766649702,
  "1255": 3768910515,
  "1256": 3713064383,
  "1257": 3666288973,
  "1258": 3727626626,
  "1259": 3735943276,
  "1260": 3787782298,
  "1261": 3746198210,
  "1262": 3751047481,
  "1263": 3702929506,
  "1264": 3730803305,
  "1265": 3701093852,
  "1266": 3735016801,
  "1267": 3739951942,
  "1268": 3671713194,
  "1269": 3720785359,
  "1270": 3757071605,
  "1271": 3751422031,
  "1272": 3699560947,
  "1273": 3710027024,
  "1274": 3698201760,
  "1275": 3753277841,
  "1276": 3753296732,
  "1277": 3737574666,
  "1278": 3694149637,
  "1279": 3676309948,
  "1280": 3759448085,
  "1281": 3753713472,
  "1282": 3728270011,
  "1283": 3728718373,
  "1284": 3783628589,
  "1285": 3713679265,
  "1286": 3736334466,
  "1287": 3675987026,
  "1288": 3658159611,
  "1289": 3687896746,
  "1290": 3685502812,
  "1291": 3678539769,
  "1292": 3731095477,
  "1293": 3740306047,
  "1294": 3672802605,
  "1295": 3732350131,
  "1296": 3736447673,
  "1297": 3714836225,
  "1298": 3719557748,
  "1299": 3759880845,
  "1300": 3715984926,
  "1301": 3776847046,
  "1302": 3785485509,
  "1303": 3746897636,
  "1304": 3723953245,
  "1305": 3715211389,
  "1306": 3713203907,
  "1307": 3698434983,
  "1308": 3673894375,
  "1309": 3731901881,
  "1310": 3729906552,
  "1311": 3747979270,
  "1312": 3756497062,
  "1313": 3767306751,
  "1314": 3757637977,
  "1315": 3734190215,
  "1316": 3731449737,
  "1317": 3788887027,
  "1318": 3823914157,
  "1319": 3776078655,
  "1320": 3812005582,
  "1321": 3715888828,
  "1322": 3717041276,
  "1323": 3730261840,
  "1324": 3751329247,
  "1325": 3738001713,
  "1326": 3757522131,
  "1327": 3786972563,
  "1328": 3784731050,
  "1329": 3778296121,
  "1330": 3769751773,
  "1331": 3751124368,
  "1332": 3749064010,
  "1333": 3721894627,
  "1334": 3817018240,
  "1335": 3767963777,
  "1336": 3774228525,
  "1337": 3761607629,
  "1338": 3805499930,
  "1339": 3808571893,
  "1340": 3858742056,
  "1341": 3722122151,
  "1342": 3722601528,
  "1343": 3745314763,
  "1344": 3760797732,
  "1345": 3721180341,
  "1346": 3738150138,
  "1347": 3762626036,
  "1348": 3763952245,
  "1349": 3809031686,
  "1350": 3803396830,
  "1351": 3752577655,
  "1352": 3771563645,
  "1353": 3777697165,
  "1354": 3830315966,
  "1355": 3824246139,
  "1356": 3786542900,
  "1357": 3778288671,
  "1358": 3745103433,
  "1359": 3732490772,
  "1360": 3749309690,
  "1361": 3720669511,
  "1362": 3743614413,
  "1363": 3791912769,
  "1364": 3768277680,
  "1365": 3768022510,
  "1366": 3718530637,
  "1367": 3710310963,
  "1368": 3724992716,
  "1369": 3723990538,
  "1370": 3725826846,
  "1371": 3733008417,
  "1372": 3757681658,
  "1373": 3792470866,
  "1374": 3758416582,
  "1375": 3732279083,
  "1376": 3726496330,
  "1377": 3718089820,
  "1378": 3754043000,
  "1379": 3729396511,
  "1380": 3751410665,
  "1381": 3773012162,
  "1382": 3804955450,
  "1383": 3807954469,
  "1384": 3782063508,
  "1385": 3704340798,
  "1386": 3777587470,
  "1387": 3790583716,
  "1388": 3801113031,
  "1389": 3784933499,
  "1390": 3752725114,
  "1391": 3735358087,
  "1392": 3742246690,
  "1393": 3741259033,
  "1394": 3767689726,
  "1395": 3739359250,
  "1396": 3685157158,
  "1397": 3762949286,
  "1398": 3741154133,
  "1399": 3706662870,
  "1400": 3769466449,
  "1401": 3722623763,
  "1402": 3715533717,
  "1403": 3719309143,
  "1404": 3706435122,
  "1405": 3732804246,
  "1406": 3640713286,
  "1407": 3660408611,
  "1408": 3748981562,
  "1409": 3711964324,
  "1410": 3717262124,
  "1411": 3739259733,
  "1412": 3704702829,
  "1413": 3683830391,
  "1414": 3712558953,
  "1415": 3677003169,
  "1416": 3765521711,
  "1417": 3753787903,
  "1418": 3729061765,
  "1419": 3735857247,
  "1420": 3701230643,
  "1421": 3792211239,
  "1422": 3770167699,
  "1423": 3786712076,
  "1424": 3713275137,
  "1425": 3762651027,
  "1426": 3729953334,
  "1427": 3748300545,
  "1428": 3771088361,
  "1429": 3684866208,
  "1430": 3716614275,
  "1431": 3729009620,
  "1432": 3744152388,
  "1433": 3764749416,
  "1434": 3792647801,
  "1435": 3756607369,
  "1436": 3692670427,
  "1437": 3739896804,
  "1438": 3730034178,
  "1439": 3702274470,
  "1440": 3671140322,
  "1441": 3743986592,
  "1442": 3750269804,
  "1443": 3728800342,
  "1444": 3692256876,
  "1445": 3696911136,
  "1446": 3739881577,
  "1447": 3733902198,
  "1448": 3690832352,
  "1449": 3687011529,
  "1450": 3662308839,
  "1451": 3709894794,
  "1452": 3721218066,
  "1453": 3739602823,
  "1454": 3721740445,
  "1455": 3729014663,
  "1456": 3714163342,
  "1457": 3707241196,
  "1458": 3722908601,
  "1459": 3665424058,
  "1460": 3730550899,
  "1461": 3748231438,
  "1462": 3735225645,
  "1463": 3702905062,
  "1464": 3687013433,
  "1465": 3688855190,
  "1466": 3735371856,
  "1467": 3706309986,
  "1468": 3698447747,
  "1469": 3706025513,
  "1470": 3723642334,
  "1471": 3742664341,
  "1472": 3737531052,
  "1473": 3713505332,
  "1474": 3718526880,
  "1475": 3699722320,
  "1476": 3678199831,
  "1477": 3738738710,
  "1478": 3757515480,
  "1479": 3718393917,
  "1480": 3739700836,
  "1481": 3732530240,
  "1482": 3687953296,
  "1483": 3661155837,
  "1484": 3726305599,
  "1485": 3652389477,
  "1486": 3730215126,
  "1487": 3717538463,
  "1488": 3708262651,
  "1489": 3701079192,
  "1490": 3730774668,
  "1491": 3689128406,
  "1492": 3685500726,
  "1493": 3684532028,
  "1494": 3696378481,
  "1495": 3696029015,
  "1496": 3717848783,
  "1497": 3748908803,
  "1498": 3765715679,
  "1499": 3679971468,
  "1500": 3725288002,
  "1501": 3722428560,
  "1502": 3815942065,
  "1503": 3757364377,
  "1504": 3741582236,
  "1505": 3699758258,
  "1506": 3727427896,
  "1507": 3727952881,
  "1508": 3778581460,
  "1509": 3759569143,
  "1510": 3794323856,
  "1511": 3735345146,
  "1512": 3704888035,
  "1513": 3742538835,
  "1514": 3762092118,
  "1515": 3738427652,
  "1516": 3681459994,
  "1517": 3679399775,
  "1518": 3699536037,
  "1519": 3710831286,
  "1520": 3719953717,
  "1521": 3733537787,
  "1522": 3754560652,
  "1523": 3718478226,
  "1524": 3668704604,
  "1525": 3701181072,
  "1526": 3688091186,
  "1527": 3726474834,
  "1528": 3762768358,
  "1529": 3780772271,
  "1530": 3719750820,
  "1531": 3755614562,
  "1532": 3796020155,
  "1533": 3744742891,
  "1534": 3778944880,
  "1535": 3737197273,
  "1536": 3765667343,
  "1537": 3792469086,
  "1538": 3774867656,
  "1539": 3752005032,
  "1540": 3733334592,
  "1541": 3756317305,
  "1542": 3750907671,
  "1543": 3755346003,
  "1544": 3778281496,
  "1545": 3737041165,
  "1546": 3714122203,
  "1547": 3729209613,
  "1548": 3729135467,
  "1549": 3754569870,
  "1550": 3730865691,
  "1551": 3766697925,
  "1552": 3687254771,
  "1553": 3794735347,
  "1554": 3793063282,
  "1555": 3755419199,
  "1556": 3796797299,
  "1557": 3705641906,
  "1558": 3696971177,
  "1559": 3667998061,
  "1560": 3691760328,
  "1561": 3684338881,
  "1562": 3671998974,
  "1563": 3720950016,
  "1564": 3773644451,
  "1565": 3765956002,
  "1566": 3751901211,
  "1567": 3781907508,
  "1568": 3768741166,
  "1569": 3799240067,
  "1570": 3787057218,
  "1571": 3818176651,
  "1572": 3819662912,
  "1573": 3819185881,
  "1574": 3779653747,
  "1575": 3772869387,
  "1576": 3782640532,
  "1577": 3836499118,
  "1578": 3869760297,
  "1579": 3818160608,
  "1580": 3795011877,
  "1581": 3818589454,
  "1582": 3845026823,
  "1583": 3805785980,
  "1584": 3771506201,
  "1585": 3784694595,
  "1586": 3793591982,
  "1587": 3794514450,
  "1588": 3814555502,
  "1589": 3792778588,
  "1590": 3779868860,
  "1591": 3782777421,
  "1592": 3822520451,
  "1593": 3789391639,
  "1594": 3784014781,
  "1595": 3750628535,
  "1596": 3749817522,
  "1597": 3802327171,
  "1598": 3836330448,
  "1599": 3780099076,
  "1600": 3756213919,
  "1601": 3773331671,
  "1602": 3824590716,
  "1603": 3756948655,
  "1604": 3788135661,
  "1605": 3829090813,
  "1606": 3800739841,
  "1607": 3783572319,
  "1608": 3775430457,
  "1609": 3839739269,
  "1610": 3822709485,
  "1611": 3805041610,
  "1612": 3775830560,
  "1613": 3792633918,
  "1614": 3781189066,
  "1615": 3821940948,
  "1616": 3809229997,
  "1617": 3740544081,
  "1618": 3777558056,
  "1619": 3807161372,
  "1620": 3868428745,
  "1621": 3833064345,
  "1622": 3766835425,
  "1623": 3766358226,
  "1624": 3750309383,
  "1625": 3794148210,
  "1626": 3784841515,
  "1627": 3751526087,
  "1628": 3733496294,
  "1629": 3801961744,
  "1630": 3777762061,
  "1631": 3740540803,
  "1632": 3789897351,
  "1633": 3781050316,
  "1634": 3718725584,
  "1635": 3790734576,
  "1636": 3826422209,
  "1637": 3792440570,
  "1638": 3850405912,
  "1639": 3797139406,
  "1640": 3772694617,
  "1641": 3784694563,
  "1642": 3821010778,
  "1643": 3821439605,
  "1644": 3825974137,
  "1645": 3800210084,
  "1646": 3826666339,
  "1647": 3752981857,
  "1648": 3759390216,
  "1649": 3750763899,
  "1650": 3740840255,
  "1651": 3780060756,
  "1652": 3741372284,
  "1653": 3684415083,
  "1654": 3707919293,
  "1655": 3750998168,
  "1656": 3718484546,
  "1657": 3719745218,
  "1658": 3763946915,
  "1659": 3761336697,
  "1660": 3819892980,
  "1661": 3841537524,
  "1662": 3812843254,
  "1663": 3832302962,
  "1664": 3822687906,
  "1665": 3844383991,
  "1666": 3778166309,
  "1667": 3745112365,
  "1668": 3758668676,
  "1669": 3721926069,
  "1670": 3732441615,
  "1671": 3762863976,
  "1672": 3788898615,
  "1673": 3723252740,
  "1674": 3768773014,
  "1675": 3800332855,
  "1676": 3790177867,
  "1677": 3751340988,
  "1678": 3794496856,
  "1679": 3768755648,
  "1680": 3764542998,
  "1681": 3695917393,
  "1682": 3750371900,
  "1683": 3739093603,
  "1684": 3812935482,
  "1685": 3830119272,
  "1686": 3759371068,
  "1687": 3775929227,
  "1688": 3795926024,
  "1689": 3838554206,
  "1690": 3771642469,
  "1691": 3758175024,
  "1692": 3754198292,
  "1693": 3707609952,
  "1694": 3733521459,
  "1695": 3745204924,
  "1696": 3766776501,
  "1697": 3795024875,
  "1698": 3797245842,
  "1699": 3766172283,
  "1700": 3756615865,
  "1701": 3793508962,
  "1702": 3777383083,
  "1703": 3705350505,
  "1704": 3672185157,
  "1705": 3742306406,
  "1706": 3703824083,
  "1707": 3724652573,
  "1708": 3726303932,
  "1709": 3752138440,
  "1710": 3738580913,
  "1711": 3728091567,
  "1712": 3745460414,
  "1713": 3718294451,
  "1714": 3730870847,
  "1715": 3702153783,
  "1716": 3726200268,
  "1717": 3704929622,
  "1718": 3685397736,
  "1719": 3723950550,
  "1720": 3720983252,
  "1721": 3724746240,
  "1722": 3701121335,
  "1723": 3754451300,
  "1724": 3674253178,
  "1725": 3624675809,
  "1726": 3677110698,
  "1727": 3701021186,
  "1728": 3709659435,
  "1729": 3737892161,
  "1730": 3746623015,
  "1731": 3758321279,
  "1732": 3781276699,
  "1733": 3752819988,
  "1734": 3726036323,
  "1735": 3773754838,
  "1736": 3699182647,
  "1737": 3720573411,
  "1738": 3785615164,
  "1739": 3798429475,
  "1740": 3733954840,
  "1741": 3726413935,
  "1742": 3743160095,
  "1743": 3757729582,
  "1744": 3763454933,
  "1745": 3762815997,
  "1746": 3786875254,
  "1747": 3771863307,
  "1748": 3757345239,
  "1749": 3767902913,
  "1750": 3781577593,
  "1751": 3752945534,
  "1752": 3741272717,
  "1753": 3763311204,
  "1754": 3772490704,
  "1755": 3767879870,
  "1756": 3731406499,
  "1757": 3777292827,
  "1758": 3776085875,
  "1759": 3744278014,
  "1760": 3760930856,
  "1761": 3800938876,
  "1762": 3760994451,
  "1763": 3755643328,
  "1764": 3773076088,
  "1765": 3800469063,
  "1766": 3744147536,
  "1767": 3822693824,
  "1768": 3815944560,
  "1769": 3769826315,
  "1770": 3807038824,
  "1771": 3765851434,
  "1772": 3767440695,
  "1773": 3784656382,
  "1774": 3742830841,
  "1775": 3793544028,
  "1776": 3756455482,
  "1777": 3710657338,
  "1778": 3804962981,
  "1779": 3802044249,
  "1780": 3751271050,
  "1781": 3744377078,
  "1782": 3721329753,
  "1783": 3701238229,
  "1784": 3731378200,
  "1785": 3760171394,
  "1786": 3802471779,
  "1787": 3734146413,
  "1788": 3730978416,
  "1789": 3757960234,
  "1790": 3780465351,
  "1791": 3752396329,
  "1792": 3738727079,
  "1793": 3778743412,
  "1794": 3849063144,
  "1795": 3793299971,
  "1796": 3778029839,
  "1797": 3705577756,
  "1798": 3760085732,
  "1799": 3752859557
}