{
  "1048576": [
    6.612,
    2.927,
    3.609,
    11.219,
    5.767,
    6.769341,
    5.474191,
    7.194,
    6.52,
    4.159,
    6.787375,
    2.674,
    4.38,
    6.552883,
    5.959,
    8.022,
    6.035,
    7.174,
    8.269,
    8.916,
    11.049,
    5.517,
    4.911,
    2.669,
    2.422,
    7.069,
    8.686,
    5.087,
    6.633,
    7.537,
    4.484,
    6.614,
    7.964,
    5.45,
    3.872,
    8.218,
    2.57,
    9.606,
    2.794,
    4.03,
    6.695,
    3.753103,
    5.731539,
    4.924022,
    2.584,
    2.454,
    5.356,
    7.491,
    7.229,
    3.152,
    5.162,
    2.911,
    5.97,
    8.934,
    4.813,
    4.663,
    5.519,
    4.985897,
    2.705,
    4.612,
    15.026,
    11.848,
    5.471,
    4.027,
    3.045,
    2.837,
    5.564,
    5.070794,
    2.161,
    4.709,
    5.234,
    5.193,
    2.79901,
    3.299,
    13.435,
    9.139,
    5.893,
    2.712812,
    5.465,
    5.136,
    6.544,
    7.5,
    6.801,
    5.209,
    3.245,
    2.803,
    5.017,
    4.798,
    2.349,
    2.358,
    4.65702,
    26.164,
    3.019,
    5.323,
    4.338,
    4.515
  ],
  "51200": [
    2.206,
    1.372,
    2.065,
    1.276,
    1.26,
    2.081,
    1.776,
    1.277,
    1.72,
    0.965,
    1.166,
    0.788,
    1.562,
    0.678,
    1.418,
    0.74,
    1.24,
    1.075,
    0.74779,
    2.142,
    0.679,
    0.816,
    1.217797,
    1.273,
    1.11,
    1.493,
    1.859,
    2.309,
    1.512,
    1.237,
    2.19,
    1.442,
    1.713,
    3.118,
    1.96,
    1.596,
    2.996,
    1.387,
    1.412,
    1.428,
    2.519,
    1.536587,
    1.657107,
    2.347852,
    1.306626,
    1.602,
    1.413143,
    1.284418,
    1.785902,
    1.494875,
    2.120454,
    1.766413,
    1.602308,
    2.084252,
    2.234745,
    1.718,
    1.0,
    1.173,
    2.447,
    0.903,
    0.894,
    0.769,
    0.849,
    1.690174,
    1.755026,
    2.459328,
    1.606,
    1.51704,
    2.193,
    1.586573,
    2.233382,
    0.784,
    1.734,
    1.761834,
    0.71,
    0.608,
    2.001,
    0.637,
    1.099,
    0.713,
    1.016,
    0.61,
    0.556,
    0.908,
    0.788,
    1.204755,
    1.641,
    1.665,
    1.288,
    1.364,
    1.548,
    2.344,
    1.553,
    1.439,
    2.352,
    1.566,
    1.297,
    2.463,
    2.024,
    1.462,
    1.848,
    1.544,
    2.553,
    1.431,
    1.385,
    1.533,
    1.436,
    1.264,
    1.821,
    1.936,
    1.414,
    2.626,
    1.553,
    2.166,
    2.001,
    1.674,
    2.832,
    2.711,
    2.222,
    1.703,
    2.672056,
    1.813,
    2.554,
    2.195,
    2.404,
    2.06,
    1.844,
    1.569,
    2.326,
    1.354,
    1.675,
    1.51,
    1.681,
    1.691,
    2.079,
    1.657,
    1.92,
    1.71,
    2.598,
    1.721,
    1.982,
    1.698,
    2.139,
    1.866,
    2.205,
    1.392,
    1.193,
    1.095224,
    1.216,
    1.328,
    1.139,
    1.197,
    1.438,
    1.209,
    1.275,
    1.108,
    2.313047,
    0.861,
    0.832,
    1.168,
    0.913,
    1.093,
    1.494,
    0.945,
    2.336,
    2.236841,
    0.791,
    1.132,
    1.434,
    1.434,
    0.891,
    0.98,
    0.575,
    1.751,
    0.675,
    0.71,
    0.921,
    1.248,
    1.568,
    0.906,
    1.154,
    0.729,
    2.458,
    1.338,
    0.675,
    0.869,
    0.675897,
    0.821,
    1.243,
    1.602405,
    1.081,
    0.873,
    1.668,
    0.441,
    0.659,
    0.651,
    0.679,
    1.167,
    1.608,
    2.34,
    2.472,
    1.536,
    2.438,
    2.238,
    2.427,
    1.894,
    1.463,
    2.167,
    2.19,
    1.346,
    1.433,
    1.819,
    1.184,
    1.339,
    1.014608,
    1.152,
    0.87,
    1.67935,
    0.922494,
    0.773,
    1.102,
    0.902,
    1.532,
    1.062,
    1.53,
    0.644,
    0.664,
    1.177,
    0.827861,
    1.785555,
    0.506,
    0.543,
    1.237857,
    1.547903,
    1.193,
    1.236,
    0.772,
    1.82,
    0.882,
    1.487,
    0.956,
    0.852,
    0.878,
    1.349,
    1.723,
    1.697,
    1.962,
    1.414,
    1.326,
    1.386,
    1.162,
    1.3,
    1.906,
    1.345,
    1.690345,
    1.05,
    1.712,
    0.605,
    1.392,
    1.174,
    1.81,
    2.956,
    1.4,
    2.37,
    1.477,
    2.266,
    1.672,
    3.135,
    2.034,
    1.141,
    1.580616,
    0.916,
    1.847,
    1.652,
    1.228,
    0.959,
    0.751,
    0.785,
    1.297,
    1.429236,
    2.208236,
    1.663,
    1.330107,
    2.494862,
    1.366624,
    1.472218,
    1.673163,
    0.882,
    1.37,
    0.69,
    1.023,
    0.797,
    1.202,
    1.961,
    1.248,
    2.491173,
    0.963,
    0.959,
    0.883,
    1.513,
    2.301,
    1.704821,
    0.598,
    0.673,
    0.921,
    0.805,
    1.323,
    2.069,
    2.242,
    1.212,
    1.605,
    1.317,
    1.427,
    1.723,
    0.892,
    1.093965,
    0.907,
    1.965,
    0.69,
    0.862,
    0.842,
    1.165,
    1.194,
    1.181103,
    1.8,
    1.135,
    1.191097,
    1.179,
    1.015897,
    1.368,
    1.066,
    1.274,
    1.861,
    1.809,
    0.822,
    0.977,
    0.893,
    0.985,
    1.295,
    1.079,
    1.347,
    1.806,
    1.803,
    1.014,
    1.076,
    0.938,
    0.821,
    1.831,
    1.483,
    1.999,
    2.963,
    2.517,
    1.55,
    1.767,
    1.519,
    2.113,
    1.385551,
    1.662544,
    1.043,
    1.518,
    1.097221,
    1.213,
    1.764876,
    2.115,
    1.399,
    1.076,
    2.828,
    1.565,
    1.266,
    1.234,
    1.267,
    2.299,
    1.602,
    1.446,
    2.142,
    1.171,
    1.418,
    1.47,
    2.03,
    1.817652,
    1.347,
    2.119897,
    1.618903,
    1.864477,
    2.75578,
    1.281,
    1.415178,
    1.384062,
    1.328,
    2.249,
    1.468,
    1.781,
    1.731,
    1.236,
    1.311,
    2.428,
    0.816,
    1.725,
    2.558,
    0.632,
    1.095,
    0.556,
    1.523,
    1.028,
    1.428,
    0.888,
    1.919,
    0.833,
    1.546,
    0.943,
    0.932,
    1.665,
    1.581,
    1.518,
    1.907,
    1.609,
    1.88,
    1.711,
    2.033,
    2.125,
    1.633,
    2.248,
    1.721,
    2.303,
    2.18,
    1.538,
    1.788,
    1.546,
    1.595,
    1.977,
    1.372,
    1.263,
    1.873,
    0.977,
    1.059,
    0.966,
    1.78,
    1.383,
    1.279,
    2.172612,
    0.897,
    0.709,
    0.977,
    1.118,
    0.8,
    1.124,
    0.968,
    1.672,
    0.994,
    0.633,
    1.027,
    1.023,
    1.167,
    1.347,
    1.075,
    0.862,
    2.105,
    0.666,
    0.569,
    0.536,
    0.836,
    1.441957,
    1.234344,
    2.447554,
    1.298116,
    2.063,
    1.512,
    1.19806,
    1.323852,
    1.82724,
    0.962,
    1.197,
    0.725,
    2.292,
    0.837,
    0.713,
    0.997,
    0.84,
    1.279,
    1.119346,
    0.615763,
    1.943,
    0.643,
    0.687,
    0.787,
    0.721,
    0.599,
    1.936,
    1.64,
    1.391,
    1.367,
    1.364,
    1.601,
    2.087,
    1.913,
    0.886,
    1.011,
    1.709861,
    0.861,
    0.77,
    0.783,
    2.15,
    1.904,
    1.128,
    1.416,
    1.769,
    2.477,
    1.845,
    0.689,
    1.953,
    1.538,
    0.782,
    0.822,
    0.934,
    0.632998,
    1.798,
    1.553,
    2.223,
    1.575,
    1.419,
    1.962,
    2.313,
    1.91,
    1.353,
    1.204,
    1.809,
    1.659,
    1.238,
    1.956,
    1.809,
    1.226,
    1.567,
    1.58,
    1.499,
    3.213,
    1.693,
    1.527,
    1.707,
    1.538,
    1.64,
    3.555,
    1.598742,
    1.470221,
    2.131,
    2.896149,
    1.285,
    1.523287,
    2.587,
    1.326,
    1.273694,
    1.852705,
    3.277,
    4.905,
    1.195,
    3.5,
    1.774,
    1.162,
    2.981,
    2.17,
    2.391,
    1.555,
    1.476,
    1.001,
    2.074,
    1.1,
    1.145,
    1.348,
    1.265,
    1.053,
    1.783,
    2.079,
    1.517,
    2.385,
    1.547,
    2.125,
    2.701,
    1.574,
    2.150011,
    1.04,
    1.215,
    1.591,
    0.855,
    1.644,
    1.594,
    0.779,
    1.173,
    0.709,
    1.755959,
    1.69,
    0.922,
    1.35,
    0.854,
    2.137,
    0.678,
    0.809,
    1.721,
    0.68,
    1.056,
    1.516,
    0.820111,
    0.508,
    1.766592,
    1.07,
    0.812,
    0.975,
    0.713,
    1.484,
    1.688,
    1.955,
    2.397,
    2.431,
    1.554,
    1.58,
    1.651,
    2.062,
    1.048881,
    1.221,
    1.021,
    0.931,
    0.712,
    0.95,
    0.935,
    0.897,
    1.152,
    1.469,
    0.74,
    0.701,
    0.884,
    1.356,
    1.148,
    1.167,
    1.253,
    1.967,
    0.976,
    1.733,
    1.611
  ],
  "5242880": [
    10.77,
    20.534,
    19.336162,
    11.178,
    16.173,
    19.304,
    13.894,
    13.366,
    17.102381,
    9.155,
    14.018,
    25.206,
    14.525,
    24.339,
    21.137,
    14.278,
    11.899,
    15.753,
    17.729,
    14.989,
    17.044,
    25.237,
    23.493,
    14.32,
    13.498,
    18.337
  ],
  "ALL": [
    2.206,
    1.372,
    2.065,
    1.276,
    1.26,
    2.081,
    1.776,
    1.277,
    1.72,
    6.612,
    0.965,
    1.166,
    0.788,
    1.562,
    0.678,
    1.418,
    0.74,
    1.24,
    2.927,
    3.609,
    1.075,
    0.74779,
    2.142,
    0.679,
    0.816,
    1.217797,
    1.273,
    1.11,
    11.219,
    10.77,
    1.493,
    1.859,
    2.309,
    1.512,
    1.237,
    2.19,
    1.442,
    1.713,
    5.767,
    3.118,
    1.96,
    1.596,
    2.996,
    1.387,
    1.412,
    1.428,
    2.519,
    6.769341,
    20.534,
    1.536587,
    1.657107,
    2.347852,
    1.306626,
    1.602,
    1.413143,
    1.284418,
    1.785902,
    5.474191,
    1.494875,
    2.120454,
    1.766413,
    1.602308,
    2.084252,
    2.234745,
    1.718,
    19.336162,
    1.0,
    1.173,
    2.447,
    0.903,
    0.894,
    0.769,
    0.849,
    7.194,
    6.52,
    4.159,
    1.690174,
    1.755026,
    2.459328,
    1.606,
    1.51704,
    2.193,
    1.586573,
    2.233382,
    6.787375,
    0.784,
    1.734,
    1.761834,
    0.71,
    0.608,
    2.001,
    0.637,
    1.099,
    11.178,
    0.713,
    1.016,
    0.61,
    0.556,
    0.908,
    0.788,
    1.204755,
    2.674,
    4.38,
    6.552883,
    1.641,
    1.665,
    1.288,
    1.364,
    1.548,
    2.344,
    5.959,
    8.022,
    16.173,
    1.553,
    1.439,
    2.352,
    1.566,
    1.297,
    2.463,
    2.024,
    6.035,
    7.174,
    19.304,
    1.462,
    1.848,
    1.544,
    2.553,
    1.431,
    1.385,
    1.533,
    1.436,
    1.264,
    1.821,
    1.936,
    1.414,
    2.626,
    1.553,
    2.166,
    2.001,
    1.674,
    2.832,
    8.269,
    8.916,
    2.711,
    2.222,
    1.703,
    2.672056,
    1.813,
    2.554,
    2.195,
    2.404,
    11.049,
    2.06,
    1.844,
    1.569,
    2.326,
    1.354,
    1.675,
    1.51,
    1.681,
    1.691,
    2.079,
    1.657,
    1.92,
    1.71,
    2.598,
    1.721,
    1.982,
    1.698,
    2.139,
    1.866,
    2.205,
    1.392,
    1.193,
    1.095224,
    1.216,
    1.328,
    1.139,
    1.197,
    1.438,
    5.517,
    1.209,
    1.275,
    1.108,
    2.313047,
    0.861,
    0.832,
    1.168,
    0.913,
    1.093,
    1.494,
    0.945,
    2.336,
    2.236841,
    0.791,
    1.132,
    1.434,
    1.434,
    4.911,
    0.891,
    0.98,
    0.575,
    1.751,
    0.675,
    0.71,
    0.921,
    1.248,
    1.568,
    2.669,
    0.906,
    1.154,
    0.729,
    2.458,
    1.338,
    0.675,
    0.869,
    0.675897,
    0.821,
    1.243,
    1.602405,
    1.081,
    0.873,
    1.668,
    0.441,
    0.659,
    0.651,
    0.679,
    1.167,
    2.422,
    1.608,
    2.34,
    2.472,
    1.536,
    2.438,
    2.238,
    2.427,
    1.894,
    7.069,
    8.686,
    1.463,
    2.167,
    2.19,
    1.346,
    1.433,
    1.819,
    1.184,
    1.339,
    5.087,
    6.633,
    1.014608,
    1.152,
    0.87,
    1.67935,
    0.922494,
    0.773,
    1.102,
    0.902,
    1.532,
    13.894,
    1.062,
    1.53,
    0.644,
    0.664,
    1.177,
    7.537,
    4.484,
    6.614,
    7.964,
    0.827861,
    1.785555,
    0.506,
    0.543,
    1.237857,
    1.547903,
    5.45,
    3.872,
    8.218,
    2.57,
    1.193,
    1.236,
    0.772,
    1.82,
    0.882,
    1.487,
    0.956,
    0.852,
    0.878,
    1.349,
    1.723,
    1.697,
    1.962,
    1.414,
    1.326,
    1.386,
    1.162,
    1.3,
    1.906,
    9.606,
    1.345,
    1.690345,
    1.05,
    1.712,
    0.605,
    1.392,
    1.174,
    2.794,
    4.03,
    13.366,
    1.81,
    2.956,
    1.4,
    2.37,
    1.477,
    2.266,
    1.672,
    3.135,
    2.034,
    6.695,
    1.141,
    1.580616,
    0.916,
    1.847,
    1.652,
    1.228,
    0.959,
    0.751,
    0.785,
    1.297,
    1.429236,
    2.208236,
    1.663,
    1.330107,
    2.494862,
    1.366624,
    1.472218,
    1.673163,
    17.102381,
    0.882,
    1.37,
    0.69,
    1.023,
    0.797,
    1.202,
    3.753103,
    9.155,
    1.961,
    1.248,
    2.491173,
    0.963,
    0.959,
    0.883,
    1.513,
    5.731539,
    4.924022,
    2.301,
    1.704821,
    0.598,
    0.673,
    0.921,
    0.805,
    1.323,
    2.584,
    2.454,
    14.018,
    2.069,
    2.242,
    1.212,
    1.605,
    1.317,
    1.427,
    1.723,
    5.356,
    7.491,
    7.229,
    0.892,
    1.093965,
    0.907,
    1.965,
    0.69,
    0.862,
    0.842,
    1.165,
    3.152,
    1.194,
    1.181103,
    1.8,
    1.135,
    1.191097,
    1.179,
    1.015897,
    1.368,
    5.162,
    1.066,
    1.274,
    1.861,
    1.809,
    0.822,
    0.977,
    0.893,
    0.985,
    1.295,
    2.911,
    1.079,
    1.347,
    1.806,
    1.803,
    1.014,
    1.076,
    0.938,
    0.821,
    1.831,
    1.483,
    1.999,
    2.963,
    2.517,
    1.55,
    1.767,
    1.519,
    2.113,
    5.97,
    8.934,
    25.206,
    1.385551,
    1.662544,
    1.043,
    1.518,
    1.097221,
    1.213,
    1.764876,
    4.813,
    14.525,
    2.115,
    1.399,
    1.076,
    2.828,
    1.565,
    1.266,
    1.234,
    1.267,
    2.299,
    4.663,
    1.602,
    1.446,
    2.142,
    1.171,
    1.418,
    1.47,
    2.03,
    24.339,
    1.817652,
    1.347,
    2.119897,
    1.618903,
    1.864477,
    2.75578,
    1.281,
    1.415178,
    5.519,
    4.985897,
    1.384062,
    1.328,
    2.249,
    1.468,
    1.781,
    1.731,
    1.236,
    1.311,
    2.428,
    21.137,
    0.816,
    1.725,
    2.558,
    0.632,
    1.095,
    0.556,
    1.523,
    2.705,
    4.612,
    1.028,
    1.428,
    0.888,
    1.919,
    0.833,
    1.546,
    0.943,
    0.932,
    1.665,
    1.581,
    1.518,
    1.907,
    1.609,
    1.88,
    1.711,
    2.033,
    2.125,
    1.633,
    15.026,
    11.848,
    2.248,
    1.721,
    2.303,
    2.18,
    1.538,
    1.788,
    1.546,
    1.595,
    1.977,
    5.471,
    1.372,
    1.263,
    1.873,
    0.977,
    1.059,
    0.966,
    1.78,
    1.383,
    4.027,
    1.279,
    2.172612,
    0.897,
    0.709,
    0.977,
    1.118,
    3.045,
    2.837,
    5.564,
    0.8,
    1.124,
    0.968,
    1.672,
    0.994,
    0.633,
    1.027,
    1.023,
    1.167,
    1.347,
    1.075,
    0.862,
    2.105,
    0.666,
    0.569,
    0.536,
    0.836,
    5.070794,
    2.161,
    14.278,
    1.441957,
    1.234344,
    2.447554,
    1.298116,
    2.063,
    1.512,
    1.19806,
    1.323852,
    1.82724,
    4.709,
    0.962,
    1.197,
    0.725,
    2.292,
    0.837,
    0.713,
    0.997,
    0.84,
    1.279,
    5.234,
    1.119346,
    0.615763,
    1.943,
    0.643,
    0.687,
    0.787,
    0.721,
    0.599,
    1.936,
    11.899,
    1.64,
    1.391,
    1.367,
    1.364,
    1.601,
    2.087,
    1.913,
    5.193,
    15.753,
    0.886,
    1.011,
    1.709861,
    0.861,
    0.77,
    0.783,
    2.79901,
    3.299,
    2.15,
    1.904,
    1.128,
    1.416,
    1.769,
    2.477,
    13.435,
    9.139,
    5.893,
    1.845,
    0.689,
    1.953,
    1.538,
    0.782,
    0.822,
    0.934,
    0.632998,
    2.712812,
    17.729,
    1.798,
    1.553,
    2.223,
    1.575,
    1.419,
    1.962,
    2.313,
    1.91,
    5.465,
    5.136,
    1.353,
    1.204,
    1.809,
    1.659,
    1.238,
    1.956,
    1.809,
    1.226,
    1.567,
    6.544,
    1.58,
    1.499,
    3.213,
    1.693,
    1.527,
    1.707,
    1.538,
    1.64,
    3.555,
    7.5,
    1.598742,
    1.470221,
    2.131,
    2.896149,
    1.285,
    1.523287,
    2.587,
    1.326,
    1.273694,
    1.852705,
    3.277,
    4.905,
    1.195,
    3.5,
    1.774,
    1.162,
    2.981,
    2.17,
    2.391,
    6.801,
    1.555,
    1.476,
    1.001,
    2.074,
    1.1,
    1.145,
    1.348,
    1.265,
    1.053,
    1.783,
    2.079,
    1.517,
    2.385,
    1.547,
    2.125,
    2.701,
    1.574,
    2.150011,
    1.04,
    1.215,
    1.591,
    0.855,
    1.644,
    1.594,
    0.779,
    5.209,
    3.245,
    14.989,
    1.173,
    0.709,
    1.755959,
    1.69,
    0.922,
    1.35,
    2.803,
    17.044,
    25.237,
    0.854,
    2.137,
    0.678,
    0.809,
    1.721,
    0.68,
    1.056,
    5.017,
    4.798,
    2.349,
    1.516,
    0.820111,
    0.508,
    1.766592,
    1.07,
    0.812,
    0.975,
    0.713,
    1.484,
    2.358,
    1.688,
    1.955,
    2.397,
    2.431,
    1.554,
    1.58,
    1.651,
    2.062,
    23.493,
    1.048881,
    1.221,
    1.021,
    0.931,
    0.712,
    0.95,
    0.935,
    4.65702,
    14.32,
    13.498,
    0.897,
    1.152,
    1.469,
    0.74,
    0.701,
    0.884,
    1.356,
    1.148,
    26.164,
    3.019,
    1.167,
    1.253,
    1.967,
    0.976,
    1.733,
    1.611,
    5.323,
    4.338,
    4.515,
    18.337
  ]
}