[
  7.738657844990549,
  3.0664794007490648,
  6.788971807628527,
  1.763027562446167,
  5.480254350736276,
  4.788011695906433,
  4.411368534482759,
  3.106031866464341,
  4.6257062146892665,
  8.86093073593074,
  6.656504065040648,
  6.9280263734627185,
  3.475169779286926,
  7.389440433212996,
  2.3982132396016405,
  1.616804897314376,
  3.411458333333333,
  4.721741637831603,
  4.523480662983424,
  3.0484467535484847,
  2.899256373937677,
  6.834307178631052,
  4.128628654876396,
  4.177295918367345,
  1.6034786723137842,
  4.411368534482759,
  5.14290201005025,
  3.3312962414434013,
  4.678571428571429,
  4.564576987061412,
  3.9029615314577506,
  2.0366915422885574,
  3.149038461538461,
  10.166841753651381,
  1.7200630252100835,
  13.291396103896101,
  6.689046548411131,
  4.364236659694548,
  6.67822185970636,
  5.321741956451088,
  3.1052567303002516,
  1.5497870143085801,
  4.3320105820105805,
  7.144415357766143,
  2.960050614605929,
  4.061259920634921,
  9.410919540229893,
  3.3832644628099175,
  3.400124584717609,
  3.1783773291925472,
  6.834307178631052,
  2.7182934926958837,
  5.393610013175228,
  3.790509259259259,
  5.117187499999998,
  8.388831967213115,
  9.60974178403756,
  2.8213301171605787,
  7.271314387211372,
  5.670013850415513,
  8.5464509394572,
  6.920214887991827,
  8.011252446183958,
  7.9336240310077555,
  4.8793206197854575,
  4.130928355196772,
  4.406620021528524,
  9.694213427802827,
  6.122685531393016,
  3.4663420829805247,
  7.738657844990549,
  11.064189189189193,
  11.926368965075222,
  8.60031512605042,
  3.0436802973977692,
  5.677877947295422,
  4.216014418125643,
  7.323345259391772,
  3.8295135640785785,
  2.779192124915139,
  3.3860628618693145,
  5.8818247126436765,
  11.21575342465754,
  5.415013227513228,
  6.962159863945577,
  10.523778920308485,
  9.655070754716983,
  9.655070754716983,
  2.9261972837741244,
  2.430967933491686,
  1.3976613178559234,
  1.4419690031701302,
  4.599719101123595,
  4.126764112903226,
  11.094173441734425,
  9.8644578313253,
  6.467219589257504,
  7.967951076050506,
  4.788011695906436,
  6.645698051948051,
  7.511467889908258,
  6.7889718076285215,
  5.275451030927837,
  4.856168446026096,
  9.494030501493539,
  15.745192307692307,
  9.542540792540786,
  8.337576374745415,
  14.414612676056336,
  6.3272797527047935,
  7.94902912621359,
  5.773977433004231,
  6.346899224806202,
  7.904518246765784,
  4.5945566778900115,
  3.7815421024773657,
  4.920372596153847,
  3.698057813911472,
  4.600556505790941,
  4.646708286038591,
  9.936286407766993,
  5.890287769784172,
  9.454387990762129,
  14.568505338078296,
  11.763649425287353,
  11.277548209366389,
  3.5690932868352214,
  9.117483296213807,
  8.694345569308402,
  9.431473648318637,
  7.5670055452865075,
  4.889904728231786,
  8.138667992047711,
  7.42967332123412,
  6.788971807628527,
  4.610078828828829,
  6.518710191082802,
  9.426174774807965,
  7.753314393939394,
  10.496794871794874,
  10.2858040201005,
  8.1875,
  7.402802893309223,
  8.220381526104422,
  12.833072100313482,
  1.4973482077542057,
  4.6184992683733075,
  4.044480142899203,
  4.143471659919029,
  5.303142180561385,
  4.5284845132743365,
  6.755363036303629,
  9.39142423887884,
  2.9881386861313874,
  4.286649214659685,
  4.110190763052209,
  4.938178528347406,
  4.345806794055202,
  15.299220043426427,
  11.696428571428568,
  12.914037854889587,
  4.021689369870657,
  2.5411235257603964,
  1.3448587385019712,
  1.6303265631222617,
  8.1875,
  6.552946204613597,
  4.9725364156682135,
  5.534173649019497,
  6.129487720811284,
  6.880252100840337,
  5.932971014492754,
  4.454570184983678,
  5.757735583684952,
  4.725922471205783,
  3.149397008274788,
  7.94902912621359,
  8.528645833333334,
  7.4431818181818175,
  5.928803666987695,
  6.376557632398755,
  7.156905594405593,
  4.300826178859738,
  6.104635123628649,
  3.6518733273862622,
  2.7110927152317883,
  6.950339558573854,
  6.426609105180534,
  7.284252669039148,
  7.964494163424128,
  7.070379965457689,
  6.146771771771775,
  6.073813056379823,
  4.029281496062992,
  4.3183016877637135,
  5.400725593667546,
  5.407859973579923,
  8.074457593688361,
  7.376126126126124,
  5.813515900809173,
  5.316558441558441,
  2.206873315363881,
  6.602822580645165,
  2.94091235632184,
  6.259556574923548,
  6.095962927610859,
  6.811564059900166,
  9.036975717439297,
  6.997863247863248,
  14.940693430656934,
  11.961006024694814,
  5.72552447552448,
  7.389440433212996,
  11.12432065217391,
  7.058189655172413,
  4.543562708102109,
  10.830026455026452,
  3.9916904583606327,
  4.341198303287379,
  3.8046003717472114,
  4.432398546119141,
  3.90625,
  4.489228592890707,
  3.833099250936331,
  3.818105678636515,
  2.767917511832319,
  3.0279215976331364,
  5.480254350736278,
  4.08557884231537,
  5.20171537484117,
  3.377681518151816,
  5.14937106918239,
  14.067869415807554,
  7.094887348353553,
  11.56426553672316,
  3.818796641791043,
  3.075694966190834,
  3.1882788161993765,
  5.18852978453739,
  4.336599576271187,
  5.646551724137932,
  5.685763888888891,
  7.980019493177389,
  9.171614204099921,
  5.950218023255813,
  9.036975717439292,
  10.274780574609656,
  1.6527048849414618,
  1.7760303687635577,
  4.246628630705394,
  4.077440239043827,
  6.101978121567057,
  7.258421985815602,
  5.23497442455243,
  9.097222222222223,
  6.477452531645568,
  2.1915149892933616,
  5.337353324641461,
  3.7014014466546117,
  5.105973505688134,
  4.339550838599981,
  5.907287157287159,
  1.643416298675231,
  6.6860313187997695,
  5.168876262626264,
  5.717527932960892,
  4.543502195309275,
  4.950120918984281,
  9.421098658320483,
  4.850414691943128,
  9.520348837209308,
  11.935131195335279,
  5.337353324641461,
  3.6715246636771295,
  4.81051703877791,
  4.974179829890645,
  5.168876262626264,
  5.010709914320686,
  3.9978027343750018,
  5.577316076294278,
  8.270202020202019,
  4.964811237118779,
  5.88182471264368,
  11.629971590909095,
  8.917796163414325,
  11.56426553672316,
  3.5199914015477205,
  5.142902010050251,
  5.372375328083989,
  7.144415357766143,
  9.984756097560977,
  9.793660287081341,
  6.744233937397037,
  4.678571428571429,
  6.508346581875994,
  8.918845315904138,
  8.528645833333334,
  7.553044280442807,
  6.610488615022906,
  7.7955699263812575,
  12.873427672955973,
  9.793660287081336,
  5.025707067110914,
  4.7663928986421835,
  4.013480392156865,
  3.711468721668177,
  3.293443282381336,
  2.4252073459715637
]