{
  "1200": 3665985940,
  "1201": 3732417582,
  "1202": 3701509073,
  "1203": 3710485382,
  "1204": 3722314657,
  "1205": 3746033975,
  "1206": 3738585780,
  "1207": 3683218945,
  "1208": 3724158204,
  "1209": 3698213018,
  "1210": 3687729164,
  "1211": 3683922898,
  "1212": 3668738055,
  "1213": 3664762196,
  "1214": 3686362233,
  "1215": 3712290192,
  "1216": 3682945482,
  "1217": 3703498149,
  "1218": 3732530527,
  "1219": 3659914454,
  "1220": 3703128774,
  "1221": 3649716888,
  "1222": 3718421109,
  "1223": 3720809910,
  "1224": 3694026096,
  "1225": 3665743642,
  "1226": 3736807139,
  "1227": 3704975864,
  "1228": 3654240863,
  "1229": 3689170355,
  "1230": 3631601146,
  "1231": 3633909861,
  "1232": 3658738397,
  "1233": 3666999567,
  "1234": 3702100361,
  "1235": 3745910505,
  "1236": 3724926600,
  "1237": 3662517162,
  "1238": 3715201464,
  "1239": 3771455521,
  "1240": 3766358537,
  "1241": 3747509857,
  "1242": 3721052709,
  "1243": 3750621636,
  "1244": 3694718208,
  "1245": 3738766077,
  "1246": 3635427228,
  "1247": 3720706673,
  "1248": 3701326377,
  "1249": 3688876014,
  "1250": 3702384242,
  "1251": 3664341422,
  "1252": 3700159700,
  "1253": 3643790175,
  "1254": 3701283020,
  "1255": 3720120772,
  "1256": 3645972220,
  "1257": 3709556538,
  "1258": 3720503727,
  "1259": 3726356936,
  "1260": 3648188581,
  "1261": 3698888889,
  "1262": 3705580212,
  "1263": 3735061684,
  "1264": 3716186037,
  "1265": 3722170895,
  "1266": 3735954454,
  "1267": 3771654478,
  "1268": 3751350928,
  "1269": 3816437940,
  "1270": 3808895116,
  "1271": 3749846045,
  "1272": 3659134999,
  "1273": 3679573643,
  "1274": 3681476919,
  "1275": 3716107060,
  "1276": 3736730967,
  "1277": 3713479128,
  "1278": 3676786780,
  "1279": 3705850101,
  "1280": 3710363832,
  "1281": 3681297249,
  "1282": 3675759683,
  "1283": 3760233540,
  "1284": 3688707487,
  "1285": 3699135092,
  "1286": 3692021099,
  "1287": 3734943964,
  "1288": 3684357687,
  "1289": 3709083960,
  "1290": 3740555211,
  "1291": 3728255420,
  "1292": 3772753571,
  "1293": 3769820681,
  "1294": 3735044883,
  "1295": 3741881718,
  "1296": 3746455934,
  "1297": 3715007537,
  "1298": 3725727580,
  "1299": 3703313797,
  "1300": 3682142860,
  "1301": 3638561476,
  "1302": 3647115942,
  "1303": 3666163966,
  "1304": 3685729310,
  "1305": 3660935279,
  "1306": 3632986927,
  "1307": 3707590758,
  "1308": 3654199426,
  "1309": 3648913986,
  "1310": 3644547199,
  "1311": 3732991257,
  "1312": 3681556295,
  "1313": 3717149498,
  "1314": 3751287808,
  "1315": 3726000283,
  "1316": 3693106981,
  "1317": 3726952286,
  "1318": 3659858686,
  "1319": 3696389565,
  "1320": 3739033620,
  "1321": 3681122157,
  "1322": 3646541943,
  "1323": 3709896829,
  "1324": 3695861011,
  "1325": 3760828422,
  "1326": 3760396781,
  "1327": 3671836391,
  "1328": 3691743999,
  "1329": 3746665487,
  "1330": 3719083830,
  "1331": 3781776415,
  "1332": 3766130340,
  "1333": 3705998955,
  "1334": 3728720759,
  "1335": 3724523149,
  "1336": 3686753324,
  "1337": 3708180055,
  "1338": 3670090606,
  "1339": 3672849142,
  "1340": 3732604091,
  "1341": 3691653510,
  "1342": 3700358200,
  "1343": 3752601788,
  "1344": 3728214672,
  "1345": 3733047651,
  "1346": 3694627525,
  "1347": 3728018266,
  "1348": 3757925871,
  "1349": 3718809677,
  "1350": 3689254407,
  "1351": 3781294624,
  "1352": 3781554276,
  "1353": 3703704804,
  "1354": 3662631613,
  "1355": 3666998407,
  "1356": 3706057700,
  "1357": 3689053874,
  "1358": 3703337581,
  "1359": 3711604008,
  "1360": 3687095689,
  "1361": 3664895323,
  "1362": 3702643827,
  "1363": 3729999693,
  "1364": 3708211737,
  "1365": 3742580100,
  "1366": 3649524447,
  "1367": 3720634449,
  "1368": 3762166858,
  "1369": 3748079687,
  "1370": 3737101174,
  "1371": 3686601793,
  "1372": 3659469036,
  "1373": 3651648245,
  "1374": 3689287389,
  "1375": 3759293779,
  "1376": 3692063352,
  "1377": 3697636941,
  "1378": 3703171536,
  "1379": 3689621997,
  "1380": 3661349573,
  "1381": 3697883543,
  "1382": 3664418687,
  "1383": 3690335854,
  "1384": 3674532215,
  "1385": 3623391497,
  "1386": 3622977771,
  "1387": 3645460724,
  "1388": 3674090064,
  "1389": 3662758404,
  "1390": 3680473053,
  "1391": 3693823794,
  "1392": 3677191372,
  "1393": 3683356742,
  "1394": 3739527818,
  "1395": 3672078942,
  "1396": 3643510600,
  "1397": 3652828305,
  "1398": 3704112475,
  "1399": 3747116526,
  "1400": 3678571379,
  "1401": 3673636138,
  "1402": 3680540019,
  "1403": 3709928928,
  "1404": 3691162215,
  "1405": 3654826843,
  "1406": 3650979030,
  "1407": 3650920258,
  "1408": 3647085899,
  "1409": 3640057814,
  "1410": 3667375470,
  "1411": 3692072757,
  "1412": 3743651982,
  "1413": 3709433234,
  "1414": 3724496257,
  "1415": 3716988486,
  "1416": 3692996951,
  "1417": 3652279220,
  "1418": 3610877927,
  "1419": 3681198734,
  "1420": 3683622385,
  "1421": 3672840246,
  "1422": 3657899533,
  "1423": 3643426959,
  "1424": 3669504299,
  "1425": 3675434479,
  "1426": 3692609408,
  "1427": 3607092092,
  "1428": 3630174227,
  "1429": 3688034845,
  "1430": 3675393318,
  "1431": 3670425169,
  "1432": 3661730940,
  "1433": 3644919918,
  "1434": 3648657490,
  "1435": 3702958433,
  "1436": 3660119124,
  "1437": 3689140099,
  "1438": 3691328648,
  "1439": 3708669685,
  "1440": 3694659755,
  "1441": 3698795811,
  "1442": 3702515611,
  "1443": 3704068187,
  "1444": 3681462343,
  "1445": 3671562981,
  "1446": 3669960866,
  "1447": 3745079458,
  "1448": 3691632369,
  "1449": 3675590509,
  "1450": 3725628797,
  "1451": 3717642445,
  "1452": 3687646298,
  "1453": 3699150673,
  "1454": 3626156304,
  "1455": 3684691343,
  "1456": 3733348093,
  "1457": 3694972345,
  "1458": 3670075567,
  "1459": 3754815688,
  "1460": 3730292415,
  "1461": 3732891197,
  "1462": 3715055889,
  "1463": 3655169270,
  "1464": 3644620603,
  "1465": 3663877002,
  "1466": 3599859885,
  "1467": 3675185822,
  "1468": 3712728719,
  "1469": 3661953659,
  "1470": 3656889495,
  "1471": 3694182359,
  "1472": 3669478042,
  "1473": 3726123222,
  "1474": 3771893876,
  "1475": 3716134114,
  "1476": 3694350154,
  "1477": 3745914755,
  "1478": 3735964500,
  "1479": 3728881980,
  "1480": 3752281677,
  "1481": 3702297726,
  "1482": 3672609885,
  "1483": 3696584744,
  "1484": 3767326639,
  "1485": 3748154017,
  "1486": 3754343153,
  "1487": 3756661872,
  "1488": 3709732602,
  "1489": 3759759475,
  "1490": 3758713740,
  "1491": 3711975666,
  "1492": 3735486280,
  "1493": 3699128174,
  "1494": 3763075711,
  "1495": 3763945010,
  "1496": 3652435407,
  "1497": 3702631530,
  "1498": 3762588678,
  "1499": 3664839094,
  "1500": 3685834413,
  "1501": 3739020970,
  "1502": 3775803057,
  "1503": 3759745751,
  "1504": 3760093232,
  "1505": 3702161130,
  "1506": 3699075781,
  "1507": 3668844879,
  "1508": 3688419157,
  "1509": 3667914797,
  "1510": 3703089302,
  "1511": 3695782660,
  "1512": 3661166079,
  "1513": 3656941881,
  "1514": 3712651049,
  "1515": 3699495725,
  "1516": 3721557420,
  "1517": 3769590122,
  "1518": 3743317593,
  "1519": 3727654597,
  "1520": 3785670782,
  "1521": 3755014917,
  "1522": 3739057707,
  "1523": 3804754847,
  "1524": 3753254040,
  "1525": 3758923791,
  "1526": 3692043420,
  "1527": 3737316199,
  "1528": 3772234819,
  "1529": 3670441433,
  "1530": 3680100940,
  "1531": 3739574882,
  "1532": 3763064625,
  "1533": 3761288701,
  "1534": 3791775569,
  "1535": 3743477359,
  "1536": 3789753736,
  "1537": 3719560862,
  "1538": 3705109566,
  "1539": 3759817441,
  "1540": 3703332018,
  "1541": 3741233800,
  "1542": 3710977475,
  "1543": 3806680501,
  "1544": 3790058158,
  "1545": 3773636242,
  "1546": 3743956308,
  "1547": 3709367360,
  "1548": 3704261475,
  "1549": 3739280032,
  "1550": 3723728502,
  "1551": 3762462380,
  "1552": 3781905237,
  "1553": 3717429842,
  "1554": 3712018880,
  "1555": 3749548328,
  "1556": 3669714895,
  "1557": 3669215416,
  "1558": 3679974994,
  "1559": 3741100513,
  "1560": 3765745454,
  "1561": 3726460563,
  "1562": 3789971376,
  "1563": 3742692997,
  "1564": 3710558449,
  "1565": 3726561219,
  "1566": 3714669154,
  "1567": 3676577657,
  "1568": 3733654161,
  "1569": 3791035265,
  "1570": 3757758080,
  "1571": 3737442337,
  "1572": 3753931745,
  "1573": 3773323097,
  "1574": 3768051084,
  "1575": 3726499467,
  "1576": 3705794418,
  "1577": 3704392531,
  "1578": 3710140570,
  "1579": 3705937562,
  "1580": 3760013744,
  "1581": 3716398174,
  "1582": 3707328994,
  "1583": 3758208472,
  "1584": 3770802779,
  "1585": 3746755456,
  "1586": 3713882890,
  "1587": 3717186769,
  "1588": 3716424584,
  "1589": 3701727352,
  "1590": 3747128231,
  "1591": 3712617805,
  "1592": 3694084899,
  "1593": 3692885327,
  "1594": 3668671852,
  "1595": 3710707289,
  "1596": 3741322398,
  "1597": 3758377549,
  "1598": 3749378221,
  "1599": 3704429779,
  "1600": 3730051808,
  "1601": 3710119942,
  "1602": 3701438668,
  "1603": 3741979982,
  "1604": 3701570441,
  "1605": 3746712341,
  "1606": 3771500421,
  "1607": 3833866435,
  "1608": 3845110349,
  "1609": 3751783829,
  "1610": 3826152795,
  "1611": 3768938019,
  "1612": 3751892403,
  "1613": 3710597414,
  "1614": 3758240188,
  "1615": 3754126132,
  "1616": 3706591633,
  "1617": 3746816353,
  "1618": 3764794090,
  "1619": 3717686715,
  "1620": 3721543868,
  "1621": 3765780214,
  "1622": 3737860025,
  "1623": 3794517217,
  "1624": 3813826874,
  "1625": 3823299011,
  "1626": 3783260003,
  "1627": 3739469585,
  "1628": 3723516000,
  "1629": 3716239654,
  "1630": 3676004889,
  "1631": 3658010482,
  "1632": 3723378954,
  "1633": 3675030250,
  "1634": 3618066083,
  "1635": 3626758118,
  "1636": 3710725323,
  "1637": 3704336662,
  "1638": 3742436107,
  "1639": 3720329233,
  "1640": 3661248159,
  "1641": 3734297238,
  "1642": 3780741528,
  "1643": 3792932434,
  "1644": 3772984900,
  "1645": 3731895113,
  "1646": 3685206746,
  "1647": 3727733360,
  "1648": 3658618093,
  "1649": 3667860701,
  "1650": 3673583154,
  "1651": 3723619628,
  "1652": 3739707052,
  "1653": 3752839694,
  "1654": 3760798051,
  "1655": 3729872239,
  "1656": 3736113974,
  "1657": 3722729176,
  "1658": 3703492188,
  "1659": 3683765723,
  "1660": 3673193122,
  "1661": 3624808910,
  "1662": 3667621613,
  "1663": 3680255903,
  "1664": 3667844993,
  "1665": 3660336297,
  "1666": 3681292955,
  "1667": 3680706341,
  "1668": 3672964344,
  "1669": 3765397571,
  "1670": 3741517330,
  "1671": 3723934418,
  "1672": 3730251584,
  "1673": 3709351180,
  "1674": 3683437771,
  "1675": 3678664311,
  "1676": 3675632634,
  "1677": 3716196856,
  "1678": 3673458369,
  "1679": 3674126366,
  "1680": 3691432541,
  "1681": 3698870356,
  "1682": 3697927461,
  "1683": 3783069538,
  "1684": 3777043071,
  "1685": 3708797093,
  "1686": 3736275671,
  "1687": 3769709515,
  "1688": 3673010856,
  "1689": 3747187197,
  "1690": 3722796298,
  "1691": 3731551676,
  "1692": 3751679758,
  "1693": 3707751367,
  "1694": 3793698683,
  "1695": 3785018111,
  "1696": 3776612113,
  "1697": 3735155134,
  "1698": 3751154341,
  "1699": 3740874943,
  "1700": 3760947164,
  "1701": 3782030854,
  "1702": 3764100671,
  "1703": 3740349656,
  "1704": 3762937300,
  "1705": 3787843082,
  "1706": 3812309838,
  "1707": 3780811102,
  "1708": 3760165398,
  "1709": 3751458632,
  "1710": 3804773553,
  "1711": 3701181110,
  "1712": 3729704368,
  "1713": 3738543433,
  "1714": 3717742778,
  "1715": 3723787722,
  "1716": 3750313163,
  "1717": 3767570931,
  "1718": 3712884316,
  "1719": 3697769944,
  "1720": 3706584390,
  "1721": 3819152929,
  "1722": 3771186498,
  "1723": 3729162263,
  "1724": 3716314617,
  "1725": 3727422877,
  "1726": 3698979654,
  "1727": 3709471139,
  "1728": 3729426569,
  "1729": 3724738806,
  "1730": 3736437317,
  "1731": 3789662135,
  "1732": 3732741199,
  "1733": 3786416676,
  "1734": 3755522724,
  "1735": 3703640313,
  "1736": 3700856175,
  "1737": 3692621482,
  "1738": 3701177946,
  "1739": 3695030491,
  "1740": 3738692581,
  "1741": 3778340608,
  "1742": 3749626522,
  "1743": 3737349154,
  "1744": 3791499310,
  "1745": 3749265808,
  "1746": 3759351533,
  "1747": 3712081752,
  "1748": 3636117430,
  "1749": 3752897116,
  "1750": 3747993074,
  "1751": 3689828200,
  "1752": 3726967708,
  "1753": 3757625990,
  "1754": 3776076897,
  "1755": 3790303124,
  "1756": 3853278173,
  "1757": 3795719754,
  "1758": 3727731821,
  "1759": 3722761957,
  "1760": 3775087473,
  "1761": 3764179696,
  "1762": 3741254869,
  "1763": 3814485445,
  "1764": 3728518634,
  "1765": 3643009253,
  "1766": 3678568074,
  "1767": 3669141238,
  "1768": 3745398545,
  "1769": 3753684360,
  "1770": 3740473246,
  "1771": 3754100529,
  "1772": 3724762671,
  "1773": 3743909710,
  "1774": 3747877066,
  "1775": 3745824756,
  "1776": 3736625844,
  "1777": 3744656781,
  "1778": 3784919999,
  "1779": 3779495798,
  "1780": 3767585733,
  "1781": 3760288278,
  "1782": 3744618231,
  "1783": 3730905884,
  "1784": 3701094624,
  "1785": 3737912655,
  "1786": 3774125243,
  "1787": 3731723774,
  "1788": 3684884431,
  "1789": 3769532601,
  "1790": 3811995566,
  "1791": 3742063107,
  "1792": 3682905498,
  "1793": 3641266430,
  "1794": 3655211758,
  "1795": 3723272195,
  "1796": 3774617735,
  "1797": 3808171519,
  "1798": 3790390394,
  "1799": 3766080234
}