{
  "1048576": [
    0.968,
    0.492,
    0.867,
    0.808,
    0.691,
    1.127,
    1.079,
    0.808,
    0.35,
    0.957,
    0.844091,
    0.907124,
    1.062,
    0.88,
    0.62,
    0.195,
    0.39445,
    0.776,
    1.155,
    0.835,
    0.712,
    0.73,
    0.207776,
    0.772,
    0.369,
    0.753,
    0.31,
    0.545,
    1.08,
    0.349,
    0.327,
    0.856,
    0.263,
    0.575,
    1.091,
    0.536,
    0.828,
    0.801,
    0.328,
    0.297,
    0.545,
    1.067,
    0.434,
    0.709643,
    0.193819,
    1.003,
    0.298,
    0.752,
    0.372,
    0.324,
    0.729586,
    0.469,
    0.524,
    0.947,
    0.825,
    0.722,
    0.221,
    0.436,
    0.962,
    0.267,
    0.848853,
    0.701,
    0.594315,
    0.409,
    0.819,
    0.733,
    0.976,
    0.331,
    0.325,
    0.771,
    0.853,
    0.982,
    0.707,
    0.841,
    0.789,
    0.899849,
    0.284547,
    0.555,
    1.492,
    0.594268,
    0.526,
    0.905,
    0.89,
    0.743942,
    0.463,
    1.018,
    1.126,
    0.38,
    0.74,
    0.271,
    0.397,
    0.40738,
    0.782889,
    0.323,
    0.34,
    0.386,
    0.483,
    1.06,
    0.476,
    0.415,
    0.438,
    0.416,
    0.702,
    0.2,
    0.347,
    0.382,
    0.726,
    0.823,
    0.458,
    0.73
  ],
  "51200": [
    0.876,
    0.385,
    0.395,
    0.351,
    0.752,
    0.57,
    1.106,
    0.642,
    0.856,
    0.963,
    0.462,
    0.395,
    1.339,
    0.665,
    1.118,
    0.612,
    0.248,
    0.25,
    0.569,
    0.987,
    0.248,
    0.789,
    0.333,
    1.069,
    0.472,
    0.869,
    9.978,
    8.42,
    0.897,
    0.654,
    0.754,
    0.312,
    0.539,
    0.969,
    0.944,
    0.432,
    0.561,
    0.952,
    0.581,
    0.678,
    1.017,
    0.644,
    0.282,
    0.323,
    1.024,
    0.852,
    0.259,
    1.060582,
    0.662,
    0.934207,
    0.578,
    0.585964,
    0.564757,
    0.473241,
    0.970308,
    1.092,
    0.888,
    0.568,
    0.635,
    1.007,
    0.802,
    1.095,
    0.689713,
    0.629,
    0.313,
    0.306,
    0.19,
    0.741,
    0.701,
    0.279,
    0.946,
    0.349,
    0.717,
    0.429,
    0.377,
    0.391,
    0.619,
    0.402,
    0.835105,
    1.087611,
    0.586,
    0.5,
    0.864,
    1.129,
    0.569,
    0.923228,
    0.696907,
    0.638,
    1.055,
    0.235,
    0.276,
    0.666,
    0.216,
    0.504,
    0.897,
    1.432,
    0.477,
    0.959,
    0.499,
    0.492,
    0.555,
    1.095,
    0.506,
    0.438,
    0.783,
    0.348,
    0.711,
    0.319,
    0.301,
    0.295111,
    0.768,
    0.354,
    0.632,
    0.268,
    0.636462,
    0.197,
    0.335,
    0.21,
    0.711,
    0.258,
    0.795,
    0.219,
    0.799117,
    0.531,
    0.867,
    0.417,
    0.415988,
    0.874,
    0.382,
    0.696251,
    0.416,
    0.749438,
    0.311,
    0.607,
    0.236,
    0.312,
    0.918,
    0.29989,
    0.561438,
    0.713,
    0.327,
    0.893,
    0.469,
    0.372,
    0.594,
    0.417038,
    0.393,
    0.386,
    0.335,
    0.724,
    0.709,
    0.535,
    1.012,
    0.876,
    0.95,
    0.462,
    0.6,
    0.772,
    0.899,
    0.296,
    0.268097,
    0.658,
    0.436,
    0.632,
    0.932,
    0.393,
    0.892,
    0.417,
    0.375,
    0.97,
    0.492,
    1.034,
    0.92,
    1.078,
    0.362,
    0.378,
    0.447,
    1.446,
    0.495,
    0.804,
    0.905,
    0.726,
    0.412,
    0.848,
    0.635,
    0.213,
    0.726,
    0.558,
    0.147,
    1.08,
    1.206,
    0.484,
    0.487,
    0.854,
    0.837,
    0.508,
    0.910206,
    0.271,
    0.735,
    0.374,
    0.665117,
    0.831,
    0.251,
    0.796,
    0.322,
    0.298,
    0.947,
    1.062,
    0.358,
    0.73,
    0.51,
    0.658,
    0.511,
    0.195,
    0.714,
    0.263,
    0.729,
    0.519,
    0.327,
    0.939,
    0.359,
    0.325,
    0.617,
    0.334,
    0.726,
    0.395,
    0.801,
    0.751,
    0.453,
    0.821602,
    0.447,
    0.818,
    0.527065,
    0.741,
    0.568,
    0.678,
    0.281,
    0.311409,
    0.89,
    0.278889,
    0.805,
    0.555,
    0.202,
    0.743,
    0.402,
    0.519,
    0.258097,
    0.787,
    0.445,
    0.493,
    0.240979,
    0.669,
    0.406,
    0.802,
    0.508,
    0.292,
    0.407,
    0.575,
    0.787,
    0.721,
    0.565,
    0.25,
    0.294,
    0.383,
    0.945,
    0.313,
    0.952,
    0.611,
    0.761,
    0.532,
    0.499,
    0.552,
    0.962,
    0.494,
    1.04,
    0.696,
    0.656908,
    0.547,
    0.81625,
    0.606541,
    0.44374,
    0.313,
    0.968611,
    0.486316,
    0.702899,
    0.206055,
    0.755,
    0.988,
    0.222,
    0.314775,
    0.566,
    0.153,
    0.861,
    0.254,
    0.731,
    0.215,
    0.32,
    0.686,
    0.444,
    0.726,
    0.812,
    0.244,
    0.248,
    0.344,
    0.868,
    0.254,
    0.787,
    0.494,
    0.754,
    0.46,
    0.795,
    0.291,
    0.674,
    0.452,
    0.69,
    0.343,
    0.691,
    0.749,
    0.312,
    0.625,
    0.317,
    0.615,
    0.269,
    0.374,
    0.598,
    0.322,
    0.959,
    0.478,
    0.933,
    0.522,
    0.766,
    1.277,
    0.576,
    0.906,
    0.382,
    0.577327,
    0.324,
    0.866,
    0.35,
    0.235,
    0.193248,
    0.624,
    0.474,
    0.67,
    0.259,
    0.687,
    0.184,
    0.713,
    0.486,
    0.374,
    0.775299,
    0.502,
    0.727,
    1.087,
    1.165,
    1.701,
    1.009,
    0.269,
    0.624,
    0.373,
    0.340531,
    1.175117,
    0.409331,
    0.531,
    0.766,
    0.454,
    0.678,
    1.015,
    0.451,
    0.367,
    0.4,
    0.836,
    0.308,
    0.677,
    0.333,
    0.841,
    0.319,
    0.945,
    0.311,
    0.287,
    0.736,
    0.331,
    0.646,
    0.302,
    0.807,
    0.39,
    0.716,
    0.412,
    0.316,
    0.403,
    0.741,
    0.347,
    0.638,
    0.396,
    0.743,
    0.665,
    0.27,
    0.485,
    0.859,
    0.62,
    0.237,
    0.75,
    0.607,
    0.929,
    0.331,
    0.349,
    0.54,
    0.373,
    0.86,
    0.512,
    0.794,
    0.375,
    0.354,
    0.560366,
    0.291,
    0.688,
    0.392,
    0.373,
    0.367903,
    0.412,
    0.841,
    0.641,
    0.864,
    0.290179,
    0.684,
    0.477,
    0.778,
    0.757,
    0.316,
    0.783,
    0.654,
    0.835,
    0.69,
    1.004,
    0.435,
    0.797,
    0.42,
    0.727,
    0.79,
    0.965,
    0.452,
    0.886,
    0.606,
    0.728,
    0.348,
    0.352369,
    0.411,
    0.983,
    0.362305,
    0.477,
    0.771,
    0.234901,
    0.71136,
    0.26197,
    0.722,
    0.288733,
    0.683544,
    0.315897,
    1.081,
    0.406173,
    0.761,
    0.228,
    0.293,
    0.496,
    0.55,
    0.644,
    0.294,
    0.539,
    0.261,
    0.252491,
    0.685103,
    0.636,
    0.271704,
    0.743577,
    0.25,
    0.813,
    0.955,
    0.792,
    0.488,
    0.46,
    0.956,
    0.461,
    1.309,
    0.457,
    0.563,
    0.961734,
    0.808,
    0.552,
    0.969079,
    0.9667,
    1.178,
    0.439,
    0.799,
    0.62,
    0.737,
    0.337,
    0.692,
    0.463,
    0.698,
    0.562,
    0.155775,
    0.628,
    0.182758,
    0.935,
    0.206,
    0.736,
    0.53,
    0.895,
    0.472,
    0.497,
    0.824,
    1.297,
    0.511,
    0.746,
    0.521,
    0.794806,
    0.62859,
    0.685,
    0.591,
    0.849,
    0.262,
    0.58,
    0.552935,
    1.31,
    0.578,
    1.116,
    1.95,
    0.51,
    1.066,
    0.608,
    0.843,
    0.656,
    0.356,
    0.505,
    0.66,
    0.665,
    0.317,
    0.946,
    0.352,
    1.015,
    0.314,
    0.756,
    0.617,
    1.212,
    0.816383,
    0.441187,
    0.619408,
    1.043214,
    0.534398,
    0.855787,
    0.472,
    0.766,
    1.013,
    0.351,
    0.569,
    0.837,
    0.312,
    1.366,
    0.312,
    0.887,
    0.432,
    0.917,
    0.465,
    0.821,
    0.636,
    0.803,
    0.420413,
    0.634,
    0.276,
    0.685,
    0.468,
    0.66,
    0.283,
    0.606,
    0.456,
    0.572,
    0.197,
    0.972,
    0.536,
    0.476,
    0.755,
    0.724,
    0.569,
    0.719,
    0.902,
    0.241,
    0.824,
    0.762,
    0.588,
    0.484,
    0.486,
    0.843,
    0.661,
    1.051,
    0.729,
    0.2,
    0.622,
    0.193,
    0.369,
    0.556,
    0.204,
    1.036,
    0.613,
    0.83,
    0.346,
    0.561,
    0.337,
    0.682,
    0.214,
    0.542,
    0.359,
    0.198,
    0.325,
    0.598,
    0.469,
    1.095,
    0.722295,
    1.304,
    0.931437,
    0.71,
    0.857,
    1.0,
    0.730484,
    0.908
  ],
  "5242880": [
    0.887,
    0.725,
    0.995897,
    1.059,
    0.744,
    0.616,
    0.81,
    0.962,
    0.622,
    0.294,
    0.407,
    0.38,
    0.781088,
    0.61,
    0.302,
    0.517,
    0.641,
    0.855,
    0.584,
    0.736,
    1.005897,
    0.232,
    0.933,
    0.761,
    0.855,
    0.911,
    0.745,
    0.294,
    0.27,
    0.831
  ],
  "ALL": [
    0.876,
    0.385,
    0.395,
    0.351,
    0.752,
    0.57,
    1.106,
    0.642,
    0.887,
    0.856,
    0.963,
    0.462,
    0.395,
    1.339,
    0.665,
    0.968,
    0.492,
    0.867,
    0.808,
    1.118,
    0.612,
    0.248,
    0.25,
    0.569,
    0.987,
    0.248,
    0.789,
    0.333,
    0.691,
    1.069,
    0.472,
    0.869,
    9.978,
    8.42,
    0.897,
    0.654,
    0.754,
    0.312,
    0.725,
    0.539,
    0.969,
    0.944,
    0.432,
    0.561,
    0.952,
    0.581,
    0.678,
    1.127,
    1.079,
    1.017,
    0.644,
    0.282,
    0.323,
    1.024,
    0.852,
    0.259,
    0.808,
    0.35,
    0.957,
    1.060582,
    0.662,
    0.934207,
    0.578,
    0.585964,
    0.564757,
    0.473241,
    0.970308,
    0.844091,
    0.907124,
    1.092,
    0.888,
    0.568,
    0.635,
    1.007,
    0.802,
    1.095,
    1.062,
    0.88,
    0.689713,
    0.629,
    0.313,
    0.306,
    0.19,
    0.741,
    0.701,
    0.279,
    0.62,
    0.195,
    0.946,
    0.349,
    0.717,
    0.429,
    0.377,
    0.391,
    0.619,
    0.402,
    0.39445,
    0.776,
    0.835105,
    1.087611,
    0.586,
    0.5,
    0.864,
    1.129,
    0.569,
    0.923228,
    0.696907,
    0.995897,
    0.638,
    1.055,
    0.235,
    0.276,
    0.666,
    0.216,
    0.504,
    0.897,
    1.155,
    1.432,
    0.477,
    0.959,
    0.499,
    0.492,
    0.555,
    1.095,
    0.506,
    0.438,
    1.059,
    0.783,
    0.348,
    0.711,
    0.319,
    0.301,
    0.295111,
    0.768,
    0.354,
    0.835,
    0.744,
    0.632,
    0.268,
    0.636462,
    0.197,
    0.335,
    0.21,
    0.711,
    0.258,
    0.795,
    0.219,
    0.799117,
    0.531,
    0.867,
    0.417,
    0.415988,
    0.874,
    0.382,
    0.696251,
    0.416,
    0.712,
    0.749438,
    0.311,
    0.607,
    0.236,
    0.312,
    0.918,
    0.29989,
    0.561438,
    0.73,
    0.207776,
    0.713,
    0.327,
    0.893,
    0.469,
    0.372,
    0.594,
    0.417038,
    0.772,
    0.369,
    0.616,
    0.393,
    0.386,
    0.335,
    0.724,
    0.709,
    0.535,
    0.753,
    0.31,
    0.81,
    1.012,
    0.876,
    0.95,
    0.462,
    0.6,
    0.772,
    0.899,
    0.545,
    0.962,
    0.296,
    0.268097,
    0.658,
    0.436,
    0.632,
    1.08,
    0.349,
    0.327,
    0.622,
    0.294,
    0.932,
    0.393,
    0.892,
    0.417,
    0.375,
    0.97,
    0.492,
    1.034,
    0.856,
    0.407,
    0.92,
    1.078,
    0.362,
    0.378,
    0.447,
    1.446,
    0.495,
    0.804,
    0.905,
    0.726,
    0.412,
    0.848,
    0.635,
    0.213,
    0.726,
    0.558,
    0.147,
    0.263,
    0.575,
    1.08,
    1.206,
    0.484,
    0.487,
    0.854,
    0.837,
    0.508,
    1.091,
    0.536,
    0.910206,
    0.271,
    0.735,
    0.374,
    0.665117,
    0.831,
    0.251,
    0.828,
    0.796,
    0.322,
    0.298,
    0.947,
    1.062,
    0.358,
    0.801,
    0.328,
    0.38,
    0.73,
    0.51,
    0.658,
    0.511,
    0.195,
    0.714,
    0.263,
    0.729,
    0.519,
    0.297,
    0.327,
    0.939,
    0.359,
    0.325,
    0.617,
    0.334,
    0.726,
    0.395,
    0.781088,
    0.61,
    0.801,
    0.751,
    0.453,
    0.821602,
    0.447,
    0.818,
    0.527065,
    0.545,
    1.067,
    0.434,
    0.741,
    0.568,
    0.678,
    0.281,
    0.311409,
    0.89,
    0.278889,
    0.805,
    0.709643,
    0.193819,
    0.555,
    0.202,
    0.743,
    0.402,
    0.519,
    0.258097,
    0.787,
    0.445,
    0.493,
    0.240979,
    0.669,
    0.406,
    0.802,
    0.508,
    0.292,
    0.407,
    0.575,
    1.003,
    0.298,
    0.787,
    0.721,
    0.565,
    0.25,
    0.294,
    0.383,
    0.945,
    0.313,
    0.752,
    0.952,
    0.611,
    0.761,
    0.532,
    0.499,
    0.552,
    0.962,
    0.494,
    1.04,
    0.696,
    0.656908,
    0.547,
    0.81625,
    0.606541,
    0.44374,
    0.313,
    0.968611,
    0.486316,
    0.702899,
    0.206055,
    0.755,
    0.988,
    0.222,
    0.314775,
    0.566,
    0.153,
    0.372,
    0.324,
    0.729586,
    0.302,
    0.861,
    0.254,
    0.731,
    0.215,
    0.32,
    0.686,
    0.444,
    0.726,
    0.469,
    0.517,
    0.812,
    0.244,
    0.248,
    0.344,
    0.868,
    0.254,
    0.787,
    0.494,
    0.524,
    0.947,
    0.754,
    0.46,
    0.795,
    0.291,
    0.674,
    0.452,
    0.69,
    0.343,
    0.691,
    0.749,
    0.312,
    0.625,
    0.317,
    0.615,
    0.269,
    0.374,
    0.598,
    0.322,
    0.825,
    0.641,
    0.959,
    0.478,
    0.933,
    0.522,
    0.766,
    1.277,
    0.576,
    0.906,
    0.382,
    0.722,
    0.577327,
    0.324,
    0.866,
    0.35,
    0.235,
    0.193248,
    0.624,
    0.474,
    0.67,
    0.259,
    0.687,
    0.184,
    0.713,
    0.486,
    0.374,
    0.775299,
    0.502,
    0.727,
    0.221,
    0.436,
    1.087,
    1.165,
    1.701,
    1.009,
    0.269,
    0.624,
    0.373,
    0.962,
    0.267,
    0.340531,
    1.175117,
    0.409331,
    0.531,
    0.766,
    0.454,
    0.678,
    0.848853,
    0.701,
    0.594315,
    1.015,
    0.451,
    0.367,
    0.4,
    0.836,
    0.308,
    0.677,
    0.333,
    0.409,
    0.855,
    0.841,
    0.319,
    0.945,
    0.311,
    0.287,
    0.736,
    0.331,
    0.646,
    0.302,
    0.584,
    0.807,
    0.39,
    0.716,
    0.412,
    0.316,
    0.403,
    0.741,
    0.347,
    0.819,
    0.638,
    0.396,
    0.743,
    0.665,
    0.27,
    0.485,
    0.859,
    0.62,
    0.237,
    0.75,
    0.607,
    0.929,
    0.331,
    0.349,
    0.54,
    0.373,
    0.86,
    0.512,
    0.733,
    0.794,
    0.375,
    0.354,
    0.560366,
    0.291,
    0.976,
    0.331,
    0.325,
    0.771,
    0.853,
    0.688,
    0.392,
    0.373,
    0.367903,
    0.412,
    0.841,
    0.641,
    0.864,
    0.290179,
    0.982,
    0.684,
    0.477,
    0.778,
    0.757,
    0.316,
    0.783,
    0.654,
    0.835,
    0.69,
    0.707,
    1.004,
    0.435,
    0.797,
    0.42,
    0.727,
    0.79,
    0.965,
    0.452,
    0.841,
    0.736,
    0.886,
    0.606,
    0.728,
    0.348,
    0.352369,
    0.411,
    0.983,
    0.362305,
    0.477,
    1.005897,
    0.771,
    0.234901,
    0.71136,
    0.26197,
    0.722,
    0.288733,
    0.683544,
    0.315897,
    1.081,
    0.406173,
    0.761,
    0.228,
    0.293,
    0.496,
    0.55,
    0.644,
    0.294,
    0.539,
    0.261,
    0.789,
    0.252491,
    0.685103,
    0.636,
    0.271704,
    0.743577,
    0.25,
    0.899849,
    0.284547,
    0.555,
    0.232,
    0.813,
    0.955,
    0.792,
    0.488,
    0.46,
    0.956,
    0.461,
    1.309,
    0.457,
    1.492,
    0.563,
    0.961734,
    0.808,
    0.552,
    0.969079,
    0.9667,
    0.594268,
    0.933,
    1.178,
    0.439,
    0.799,
    0.62,
    0.737,
    0.337,
    0.692,
    0.463,
    0.526,
    0.698,
    0.562,
    0.155775,
    0.628,
    0.182758,
    0.935,
    0.206,
    0.736,
    0.53,
    0.761,
    0.895,
    0.472,
    0.497,
    0.824,
    1.297,
    0.511,
    0.746,
    0.521,
    0.905,
    0.89,
    0.794806,
    0.62859,
    0.685,
    0.591,
    0.849,
    0.262,
    0.58,
    0.552935,
    0.743942,
    1.31,
    0.578,
    1.116,
    1.95,
    0.51,
    1.066,
    0.608,
    0.843,
    0.463,
    1.018,
    0.656,
    0.356,
    0.505,
    0.66,
    0.665,
    0.317,
    1.126,
    0.38,
    0.74,
    0.946,
    0.352,
    1.015,
    0.314,
    0.756,
    0.617,
    0.271,
    0.397,
    1.212,
    0.816383,
    0.441187,
    0.619408,
    1.043214,
    0.534398,
    0.855787,
    0.472,
    0.40738,
    0.782889,
    0.766,
    1.013,
    0.351,
    0.569,
    0.837,
    0.312,
    1.366,
    0.312,
    0.323,
    0.34,
    0.887,
    0.432,
    0.917,
    0.465,
    0.821,
    0.636,
    0.803,
    0.420413,
    0.386,
    0.483,
    0.634,
    0.276,
    0.685,
    0.468,
    0.66,
    0.283,
    0.606,
    0.456,
    0.572,
    0.197,
    0.972,
    0.536,
    0.476,
    1.06,
    0.476,
    0.415,
    0.438,
    0.416,
    0.855,
    0.911,
    0.755,
    0.724,
    0.569,
    0.719,
    0.902,
    0.241,
    0.702,
    0.2,
    0.745,
    0.824,
    0.762,
    0.588,
    0.484,
    0.486,
    0.843,
    0.661,
    1.051,
    0.347,
    0.382,
    0.729,
    0.2,
    0.622,
    0.193,
    0.369,
    0.556,
    0.204,
    0.294,
    0.27,
    0.831,
    1.036,
    0.613,
    0.83,
    0.346,
    0.561,
    0.337,
    0.726,
    0.823,
    0.682,
    0.214,
    0.542,
    0.359,
    0.198,
    0.325,
    0.598,
    0.469,
    0.458,
    0.73,
    1.095,
    0.722295,
    1.304,
    0.931437,
    0.71,
    0.857,
    1.0,
    0.730484,
    0.908
  ]
}