[
  1.221222,
  1.035662,
  1.103,
  1.25708,
  1.150889,
  1.135,
  1.150889,
  1.195,
  1.153,
  2.384163,
  1.051837,
  1.145,
  1.443,
  1.189386,
  1.231,
  1.112531,
  1.163881,
  1.093889,
  1.446531,
  1.162,
  1.13,
  1.143,
  0.318,
  1.11,
  1.194531,
  1.097947,
  1.107,
  1.126531,
  1.126,
  1.143,
  1.278881,
  1.143531,
  1.164,
  1.102,
  1.168,
  1.0734,
  1.148531,
  1.166,
  1.096765,
  1.141531,
  1.199,
  1.167,
  1.134889,
  1.163417,
  1.169,
  1.115453,
  1.111111,
  0.319889,
  1.343,
  1.103,
  2.083,
  1.209531,
  1.186,
  1.141,
  1.230889,
  1.164531,
  1.095,
  1.224,
  1.144623,
  1.14,
  0.328902,
  0.336117,
  0.812626,
  0.383,
  0.401165,
  0.414857,
  0.710802,
  0.728,
  0.562022,
  0.423883,
  0.36058,
  0.370802,
  0.364802,
  0.692802,
  0.694604,
  0.414198,
  0.402,
  0.383802,
  0.435006,
  0.369792,
  0.68,
  0.508824,
  0.370178,
  0.390978,
  0.372198,
  0.200301,
  0.679012,
  0.350802,
  0.420165,
  0.433,
  0.373835,
  0.419802,
  0.352431,
  0.327127,
  1.302604,
  0.604978,
  0.559438,
  0.403494,
  0.330604,
  0.690296,
  0.381,
  0.430165,
  0.386,
  0.453308,
  0.612198,
  0.452254,
  0.411802,
  0.57819,
  0.375,
  0.392624,
  0.387308,
  0.347198,
  0.426198,
  0.371,
  0.383967,
  0.535,
  0.413829,
  1.054,
  1.473581,
  1.029,
  1.012,
  1.296,
  1.160352,
  1.081,
  1.128,
  1.123,
  1.039,
  1.048,
  1.153,
  1.165,
  1.058,
  1.094,
  1.026,
  1.526352,
  1.038,
  1.025,
  1.039352,
  1.039,
  1.07,
  1.095,
  1.083897,
  1.187352,
  1.188,
  1.202429,
  1.053352,
  1.124,
  1.062,
  1.467823,
  1.205,
  1.219352,
  1.049,
  1.025,
  1.02,
  1.067,
  1.098352,
  1.042,
  1.043,
  1.354352,
  1.065,
  1.344,
  1.036117,
  3.866352,
  1.024,
  1.128,
  1.053,
  1.027,
  1.420352,
  1.045794,
  1.093,
  1.035352,
  1.095,
  1.155,
  1.124352,
  1.164,
  1.051,
  1.026,
  1.134,
  0.936567,
  0.928,
  0.285791,
  1.094,
  1.018171,
  0.890672,
  0.92837,
  0.943,
  1.057,
  0.954,
  1.20021,
  0.944872,
  1.036215,
  1.703,
  0.881778,
  1.074561,
  1.026,
  0.897852,
  0.949,
  1.018205,
  0.942,
  1.035,
  1.077,
  0.881183,
  0.974561,
  0.899617,
  1.068567,
  1.005561,
  0.994,
  1.028,
  1.371,
  0.908561,
  0.881,
  0.986,
  1.02,
  0.98,
  1.408791,
  0.965561,
  1.042,
  0.93,
  1.165561,
  0.995,
  0.957561,
  0.936602,
  0.876,
  0.951,
  1.016124,
  1.027,
  1.124,
  0.969561,
  0.871962,
  0.996889,
  0.981561,
  0.896,
  1.149561,
  0.952206,
  0.891,
  0.915,
  0.939624,
  0.948567,
  0.41041,
  0.424357,
  0.862895,
  0.403,
  0.389396,
  0.378604,
  0.437405,
  0.408,
  0.44655,
  0.419,
  0.583676,
  0.419478,
  0.612522,
  0.347478,
  0.413522,
  0.364,
  0.541,
  0.555,
  0.513522,
  0.361381,
  0.384,
  0.617957,
  0.586911,
  0.518534,
  0.345589,
  0.370743,
  0.405,
  0.359226,
  0.414248,
  0.419,
  0.447,
  0.602522,
  0.450154,
  0.540308,
  0.491141,
  0.105589,
  0.41165,
  0.714713,
  0.432,
  0.441,
  1.90435,
  0.364195,
  0.502595,
  0.565801,
  0.395522,
  0.383296,
  0.443936,
  0.389522,
  0.908,
  0.569624,
  0.43756,
  0.418534,
  0.381308,
  0.564161,
  0.434839,
  0.510522,
  0.419324,
  0.339305,
  0.838,
  1.052,
  0.793,
  0.211,
  0.826,
  0.82272,
  0.773,
  0.847,
  0.827,
  0.755,
  0.762,
  0.772314,
  0.916632,
  0.899,
  0.904,
  0.736,
  0.76672,
  0.987,
  0.982,
  0.84872,
  0.765479,
  0.826,
  0.877,
  0.792661,
  0.77772,
  1.034187,
  0.890528,
  0.83172,
  1.235,
  0.929,
  0.806645,
  1.28372,
  1.329073,
  0.744,
  0.852763,
  0.762,
  1.436,
  0.79272,
  0.866721,
  0.762,
  0.91472,
  1.00547,
  0.846479,
  0.89772,
  0.758303,
  0.792,
  0.854,
  0.819,
  0.778,
  0.84972,
  0.853,
  0.903526,
  1.46972,
  0.878669,
  0.888,
  0.77472,
  0.852,
  0.769,
  0.865,
  0.755,
  0.479037,
  0.498195,
  0.51939,
  0.496414,
  0.543194,
  0.480681,
  0.44,
  0.52,
  0.514819,
  0.508416,
  0.584959,
  0.469,
  0.430707,
  0.540293,
  0.56939,
  0.523,
  0.530673,
  0.502386,
  0.511195,
  0.301327,
  0.494,
  0.659608,
  0.568573,
  0.544008,
  0.47424,
  0.592819,
  0.500712,
  0.610195,
  0.514289,
  0.486711,
  1.191,
  0.432195,
  0.798915,
  0.483,
  0.814195,
  0.397,
  0.473301,
  0.496472,
  0.45065,
  0.692778,
  0.555392,
  0.501,
  0.618485,
  0.365308,
  0.81924,
  0.649,
  0.634,
  0.571195,
  0.597608,
  0.519,
  0.488662,
  2.226195,
  0.530392,
  0.498195,
  0.489606,
  0.502595,
  0.876396,
  0.579805,
  0.343,
  0.291,
  0.406448,
  0.239695,
  0.647,
  0.43,
  0.342,
  0.27353,
  0.419,
  0.415,
  0.318,
  0.323,
  0.328,
  0.595,
  0.259103,
  0.247,
  0.991,
  0.372,
  0.308103,
  0.439,
  0.374,
  0.492897,
  0.306103,
  0.391,
  0.392619,
  0.308,
  0.734103,
  0.049,
  0.279897,
  0.297,
  0.27,
  0.284103,
  1.558,
  0.523713,
  0.630103,
  0.280163,
  0.371897,
  0.326103,
  0.312887,
  0.311162,
  0.263057,
  0.217943,
  0.284,
  0.295408,
  0.323492,
  0.303434,
  0.294103,
  0.399935,
  0.317,
  0.408206,
  0.3929,
  0.2579,
  0.284136,
  0.316864,
  0.372381,
  0.360019,
  0.355,
  0.577794,
  0.409612,
  0.321255,
  0.324,
  0.37,
  0.438,
  0.47,
  1.551728,
  0.546,
  0.737501,
  0.700612,
  0.468388,
  0.3,
  0.617612,
  0.332,
  0.337,
  0.3,
  0.363612,
  0.699111,
  0.412499,
  0.449388,
  0.348612,
  0.472,
  0.628,
  0.459,
  0.342604,
  0.356224,
  0.302388,
  0.464,
  0.445,
  0.657612,
  0.412,
  0.459,
  0.658842,
  0.561,
  0.411,
  0.327,
  0.379,
  0.337,
  0.391,
  0.338,
  0.349,
  0.349612,
  0.36877,
  0.497,
  0.347612,
  0.403423,
  0.354388,
  0.983,
  0.801612,
  0.348182,
  0.33,
  0.370388,
  0.341,
  0.34,
  0.386,
  0.385,
  0.236743,
  0.219029,
  0.691257,
  0.315908,
  0.262,
  0.245,
  0.398315,
  0.303,
  0.404,
  0.364,
  0.234,
  0.245,
  0.288189,
  0.276,
  0.746257,
  0.266,
  0.273,
  0.292,
  0.267257,
  0.267,
  0.643,
  0.042,
  0.288,
  0.281,
  0.261743,
  0.258,
  0.243043,
  0.389257,
  0.298,
  0.384,
  0.24,
  0.268257,
  0.329,
  0.261,
  0.433257,
  0.258,
  0.280028,
  0.269,
  0.406257,
  0.274568,
  0.271977,
  0.353608,
  0.288,
  0.328,
  0.318257,
  0.319,
  0.758,
  0.347257,
  0.259,
  0.325,
  0.526,
  0.277257,
  0.259,
  0.38,
  0.308,
  0.633,
  0.293,
  0.289,
  1.024,
  1.295,
  1.005523,
  0.997946,
  1.273352,
  1.120897,
  1.003,
  1.053206,
  1.172,
  1.04968,
  1.41568,
  1.08,
  1.379,
  1.205,
  1.092698,
  1.035897,
  1.186352,
  1.037597,
  1.187352,
  1.199,
  1.029,
  1.12,
  1.031,
  1.083352,
  1.382,
  1.066,
  1.002903,
  1.009936,
  1.054,
  1.057,
  1.027352,
  1.047,
  1.061,
  1.045,
  1.028,
  1.047352,
  1.072461,
  1.152839,
  1.032,
  1.019,
  1.762461,
  1.048,
  1.138352,
  1.065,
  1.066,
  1.148,
  1.165913,
  1.061352,
  1.158,
  0.975,
  1.149352,
  1.017876,
  1.056897,
  1.422,
  1.216897,
  1.243352,
  1.05587,
  1.028103,
  0.999,
  1.223889,
  1.04,
  1.166994,
  1.857,
  1.059,
  1.03861,
  1.049,
  1.016,
  1.012,
  1.109,
  1.006,
  1.296,
  2.046,
  1.035,
  1.154,
  1.026,
  1.22061,
  1.053,
  1.01161,
  1.016,
  1.043,
  1.021,
  1.423742,
  1.154,
  1.03961,
  1.049681,
  1.100897,
  1.063,
  1.05161,
  1.055,
  1.11,
  0.98761,
  1.014,
  1.029,
  1.022,
  1.024,
  1.00761,
  1.082,
  1.068,
  1.16161,
  1.146,
  1.021,
  1.063994,
  1.21761,
  1.011,
  1.191,
  1.024,
  1.141,
  1.25061,
  1.123,
  1.051598,
  1.01461,
  1.02161,
  1.152,
  1.014235,
  1.70661,
  1.457701,
  1.029,
  1.044,
  1.032,
  1.031238,
  0.890434,
  1.632591,
  1.494432,
  1.019108,
  0.899579,
  0.971111,
  0.807597,
  0.88698,
  0.816304,
  1.696688,
  0.963419,
  1.02516,
  0.799874,
  0.948284,
  0.959654,
  1.024889,
  1.796,
  0.933292,
  1.031148,
  0.861195,
  0.808747,
  1.686911,
  0.892716,
  0.965923,
  0.938768,
  0.974702,
  0.951362,
  1.117232,
  1.082,
  0.931966,
  0.925095,
  0.14474,
  0.784923,
  1.123024,
  0.858732,
  0.963579,
  1.049917,
  0.82491,
  1.735173,
  0.935835,
  1.089,
  1.016,
  0.918966,
  0.902224,
  0.895377,
  1.822478,
  0.847846,
  0.855922,
  0.924725,
  0.916437,
  0.952144,
  0.949296,
  0.923,
  0.974,
  0.90387,
  0.819253,
  0.203464,
  0.53,
  0.572,
  0.391111,
  0.352,
  0.333111,
  0.315,
  0.958939,
  0.57,
  0.397,
  0.496,
  0.356,
  0.373,
  0.417,
  0.519994,
  0.632111,
  0.466418,
  0.760135,
  0.370447,
  0.436423,
  0.437,
  0.551889,
  0.416,
  0.320111,
  0.465,
  0.381,
  0.428,
  0.808111,
  0.368687,
  0.394313,
  0.337,
  0.204152,
  0.467,
  0.441,
  0.501,
  0.441111,
  0.631,
  0.484,
  0.886,
  0.686111,
  0.454,
  0.356,
  0.364,
  0.351,
  0.518509,
  0.424,
  0.756,
  0.774111,
  0.455,
  0.528876,
  0.523,
  0.486111,
  0.535,
  0.199552,
  0.347124,
  0.413,
  0.386,
  1.146,
  0.363624,
  0.339897,
  1.329,
  0.332103,
  0.645897,
  1.301,
  0.517,
  0.287,
  0.329,
  0.332,
  0.359,
  0.404,
  0.345897,
  0.34,
  0.40408,
  0.293103,
  0.324897,
  0.61,
  0.374,
  0.448103,
  0.301,
  0.519897,
  0.295,
  0.443103,
  0.317,
  0.421,
  0.516752,
  0.614103,
  0.21,
  0.402,
  0.651,
  0.448,
  0.359103,
  0.428,
  0.378,
  0.374103,
  0.44,
  0.31323,
  0.338,
  0.292103,
  0.283,
  0.311,
  0.328,
  0.621,
  0.666103,
  0.345,
  0.884,
  0.338103,
  0.402897,
  0.696,
  0.327,
  0.332103,
  0.344,
  0.599,
  0.564,
  0.66,
  0.425,
  0.209,
  0.277,
  0.446813,
  0.354103,
  0.25319,
  0.46,
  0.271306,
  0.358,
  0.449,
  0.305,
  0.329,
  0.463,
  0.304,
  0.315,
  0.295,
  0.831103,
  0.353,
  0.447,
  0.452,
  0.471103,
  0.334,
  0.407,
  0.339,
  0.745449,
  0.344,
  0.51643,
  0.419,
  0.257103,
  0.565,
  0.378,
  0.277,
  0.322103,
  0.529,
  0.791918,
  0.26465,
  0.308673,
  0.337481,
  0.324891,
  0.323,
  0.370103,
  0.445,
  0.450184,
  0.45,
  0.493,
  0.261103,
  0.601,
  0.453,
  0.758103,
  0.47,
  0.333,
  0.326,
  0.411103,
  0.657,
  0.334,
  0.33,
  0.331,
  11.751,
  0.444,
  0.373,
  0.42,
  0.821111,
  0.86,
  0.612,
  0.373,
  2.557096,
  0.365357,
  0.684,
  0.383,
  0.508,
  0.888111,
  0.509,
  0.532,
  0.451111,
  0.394138,
  0.414862,
  1.039,
  0.450131,
  0.918,
  0.585222,
  0.454111,
  0.452111,
  0.664,
  0.479,
  0.537,
  0.506111,
  0.200992,
  0.999802,
  1.01,
  0.97373,
  0.475222,
  0.372,
  0.564889,
  0.545222,
  0.348376,
  0.977624,
  1.578,
  0.427111,
  1.062,
  1.013,
  1.34,
  0.542,
  0.560111,
  0.466,
  0.481,
  0.792873,
  0.763,
  0.509,
  0.678,
  0.520111,
  0.933,
  1.141,
  0.484,
  1.093,
  0.638,
  0.083,
  0.461,
  0.955,
  1.063567,
  0.895,
  0.976,
  0.894,
  1.421791,
  1.029852,
  0.977,
  1.009,
  1.027424,
  0.991,
  1.00774,
  0.980567,
  0.961424,
  1.034,
  0.896561,
  0.936738,
  0.956,
  0.992561,
  1.067,
  1.005,
  0.987,
  1.0564,
  1.003561,
  1.039,
  1.438567,
  1.029,
  1.081561,
  0.908,
  1.07233,
  1.320561,
  0.973,
  1.003,
  0.967,
  1.014567,
  1.010561,
  1.02816,
  1.209889,
  1.261945,
  1.061561,
  0.99616,
  1.126,
  0.876777,
  1.091561,
  1.012,
  0.97,
  1.038,
  0.905424,
  0.921561,
  0.928,
  0.953356,
  0.926561,
  1.126602,
  1.174,
  1.420561,
  1.253,
  1.15,
  0.984,
  0.949,
  1.219802,
  1.228,
  1.22,
  1.335,
  1.216853,
  1.306198,
  1.208655,
  1.518,
  1.495,
  1.173,
  1.530019,
  1.168,
  1.305,
  1.191513,
  1.803,
  1.410853,
  1.251653,
  1.189647,
  1.309339,
  1.179633,
  1.435,
  1.15,
  1.511,
  1.229562,
  1.608853,
  1.312,
  1.246,
  1.296853,
  1.19026,
  2.15574,
  1.218671,
  1.137853,
  1.118,
  1.23,
  1.502,
  1.257558,
  1.191853,
  1.311882,
  2.195182,
  1.266853,
  1.258653,
  1.197,
  1.200073,
  1.169,
  1.191853,
  1.5,
  1.244,
  1.142,
  1.180198,
  1.315853,
  1.368,
  1.236,
  1.175853,
  1.391,
  1.232882,
  1.186853,
  1.524,
  1.189,
  1.528,
  1.545,
  0.33,
  1.031,
  1.032,
  0.284,
  1.062408,
  1.031,
  1.362983,
  1.093943,
  1.058,
  1.051,
  1.046,
  2.246,
  1.048,
  1.315777,
  1.144,
  1.049822,
  1.022,
  1.548089,
  1.311,
  1.035109,
  1.146983,
  1.059,
  1.151,
  1.108,
  1.075,
  1.307983,
  1.058,
  1.038,
  0.969983,
  1.019,
  1.109,
  1.231,
  0.287,
  1.051983,
  1.175,
  1.049,
  1.04,
  1.058243,
  1.113983,
  1.043,
  1.042109,
  1.021983,
  1.026,
  1.093,
  1.15,
  1.246983,
  1.054,
  1.042,
  1.032,
  1.054,
  1.059983,
  1.39,
  1.089,
  1.042983,
  1.027,
  1.002,
  1.119983,
  1.01496,
  1.033401,
  1.027,
  1.066,
  0.786,
  0.43,
  0.758403,
  0.559642,
  0.296,
  0.373,
  0.352,
  0.393,
  0.562,
  0.364,
  0.417704,
  0.399,
  0.421,
  0.434,
  0.336403,
  0.549,
  0.335,
  0.386403,
  0.962,
  0.48,
  0.395,
  0.392,
  0.464403,
  0.367,
  0.488352,
  0.399403,
  0.061597,
  0.372729,
  0.573597,
  0.576,
  0.450403,
  0.528,
  0.385,
  0.682089,
  0.403403,
  0.653,
  0.538,
  0.538,
  0.708403,
  0.689,
  0.586,
  0.373,
  0.451403,
  0.329,
  0.419,
  0.62,
  0.422403,
  0.69131,
  0.544,
  0.395911,
  0.715597,
  0.457597,
  0.678,
  0.564,
  0.761,
  0.589,
  0.656,
  1.001,
  1.002971,
  1.04898,
  1.031,
  1.125633,
  2.195897,
  1.047,
  1.055,
  1.0774,
  1.172897,
  0.980103,
  1.138897,
  1.113352,
  1.102,
  1.128,
  1.146352,
  1.02061,
  0.998,
  1.114352,
  1.058,
  1.024,
  1.053,
  1.331605,
  1.048455,
  1.076111,
  1.137897,
  1.341455,
  1.027,
  0.984891,
  1.143103,
  1.139777,
  0.996352,
  1.049,
  1.026,
  1.051097,
  1.112,
  1.054352,
  1.035388,
  1.122587,
  1.128352,
  1.094889,
  1.088,
  1.011,
  1.075352,
  1.120897,
  1.0974,
  1.038103,
  1.026897,
  1.047352,
  1.045509,
  1.924097,
  1.143311,
  1.102175,
  1.046794,
  1.083352,
  1.44261,
  1.074,
  1.0406,
  1.29,
  0.353,
  0.524,
  0.314103,
  0.365,
  0.302,
  0.542,
  0.345285,
  0.328,
  0.411,
  0.309,
  0.362,
  0.299856,
  0.501873,
  0.244404,
  0.376,
  0.655103,
  0.298,
  0.395,
  0.319,
  0.617103,
  0.452,
  0.334,
  0.336,
  0.305103,
  0.331,
  0.336,
  0.289103,
  0.427,
  0.24117,
  0.379,
  0.592,
  0.299,
  0.405103,
  0.315,
  0.311103,
  0.342,
  0.295,
  0.357,
  0.349078,
  0.428103,
  0.319,
  0.33,
  0.39,
  1.046,
  0.392,
  0.440103,
  0.327,
  0.338103,
  0.509,
  0.354,
  0.454,
  0.295103,
  0.452,
  0.38,
  0.301873,
  0.396,
  0.418,
  0.355,
  1.025,
  1.417,
  1.174,
  1.172897,
  1.15,
  1.171352,
  1.260796,
  1.075194,
  1.348,
  1.036,
  1.114194,
  1.054,
  1.198897,
  1.202,
  0.995,
  1.182352,
  1.244,
  1.138,
  1.016352,
  1.06,
  1.078,
  1.338,
  1.035474,
  1.429,
  1.021,
  1.027,
  1.078,
  1.98,
  1.212352,
  1.081,
  1.038,
  1.015352,
  1.368897,
  1.053,
  1.364,
  1.163,
  1.134352,
  1.051,
  1.015,
  1.121352,
  1.062897,
  1.099478,
  1.019097,
  1.066352,
  1.2,
  1.327,
  1.356,
  1.091,
  1.395352,
  1.043568,
  6.532,
  1.016352,
  1.198461,
  1.069117,
  1.425,
  1.002,
  1.036,
  1.494,
  1.053,
  1.345,
  1.335,
  0.384162,
  0.267357,
  0.311103,
  0.342897,
  0.32,
  0.352,
  0.302231,
  0.411,
  0.331,
  0.568152,
  0.270889,
  0.579,
  0.321,
  0.398292,
  0.371103,
  0.39,
  0.281,
  0.31,
  0.366103,
  0.432,
  0.31,
  0.246,
  0.805103,
  0.327,
  0.241629,
  0.35,
  0.318103,
  0.356897,
  0.324,
  0.306,
  0.338103,
  0.208,
  0.176301,
  0.744,
  0.300103,
  0.309273,
  0.273624,
  0.318,
  0.321103,
  0.406629,
  0.338629,
  0.333,
  0.352,
  0.471103,
  0.26081,
  0.322103,
  0.324,
  0.333897,
  0.399897,
  0.699038,
  1.24281,
  0.449,
  0.296626,
  0.332117,
  0.339,
  0.511,
  0.286557,
  0.316,
  0.349103,
  0.779448,
  0.766,
  0.399,
  0.421491,
  0.346,
  0.318,
  0.319,
  0.332,
  0.292,
  0.343,
  0.325,
  0.310103,
  0.707,
  0.389,
  0.51,
  0.364103,
  0.301734,
  0.436,
  0.291,
  0.407103,
  0.374,
  0.422,
  0.419,
  0.313103,
  0.395,
  0.391,
  0.613,
  0.518103,
  0.323,
  0.359008,
  0.329,
  1.029103,
  0.345,
  0.315,
  0.797103,
  0.303,
  0.474846,
  0.795,
  0.749,
  0.412103,
  0.803,
  0.663,
  0.647,
  0.508103,
  0.46,
  0.776215,
  0.455103,
  0.27758,
  0.387963,
  0.726,
  0.507,
  0.39,
  0.315,
  0.960289,
  0.937,
  0.983978,
  1.009,
  0.970854,
  1.059129,
  0.95508,
  0.97,
  0.987,
  1.012,
  0.968587,
  0.965315,
  0.957475,
  0.999834,
  0.964854,
  1.045,
  1.00139,
  0.96961,
  0.969854,
  0.98732,
  0.982,
  0.985,
  0.981916,
  1.043854,
  1.0,
  0.945,
  0.986854,
  1.084,
  0.992178,
  1.323,
  1.046854,
  1.124141,
  0.976,
  0.979996,
  0.267,
  1.039443,
  1.354854,
  0.992,
  0.935061,
  1.351854,
  0.939,
  1.013,
  0.961854,
  0.953,
  0.974,
  1.029,
  1.203,
  0.985746,
  0.930854,
  1.085,
  0.88,
  2.105854,
  0.925,
  0.984561,
  0.992854,
  1.059684,
  1.125,
  1.025,
  1.07,
  0.949,
  0.932,
  0.963192,
  1.082,
  1.073102,
  0.997,
  0.965701,
  1.409,
  0.933,
  1.082,
  0.917,
  0.971701,
  1.078,
  1.007,
  1.043,
  0.872102,
  1.026,
  0.917,
  0.945102,
  0.934,
  1.047,
  0.976,
  1.049701,
  1.720102,
  0.943,
  1.261424,
  1.010102,
  0.968237,
  0.934,
  1.41925,
  1.76575,
  0.954102,
  1.141,
  0.968,
  0.942,
  0.938,
  0.947102,
  0.932233,
  1.416701,
  0.947102,
  1.407,
  1.018424,
  0.966102,
  0.969,
  0.94,
  0.934,
  1.209244,
  0.914,
  1.067102,
  1.107701,
  0.948,
  0.961102,
  0.932326,
  0.928409,
  1.348102,
  0.943,
  0.945,
  1.149,
  1.017237,
  1.804,
  1.49,
  1.847,
  1.664,
  2.415,
  1.661,
  3.741,
  4.763,
  2.815,
  1.433,
  1.361,
  1.074,
  2.988,
  1.681,
  1.133,
  18.652,
  1.192,
  1.396,
  37.999,
  2.275842,
  1.24,
  3.188,
  2.188,
  5.686842,
  1.28,
  2.254,
  2.124,
  1.540842,
  1.705,
  0.289,
  1.418842,
  1.26,
  1.442,
  2.739,
  7.494,
  1.184842,
  7.629,
  1.469,
  1.612,
  2.324,
  1.591,
  1.133,
  1.326,
  4.966,
  18.938,
  2.664,
  1.632,
  2.994,
  1.346,
  2.000842,
  1.088,
  1.035,
  1.504,
  1.380842,
  8.372,
  7.372,
  6.96,
  1.595,
  2.669,
  0.303,
  1.021585,
  1.185717,
  1.30747,
  1.055,
  1.232352,
  1.915805,
  1.059,
  1.038,
  1.028,
  1.039,
  1.287,
  1.203897,
  1.068,
  1.079,
  1.025,
  1.047352,
  1.395,
  1.031,
  1.409352,
  1.014729,
  1.031,
  1.012079,
  1.052355,
  1.670143,
  1.075352,
  1.249,
  1.145,
  1.044352,
  1.032,
  1.491,
  1.087103,
  1.210352,
  1.023,
  1.031,
  1.052,
  1.039,
  1.078352,
  1.143897,
  1.141103,
  1.312352,
  1.110889,
  1.057,
  1.67612,
  1.148729,
  1.076455,
  1.018,
  1.151,
  1.081,
  1.084,
  1.131352,
  1.185,
  1.406,
  1.068352,
  1.049114,
  1.356897,
  1.660772,
  1.021,
  1.069,
  1.028,
  1.079,
  1.138897,
  0.291,
  0.454731,
  0.338103,
  0.043,
  0.337731,
  0.505,
  0.282,
  0.901897,
  0.444,
  0.281,
  0.343,
  0.30799,
  0.50635,
  0.287,
  0.367103,
  0.307731,
  0.548156,
  0.296,
  0.327,
  0.352752,
  0.305,
  0.363769,
  0.521,
  0.333103,
  0.33,
  0.47,
  0.312103,
  0.305,
  0.276897,
  0.292,
  0.326,
  0.345103,
  0.629,
  0.39,
  0.562103,
  0.308,
  0.31,
  0.32,
  0.428103,
  0.421,
  0.279517,
  0.305,
  0.305,
  0.309103,
  0.615,
  0.494437,
  0.329103,
  0.41,
  0.414773,
  0.288,
  0.275103,
  0.783599,
  0.41785,
  0.3,
  0.314,
  0.263,
  0.306794,
  0.442,
  0.951,
  1.080124,
  0.165,
  1.0679,
  1.024,
  1.058816,
  1.027184,
  1.189,
  1.018,
  1.011,
  1.059,
  1.026,
  1.619399,
  0.982106,
  1.041,
  1.043,
  1.074,
  1.111894,
  1.069124,
  1.081,
  0.946,
  0.875,
  1.004262,
  1.058124,
  0.982,
  1.014124,
  0.953,
  1.035,
  1.028907,
  1.070148,
  0.890124,
  1.027,
  0.166598,
  1.144581,
  0.931,
  1.051,
  1.096,
  0.888,
  0.895124,
  0.986238,
  1.07,
  1.1,
  1.03,
  1.237124,
  0.943,
  1.165543,
  1.028124,
  0.89,
  1.150024,
  1.100024,
  0.951124,
  1.169,
  1.016434,
  1.16,
  1.042,
  1.082,
  1.163,
  0.369,
  0.338623,
  0.328,
  0.38117,
  0.342,
  0.349,
  0.489,
  0.356,
  0.29,
  0.435,
  0.46,
  0.359,
  0.692,
  1.089,
  0.461,
  0.41317,
  0.317,
  0.357,
  0.32617,
  0.311,
  0.522,
  0.372,
  0.06,
  0.31317,
  1.083,
  0.333203,
  0.47,
  0.44817,
  0.468,
  0.282782,
  0.367,
  0.34117,
  0.276,
  0.333,
  0.37117,
  0.356,
  0.372,
  0.458,
  0.34617,
  0.363624,
  0.46384,
  0.358278,
  0.342,
  0.36817,
  0.304,
  0.055,
  0.453,
  0.62917,
  0.427785,
  0.85,
  0.40617,
  0.86,
  0.857,
  0.323,
  0.286,
  1.257616,
  0.433,
  0.46,
  1.177,
  1.370096,
  1.273,
  0.991,
  1.128,
  1.214,
  0.998,
  1.291,
  1.017,
  1.003,
  0.943,
  1.358,
  0.92,
  1.068,
  0.941,
  0.938,
  0.275096,
  1.02,
  0.894027,
  1.018,
  0.971356,
  1.006,
  1.272,
  1.064,
  0.944,
  1.026356,
  1.11,
  1.29,
  1.117356,
  1.104,
  0.962,
  0.96,
  0.931356,
  1.425,
  1.071,
  1.023,
  1.019,
  0.969356,
  0.975,
  1.082,
  0.934356,
  0.989,
  1.097,
  0.94,
  1.031356,
  0.939,
  1.091,
  1.118,
  1.528,
  0.966356,
  1.151,
  0.952,
  0.957356,
  1.272,
  0.963,
  0.961356,
  1.433096,
  1.263,
  1.012,
  0.931,
  0.899,
  0.887104,
  1.616068,
  1.644849,
  0.870436,
  0.867,
  0.890343,
  0.887462,
  0.805473,
  0.753527,
  0.794473,
  0.80338,
  0.820615,
  0.774765,
  0.773286,
  0.885916,
  0.850402,
  0.845657,
  0.841,
  0.884124,
  1.026908,
  0.997092,
  1.101713,
  0.921124,
  0.853532,
  0.84536,
  0.868538,
  0.910203,
  0.234545,
  0.893901,
  0.88424,
  0.99776,
  0.78255,
  0.875,
  0.929945,
  0.902124,
  0.880455,
  0.80422,
  0.90476,
  1.030939,
  0.98424,
  0.81776,
  0.855058,
  0.879942,
  0.990323,
  0.854174,
  0.776124,
  0.772,
  0.653075,
  0.732114,
  1.031124,
  0.86039,
  0.842752,
  0.889564,
  0.842436,
  1.01924,
  0.929,
  0.440067,
  0.365,
  0.411522,
  0.210703,
  0.446974,
  0.452,
  0.489,
  0.413,
  0.482786,
  0.537,
  0.345596,
  0.71356,
  0.466,
  0.448,
  2.436522,
  0.718,
  0.047581,
  0.458419,
  0.459,
  0.437001,
  0.398522,
  0.694,
  0.371,
  0.558,
  0.490522,
  0.435607,
  0.42089,
  0.390738,
  0.605604,
  0.476619,
  0.467847,
  0.410154,
  0.436,
  0.723204,
  0.507154,
  0.414,
  0.564,
  0.426646,
  0.556522,
  0.442154,
  0.444,
  0.447518,
  0.447483,
  1.134522,
  0.706478,
  0.434,
  0.379522,
  0.519102,
  0.488336,
  0.42,
  0.195581,
  0.445898,
  0.361012,
  0.493,
  0.457,
  0.443,
  0.420921,
  0.53137,
  0.856,
  0.323388,
  0.292612,
  0.340331,
  0.356,
  0.343,
  0.381,
  0.357,
  0.307,
  0.312,
  0.495352,
  0.291388,
  0.275,
  0.478686,
  0.345612,
  0.394671,
  0.339,
  0.336,
  0.202491,
  0.359612,
  0.331,
  0.331412,
  0.335,
  0.369487,
  0.277,
  0.259794,
  0.368,
  0.641612,
  0.364,
  0.35,
  0.549,
  0.348612,
  0.260347,
  0.873,
  0.363612,
  0.351,
  0.435,
  0.346352,
  0.483612,
  0.385,
  0.331,
  0.339,
  0.413,
  0.320612,
  0.758,
  0.201491,
  0.299785,
  0.472612,
  0.387386,
  0.485,
  0.604,
  0.338612,
  0.779,
  0.425,
  0.444,
  0.349,
  0.838,
  0.405,
  0.983,
  1.012,
  0.969,
  0.943,
  0.95,
  1.021,
  1.0,
  0.944,
  2.009,
  1.023,
  1.012,
  0.943,
  0.924,
  0.942,
  1.015,
  1.426923,
  0.988,
  1.009,
  0.940923,
  0.961,
  0.985,
  1.069,
  1.668549,
  1.356923,
  1.022,
  1.427923,
  0.98,
  0.99,
  1.058,
  1.204,
  1.356923,
  0.993,
  1.113,
  1.679,
  1.335,
  1.005923,
  0.983,
  1.244923,
  0.902,
  1.203,
  1.282,
  0.954923,
  0.944,
  1.018,
  1.092,
  1.23,
  1.145,
  1.671549,
  0.932923,
  0.925,
  0.949923,
  1.112,
  1.07974,
  1.030923,
  0.916,
  1.042,
  0.987,
  0.945,
  0.901,
  0.967,
  0.54,
  0.457,
  1.423968,
  2.001103,
  0.196,
  0.584,
  0.426,
  0.396,
  8.984,
  0.426,
  0.374,
  0.302,
  0.491,
  1.31,
  0.306103,
  0.369,
  50.0248,
  0.448,
  0.437,
  0.776145,
  0.451103,
  0.728,
  0.935103,
  0.874,
  0.37,
  0.407,
  0.541,
  0.591,
  0.424,
  0.457,
  0.865,
  0.466103,
  0.428,
  0.812,
  0.606103,
  0.417,
  0.803,
  0.425103,
  0.542,
  0.391,
  0.77974,
  0.497981,
  0.541,
  0.563,
  0.533103,
  0.45,
  1.604,
  0.623103,
  0.354,
  0.429,
  0.494103,
  0.398,
  0.379361,
  0.407639,
  0.549,
  0.451,
  0.443,
  0.424,
  0.536,
  0.494,
  0.456,
  0.577788,
  0.345221,
  0.358,
  0.34177,
  0.53723,
  0.438,
  0.345,
  0.449992,
  0.81787,
  0.33,
  0.38787,
  0.327,
  0.413763,
  0.682641,
  0.426,
  0.437,
  0.326763,
  0.370244,
  0.776,
  0.325,
  0.419,
  0.332807,
  0.497796,
  0.716763,
  0.354074,
  0.381,
  0.379,
  0.317763,
  0.414,
  0.336144,
  0.332947,
  0.573,
  0.355,
  0.464,
  0.435763,
  0.333527,
  0.340316,
  0.408,
  0.366,
  0.467763,
  0.324,
  0.347,
  0.62411,
  0.364763,
  0.366,
  0.388,
  0.359763,
  0.361,
  0.411371,
  0.388,
  0.337,
  0.368706,
  0.20934,
  0.461145,
  0.648424,
  1.046,
  1.037,
  1.102,
  1.495,
  1.423201,
  1.195,
  1.054,
  1.047,
  1.065,
  1.199,
  1.162,
  1.019,
  1.081897,
  1.029,
  1.025,
  1.041352,
  1.072,
  1.125,
  1.120352,
  1.158,
  1.105,
  1.054,
  1.026,
  1.249352,
  1.05,
  1.203,
  1.036352,
  1.099,
  1.295897,
  1.069897,
  0.293,
  1.165352,
  1.122,
  1.201,
  1.132,
  1.088,
  1.041352,
  1.081,
  1.321743,
  1.041352,
  1.031,
  1.095,
  1.048,
  1.311352,
  1.193,
  1.131,
  1.084,
  1.466,
  1.046352,
  1.065,
  1.114,
  1.112352,
  1.014,
  1.146794,
  1.161352,
  1.043,
  1.072,
  1.117,
  1.083,
  0.651147,
  0.322,
  0.330103,
  0.624714,
  0.317,
  0.606,
  0.315,
  0.602593,
  0.572,
  0.297666,
  0.288944,
  0.31604,
  0.390681,
  0.29,
  0.374103,
  0.626794,
  0.332,
  0.4,
  0.388103,
  0.625,
  0.301,
  0.324814,
  0.278767,
  0.778,
  0.338732,
  0.342411,
  0.381681,
  0.348103,
  0.629331,
  0.314,
  0.295,
  0.291103,
  0.416,
  0.413,
  0.424701,
  0.295319,
  0.41,
  0.303794,
  0.410103,
  0.316,
  0.205597,
  0.619994,
  0.299,
  0.319648,
  0.579103,
  0.345681,
  0.494503,
  0.310103,
  0.38813,
  0.262897,
  0.305,
  0.426103,
  0.320118,
  0.63,
  0.343,
  0.291,
  0.332,
  0.317,
  0.495,
  0.464,
  0.434134,
  0.699,
  0.513,
  0.422,
  0.670296,
  0.764,
  0.61,
  0.379342,
  0.564331,
  0.416296,
  0.39,
  0.524812,
  0.925134,
  0.504,
  0.746,
  0.72,
  0.477637,
  0.539,
  0.477,
  0.468,
  2.416134,
  0.504592,
  0.418413,
  0.532,
  0.478134,
  0.750093,
  0.452129,
  0.431,
  0.342977,
  0.997231,
  0.449304,
  0.41424,
  0.53343,
  0.520296,
  0.433704,
  0.437915,
  0.377,
  0.454,
  0.442,
  0.429592,
  0.553408,
  0.800134,
  0.471,
  0.519,
  0.423134,
  0.543667,
  0.554879,
  0.450134,
  0.431818,
  0.683567,
  0.468304,
  0.545992,
  0.468704,
  0.485372,
  0.603,
  0.381768,
  0.04,
  0.296383,
  0.27347,
  0.276,
  0.291,
  0.322768,
  0.915,
  0.26647,
  0.242,
  0.89872,
  0.781,
  0.278,
  0.439,
  0.290383,
  0.295,
  0.357,
  0.331,
  0.375383,
  0.66421,
  0.511,
  0.284,
  0.036187,
  0.31,
  0.355,
  0.288768,
  0.381,
  0.283383,
  0.311,
  0.316,
  0.286,
  0.248383,
  0.269244,
  0.434678,
  0.282383,
  0.541,
  0.436305,
  0.534,
  0.305383,
  0.491768,
  0.587936,
  0.332,
  0.34,
  0.271,
  0.503,
  0.248383,
  0.278787,
  0.301,
  0.294,
  0.395,
  0.349383,
  0.892246,
  0.039617,
  0.412,
  0.28,
  0.311,
  0.387,
  0.752366,
  0.329,
  0.337,
  0.393,
  0.872103,
  0.616,
  0.605,
  0.364,
  0.345957,
  0.363,
  0.363,
  0.877,
  0.322,
  0.335,
  0.299,
  0.326,
  0.280103,
  0.951,
  0.367,
  0.584,
  0.773103,
  0.292,
  0.35,
  0.261,
  0.542103,
  0.497,
  0.398,
  0.418,
  0.371103,
  0.208281,
  0.647,
  0.3,
  0.621,
  0.397103,
  0.475,
  0.432,
  0.724103,
  0.261,
  0.352,
  0.85,
  0.585103,
  0.344,
  0.878715,
  0.334,
  0.37,
  0.441103,
  0.324,
  0.452,
  0.809103,
  0.455,
  1.436,
  0.472,
  0.352103,
  0.436,
  0.346,
  0.612,
  0.585,
  0.353,
  0.298,
  0.584,
  0.344,
  0.358612,
  0.401158,
  0.313,
  0.746,
  0.299808,
  0.303,
  0.34533,
  0.434137,
  0.502631,
  0.321,
  0.492,
  0.268118,
  0.780612,
  0.353388,
  0.392,
  0.356,
  0.348612,
  0.323,
  0.303304,
  0.310158,
  0.441612,
  0.322779,
  0.391388,
  0.722514,
  0.327612,
  0.352,
  0.318,
  0.366,
  0.393,
  0.352612,
  0.473,
  0.34911,
  0.396612,
  0.332325,
  0.379549,
  0.336,
  0.361,
  0.336622,
  0.355767,
  0.316,
  0.282,
  0.318612,
  0.352515,
  0.341,
  0.312612,
  0.404593,
  0.366704,
  0.629612,
  0.348,
  0.568998,
  0.294,
  0.416,
  0.363,
  0.455,
  0.477317,
  0.589727,
  0.725743,
  0.72521,
  1.108906,
  0.697219,
  0.684576,
  0.493996,
  0.690486,
  0.828227,
  0.730205,
  0.706159,
  0.746,
  0.735682,
  0.686363,
  0.831,
  0.634,
  2.047795,
  0.612506,
  0.730487,
  0.608736,
  0.76193,
  0.183953,
  0.797363,
  1.756041,
  0.688749,
  0.619798,
  0.689363,
  0.797674,
  0.631,
  7.182399,
  8.290011,
  0.733903,
  0.605,
  0.726985,
  0.830363,
  0.854842,
  0.22256,
  0.741955,
  0.656,
  0.839624,
  0.743376,
  0.818642,
  8.002334,
  9.379795,
  0.718955,
  0.66721,
  0.726363,
  0.726,
  0.597603,
  0.712363,
  0.588607,
  0.726637,
  1.611729,
  0.706959,
  0.610148,
  0.717566,
  0.683599,
  0.11,
  0.392,
  0.319897,
  0.312103,
  0.348889,
  0.347,
  0.359,
  0.293777,
  0.311,
  0.321535,
  0.459,
  0.520358,
  0.376897,
  0.419,
  0.27204,
  0.333103,
  0.332777,
  0.351903,
  0.3452,
  0.362103,
  0.327777,
  0.358889,
  0.352,
  0.308103,
  0.557,
  0.433,
  0.310794,
  0.510103,
  0.336,
  0.386,
  0.327,
  0.044,
  0.477,
  0.311794,
  0.267,
  1.213103,
  0.299897,
  0.491,
  0.621889,
  0.351103,
  0.319,
  0.378,
  0.355903,
  0.367097,
  0.303103,
  0.455062,
  0.282,
  0.289103,
  0.405,
  0.301889,
  0.782284,
  0.304103,
  0.502288,
  0.308889,
  0.35,
  0.344008,
  0.357,
  0.284,
  0.385897,
  0.41,
  0.552684,
  0.532316,
  0.410194,
  0.362,
  0.392,
  0.397,
  0.482,
  0.41,
  0.513,
  0.495,
  0.437,
  0.612218,
  1.066684,
  0.467316,
  0.503,
  0.659,
  0.487,
  0.482936,
  0.45,
  0.562093,
  0.446,
  0.424316,
  0.583,
  0.503,
  0.467,
  0.423291,
  0.467997,
  0.484,
  0.505,
  0.425316,
  0.198787,
  0.54069,
  0.614218,
  0.410316,
  0.849,
  0.454,
  0.425,
  0.396316,
  0.495,
  0.433,
  0.498,
  0.386,
  0.623316,
  0.599,
  0.615,
  0.585316,
  0.484,
  0.445684,
  0.426,
  0.368316,
  0.461,
  0.555,
  0.407,
  0.56,
  0.208787,
  0.518,
  0.85188,
  0.506,
  0.771,
  0.878,
  0.871,
  0.846,
  0.809,
  0.848208,
  0.845,
  0.867,
  0.846,
  0.941,
  0.817,
  0.852,
  0.833,
  0.861,
  0.937,
  0.832208,
  0.767,
  1.108,
  1.419144,
  0.886,
  1.892,
  0.941,
  0.969,
  0.87,
  1.000208,
  0.919,
  1.149,
  0.808208,
  6.758,
  0.969,
  0.93,
  0.850208,
  1.826,
  23.641,
  0.816856,
  0.827208,
  3.731584,
  1.039,
  0.89,
  0.769208,
  0.936,
  0.786,
  0.896,
  0.853,
  0.92,
  0.851,
  0.879,
  0.895208,
  1.001,
  1.099,
  0.883948,
  1.415144,
  0.882,
  1.036,
  1.005208,
  0.864,
  0.939,
  0.932,
  40.116,
  39.161,
  0.903,
  2.911,
  5.022,
  0.751643,
  0.826,
  0.801397,
  0.752,
  0.841902,
  0.810714,
  0.702922,
  0.84525,
  0.803509,
  1.592786,
  0.787747,
  0.744733,
  0.902611,
  1.045902,
  0.859882,
  0.820876,
  0.782,
  0.871124,
  0.821819,
  0.20405,
  0.84974,
  0.879281,
  0.919124,
  0.890124,
  0.914314,
  0.995862,
  0.88511,
  0.881934,
  0.785188,
  0.791,
  0.899762,
  0.981124,
  0.886993,
  0.886076,
  0.868124,
  0.926744,
  0.915591,
  0.970876,
  0.858342,
  0.804901,
  0.817893,
  0.82903,
  0.160118,
  0.804656,
  0.709248,
  0.87262,
  0.867366,
  1.03078,
  0.839819,
  0.863504,
  0.935715,
  0.918627,
  43.555248,
  0.816048,
  0.899373,
  0.898437,
  0.869282,
  0.851397,
  1.445,
  1.383,
  1.508,
  1.544,
  1.50679,
  2.203,
  0.873257,
  1.329,
  1.501,
  1.379,
  1.759,
  1.439,
  1.46,
  1.616,
  1.466,
  1.781,
  1.52479,
  1.431,
  1.821,
  1.480175,
  1.444,
  1.394,
  1.361,
  1.493,
  1.32579,
  1.352989,
  1.803,
  1.34279,
  1.595889,
  1.493396,
  1.508604,
  1.58879,
  1.457,
  1.577,
  2.264,
  1.481,
  1.32379,
  1.576,
  0.882257,
  1.366,
  1.37679,
  1.524667,
  1.654,
  1.376795,
  1.50379,
  1.474,
  1.761,
  1.536,
  1.36,
  1.47379,
  1.36,
  1.512,
  1.44379,
  1.738,
  1.398,
  4.39879,
  1.535,
  1.41,
  1.422,
  1.374,
  1.113075,
  1.207,
  1.065812,
  1.13,
  1.238,
  1.070352,
  1.541179,
  1.137,
  1.055,
  1.057,
  1.214,
  1.039889,
  1.163,
  1.09,
  1.04,
  1.177,
  1.044,
  1.534352,
  1.147,
  1.207,
  1.186352,
  1.095,
  1.04,
  1.039,
  1.953,
  1.280352,
  2.608,
  1.047805,
  1.388147,
  1.083352,
  1.068,
  1.21,
  1.163,
  1.102352,
  1.009,
  1.035,
  1.029,
  1.076,
  1.253352,
  1.134,
  1.087,
  1.065352,
  1.389,
  1.128,
  1.069,
  1.032352,
  1.044,
  1.045,
  1.025,
  1.174,
  1.069352,
  1.173794,
  1.141504,
  1.064352,
  1.048,
  1.052,
  1.028352,
  1.098,
  1.051794,
  1.081,
  1.052,
  0.491,
  0.285784,
  0.360103,
  0.344,
  0.328,
  0.45,
  0.375,
  0.324,
  0.314897,
  0.289397,
  0.822,
  0.326,
  0.338672,
  0.609897,
  0.463103,
  0.362698,
  0.347,
  0.324,
  0.286103,
  0.324682,
  0.458,
  0.402008,
  0.329,
  0.42,
  0.33,
  0.345,
  0.311,
  0.518103,
  0.327,
  0.386,
  0.41,
  0.338103,
  0.439,
  0.435897,
  0.355103,
  0.37,
  0.369784,
  0.353,
  0.334103,
  0.459,
  0.307,
  0.393,
  0.368,
  0.800103,
  0.39,
  0.316,
  0.045,
  0.358,
  0.43,
  0.579,
  0.325,
  0.306103,
  0.548,
  0.480483,
  0.301,
  0.387,
  0.352,
  0.349642,
  0.447,
  0.32874,
  0.399403,
  0.657498,
  1.106,
  0.487,
  0.404319,
  0.61,
  0.401,
  0.698,
  0.388597,
  0.406,
  1.37,
  0.396,
  0.506403,
  0.400657,
  0.373,
  0.45,
  0.313403,
  0.699,
  0.427948,
  0.348,
  0.318403,
  0.379,
  0.513277,
  0.317597,
  0.378403,
  0.387,
  0.411,
  0.442,
  0.467403,
  0.584,
  0.057,
  0.385273,
  0.334403,
  0.308,
  1.159356,
  0.423032,
  0.364403,
  0.499,
  0.499195,
  0.375,
  0.404,
  0.523403,
  0.761,
  0.318597,
  0.405403,
  0.535872,
  0.848,
  0.341315,
  0.642403,
  0.436,
  0.356973,
  0.376,
  0.421,
  0.356,
  0.728387,
  0.362,
  0.277,
  0.332396,
  0.318103,
  0.442,
  0.743,
  0.65,
  1.009245,
  0.495,
  0.348,
  0.326,
  0.407,
  0.374,
  0.294,
  0.437,
  0.373103,
  1.393897,
  0.704,
  0.341,
  0.300103,
  0.442,
  0.334,
  0.453,
  0.303103,
  0.447,
  0.445,
  0.628,
  0.3118,
  0.423897,
  0.334097,
  0.299,
  0.329,
  0.316103,
  0.387,
  0.297,
  0.404103,
  0.475,
  0.309,
  0.397889,
  0.353008,
  0.385,
  0.412912,
  0.314897,
  0.342,
  0.675,
  0.339103,
  0.295,
  0.351,
  0.361103,
  0.333922,
  0.61,
  0.367897,
  0.626103,
  0.320992,
  0.605,
  0.711,
  0.3,
  0.311,
  0.637897,
  0.391,
  1.144783,
  1.017,
  1.069478,
  1.077698,
  1.051,
  1.024352,
  1.285777,
  1.027682,
  1.037,
  1.071,
  1.01,
  1.071897,
  1.219,
  1.11,
  1.161351,
  1.147129,
  1.598455,
  1.107,
  1.009,
  1.904352,
  1.036,
  1.132,
  1.146,
  1.570889,
  1.394352,
  1.073,
  1.135,
  1.611352,
  1.021,
  1.112,
  1.326209,
  1.388504,
  1.041352,
  1.042,
  1.025,
  1.026,
  1.044,
  1.048352,
  1.054,
  1.044642,
  1.175352,
  1.007,
  1.130894,
  1.309889,
  1.023352,
  1.070791,
  1.153,
  1.047,
  1.021,
  1.083352,
  1.064897,
  1.3,
  1.029352,
  1.153,
  1.329,
  1.151352,
  1.41,
  1.082,
  1.046,
  1.041,
  0.284735,
  0.934,
  0.999837,
  1.319,
  1.37,
  1.076276,
  0.848,
  0.793,
  0.893,
  0.877,
  0.904,
  0.86,
  0.882,
  0.949,
  0.9,
  0.978,
  1.037276,
  1.038,
  1.149,
  1.679887,
  0.811276,
  1.063,
  1.027,
  0.956,
  0.887,
  0.884276,
  1.297,
  1.04,
  0.888276,
  0.918,
  1.097,
  0.971,
  0.814276,
  0.982,
  1.445,
  0.989,
  1.074,
  0.954276,
  1.944,
  1.229,
  0.889276,
  0.881,
  0.892,
  1.026,
  0.900276,
  0.891,
  0.955,
  0.974,
  1.133,
  1.668887,
  1.023276,
  0.93,
  1.33,
  0.979276,
  1.14,
  0.831,
  1.017276,
  7.782,
  0.943,
  0.925,
  0.964,
  0.941,
  0.98,
  0.953,
  1.11921,
  0.954339,
  1.222,
  0.957865,
  1.118,
  1.122,
  1.042,
  0.932948,
  1.07901,
  1.01,
  0.942889,
  0.895561,
  0.961,
  1.029,
  1.01,
  0.993561,
  1.127,
  1.091,
  1.149,
  1.422738,
  1.077561,
  0.92,
  0.97333,
  1.423561,
  1.005,
  1.284017,
  0.942827,
  0.899561,
  0.963,
  1.061,
  1.094,
  0.963,
  1.231624,
  0.890561,
  1.041,
  1.193889,
  0.994561,
  1.342535,
  1.13,
  1.134561,
  1.151567,
  1.109,
  1.111,
  0.950872,
  0.986678,
  0.984561,
  0.99,
  1.384,
  1.037561,
  1.161159,
  1.05601,
  1.157561,
  1.118,
  1.017,
  1.143,
  1.354,
  0.971,
  1.269,
  1.041,
  1.034,
  1.045,
  1.465,
  1.065842,
  1.03,
  1.051,
  1.078,
  0.984,
  1.049,
  1.16,
  0.968,
  1.331115,
  1.000839,
  1.032,
  1.132,
  0.959115,
  1.057,
  1.003,
  1.07,
  1.19,
  1.227115,
  0.978,
  1.115,
  1.173115,
  1.004,
  1.045,
  1.517671,
  1.055115,
  1.003,
  0.959,
  1.038,
  1.073115,
  0.282984,
  1.139,
  1.033352,
  1.015,
  1.27,
  1.091,
  0.992388,
  1.116115,
  1.146,
  0.958,
  1.053,
  1.201,
  1.175115,
  1.165,
  1.148,
  1.005115,
  1.012031,
  1.179,
  0.986,
  1.035115,
  0.941,
  1.416,
  0.937,
  0.285,
  1.17185,
  0.40592,
  0.26108,
  0.268103,
  0.276324,
  0.252573,
  0.43,
  0.971556,
  0.453982,
  0.441427,
  0.351884,
  0.271924,
  0.289,
  0.252,
  0.25561,
  0.281298,
  0.364652,
  0.271,
  0.244,
  1.543529,
  0.331574,
  0.282924,
  0.282,
  0.243103,
  0.300499,
  0.365634,
  0.312,
  0.378103,
  0.330061,
  0.356,
  0.309,
  0.392619,
  0.265,
  0.042617,
  0.297587,
  0.238103,
  0.314,
  0.364777,
  1.449103,
  0.424,
  0.78124,
  0.406,
  0.374,
  0.263103,
  0.279,
  0.647426,
  0.224103,
  0.342897,
  0.455,
  0.302578,
  0.287103,
  0.246819,
  0.406426,
  0.261574,
  0.285499,
  0.333746,
  0.451746,
  0.362,
  0.441,
  0.448903,
  0.436636,
  0.524,
  0.435,
  0.774461,
  0.41,
  0.445,
  0.411283,
  0.412907,
  0.716097,
  0.36492,
  0.404,
  0.492903,
  0.409097,
  0.409,
  0.504,
  1.971903,
  0.373577,
  0.381114,
  0.367907,
  0.438903,
  0.486,
  0.504,
  0.444,
  0.399903,
  0.387589,
  0.422597,
  0.426931,
  0.199578,
  0.447,
  2.403283,
  0.806288,
  0.405157,
  0.403694,
  0.362,
  0.398,
  0.83462,
  0.547603,
  0.534797,
  0.408903,
  0.408859,
  0.698903,
  0.390717,
  0.397903,
  0.558,
  0.513452,
  0.418,
  0.421903,
  0.417,
  0.435,
  0.411,
  0.381,
  0.432,
  0.384,
  0.447,
  0.542897,
  0.041,
  0.409103,
  0.423752,
  0.324,
  0.292,
  0.582897,
  0.382,
  0.402,
  0.328198,
  0.492,
  0.322,
  0.327,
  0.481,
  1.250103,
  0.318,
  0.301,
  0.265,
  0.328103,
  1.55,
  0.205,
  0.299566,
  0.445897,
  0.333,
  0.435,
  0.330871,
  0.299103,
  0.297,
  0.404,
  0.477,
  0.344989,
  0.760317,
  0.373613,
  0.354103,
  0.647,
  0.329,
  0.812,
  0.730103,
  0.321,
  0.444,
  0.311,
  0.518422,
  0.524103,
  0.325114,
  0.317,
  0.587103,
  0.315,
  0.436248,
  0.316232,
  0.672897,
  0.047,
  0.306478,
  0.327,
  0.307,
  0.394,
  0.308,
  0.505886,
  0.484,
  0.558,
  0.256103,
  0.488,
  0.311,
  0.538,
  0.237,
  0.297,
  0.293,
  0.329,
  0.346,
  0.453,
  0.333475,
  0.333103,
  0.232,
  0.49,
  0.485,
  0.302,
  0.433103,
  0.288,
  0.228634,
  1.392808,
  0.345524,
  0.348,
  0.316492,
  0.253897,
  0.280103,
  0.368,
  0.464,
  0.311,
  0.296,
  0.319103,
  0.36,
  0.297,
  0.364103,
  0.502,
  0.053,
  0.480256,
  0.422103,
  0.741,
  0.473,
  0.476,
  0.378,
  0.207103,
  0.272237,
  0.256,
  0.287103,
  0.287,
  0.258,
  0.310874,
  0.277103,
  0.277,
  0.277,
  0.472,
  0.548,
  0.333,
  0.317,
  2.489,
  0.52,
  0.432442,
  0.874522,
  0.595,
  0.461,
  4.958,
  0.402,
  0.539592,
  0.517,
  0.642,
  0.373,
  0.444,
  0.436,
  0.429522,
  1.039698,
  0.422279,
  0.441,
  0.458,
  0.543522,
  0.429064,
  0.423114,
  0.474522,
  0.652,
  0.196059,
  0.487478,
  0.486478,
  0.421522,
  0.414,
  0.535494,
  0.565,
  1.659,
  0.669522,
  0.422,
  0.376,
  0.526522,
  0.357,
  0.552,
  0.398522,
  0.591,
  0.438,
  0.523955,
  0.723,
  0.609,
  0.346522,
  0.559,
  0.436,
  0.594522,
  0.415,
  0.434,
  0.415522,
  0.414406,
  0.539364,
  0.433064,
  0.403,
  0.858,
  0.41,
  0.32,
  0.286249,
  0.463103,
  0.368,
  0.308,
  0.392,
  0.713,
  1.264,
  0.317,
  0.488,
  0.327097,
  0.332,
  0.327,
  0.653897,
  0.312103,
  0.042558,
  0.389889,
  0.29,
  0.35,
  0.364103,
  0.731,
  0.784,
  0.364,
  0.425103,
  0.600173,
  0.413777,
  0.535103,
  0.409,
  0.338173,
  0.389,
  0.324,
  0.273103,
  0.418,
  0.511966,
  0.338,
  0.373,
  0.476,
  0.435876,
  0.289103,
  0.297,
  0.342,
  0.338173,
  0.342,
  0.378,
  0.286103,
  0.458103,
  0.592,
  0.297,
  0.343794,
  0.428,
  0.336103,
  0.2,
  0.358496,
  0.306805,
  0.353,
  0.314,
  0.515,
  0.447461,
  0.284,
  0.357794,
  0.312,
  0.427103,
  0.31878,
  0.326,
  0.321,
  0.393,
  0.31,
  0.313,
  0.358,
  0.535471,
  0.253,
  0.303,
  0.24,
  0.771819,
  0.261117,
  0.33278,
  0.479103,
  0.322,
  0.289602,
  0.299,
  0.367103,
  0.394794,
  0.205673,
  0.32,
  0.668103,
  0.322,
  0.420284,
  0.279,
  0.451103,
  0.329,
  0.778821,
  0.364979,
  0.261103,
  0.566,
  0.410762,
  0.276103,
  0.435,
  0.414,
  0.315802,
  0.28,
  0.355103,
  0.335,
  0.309,
  0.267,
  0.744103,
  0.555481,
  0.300398,
  0.329103,
  0.614,
  0.359461,
  0.404,
  0.052,
  0.556,
  0.724,
  0.348,
  0.446555,
  0.356,
  0.481,
  0.626903,
  0.38,
  0.783,
  0.601,
  0.242522,
  0.492478,
  0.338,
  0.412,
  0.427,
  0.954,
  0.446,
  0.385,
  0.326903,
  4.534834,
  0.35,
  0.366,
  0.812,
  0.351903,
  0.525,
  0.399,
  0.534,
  0.513903,
  0.342,
  0.428,
  0.369903,
  0.434,
  0.414,
  0.367,
  0.815,
  0.535903,
  0.536,
  0.307,
  0.108,
  0.534,
  0.37,
  0.361,
  0.41,
  0.653903,
  0.567,
  0.399,
  0.428,
  0.741,
  0.706903,
  16.37,
  5.819,
  0.448903,
  0.594022,
  0.455,
  0.404,
  0.358,
  0.434,
  0.353322,
  0.821,
  0.369,
  0.415,
  0.54202,
  0.31698,
  0.646522,
  0.610448,
  0.401625,
  0.381308,
  0.593241,
  0.343,
  0.417,
  0.806615,
  1.21555,
  0.638,
  0.619522,
  0.402478,
  0.428368,
  1.074366,
  0.419714,
  0.444,
  0.523522,
  0.413478,
  0.348,
  0.526,
  0.407542,
  0.427419,
  0.40121,
  0.385478,
  0.412,
  0.402814,
  0.395206,
  0.452522,
  0.424962,
  0.199581,
  0.562837,
  0.643846,
  0.374,
  0.686962,
  0.879628,
  0.439214,
  0.71455,
  0.444628,
  0.40842,
  0.389515,
  0.497368,
  0.417,
  0.408244,
  0.387773,
  0.421814,
  0.522664,
  0.50582,
  0.419522,
  0.747288,
  0.416154,
  0.407,
  0.434,
  0.412553,
  0.376154,
  0.46,
  0.39,
  0.333111,
  0.728,
  0.44,
  0.449,
  0.567,
  0.351,
  0.558,
  0.514,
  0.416,
  0.528,
  0.454,
  0.449,
  0.592239,
  0.461,
  0.45,
  0.41,
  0.545111,
  0.57,
  0.527,
  0.864,
  0.455111,
  0.358,
  0.647,
  0.483,
  0.241501,
  0.517111,
  0.652,
  0.598,
  0.612,
  2.189111,
  0.715,
  0.4,
  0.602,
  1.499,
  0.683,
  0.717,
  0.485111,
  0.564,
  0.581,
  0.514,
  0.72,
  0.560111,
  0.506,
  0.423,
  0.688111,
  0.431,
  0.666,
  0.635111,
  0.492,
  0.452,
  0.427,
  0.399,
  0.464,
  0.553,
  0.245501,
  0.34345,
  0.409289,
  0.690403,
  0.417597,
  0.641,
  0.437,
  0.482294,
  1.002,
  0.368738,
  0.365533,
  0.353,
  0.408,
  0.427289,
  0.468192,
  0.848403,
  0.226222,
  0.656238,
  0.707,
  0.676,
  0.476403,
  0.340326,
  0.32655,
  0.454948,
  0.414403,
  0.90574,
  0.344099,
  0.512403,
  0.438,
  0.677972,
  0.381,
  0.65,
  0.379403,
  0.921414,
  0.472,
  0.388403,
  0.356953,
  0.44,
  0.499,
  0.415403,
  0.387,
  0.816754,
  0.396,
  0.425,
  0.382403,
  0.449294,
  0.504483,
  0.34089,
  0.484,
  0.362,
  0.783948,
  0.404,
  0.456403,
  0.338,
  0.682,
  0.696,
  0.408,
  0.32,
  0.382401,
  0.430264,
  0.482161,
  0.283103,
  0.386655,
  0.312,
  0.408,
  0.494,
  0.29,
  0.374,
  0.736,
  0.380056,
  0.538,
  0.326,
  0.425,
  0.327103,
  0.366,
  0.366,
  0.397,
  0.279103,
  0.221161,
  0.297562,
  0.484,
  0.205103,
  0.255985,
  0.288,
  0.613,
  0.415103,
  0.300813,
  0.401,
  0.623,
  0.276103,
  0.351008,
  0.447992,
  0.354161,
  0.428103,
  0.447,
  0.248,
  0.321,
  0.480103,
  0.23,
  0.345,
  0.357,
  0.412,
  0.490103,
  0.544985,
  0.377041,
  0.296103,
  1.614417,
  0.301,
  0.344,
  0.245103,
  0.358802,
  0.403,
  0.307,
  0.434,
  0.287,
  0.24112,
  0.311,
  0.797,
  0.746965,
  0.75179,
  0.88722,
  1.405632,
  0.88072,
  0.739314,
  0.727965,
  0.755,
  1.105,
  0.781826,
  0.863959,
  0.801965,
  0.851187,
  1.222409,
  1.962,
  0.82172,
  0.84,
  0.95,
  0.84372,
  0.741965,
  0.934,
  0.843,
  0.731998,
  0.81772,
  0.845427,
  0.791,
  0.88372,
  0.768,
  0.955965,
  0.878862,
  0.97272,
  0.736,
  0.772,
  0.748,
  1.075401,
  0.77572,
  0.771,
  1.094,
  0.85072,
  0.838,
  0.771,
  0.906,
  0.212,
  0.81872,
  0.759,
  0.726,
  0.8,
  0.81072,
  0.843,
  0.79,
  0.94672,
  0.801965,
  0.913826,
  0.947,
  0.84872,
  0.753,
  0.835,
  0.818,
  0.761965,
  1.480877,
  1.504,
  0.882248,
  0.897877,
  0.908,
  14.79598,
  0.906829,
  0.867876,
  1.504824,
  0.798123,
  0.792622,
  1.482403,
  1.581897,
  0.814876,
  1.495124,
  0.91802,
  0.90598,
  0.91,
  0.858248,
  0.156248,
  0.743657,
  0.886197,
  0.876098,
  1.526248,
  1.510457,
  1.535192,
  0.975258,
  0.903391,
  0.857306,
  0.902714,
  13.74898,
  0.863244,
  0.859,
  0.846,
  0.764836,
  0.768,
  1.78016,
  0.688095,
  0.772554,
  0.949789,
  0.794462,
  1.732277,
  0.976124,
  0.905753,
  0.921144,
  0.915,
  0.974248,
  0.857592,
  0.761332,
  0.846963,
  1.488071,
  1.062911,
  0.160716,
  1.480097,
  0.864876,
  0.89502,
  2.21675,
  0.964,
  0.623888,
  0.344,
  0.308411,
  0.361223,
  0.558957,
  0.83,
  0.317223,
  0.381,
  0.451988,
  0.461877,
  0.342123,
  0.644505,
  0.715,
  0.801,
  0.397,
  0.052592,
  0.439223,
  0.53416,
  0.353,
  0.744,
  0.338223,
  0.294107,
  1.429807,
  0.330779,
  0.398223,
  0.313,
  0.532,
  0.43366,
  0.477223,
  0.521,
  0.534,
  0.335,
  0.301223,
  0.443,
  0.423,
  0.477223,
  0.302,
  0.33,
  0.408983,
  0.339223,
  0.632,
  0.20088,
  0.569,
  0.536,
  0.325,
  0.417223,
  0.340777,
  0.349,
  0.400223,
  0.441232,
  0.534067,
  0.344287,
  0.307223,
  0.559,
  0.37166,
  0.536,
  0.371,
  0.045633,
  0.458,
  0.554,
  0.377,
  1.34,
  1.105,
  1.063893,
  1.306,
  1.043,
  1.131352,
  1.024,
  1.173,
  1.058,
  1.053,
  1.087356,
  1.041761,
  1.209,
  1.01489,
  1.153,
  0.289,
  1.071,
  1.059813,
  1.073,
  1.043352,
  1.057,
  1.063,
  1.057,
  1.071702,
  1.054352,
  1.367828,
  1.103,
  1.038352,
  1.092,
  1.122575,
  1.116,
  1.188352,
  1.095,
  1.043,
  1.043,
  1.067,
  1.365352,
  1.065,
  1.046897,
  1.414,
  1.157352,
  1.429,
  1.116,
  1.113,
  1.169352,
  1.06221,
  1.075,
  1.204,
  1.225989,
  1.418352,
  1.069,
  1.057352,
  1.313395,
  1.052,
  1.177,
  1.021352,
  1.057897,
  1.024979,
  1.04,
  1.061,
  0.974,
  0.921,
  0.971,
  0.941,
  1.372,
  0.966984,
  1.004,
  0.985,
  0.95,
  1.091,
  0.92,
  0.95112,
  0.972,
  0.952,
  0.896,
  1.051984,
  0.943,
  0.98277,
  1.380984,
  0.991,
  1.122,
  0.958,
  0.963,
  0.979984,
  0.955,
  1.147846,
  1.090984,
  0.947,
  1.364468,
  0.921197,
  1.172,
  1.074984,
  1.069,
  0.989,
  0.979,
  0.972237,
  0.951984,
  1.003294,
  2.248293,
  1.115984,
  0.942025,
  0.961,
  0.93575,
  0.969984,
  0.981,
  1.047,
  0.979,
  0.975,
  0.926984,
  1.345,
  1.072,
  0.952984,
  0.939161,
  1.456966,
  1.056984,
  1.770842,
  1.066934,
  0.968,
  0.941,
  1.054,
  1.221,
  1.316,
  1.141,
  1.254,
  1.332713,
  1.007302,
  1.024,
  1.005,
  1.105,
  1.040794,
  1.053,
  1.32,
  1.06247,
  1.033,
  1.100713,
  0.976,
  1.047,
  1.361713,
  1.019,
  1.109,
  0.991,
  0.980665,
  1.084713,
  1.003,
  1.019344,
  1.127713,
  1.049,
  1.019,
  1.135794,
  1.018713,
  0.99637,
  0.998,
  1.256,
  1.505264,
  0.99021,
  1.328713,
  1.11,
  1.022177,
  1.027713,
  1.066,
  0.997187,
  1.034713,
  1.03,
  1.014,
  1.252,
  1.024,
  1.001713,
  1.04255,
  1.247,
  1.030713,
  1.129,
  1.241,
  1.046617,
  0.979713,
  1.141614,
  0.99,
  1.763,
  1.149244,
  0.307,
  0.328,
  0.565809,
  0.364,
  0.325,
  0.303,
  0.357,
  0.319,
  0.507,
  0.298,
  0.296472,
  0.791,
  0.308,
  0.274,
  0.266419,
  0.382,
  0.345,
  0.431,
  0.309419,
  0.311,
  0.252897,
  1.023,
  0.427419,
  0.301897,
  0.57,
  0.33,
  0.223419,
  0.278,
  0.257,
  0.404,
  0.287419,
  0.336,
  0.299314,
  0.337692,
  0.296,
  0.298,
  0.344,
  0.252,
  0.309419,
  0.306,
  0.415619,
  0.364,
  0.365,
  0.299419,
  0.368,
  0.318623,
  0.285419,
  0.292,
  0.272,
  0.647,
  0.297612,
  0.383166,
  0.262,
  0.253,
  0.342,
  0.325,
  0.043
]