{
  "1048576": [
    0.449,
    0.739,
    0.941,
    0.322198,
    0.464296,
    0.759,
    0.806,
    0.717,
    0.604,
    0.646,
    1.129,
    0.634,
    0.351,
    0.369933,
    0.76565,
    0.678,
    0.569942,
    0.729,
    0.415219,
    0.703805,
    1.002,
    0.534,
    0.565,
    0.301,
    0.469,
    0.868,
    0.712845,
    0.796,
    0.818,
    0.533,
    0.347,
    0.85,
    0.39,
    0.497,
    0.169,
    0.759,
    1.097,
    0.715,
    0.852,
    0.881,
    0.650985,
    0.942,
    0.652,
    0.518,
    1.001,
    0.725,
    0.594,
    0.342,
    0.567,
    0.725,
    0.915,
    0.603,
    26.381,
    0.617,
    0.187,
    0.553,
    0.401,
    0.600876,
    0.895148,
    1.502434,
    0.718,
    0.434,
    0.489,
    0.69,
    0.671,
    0.460498,
    0.795069,
    0.340194,
    0.519604,
    0.989759,
    0.488,
    1.038,
    0.753,
    0.735,
    0.823,
    0.613,
    0.797,
    0.587,
    0.61,
    0.521,
    0.855,
    0.541,
    0.28,
    0.257,
    0.291,
    0.515951,
    0.574704,
    0.225,
    0.286,
    0.512,
    0.415439,
    0.282,
    0.28,
    0.635,
    1.330103,
    0.541,
    0.327,
    0.674,
    0.824,
    0.552538,
    1.111,
    0.63,
    0.563,
    0.27,
    0.298,
    0.588,
    0.595,
    0.313,
    0.577,
    0.468,
    0.398,
    0.489,
    0.471,
    0.716,
    0.443,
    1.116,
    0.723,
    0.593,
    0.707,
    0.536,
    0.469,
    0.231655,
    0.349,
    0.46,
    0.387,
    0.498103,
    0.275,
    0.423,
    0.462,
    0.543,
    0.495,
    0.605,
    0.792,
    0.281,
    0.446471,
    0.572588,
    0.46,
    0.654,
    0.282,
    0.349,
    0.24344,
    0.507,
    0.402,
    0.265,
    0.34,
    0.505,
    0.348,
    0.674,
    0.371,
    0.452,
    0.541489,
    0.883,
    0.50014,
    0.62,
    0.718,
    0.556,
    0.665,
    0.879,
    0.969,
    0.278,
    0.338
  ],
  "51200": [
    0.776381,
    0.482,
    0.672,
    0.590914,
    0.59304,
    0.668,
    0.525,
    0.896,
    0.997889,
    0.841,
    0.767,
    0.984,
    0.51,
    0.735726,
    0.283562,
    0.622,
    0.553,
    0.518,
    0.290802,
    0.622482,
    0.913,
    0.422,
    0.574357,
    0.727,
    0.743,
    0.584,
    0.508,
    0.517,
    0.784,
    0.927,
    0.564,
    0.509,
    1.389,
    0.742,
    0.663,
    0.437,
    0.659,
    0.493,
    0.403,
    0.385174,
    0.575,
    0.474,
    0.861,
    0.914,
    0.692,
    0.679,
    0.576692,
    0.340305,
    0.761,
    0.468238,
    0.263,
    0.498604,
    0.596,
    0.319721,
    0.313427,
    0.689467,
    0.527,
    0.434926,
    0.578,
    0.475,
    0.633,
    0.439554,
    0.843,
    0.693,
    0.674,
    0.665,
    0.54,
    0.411,
    0.859,
    0.942,
    0.652,
    0.498,
    0.525478,
    0.329,
    0.363,
    0.257,
    0.588819,
    0.530819,
    0.543299,
    0.372,
    0.44,
    0.432,
    0.449,
    0.225,
    0.455,
    0.572,
    0.234238,
    0.203,
    0.781,
    0.284,
    0.263,
    0.342,
    0.564,
    0.736,
    0.439,
    0.423,
    0.314,
    0.479,
    0.673,
    0.504,
    0.669246,
    0.397,
    0.439,
    0.814,
    0.332,
    0.711,
    0.724,
    0.593,
    0.486,
    0.527,
    0.21,
    0.699,
    0.588,
    0.302,
    0.278,
    0.524,
    0.388,
    0.654,
    0.329,
    0.256,
    0.44,
    0.457,
    0.468,
    0.64,
    0.666,
    0.716897,
    0.52,
    0.503,
    0.497796,
    0.666,
    0.581,
    0.557,
    0.873,
    1.128,
    0.71,
    0.628,
    0.693,
    0.992,
    0.679,
    0.519,
    0.465,
    0.693,
    0.931,
    0.848,
    0.552,
    0.521,
    0.814,
    1.122,
    0.617,
    0.654,
    0.702897,
    0.567,
    0.568,
    0.486771,
    0.667,
    0.738,
    0.573,
    0.609687,
    0.474,
    0.819968,
    0.962077,
    0.59,
    0.753,
    0.584,
    0.542006,
    0.608,
    0.283,
    0.278,
    0.470514,
    0.489876,
    0.585,
    0.642,
    0.388,
    0.615,
    0.646,
    0.536,
    0.542,
    0.539114,
    0.788,
    0.454,
    0.319,
    0.276,
    0.257,
    0.497,
    0.278,
    0.545,
    0.795,
    0.368,
    0.566,
    0.784,
    0.275,
    0.419,
    0.3,
    0.338,
    0.541,
    0.401,
    0.79,
    0.247,
    0.298,
    0.275,
    0.571,
    0.878,
    0.551,
    0.422,
    0.507,
    0.354,
    0.463,
    1.039148,
    1.166,
    0.481,
    0.507,
    0.374812,
    0.63,
    0.432,
    0.83,
    0.329,
    0.648,
    0.796,
    0.574,
    0.521,
    0.446,
    0.407,
    0.739,
    0.942,
    0.803,
    0.536,
    0.965,
    0.72,
    0.865,
    0.804,
    0.822,
    0.875,
    0.789,
    0.841,
    0.55,
    0.594,
    0.791,
    0.753,
    0.636,
    0.639,
    0.902,
    0.829,
    0.94,
    0.937,
    0.498,
    0.735,
    0.533,
    0.48,
    0.55,
    0.647,
    0.55,
    0.557,
    0.533,
    1.154,
    0.684,
    0.643702,
    0.608,
    0.371352,
    0.477,
    0.549,
    0.377,
    0.198079,
    0.525,
    0.773,
    0.333,
    0.865,
    0.791,
    0.738,
    0.649,
    0.761564,
    0.525,
    0.977,
    0.496,
    0.568889,
    0.429,
    0.991124,
    0.821,
    0.65,
    0.55,
    0.905,
    1.486,
    0.729124,
    0.749,
    0.994047,
    0.704,
    0.42,
    0.316,
    0.18,
    0.465,
    0.516,
    0.471,
    0.718,
    0.604,
    0.327,
    0.568,
    0.689,
    0.425,
    0.386,
    0.389,
    0.726,
    0.851,
    0.729,
    0.6,
    0.813,
    0.718,
    0.847,
    0.508,
    0.855,
    0.605,
    0.434,
    0.239,
    0.47,
    0.328,
    0.233,
    0.442,
    0.461,
    0.401,
    0.303,
    0.249,
    0.241,
    0.69,
    0.755,
    0.564,
    0.476,
    0.528,
    0.464,
    0.236,
    0.439,
    0.37,
    0.243,
    0.244,
    0.541,
    0.906,
    0.336,
    1.036,
    0.455,
    0.465,
    0.601,
    0.525,
    0.68,
    0.481,
    0.523,
    0.69,
    0.738,
    0.66,
    0.542813,
    0.556,
    0.764,
    0.630897,
    0.656,
    0.64,
    0.617,
    0.682,
    0.51,
    0.488,
    0.412,
    0.649,
    0.829,
    0.845,
    0.521,
    0.812,
    1.094,
    0.947,
    0.812,
    0.683,
    0.899,
    0.625,
    0.572,
    1.122,
    0.439,
    0.788,
    0.585,
    1.274,
    1.158,
    1.456,
    1.545,
    1.152,
    1.05,
    0.684,
    0.624103,
    0.919,
    0.811,
    0.832,
    0.484,
    0.43,
    0.944,
    0.763897,
    0.624,
    0.474,
    0.881,
    0.715,
    0.466,
    0.696,
    0.391303,
    0.275,
    0.327,
    0.769,
    0.288,
    0.572,
    0.304,
    0.579,
    0.919,
    0.4,
    0.512871,
    0.643,
    0.584,
    0.719,
    0.557,
    0.715,
    0.543,
    0.872124,
    1.039,
    0.702,
    0.739,
    0.485,
    0.271,
    0.477,
    0.295,
    0.51,
    0.401,
    0.497,
    0.633,
    0.326,
    0.575,
    0.636,
    0.688,
    0.413,
    0.669,
    0.549,
    0.779,
    0.452,
    0.765,
    0.914,
    0.572,
    0.518,
    0.887,
    0.706,
    1.043,
    0.804,
    0.546,
    0.867974,
    0.67,
    0.406,
    0.475124,
    0.827013,
    0.769082,
    0.614,
    0.544527,
    0.933,
    0.665,
    0.469,
    0.506,
    0.639676,
    0.586,
    0.253,
    0.449538,
    0.301154,
    0.296627,
    0.593933,
    0.456768,
    0.492,
    0.58847,
    0.268,
    0.416,
    0.299,
    0.203,
    0.25,
    0.49,
    0.437,
    0.344,
    0.275,
    0.607,
    0.958,
    0.618,
    0.775,
    0.717,
    0.602,
    0.8,
    0.466,
    0.435,
    0.756,
    1.137,
    0.597,
    0.496,
    0.928,
    0.672,
    0.554,
    0.494,
    0.669,
    8.594,
    0.359,
    0.226,
    0.588,
    0.464,
    0.284,
    0.58,
    0.293,
    0.661,
    0.529,
    0.632,
    0.514,
    0.448,
    0.377767,
    0.309,
    0.381,
    0.803,
    0.613,
    0.296774,
    0.306,
    0.571,
    0.69,
    0.513,
    0.448,
    0.741,
    0.506,
    0.742,
    0.825,
    0.518,
    0.528,
    0.721,
    1.161,
    0.564,
    0.764,
    0.849,
    1.243,
    0.709,
    0.58,
    0.426,
    0.539,
    0.619,
    0.483,
    0.679,
    0.344,
    0.588,
    0.569,
    0.688,
    0.473,
    0.462,
    0.391,
    0.526,
    0.399,
    0.487481,
    0.430166,
    0.386,
    0.537,
    0.342706,
    0.354,
    0.337,
    0.721,
    0.76,
    0.578696,
    0.407,
    0.571,
    0.415,
    0.347,
    0.206,
    0.475,
    0.421,
    0.278,
    0.344,
    0.75,
    0.623,
    0.663,
    0.437,
    0.572,
    0.355,
    0.458,
    0.36,
    0.516,
    0.344,
    0.295,
    0.21,
    0.449,
    0.712,
    0.3,
    0.659,
    0.586,
    0.726,
    0.452,
    0.399,
    0.474,
    0.427,
    0.442,
    0.406,
    0.305,
    0.476,
    0.741,
    0.299,
    0.4,
    0.324,
    0.583,
    0.768,
    0.504,
    0.527,
    0.437,
    0.604,
    0.671957,
    0.626107,
    0.5275,
    0.407953,
    0.684124,
    0.573343,
    0.506782,
    0.838873,
    0.870359,
    0.914,
    0.725124,
    0.478026,
    0.559309,
    0.412691,
    0.241,
    0.538,
    0.852,
    0.262794,
    0.488,
    0.707777,
    0.435,
    0.483,
    0.376,
    0.666,
    0.547,
    0.273,
    0.465,
    0.505,
    0.324,
    0.69,
    0.302,
    0.881,
    0.537,
    0.533,
    0.458,
    0.584,
    0.452,
    0.447,
    0.504,
    0.667,
    0.905,
    0.541,
    0.47,
    0.45,
    0.776,
    0.556,
    0.757,
    0.675265,
    0.430812,
    0.624727,
    0.497987,
    0.409647,
    0.796184,
    1.021,
    0.525,
    0.523094,
    0.814,
    0.932634,
    0.68562,
    0.591656,
    0.834,
    0.635,
    0.917684,
    0.743,
    0.93,
    1.017,
    0.974,
    0.787,
    0.961,
    0.993,
    0.919,
    1.237,
    0.86,
    1.063,
    0.841,
    0.736,
    0.665,
    0.629,
    0.841,
    0.793,
    0.638,
    0.854,
    1.646,
    1.07,
    0.925,
    0.68,
    0.714,
    0.468,
    0.236,
    1.313217,
    0.3,
    0.361,
    0.544,
    0.414,
    0.735,
    0.408,
    0.742,
    0.556,
    0.44,
    0.488,
    0.261,
    0.309,
    0.737,
    0.417,
    0.587,
    0.389,
    1.075,
    0.533,
    0.489,
    1.30445,
    0.299,
    0.336,
    0.284,
    0.335,
    0.927,
    0.612,
    0.341,
    0.538,
    0.539,
    0.724,
    0.359,
    0.497,
    0.732,
    0.536,
    0.858,
    0.427,
    0.973,
    0.967,
    0.804,
    0.532,
    0.545,
    0.919,
    0.956,
    0.667,
    0.776,
    0.698,
    0.877,
    0.58,
    0.572,
    0.479,
    0.697,
    0.81,
    0.82,
    0.993,
    0.675,
    0.668,
    0.578,
    0.763,
    0.543,
    0.669,
    0.571,
    0.446,
    0.618,
    0.475,
    0.715,
    0.655,
    1.084,
    1.045,
    0.756,
    0.676,
    0.896,
    0.784,
    0.464,
    0.461,
    0.662,
    0.574,
    0.577,
    0.5,
    1.026,
    0.719,
    0.705,
    0.657,
    0.43661,
    0.599,
    0.308,
    0.231,
    0.511,
    0.676499,
    0.248,
    0.327,
    0.24116,
    0.628,
    0.689,
    0.344,
    0.473254,
    0.336,
    0.474353,
    0.465,
    0.34,
    0.385093,
    0.695,
    0.341,
    0.695,
    1.135,
    0.432,
    0.545,
    0.401,
    0.575103,
    0.245,
    0.345,
    0.333,
    0.398,
    0.395,
    0.293,
    0.37,
    0.608,
    0.72,
    0.69,
    0.391,
    0.371,
    0.283,
    0.15,
    0.35,
    0.944,
    0.306,
    0.288,
    0.858,
    0.754,
    0.518,
    0.5,
    0.62,
    0.687,
    0.749,
    0.463,
    0.325,
    1.049,
    0.516,
    0.38,
    0.657,
    0.659,
    0.626,
    0.509,
    0.252,
    0.535,
    0.292,
    0.508,
    0.33,
    0.512,
    0.669,
    0.617,
    0.249,
    0.506,
    0.682,
    0.411,
    0.463,
    0.372,
    0.502,
    0.736,
    0.184,
    0.523,
    0.336443,
    0.55,
    0.377,
    0.793,
    0.488,
    0.694794,
    0.669686,
    0.567,
    0.361916,
    0.31,
    0.48,
    0.68,
    0.734,
    0.516,
    0.567,
    0.409,
    0.527,
    0.252984,
    0.651305,
    0.320255,
    0.324874,
    0.477646,
    0.346,
    0.40165,
    0.652478,
    0.858469,
    0.772,
    0.504,
    0.546,
    0.397619,
    0.521,
    0.291,
    0.626,
    0.298,
    0.767,
    0.947,
    0.618,
    0.343,
    0.5,
    0.732,
    0.828,
    0.49,
    0.538,
    0.378,
    0.378,
    0.618872,
    0.356,
    0.477,
    0.405,
    0.616,
    0.614,
    0.618,
    0.574,
    0.794,
    0.337,
    0.471,
    0.652,
    0.35,
    0.346,
    0.425,
    0.39,
    0.579,
    0.343,
    0.305,
    0.511,
    0.899,
    0.753,
    0.4,
    0.622493,
    0.382,
    0.492,
    0.685,
    0.862,
    0.626,
    0.803,
    0.755,
    0.821,
    0.699,
    0.624,
    0.618,
    0.689753,
    0.616,
    0.501124,
    0.561124,
    0.465319,
    0.729293,
    0.633146,
    0.572,
    0.737,
    0.614288,
    0.878,
    0.937097,
    0.699119,
    0.685,
    0.633,
    0.474247,
    0.266,
    0.526,
    0.32,
    0.507,
    0.864911,
    0.471,
    0.402,
    0.781,
    0.876,
    0.666,
    0.483,
    0.734,
    0.763,
    0.556,
    0.461,
    0.5,
    0.812,
    0.621,
    0.833,
    0.719,
    0.905,
    0.595,
    0.702,
    0.465,
    0.663,
    0.458,
    0.442,
    0.462,
    0.717,
    0.926,
    0.714,
    0.499,
    0.839,
    0.791,
    0.917,
    0.798,
    1.035,
    0.72,
    0.612,
    0.519,
    0.468,
    0.455,
    0.69,
    0.626,
    0.779,
    1.081,
    0.703,
    0.657,
    0.532,
    0.27,
    0.536,
    0.394,
    0.248,
    0.445,
    0.253,
    0.298,
    0.604,
    0.753,
    0.464,
    0.482,
    0.494
  ],
  "5242880": [
    0.255117,
    0.279802,
    0.307033,
    0.76,
    0.794,
    0.563,
    0.374,
    0.597,
    0.994,
    0.473704,
    0.756,
    0.734,
    0.35,
    0.847,
    0.715,
    0.73,
    1.087,
    0.742,
    0.972,
    0.527,
    0.598,
    0.569,
    0.563,
    0.825,
    0.84,
    1.008,
    0.453,
    0.788,
    0.664,
    0.567912,
    0.74576,
    0.379767,
    0.687,
    0.612,
    0.523,
    0.521,
    0.402,
    0.559,
    0.691,
    0.577,
    0.938876,
    0.715,
    0.952,
    0.673,
    0.539,
    0.698,
    0.35,
    0.508,
    0.865,
    0.998,
    0.301,
    0.52,
    0.732,
    0.382,
    0.358,
    0.924,
    0.407,
    0.476,
    0.569,
    0.545,
    0.619,
    0.712,
    0.73,
    1.07,
    0.899,
    0.647,
    0.577
  ],
  "ALL": [
    0.776381,
    0.482,
    0.672,
    0.590914,
    0.59304,
    0.668,
    0.525,
    0.896,
    0.997889,
    0.841,
    0.767,
    0.984,
    0.449,
    0.739,
    0.941,
    0.51,
    0.735726,
    0.283562,
    0.622,
    0.553,
    0.518,
    0.290802,
    0.622482,
    0.913,
    0.422,
    0.574357,
    0.322198,
    0.464296,
    0.255117,
    0.279802,
    0.307033,
    0.727,
    0.743,
    0.584,
    0.508,
    0.517,
    0.784,
    0.927,
    0.564,
    0.509,
    1.389,
    0.742,
    0.663,
    0.759,
    0.806,
    0.717,
    0.76,
    0.437,
    0.659,
    0.493,
    0.403,
    0.385174,
    0.575,
    0.474,
    0.861,
    0.914,
    0.692,
    0.679,
    0.604,
    0.646,
    1.129,
    0.634,
    0.576692,
    0.340305,
    0.761,
    0.468238,
    0.263,
    0.498604,
    0.596,
    0.319721,
    0.313427,
    0.689467,
    0.527,
    0.434926,
    0.351,
    0.369933,
    0.76565,
    0.678,
    0.578,
    0.475,
    0.633,
    0.439554,
    0.843,
    0.693,
    0.674,
    0.665,
    0.54,
    0.411,
    0.859,
    0.942,
    0.652,
    0.498,
    0.794,
    0.525478,
    0.329,
    0.363,
    0.257,
    0.588819,
    0.530819,
    0.543299,
    0.372,
    0.44,
    0.432,
    0.569942,
    0.729,
    0.415219,
    0.703805,
    1.002,
    0.563,
    0.449,
    0.225,
    0.455,
    0.572,
    0.234238,
    0.203,
    0.781,
    0.284,
    0.263,
    0.342,
    0.564,
    0.736,
    0.439,
    0.423,
    0.314,
    0.534,
    0.479,
    0.673,
    0.504,
    0.669246,
    0.397,
    0.439,
    0.814,
    0.332,
    0.711,
    0.724,
    0.593,
    0.486,
    0.527,
    0.565,
    0.301,
    0.374,
    0.21,
    0.699,
    0.588,
    0.302,
    0.278,
    0.524,
    0.388,
    0.654,
    0.329,
    0.256,
    0.44,
    0.457,
    0.468,
    0.469,
    0.868,
    0.597,
    0.64,
    0.666,
    0.716897,
    0.52,
    0.503,
    0.497796,
    0.666,
    0.581,
    0.557,
    0.873,
    1.128,
    0.71,
    0.628,
    0.712845,
    0.796,
    0.818,
    0.693,
    0.992,
    0.679,
    0.519,
    0.465,
    0.693,
    0.931,
    0.848,
    0.552,
    0.521,
    0.814,
    1.122,
    0.617,
    0.654,
    0.994,
    0.702897,
    0.567,
    0.568,
    0.486771,
    0.667,
    0.738,
    0.573,
    0.609687,
    0.474,
    0.819968,
    0.962077,
    0.59,
    0.753,
    0.584,
    0.473704,
    0.542006,
    0.608,
    0.283,
    0.278,
    0.470514,
    0.489876,
    0.585,
    0.642,
    0.388,
    0.615,
    0.646,
    0.536,
    0.542,
    0.539114,
    0.533,
    0.756,
    0.788,
    0.454,
    0.319,
    0.276,
    0.257,
    0.497,
    0.278,
    0.545,
    0.795,
    0.368,
    0.566,
    0.347,
    0.85,
    0.39,
    0.734,
    0.35,
    0.784,
    0.275,
    0.419,
    0.3,
    0.338,
    0.541,
    0.401,
    0.79,
    0.247,
    0.298,
    0.275,
    0.571,
    0.878,
    0.551,
    0.422,
    0.497,
    0.507,
    0.354,
    0.463,
    1.039148,
    1.166,
    0.481,
    0.507,
    0.374812,
    0.63,
    0.432,
    0.83,
    0.329,
    0.169,
    0.759,
    0.847,
    0.715,
    0.648,
    0.796,
    0.574,
    0.521,
    0.446,
    0.407,
    0.739,
    0.942,
    0.803,
    0.536,
    0.965,
    0.72,
    0.865,
    0.804,
    0.822,
    1.097,
    0.875,
    0.789,
    0.841,
    0.55,
    0.594,
    0.791,
    0.753,
    0.636,
    0.639,
    0.902,
    0.829,
    0.94,
    0.715,
    0.852,
    0.73,
    1.087,
    0.937,
    0.498,
    0.735,
    0.533,
    0.48,
    0.55,
    0.647,
    0.55,
    0.557,
    0.533,
    1.154,
    0.684,
    0.643702,
    0.881,
    0.742,
    0.972,
    0.608,
    0.371352,
    0.477,
    0.549,
    0.377,
    0.198079,
    0.525,
    0.773,
    0.333,
    0.865,
    0.791,
    0.738,
    0.649,
    0.650985,
    0.527,
    0.598,
    0.761564,
    0.525,
    0.977,
    0.496,
    0.568889,
    0.429,
    0.991124,
    0.821,
    0.65,
    0.55,
    0.905,
    1.486,
    0.729124,
    0.749,
    0.994047,
    0.942,
    0.704,
    0.42,
    0.316,
    0.18,
    0.465,
    0.516,
    0.471,
    0.718,
    0.604,
    0.327,
    0.568,
    0.689,
    0.425,
    0.386,
    0.389,
    0.726,
    0.851,
    0.729,
    0.6,
    0.813,
    0.718,
    0.847,
    0.508,
    0.855,
    0.605,
    0.652,
    0.518,
    1.001,
    0.725,
    0.594,
    0.434,
    0.239,
    0.47,
    0.328,
    0.233,
    0.442,
    0.461,
    0.401,
    0.303,
    0.249,
    0.241,
    0.69,
    0.755,
    0.564,
    0.476,
    0.528,
    0.464,
    0.236,
    0.439,
    0.37,
    0.243,
    0.244,
    0.541,
    0.906,
    0.336,
    1.036,
    0.455,
    0.465,
    0.342,
    0.567,
    0.569,
    0.563,
    0.601,
    0.525,
    0.68,
    0.481,
    0.523,
    0.69,
    0.738,
    0.66,
    0.542813,
    0.556,
    0.764,
    0.630897,
    0.656,
    0.725,
    0.915,
    0.603,
    0.64,
    0.617,
    0.682,
    0.51,
    0.488,
    0.412,
    0.649,
    0.829,
    0.845,
    0.521,
    0.812,
    1.094,
    0.947,
    0.812,
    0.683,
    0.899,
    0.625,
    0.572,
    1.122,
    0.439,
    0.788,
    0.585,
    1.274,
    1.158,
    1.456,
    1.545,
    1.152,
    1.05,
    0.684,
    26.381,
    0.825,
    0.624103,
    0.919,
    0.811,
    0.832,
    0.484,
    0.43,
    0.944,
    0.763897,
    0.624,
    0.474,
    0.881,
    0.715,
    0.617,
    0.84,
    1.008,
    0.466,
    0.696,
    0.391303,
    0.275,
    0.327,
    0.769,
    0.288,
    0.572,
    0.304,
    0.579,
    0.919,
    0.4,
    0.187,
    0.553,
    0.401,
    0.453,
    0.512871,
    0.643,
    0.584,
    0.719,
    0.557,
    0.715,
    0.543,
    0.872124,
    1.039,
    0.702,
    0.739,
    0.600876,
    0.895148,
    1.502434,
    0.788,
    0.664,
    0.485,
    0.271,
    0.477,
    0.295,
    0.51,
    0.401,
    0.497,
    0.633,
    0.326,
    0.575,
    0.636,
    0.688,
    0.413,
    0.718,
    0.669,
    0.549,
    0.779,
    0.452,
    0.765,
    0.914,
    0.572,
    0.518,
    0.887,
    0.706,
    1.043,
    0.804,
    0.546,
    0.434,
    0.489,
    0.69,
    0.867974,
    0.67,
    0.406,
    0.475124,
    0.827013,
    0.769082,
    0.614,
    0.544527,
    0.933,
    0.665,
    0.671,
    0.460498,
    0.795069,
    0.567912,
    0.74576,
    0.469,
    0.506,
    0.639676,
    0.586,
    0.253,
    0.449538,
    0.301154,
    0.296627,
    0.593933,
    0.456768,
    0.492,
    0.58847,
    0.340194,
    0.519604,
    0.989759,
    0.379767,
    0.268,
    0.416,
    0.299,
    0.203,
    0.25,
    0.49,
    0.437,
    0.344,
    0.275,
    0.607,
    0.958,
    0.618,
    0.775,
    0.717,
    0.488,
    1.038,
    0.602,
    0.8,
    0.466,
    0.435,
    0.756,
    1.137,
    0.597,
    0.496,
    0.928,
    0.672,
    0.554,
    0.753,
    0.735,
    0.823,
    0.687,
    0.494,
    0.669,
    8.594,
    0.359,
    0.226,
    0.588,
    0.464,
    0.284,
    0.58,
    0.293,
    0.661,
    0.529,
    0.632,
    0.514,
    0.613,
    0.797,
    0.448,
    0.377767,
    0.309,
    0.381,
    0.803,
    0.613,
    0.296774,
    0.306,
    0.571,
    0.69,
    0.513,
    0.448,
    0.587,
    0.61,
    0.521,
    0.741,
    0.506,
    0.742,
    0.825,
    0.518,
    0.528,
    0.721,
    1.161,
    0.564,
    0.764,
    0.849,
    1.243,
    0.709,
    0.58,
    0.855,
    0.612,
    0.426,
    0.539,
    0.619,
    0.483,
    0.679,
    0.344,
    0.588,
    0.569,
    0.688,
    0.473,
    0.462,
    0.391,
    0.541,
    0.28,
    0.257,
    0.291,
    0.526,
    0.399,
    0.487481,
    0.430166,
    0.386,
    0.537,
    0.342706,
    0.354,
    0.337,
    0.721,
    0.76,
    0.578696,
    0.515951,
    0.574704,
    0.523,
    0.407,
    0.571,
    0.415,
    0.347,
    0.206,
    0.475,
    0.421,
    0.278,
    0.344,
    0.75,
    0.623,
    0.663,
    0.437,
    0.572,
    0.355,
    0.225,
    0.458,
    0.36,
    0.516,
    0.344,
    0.295,
    0.21,
    0.449,
    0.712,
    0.3,
    0.659,
    0.586,
    0.726,
    0.452,
    0.399,
    0.474,
    0.521,
    0.427,
    0.442,
    0.406,
    0.305,
    0.476,
    0.741,
    0.299,
    0.4,
    0.324,
    0.583,
    0.768,
    0.504,
    0.527,
    0.437,
    0.286,
    0.604,
    0.671957,
    0.626107,
    0.5275,
    0.407953,
    0.684124,
    0.573343,
    0.506782,
    0.838873,
    0.870359,
    0.914,
    0.725124,
    0.478026,
    0.559309,
    0.512,
    0.415439,
    0.412691,
    0.241,
    0.538,
    0.852,
    0.262794,
    0.488,
    0.707777,
    0.435,
    0.483,
    0.376,
    0.282,
    0.28,
    0.635,
    1.330103,
    0.402,
    0.559,
    0.666,
    0.547,
    0.273,
    0.465,
    0.505,
    0.324,
    0.69,
    0.302,
    0.881,
    0.537,
    0.533,
    0.458,
    0.541,
    0.327,
    0.674,
    0.691,
    0.584,
    0.452,
    0.447,
    0.504,
    0.667,
    0.905,
    0.541,
    0.47,
    0.45,
    0.776,
    0.556,
    0.757,
    0.824,
    0.577,
    0.675265,
    0.430812,
    0.624727,
    0.497987,
    0.409647,
    0.796184,
    1.021,
    0.525,
    0.523094,
    0.814,
    0.932634,
    0.68562,
    0.591656,
    0.552538,
    0.938876,
    0.715,
    0.834,
    0.635,
    0.917684,
    0.743,
    0.93,
    1.017,
    0.974,
    0.787,
    0.961,
    0.993,
    0.919,
    1.237,
    0.86,
    1.063,
    0.841,
    1.111,
    0.736,
    0.665,
    0.629,
    0.841,
    0.793,
    0.638,
    0.854,
    1.646,
    1.07,
    0.925,
    0.68,
    0.714,
    0.63,
    0.563,
    0.952,
    0.673,
    0.468,
    0.236,
    1.313217,
    0.3,
    0.361,
    0.544,
    0.414,
    0.735,
    0.408,
    0.742,
    0.556,
    0.44,
    0.27,
    0.298,
    0.588,
    0.539,
    0.488,
    0.261,
    0.309,
    0.737,
    0.417,
    0.587,
    0.389,
    1.075,
    0.533,
    0.489,
    1.30445,
    0.595,
    0.313,
    0.577,
    0.698,
    0.35,
    0.299,
    0.336,
    0.284,
    0.335,
    0.927,
    0.612,
    0.341,
    0.538,
    0.539,
    0.724,
    0.359,
    0.468,
    0.398,
    0.489,
    0.471,
    0.508,
    0.497,
    0.732,
    0.536,
    0.858,
    0.427,
    0.973,
    0.967,
    0.804,
    0.532,
    0.545,
    0.919,
    0.956,
    0.667,
    0.776,
    0.716,
    0.698,
    0.877,
    0.58,
    0.572,
    0.479,
    0.697,
    0.81,
    0.82,
    0.993,
    0.675,
    0.668,
    0.578,
    0.443,
    1.116,
    0.723,
    0.865,
    0.763,
    0.543,
    0.669,
    0.571,
    0.446,
    0.618,
    0.475,
    0.715,
    0.655,
    1.084,
    1.045,
    0.756,
    0.676,
    0.593,
    0.707,
    0.998,
    0.896,
    0.784,
    0.464,
    0.461,
    0.662,
    0.574,
    0.577,
    0.5,
    1.026,
    0.719,
    0.705,
    0.657,
    0.536,
    0.43661,
    0.599,
    0.308,
    0.231,
    0.511,
    0.676499,
    0.248,
    0.327,
    0.24116,
    0.628,
    0.689,
    0.344,
    0.473254,
    0.336,
    0.469,
    0.231655,
    0.474353,
    0.465,
    0.34,
    0.385093,
    0.695,
    0.341,
    0.695,
    1.135,
    0.432,
    0.545,
    0.401,
    0.349,
    0.301,
    0.52,
    0.732,
    0.575103,
    0.245,
    0.345,
    0.333,
    0.398,
    0.395,
    0.293,
    0.37,
    0.608,
    0.72,
    0.69,
    0.391,
    0.46,
    0.387,
    0.498103,
    0.371,
    0.283,
    0.15,
    0.35,
    0.944,
    0.306,
    0.288,
    0.858,
    0.754,
    0.518,
    0.5,
    0.275,
    0.423,
    0.462,
    0.382,
    0.62,
    0.687,
    0.749,
    0.463,
    0.325,
    1.049,
    0.516,
    0.38,
    0.657,
    0.659,
    0.626,
    0.509,
    0.543,
    0.358,
    0.924,
    0.407,
    0.252,
    0.535,
    0.292,
    0.508,
    0.33,
    0.512,
    0.669,
    0.617,
    0.249,
    0.506,
    0.682,
    0.411,
    0.463,
    0.372,
    0.495,
    0.605,
    0.502,
    0.736,
    0.184,
    0.523,
    0.336443,
    0.55,
    0.377,
    0.793,
    0.488,
    0.694794,
    0.669686,
    0.792,
    0.281,
    0.446471,
    0.572588,
    0.567,
    0.361916,
    0.31,
    0.48,
    0.68,
    0.734,
    0.516,
    0.567,
    0.409,
    0.46,
    0.654,
    0.282,
    0.349,
    0.476,
    0.527,
    0.252984,
    0.651305,
    0.320255,
    0.324874,
    0.477646,
    0.346,
    0.40165,
    0.652478,
    0.858469,
    0.772,
    0.504,
    0.546,
    0.397619,
    0.24344,
    0.507,
    0.521,
    0.291,
    0.626,
    0.298,
    0.767,
    0.947,
    0.618,
    0.343,
    0.5,
    0.732,
    0.828,
    0.49,
    0.538,
    0.402,
    0.265,
    0.569,
    0.378,
    0.378,
    0.618872,
    0.356,
    0.477,
    0.405,
    0.616,
    0.614,
    0.618,
    0.574,
    0.794,
    0.337,
    0.471,
    0.34,
    0.505,
    0.348,
    0.652,
    0.35,
    0.346,
    0.425,
    0.39,
    0.579,
    0.343,
    0.305,
    0.511,
    0.899,
    0.753,
    0.4,
    0.674,
    0.371,
    0.452,
    0.545,
    0.622493,
    0.382,
    0.492,
    0.685,
    0.862,
    0.626,
    0.803,
    0.755,
    0.821,
    0.699,
    0.624,
    0.618,
    0.541489,
    0.883,
    0.619,
    0.689753,
    0.616,
    0.501124,
    0.561124,
    0.465319,
    0.729293,
    0.633146,
    0.572,
    0.737,
    0.614288,
    0.878,
    0.937097,
    0.699119,
    0.685,
    0.633,
    0.50014,
    0.474247,
    0.266,
    0.526,
    0.32,
    0.507,
    0.864911,
    0.471,
    0.402,
    0.781,
    0.876,
    0.666,
    0.483,
    0.62,
    0.718,
    0.556,
    0.734,
    0.763,
    0.556,
    0.461,
    0.5,
    0.812,
    0.621,
    0.833,
    0.719,
    0.905,
    0.595,
    0.712,
    0.73,
    1.07,
    0.702,
    0.465,
    0.663,
    0.458,
    0.442,
    0.462,
    0.717,
    0.926,
    0.714,
    0.499,
    0.839,
    0.791,
    0.917,
    0.798,
    1.035,
    0.665,
    0.72,
    0.612,
    0.519,
    0.468,
    0.455,
    0.69,
    0.626,
    0.779,
    1.081,
    0.703,
    0.657,
    0.879,
    0.969,
    0.899,
    0.647,
    0.532,
    0.27,
    0.536,
    0.394,
    0.248,
    0.445,
    0.253,
    0.298,
    0.604,
    0.753,
    0.464,
    0.482,
    0.494,
    0.278,
    0.338,
    0.577
  ]
}