[
  1.102,
  0.695,
  0.751,
  0.578,
  1.29,
  0.502,
  0.681,
  0.828,
  0.548,
  0.532,
  0.775,
  0.629,
  0.582,
  0.525,
  0.568,
  0.707,
  0.499,
  0.531,
  0.657,
  0.623,
  0.679,
  0.482,
  0.638,
  0.759,
  0.587,
  0.499,
  0.554,
  0.638,
  0.536,
  0.518,
  0.634,
  0.549082,
  0.555,
  0.333,
  0.464,
  0.59,
  0.787,
  0.385,
  0.425,
  0.587,
  0.48,
  0.388,
  0.434,
  0.610644,
  0.734,
  0.416,
  0.61,
  0.33,
  0.221,
  0.411,
  0.275,
  0.455,
  0.266,
  0.675,
  0.392,
  0.554,
  0.441,
  0.211,
  0.466,
  0.368,
  0.181,
  0.245,
  0.256,
  0.275,
  0.995,
  1.153,
  0.467,
  0.275,
  1.924,
  0.862,
  0.5,
  0.737,
  0.374,
  0.504,
  0.353,
  0.779,
  0.65,
  0.315,
  0.541111,
  0.611,
  0.622,
  0.576,
  0.758285,
  0.624042,
  0.602,
  0.593545,
  0.569,
  0.52,
  0.503,
  0.556,
  0.714,
  0.529,
  0.685,
  0.537,
  0.481,
  0.353,
  0.327,
  0.26,
  0.464,
  0.165,
  0.361,
  0.356,
  0.344,
  0.28,
  0.575,
  0.399,
  0.204,
  0.464,
  0.223,
  0.48,
  0.521,
  0.720513,
  1.004806,
  0.618,
  0.700671,
  0.696,
  0.689,
  0.623,
  0.533027,
  0.473356,
  0.591015,
  0.621807,
  1.234806,
  0.715,
  0.714678,
  0.468688,
  0.715,
  0.439,
  0.528,
  0.563,
  0.865,
  0.761,
  0.753,
  0.985,
  0.693,
  0.446,
  0.615,
  0.787,
  0.491,
  0.62,
  0.319,
  0.285,
  0.432,
  0.31,
  0.666,
  0.374,
  0.362,
  0.393,
  0.403,
  0.566,
  0.253,
  0.418,
  0.246,
  0.254,
  0.288,
  0.3,
  0.52,
  0.64581,
  0.573,
  0.504,
  1.028,
  0.673,
  0.773,
  0.688989,
  0.597817,
  0.676,
  0.512,
  0.56318,
  0.574,
  0.442,
  0.491,
  0.52683,
  0.501,
  0.477,
  0.505,
  0.74,
  0.703,
  0.639,
  0.592,
  0.541,
  0.438,
  0.434,
  0.643,
  0.401,
  0.37,
  0.73,
  0.261,
  0.155,
  0.367,
  0.289,
  0.457,
  0.223,
  0.35,
  0.264,
  0.378,
  0.536,
  0.216906,
  0.347,
  0.283542,
  0.207,
  0.236,
  0.249,
  0.756,
  0.498,
  0.502,
  0.609,
  0.706,
  0.451,
  0.606,
  0.614,
  0.529,
  0.547,
  0.52,
  0.614,
  0.432,
  0.443,
  0.457,
  0.504,
  0.476409,
  0.754682,
  0.751,
  0.588,
  0.690334,
  1.54502,
  0.551945,
  0.571777,
  0.471,
  0.544,
  0.610156,
  0.71425,
  0.549,
  0.753958,
  0.796,
  0.264,
  0.437,
  0.495,
  0.19,
  0.442,
  0.437,
  0.308,
  0.446,
  0.374,
  0.222,
  0.544,
  0.351,
  0.408,
  0.462,
  0.186,
  0.223,
  0.63,
  0.64,
  0.515,
  0.569,
  0.714,
  0.834,
  0.503,
  0.573,
  0.478,
  0.49,
  0.606,
  0.516,
  0.418,
  0.406,
  0.714,
  0.496,
  0.766,
  0.563,
  0.625,
  0.698244,
  0.552,
  0.559,
  0.599,
  0.626,
  0.754,
  0.528,
  0.634,
  0.52,
  0.788,
  0.502756,
  0.594,
  0.651,
  0.674,
  0.648,
  0.734339,
  0.836876,
  0.499,
  0.583,
  0.578714,
  0.683,
  0.626,
  0.49,
  0.526,
  0.578281,
  0.482924,
  0.68,
  0.702,
  0.615,
  0.843,
  0.526,
  0.618,
  0.541,
  0.514,
  0.632,
  0.805,
  0.541612,
  0.462,
  0.526,
  0.665,
  0.521,
  0.662,
  0.512,
  0.687,
  0.472,
  0.666,
  0.453,
  0.721,
  0.579,
  0.55,
  0.458,
  0.43,
  0.678,
  0.454,
  0.509,
  0.459,
  0.453,
  0.639,
  0.633,
  0.492,
  0.685,
  0.483,
  0.578,
  0.686,
  0.598,
  0.689,
  0.733,
  0.68,
  0.447,
  0.45,
  0.651,
  0.575,
  0.345,
  0.412788,
  0.377,
  0.387,
  0.522,
  0.272,
  0.531017,
  0.455,
  0.697876,
  0.535232,
  0.355,
  0.361,
  0.32,
  0.361,
  0.427534,
  0.331231,
  0.716,
  0.445,
  0.527,
  0.795,
  0.787,
  0.417,
  0.624,
  0.731,
  0.711,
  1.317563,
  0.502,
  0.72,
  0.603,
  0.431,
  0.419,
  0.596,
  1.006,
  0.687,
  0.614,
  0.666,
  0.593,
  0.439,
  1.031,
  0.539,
  0.37,
  0.422,
  0.565,
  0.67,
  0.63,
  0.757,
  0.46,
  0.412,
  0.187,
  0.29,
  0.383,
  0.512,
  0.195,
  0.312889,
  0.374,
  0.291897,
  0.238,
  0.246,
  0.277,
  0.219,
  0.193889,
  0.233,
  0.292,
  0.45,
  0.34,
  0.505,
  0.425,
  0.622,
  0.391,
  0.475,
  0.913,
  0.582,
  0.428,
  0.382,
  0.539,
  0.412,
  0.4,
  0.413,
  0.444,
  0.582,
  0.284,
  0.471,
  0.491,
  0.534,
  0.491,
  0.34,
  0.48,
  0.471,
  0.336,
  0.3,
  0.389,
  0.364,
  0.294,
  0.339,
  1.609,
  0.242,
  0.151,
  0.267,
  0.24,
  0.535,
  0.271,
  0.288,
  0.328,
  0.349,
  0.261,
  0.242,
  0.529,
  0.232,
  0.53,
  0.418,
  0.556,
  0.501,
  0.706,
  0.87,
  0.55,
  0.705,
  0.677,
  0.591,
  0.576,
  1.932,
  3.046,
  0.486,
  0.515,
  0.509,
  0.574,
  0.723,
  0.709,
  0.564,
  0.661,
  0.71,
  0.45792,
  0.608,
  0.641778,
  0.594,
  0.531,
  0.481,
  0.571,
  0.686,
  0.56,
  0.47,
  0.606,
  0.55,
  0.4,
  0.636,
  0.489,
  0.685,
  0.584,
  0.879,
  0.674,
  0.5504,
  0.462,
  0.72,
  0.647,
  0.667,
  0.48,
  0.675,
  0.601,
  0.347,
  0.379,
  0.303,
  0.675,
  0.442,
  0.262,
  0.444,
  0.449,
  0.466,
  0.22,
  0.244,
  0.389,
  0.276,
  0.283,
  0.24,
  0.307,
  0.480287,
  0.61,
  0.601,
  0.547078,
  0.70818,
  0.444813,
  0.526539,
  0.685,
  0.547734,
  0.476989,
  0.468834,
  0.658,
  0.496,
  0.500145,
  0.621654,
  0.525,
  0.651,
  0.695,
  0.619,
  0.454,
  0.649,
  0.666,
  0.471,
  0.596,
  0.539,
  0.366,
  0.382,
  0.496,
  0.546,
  0.503,
  0.401,
  0.478,
  0.161,
  0.267,
  0.256,
  0.47,
  0.206,
  0.293786,
  0.362533,
  0.328,
  0.296,
  0.317,
  0.374105,
  0.189,
  0.341,
  0.376556,
  0.389,
  0.508,
  0.213,
  0.377,
  0.604,
  0.595,
  0.257,
  0.475,
  0.515,
  0.422,
  0.473,
  0.356,
  0.514,
  0.279,
  0.268,
  0.462,
  0.488,
  0.318,
  1.624,
  0.436,
  0.4,
  0.471,
  0.882111,
  0.405,
  0.316,
  0.292,
  0.302,
  0.433,
  0.312,
  0.526,
  0.332,
  0.334,
  0.511,
  0.191,
  0.314,
  0.299,
  0.559,
  0.234,
  0.33,
  0.569,
  0.371,
  0.177,
  0.461,
  0.258,
  0.163,
  0.233,
  0.223,
  0.268,
  0.421,
  0.473,
  0.696,
  0.987,
  0.468,
  0.606,
  0.581,
  0.576,
  0.733,
  0.459,
  0.531,
  0.662,
  0.592,
  1.924,
  0.494,
  0.301,
  0.501,
  0.278,
  0.25,
  0.424,
  0.437,
  0.277508,
  0.353,
  0.471288,
  0.686,
  0.403,
  0.364,
  0.279,
  0.491,
  0.219,
  0.476,
  0.518,
  0.434,
  0.599,
  0.427,
  0.574,
  0.23,
  0.335,
  0.343,
  0.337,
  0.293,
  0.217,
  0.521,
  0.253,
  0.391,
  0.281,
  0.38,
  0.64,
  0.457,
  0.581,
  0.771,
  0.612,
  0.944,
  0.551,
  0.457,
  1.155,
  0.54,
  0.535,
  0.355,
  0.46,
  0.802,
  0.432,
  0.44202,
  0.50489,
  0.451971,
  0.653182,
  0.628,
  0.444,
  0.532,
  0.595,
  0.438,
  2.059,
  0.581,
  0.953,
  0.658,
  0.59,
  0.463,
  0.513,
  0.46,
  0.612,
  0.631,
  0.658,
  0.557,
  0.586,
  0.573,
  0.454,
  0.685,
  0.509,
  0.437,
  0.663,
  0.724,
  0.423,
  0.743846,
  0.598,
  0.637,
  0.704,
  0.454,
  0.591227,
  0.651,
  0.481626,
  0.46405,
  0.538,
  0.492612,
  0.501,
  0.577473,
  0.820105,
  0.611,
  0.453,
  0.493,
  0.474,
  1.089,
  0.798,
  0.55,
  0.651,
  0.665,
  0.532,
  0.607,
  0.573,
  0.451,
  0.628,
  0.825,
  0.232,
  0.356,
  0.303,
  0.334,
  0.444,
  0.185,
  0.402,
  0.65,
  0.715,
  0.68,
  0.504,
  1.994,
  0.238,
  0.417,
  0.18,
  0.509,
  0.467509,
  0.478809,
  0.624,
  0.491461,
  0.716,
  0.51,
  0.570777,
  0.587,
  0.551223,
  0.478708,
  0.460097,
  0.569,
  0.704072,
  0.701522,
  0.644103,
  0.242146,
  0.208,
  0.409,
  0.279,
  0.442,
  0.268,
  0.287,
  0.299,
  0.302,
  0.231,
  0.228971,
  0.376,
  0.372,
  0.228,
  0.438,
  0.268,
  0.278,
  0.469,
  0.426,
  0.626,
  0.281,
  0.61,
  0.67,
  0.375,
  0.275,
  0.285,
  0.332,
  0.523,
  0.878,
  0.507,
  0.306,
  0.515,
  0.716,
  0.556,
  0.562,
  0.695,
  0.495,
  0.649,
  0.65,
  0.695,
  0.573,
  0.788,
  0.641,
  0.738,
  0.5,
  0.712,
  0.797,
  0.645,
  0.496,
  0.734,
  0.589,
  0.725,
  0.582,
  0.593,
  0.68,
  0.504,
  0.465,
  0.536,
  0.444,
  1.362,
  0.668,
  0.726,
  0.514,
  0.244,
  0.334,
  0.333,
  0.461,
  0.219,
  0.351,
  0.372,
  0.347,
  0.248,
  0.471,
  0.312,
  0.258,
  0.372,
  0.288,
  0.212,
  0.77,
  0.735233,
  0.463152,
  0.740938,
  0.568115,
  0.6,
  0.59393,
  0.569,
  0.539,
  0.568,
  0.527919,
  0.558,
  0.479,
  0.704774,
  0.452,
  0.57,
  0.556,
  0.862,
  0.708,
  0.866,
  0.622,
  0.551,
  0.508,
  0.447,
  0.834,
  0.512,
  0.788,
  0.471,
  0.711,
  0.467,
  0.502,
  0.72,
  0.659,
  0.454,
  0.679,
  0.693,
  0.505,
  0.609,
  0.481,
  0.704,
  0.566,
  0.633,
  0.705,
  0.484,
  0.287,
  0.508,
  0.377,
  0.499,
  0.759,
  0.235,
  0.353,
  0.397,
  0.344,
  0.233,
  0.285,
  0.289,
  0.415,
  0.225,
  0.205,
  0.261,
  0.293,
  0.234,
  0.417,
  0.296,
  0.444,
  0.28,
  0.363,
  0.481,
  0.557,
  0.519,
  0.338,
  0.407,
  0.272,
  0.318,
  0.223,
  0.962,
  0.502,
  0.518,
  0.709,
  0.469,
  0.568,
  0.762,
  0.643,
  0.51,
  0.491,
  0.624,
  0.524,
  0.522,
  0.463,
  0.621,
  0.286,
  0.286,
  0.31,
  0.367,
  0.654,
  0.35,
  0.328,
  0.366,
  0.338,
  0.304,
  0.397,
  0.69,
  0.364,
  0.268,
  0.3,
  0.256,
  1.823184,
  0.828,
  0.433,
  0.308,
  0.488,
  0.519,
  1.616,
  0.408,
  0.653,
  0.292,
  0.328,
  0.386,
  2.026,
  0.259,
  1.127,
  0.771,
  0.46,
  0.553,
  0.532,
  0.893,
  0.646,
  0.687,
  0.72,
  0.595,
  0.684,
  0.615,
  0.46,
  0.554,
  0.511,
  0.465,
  0.472,
  0.438,
  0.59,
  0.436,
  0.663,
  0.428,
  0.611,
  0.647,
  0.523,
  0.447,
  0.648,
  0.634,
  0.448,
  0.684,
  0.476,
  0.479,
  0.413,
  0.572,
  0.533,
  0.877,
  0.717,
  0.561,
  0.754,
  0.632,
  0.532,
  0.478,
  0.983,
  0.693,
  0.694,
  0.502,
  0.562648,
  0.508,
  0.577,
  0.692,
  1.051,
  0.581,
  0.774,
  0.823,
  0.577349,
  0.499,
  0.641,
  0.721,
  0.571756,
  0.706,
  0.538,
  0.435,
  0.296,
  0.254,
  0.752,
  0.574,
  0.524,
  0.368,
  0.435,
  0.767,
  0.204,
  0.285,
  0.2,
  0.229,
  0.205,
  0.335,
  0.679,
  0.567,
  0.554,
  0.683,
  0.473,
  0.627,
  0.659,
  0.494,
  0.497,
  0.504,
  0.583,
  0.704,
  0.526,
  0.483,
  0.468,
  0.16245,
  0.18,
  0.267194,
  0.471,
  0.568,
  0.378,
  0.346,
  0.355,
  0.38,
  0.236,
  0.186241,
  0.584,
  0.264,
  0.194,
  0.145,
  0.2,
  0.442,
  0.435,
  0.434,
  0.656,
  0.454,
  0.567,
  0.555,
  0.649,
  0.42,
  0.506,
  0.404,
  0.587153,
  0.491,
  0.256,
  0.148,
  0.383,
  0.302,
  0.422,
  0.172,
  0.369,
  0.489,
  0.265,
  0.214,
  0.204,
  0.336,
  0.235,
  0.219,
  0.453,
  0.221,
  0.503,
  0.639,
  0.75,
  0.59,
  0.847,
  0.457,
  0.534,
  0.656,
  0.787,
  0.663,
  0.54,
  0.651,
  0.405,
  2.233,
  0.455,
  0.652,
  0.771,
  0.527,
  0.648,
  0.512,
  0.947,
  0.598,
  0.548,
  1.004,
  0.469,
  0.535,
  0.696,
  0.533,
  0.487,
  0.656,
  0.48,
  0.54,
  0.527,
  0.654,
  0.505,
  0.582,
  0.588,
  0.616,
  0.503,
  0.657,
  0.557,
  0.695,
  0.504,
  0.682,
  0.388,
  0.469,
  0.384,
  0.66,
  0.545,
  0.653,
  0.46,
  0.6,
  0.851,
  0.69,
  0.642,
  0.766,
  0.614,
  0.479,
  0.448,
  0.486,
  0.674,
  0.428,
  0.463,
  0.415,
  1.321,
  0.665,
  0.53,
  0.649,
  0.647,
  0.446,
  0.476,
  0.622,
  0.368,
  0.423,
  0.572,
  0.465,
  0.62,
  0.566,
  0.501,
  0.8,
  0.824,
  0.593647,
  0.668,
  0.635,
  0.614,
  0.849,
  0.613,
  0.714,
  0.764,
  1.560726,
  0.542,
  0.778255,
  0.453,
  0.402,
  0.44,
  0.462,
  0.619,
  0.526,
  0.577,
  0.602,
  0.531,
  0.455,
  0.593,
  0.495,
  0.598,
  0.596,
  0.46,
  0.443,
  0.524,
  0.501,
  0.796,
  0.614,
  0.721,
  0.58,
  0.645,
  0.703,
  0.999,
  0.575,
  0.502,
  0.622,
  0.499,
  0.548,
  0.478
]