{
  "1048576": [
    4.647,
    4.243,
    4.23,
    3.841,
    6.115,
    3.582,
    3.927,
    5.185,
    5.259,
    1.742,
    2.301,
    5.543816,
    6.196,
    4.342,
    1.936,
    4.481263,
    4.726832,
    4.700738,
    5.772136,
    5.042845,
    4.012,
    3.846428,
    8.646213,
    4.958,
    4.701,
    1.768,
    1.983977,
    4.425,
    1.661,
    6.006,
    4.768,
    5.324,
    6.527716,
    8.84,
    10.084,
    10.712,
    4.769,
    6.034,
    7.713,
    5.896324,
    4.82,
    5.175447,
    5.397,
    23.175,
    5.075,
    5.604,
    6.194,
    2.268,
    7.611,
    6.783,
    3.085,
    12.566,
    4.71,
    12.314,
    3.948,
    5.512,
    3.556,
    4.594,
    2.218,
    2.531,
    4.041,
    5.684331,
    3.802,
    4.634,
    6.006,
    2.109487,
    4.483,
    1.954178,
    2.803,
    3.252,
    2.445,
    2.879,
    2.096,
    4.329,
    3.126,
    6.153,
    5.939,
    2.124,
    4.351,
    3.794,
    3.635,
    2.375,
    3.496,
    2.97,
    4.523,
    5.053,
    4.985,
    4.466,
    4.987,
    6.617,
    8.354,
    4.637,
    3.75,
    6.418,
    4.916,
    2.322,
    2.311,
    3.392897,
    2.572162,
    3.849,
    3.613,
    6.379,
    4.772,
    4.244,
    8.884045,
    4.36743,
    5.694,
    3.824,
    3.95,
    5.336029,
    5.09,
    6.017,
    4.549,
    3.18526,
    3.333,
    6.039,
    4.275,
    3.032,
    4.36,
    4.954,
    2.199,
    2.421,
    6.395,
    4.529744,
    4.632,
    6.331,
    3.785,
    4.353,
    5.409,
    4.756,
    4.539,
    4.462583,
    4.963359,
    14.88,
    4.554,
    2.855,
    3.739,
    4.373,
    4.494,
    5.206,
    5.668284,
    4.14,
    4.249192,
    4.267,
    4.788,
    5.256,
    5.728,
    5.694,
    5.591,
    4.183924,
    4.316897,
    5.166,
    4.556,
    6.497,
    5.056,
    4.49,
    4.648
  ],
  "51200": [
    2.115,
    2.046,
    1.775,
    1.705,
    2.592,
    2.344,
    1.746,
    2.503698,
    2.348,
    1.435,
    2.63,
    2.236,
    1.388,
    1.607,
    1.657,
    2.212,
    1.888,
    1.656,
    1.825,
    1.867,
    2.435,
    1.332,
    1.673,
    1.319,
    2.545,
    2.884,
    1.647,
    2.064,
    1.487,
    2.481,
    1.861,
    1.689,
    1.615,
    1.566,
    2.243,
    1.637,
    0.901,
    1.376,
    1.047,
    1.636,
    1.401353,
    0.977,
    0.866,
    0.823,
    1.171,
    0.935,
    0.814,
    0.951,
    0.708,
    0.876,
    1.515,
    1.3,
    1.725,
    0.699,
    1.115,
    1.006,
    1.465,
    0.812,
    1.29,
    1.482,
    1.248,
    1.999,
    0.893,
    2.776393,
    1.409,
    2.249303,
    2.642,
    2.062,
    1.943537,
    2.283,
    2.640678,
    1.674697,
    2.648181,
    1.664,
    1.462,
    1.62008,
    0.819,
    1.457,
    1.773,
    0.696,
    1.274807,
    1.708481,
    1.704,
    0.751,
    0.873,
    0.965,
    1.291,
    1.618,
    0.696,
    0.892,
    1.506556,
    1.350278,
    1.46,
    2.107,
    2.216608,
    1.472786,
    1.719,
    1.97,
    1.492,
    1.764071,
    1.653429,
    1.359271,
    1.498195,
    1.390038,
    1.404962,
    1.392687,
    2.409687,
    2.09839,
    1.611657,
    2.554409,
    1.299338,
    1.712355,
    1.612508,
    1.655591,
    1.483722,
    2.545793,
    1.987929,
    3.17,
    1.288,
    1.39516,
    2.22,
    1.253,
    1.301,
    1.694596,
    1.63,
    1.586,
    1.344,
    1.112,
    1.505851,
    3.023,
    2.512,
    2.192,
    2.301,
    2.974,
    1.816,
    2.256233,
    2.583413,
    2.318935,
    1.759,
    2.21,
    2.627997,
    2.404,
    1.794729,
    2.188,
    1.066,
    1.493,
    2.386,
    1.955,
    2.0,
    1.902,
    1.833,
    1.823,
    2.253,
    1.647,
    1.371,
    1.809,
    1.732,
    1.825,
    0.77637,
    1.465377,
    0.878318,
    1.05484,
    0.713,
    0.897904,
    1.035263,
    0.88293,
    0.775276,
    0.943,
    1.494,
    0.575,
    0.800702,
    0.562,
    0.898,
    2.288,
    1.757,
    1.412,
    1.01,
    0.691,
    1.563,
    1.055,
    1.611,
    1.168856,
    0.662,
    0.904,
    2.43539,
    1.475,
    1.667,
    3.084,
    1.731,
    1.925,
    2.033,
    1.744,
    2.126,
    1.461,
    3.461,
    2.1,
    1.42,
    2.008284,
    2.907,
    1.677,
    1.834,
    2.371,
    1.565,
    1.864,
    1.746,
    2.277,
    1.807,
    1.410202,
    1.551,
    1.64,
    1.522,
    1.852,
    2.403,
    1.5,
    1.641,
    2.252,
    2.071,
    1.437,
    2.374,
    1.668,
    1.45,
    3.098,
    1.697,
    1.599,
    2.25,
    2.803,
    1.549,
    2.007,
    2.317,
    1.869,
    1.559,
    4.631,
    1.866,
    2.089,
    1.757713,
    2.588934,
    1.906,
    2.264,
    1.416906,
    2.038,
    1.643,
    1.893,
    1.786098,
    2.29852,
    1.746,
    2.257,
    1.970996,
    2.502,
    1.371,
    1.883,
    2.252,
    3.071,
    1.9,
    1.645,
    1.591,
    1.376,
    1.399,
    1.534,
    2.145,
    1.323,
    1.367,
    2.152,
    1.587,
    2.052,
    2.154,
    3.135,
    1.948,
    2.273,
    1.529,
    1.939,
    2.171,
    1.772,
    1.857,
    1.681,
    2.792,
    1.92,
    1.631,
    1.687,
    1.93,
    1.651,
    1.596,
    1.442,
    1.464,
    2.307,
    1.554,
    0.917,
    0.822,
    1.762762,
    1.512,
    1.121,
    1.40248,
    2.321,
    1.731,
    0.919,
    0.992,
    0.772,
    1.582,
    0.846,
    1.933298,
    1.857893,
    2.28,
    1.806152,
    2.765,
    2.85709,
    2.045465,
    2.132,
    1.72,
    2.206617,
    1.805876,
    1.737128,
    2.064,
    1.978731,
    1.553,
    1.228,
    0.976,
    0.896,
    1.989,
    1.254,
    1.075,
    9.842,
    0.672,
    1.859,
    1.091,
    1.104,
    2.783,
    3.35,
    1.586,
    1.269,
    1.325,
    2.864,
    1.21,
    0.951,
    1.334,
    1.218,
    3.109,
    2.719,
    2.214,
    2.005,
    2.44,
    2.267,
    2.024,
    2.051,
    2.667,
    2.071,
    2.863,
    2.439,
    1.683,
    1.634,
    1.812,
    1.15,
    0.979,
    1.292,
    0.789,
    1.43,
    1.591111,
    1.737,
    0.939,
    1.05,
    1.328,
    0.776,
    0.874,
    1.337,
    0.987,
    1.029111,
    1.841,
    1.047729,
    1.046966,
    1.660008,
    1.089,
    0.807788,
    1.055,
    0.589007,
    1.266,
    1.560974,
    1.619,
    1.754,
    2.187,
    1.48,
    1.297,
    1.82,
    1.993,
    2.646,
    1.71,
    2.438,
    1.483,
    1.496,
    1.194,
    1.774,
    2.457,
    1.217,
    1.505,
    1.713,
    1.509,
    1.33,
    1.286,
    1.153,
    1.765,
    2.029,
    1.54,
    1.726,
    1.909,
    2.373,
    1.81,
    2.235,
    1.957,
    2.598,
    1.514,
    1.978,
    1.454,
    1.738,
    1.621,
    1.598,
    0.895,
    1.243,
    1.367,
    0.863,
    5.458,
    0.825,
    1.209,
    1.125,
    0.974,
    1.653,
    0.683,
    1.322,
    0.752,
    0.6,
    0.762,
    1.564,
    1.76,
    1.969,
    1.822,
    2.728,
    1.648,
    1.906,
    2.281,
    1.489,
    1.442,
    1.703,
    2.116,
    2.06,
    1.331,
    1.878,
    1.909,
    1.686,
    1.313,
    1.724,
    2.314,
    1.587,
    1.84,
    2.285,
    1.572,
    1.875,
    2.479,
    1.526,
    1.432,
    0.498,
    1.212,
    1.190298,
    1.789,
    0.801,
    1.145,
    1.464785,
    2.85,
    0.91,
    0.757,
    0.535,
    0.578,
    0.914,
    1.27,
    0.563,
    0.929,
    1.004,
    1.222,
    1.013,
    1.533,
    1.04,
    1.35,
    0.852,
    1.943,
    1.453,
    0.982,
    0.832,
    0.95,
    1.718,
    1.338,
    1.335,
    0.867,
    0.775,
    0.638,
    1.008,
    0.541,
    1.275,
    0.999,
    1.81,
    0.898,
    1.507,
    1.587,
    1.278,
    0.657,
    1.594,
    1.409,
    0.755,
    1.326,
    1.228,
    2.543,
    2.043,
    1.487,
    1.772,
    3.549,
    1.426,
    1.282,
    1.538,
    2.139,
    1.27,
    1.197,
    0.73,
    0.671,
    0.959,
    1.669916,
    0.601,
    1.184,
    1.372,
    1.103,
    0.598,
    1.64,
    1.43,
    0.798,
    0.92,
    1.011,
    1.251,
    0.616,
    0.790298,
    1.78,
    1.936,
    1.569,
    1.393001,
    0.959,
    0.954,
    1.342,
    0.746,
    1.023,
    1.157,
    1.729,
    2.242,
    1.992,
    1.985,
    2.77,
    1.905,
    1.85,
    1.989,
    2.074,
    2.109,
    2.127,
    1.515,
    2.052,
    2.8,
    1.58,
    2.186,
    1.6,
    2.274,
    1.3,
    1.526,
    2.464,
    2.002,
    1.381,
    1.605,
    1.859,
    1.255,
    2.143,
    2.631,
    1.999,
    2.555,
    1.69,
    3.418,
    1.641,
    2.003,
    2.22,
    2.078,
    1.558,
    1.539,
    1.5,
    2.356,
    4.026,
    1.717,
    1.178,
    2.684,
    2.145,
    2.784563,
    1.979,
    1.606,
    1.314,
    1.697,
    1.255,
    2.543,
    1.23,
    1.364,
    1.595,
    1.377,
    1.784,
    1.776,
    1.833,
    1.528,
    2.11,
    1.975,
    1.557888,
    1.487,
    1.775,
    1.621,
    1.673,
    1.662,
    1.016,
    1.016,
    1.81,
    0.837,
    0.952,
    1.169,
    0.975,
    0.736,
    1.182,
    1.866,
    0.766,
    0.791,
    1.384,
    1.31,
    1.802,
    1.472,
    2.201,
    1.791639,
    1.666,
    2.271,
    1.292,
    2.17,
    1.337,
    1.431,
    1.259,
    0.854054,
    1.089097,
    1.719,
    0.736,
    1.268,
    2.102,
    0.699,
    0.792897,
    1.49,
    0.828,
    0.661883,
    0.800031,
    0.86,
    1.521,
    1.738,
    1.922,
    0.878,
    1.141,
    1.131,
    1.276,
    1.309,
    0.927,
    1.454419,
    0.765,
    1.365,
    2.611,
    1.953,
    1.794,
    2.201,
    2.716,
    1.622,
    2.033,
    2.247,
    1.698,
    1.531,
    2.524,
    1.658,
    2.77,
    2.281,
    2.872,
    1.566,
    2.621,
    1.775,
    1.935,
    1.767,
    2.052,
    2.715,
    1.265,
    1.38,
    2.193,
    1.366,
    1.424,
    1.493,
    1.539,
    1.557,
    2.312,
    1.559,
    1.754,
    2.047,
    1.746,
    1.445,
    3.273,
    1.269,
    1.33,
    1.396,
    2.084,
    1.653,
    1.328,
    1.707,
    2.504,
    1.457,
    1.903,
    2.178,
    1.901,
    1.219,
    1.851,
    1.325,
    2.224,
    2.083,
    1.471,
    1.392,
    1.818,
    1.71,
    2.885,
    1.209,
    1.349,
    1.63,
    2.115,
    1.394,
    1.845,
    1.374,
    1.306,
    1.883,
    1.967,
    1.578,
    2.140787,
    1.651957,
    1.671,
    1.555,
    1.818,
    1.866,
    1.541,
    1.22,
    0.978,
    1.239,
    1.217767,
    1.421,
    1.21,
    0.746,
    1.952,
    1.451,
    0.685,
    1.036,
    1.061272,
    1.077,
    1.762955,
    0.759,
    1.211119,
    1.004526,
    0.929064,
    1.508,
    1.561,
    1.706,
    0.796,
    2.329,
    2.316,
    1.924317,
    2.736,
    2.075,
    2.673,
    2.341,
    1.908,
    2.652,
    2.846,
    2.532,
    1.618391,
    2.152,
    1.545,
    1.206,
    0.927,
    1.514,
    1.191,
    0.591,
    2.006,
    2.244,
    1.582,
    2.141,
    1.553,
    1.901744,
    2.405,
    1.384,
    3.097,
    2.119124,
    1.456,
    2.908,
    4.655,
    1.562,
    2.076,
    1.927,
    3.057,
    2.591,
    1.948,
    3.482,
    2.03,
    2.292,
    1.82,
    1.555,
    1.653,
    1.51,
    1.754,
    2.505,
    2.294,
    1.507,
    2.081,
    1.17,
    2.265,
    2.441,
    1.292,
    1.249,
    1.791,
    2.011,
    2.038,
    1.52,
    1.53,
    1.55,
    2.284,
    1.62,
    2.868,
    2.218,
    1.838,
    1.638,
    1.503,
    2.051,
    1.402,
    2.117,
    2.22,
    1.572,
    2.131623,
    1.472056,
    2.245,
    1.607623,
    2.8462,
    2.514296,
    1.811003,
    1.684006,
    1.67365,
    2.303855,
    1.490719,
    1.119,
    1.427,
    1.125,
    0.943,
    2.414,
    0.974,
    2.1,
    1.305,
    1.046,
    1.092,
    2.508,
    1.67,
    0.898,
    1.104,
    2.364,
    1.709,
    1.943,
    2.345,
    1.529,
    2.088,
    1.914,
    1.587,
    2.304,
    1.849,
    1.471,
    2.228,
    1.522,
    2.23,
    1.022,
    1.071,
    1.44,
    2.108,
    1.817604,
    1.046,
    1.436,
    1.575,
    1.373,
    2.14,
    1.769,
    1.177,
    3.053,
    1.505,
    1.912129,
    1.922,
    2.411716,
    1.365,
    2.137875,
    2.006456,
    1.83,
    2.258264,
    1.727,
    1.496719,
    1.313,
    1.415,
    0.914,
    0.912111,
    2.377,
    1.404,
    1.249,
    1.429392,
    1.222,
    0.917,
    1.326,
    0.950095,
    0.68,
    0.666,
    0.742,
    1.267,
    1.366,
    1.319,
    1.553,
    3.097,
    2.612,
    1.3,
    1.727,
    2.594,
    1.708,
    2.218765,
    1.473,
    1.535,
    1.490666,
    1.651,
    1.88,
    1.585,
    2.451,
    2.297,
    2.097,
    1.414,
    1.887,
    1.682,
    1.462,
    1.823,
    1.421,
    1.106,
    1.564,
    1.419,
    2.608,
    1.159,
    1.869,
    1.496,
    1.641,
    1.411,
    1.532,
    1.934,
    1.219,
    1.303,
    1.504,
    1.478,
    1.411,
    1.701,
    1.949,
    2.755,
    2.14,
    2.084,
    2.109,
    1.431,
    1.705,
    2.155,
    1.491,
    1.615,
    1.578,
    2.643,
    1.607,
    1.751,
    2.028,
    3.098,
    1.374,
    1.674,
    1.834,
    1.403,
    1.697,
    1.332,
    1.408,
    1.525,
    1.651,
    1.708,
    1.722,
    2.195,
    1.641,
    2.197,
    1.894,
    1.886,
    2.564,
    1.707,
    1.569,
    1.749,
    1.427,
    1.55,
    1.432,
    1.986,
    1.485,
    2.093,
    1.336,
    1.65,
    1.561,
    1.304,
    1.11,
    2.279,
    2.209,
    1.494,
    1.254,
    1.381,
    1.628,
    1.799,
    2.369,
    1.408,
    2.041,
    2.072,
    2.065,
    1.413,
    1.991,
    1.462
  ],
  "5242880": [
    5.977,
    12.286,
    10.105,
    9.929057,
    5.727,
    6.377,
    16.22,
    15.535,
    11.045,
    11.567,
    12.927,
    8.474,
    5.513,
    5.618,
    11.63,
    19.827,
    7.341,
    6.365,
    28.464,
    7.268,
    9.157,
    8.502,
    4.64,
    9.093,
    6.575,
    11.602,
    9.619,
    13.38,
    10.768,
    12.829,
    15.493,
    10.542,
    7.660928,
    6.721,
    5.712675,
    6.476,
    6.477,
    7.022,
    7.438,
    9.104,
    15.447,
    12.545234,
    12.805,
    13.087,
    16.329,
    22.879,
    11.038,
    10.997,
    14.901,
    10.388,
    13.528,
    15.887
  ],
  "ALL": [
    2.115,
    2.046,
    1.775,
    1.705,
    2.592,
    2.344,
    1.746,
    2.503698,
    2.348,
    1.435,
    2.63,
    4.647,
    4.243,
    2.236,
    1.388,
    1.607,
    1.657,
    2.212,
    1.888,
    1.656,
    1.825,
    1.867,
    2.435,
    1.332,
    4.23,
    3.841,
    6.115,
    3.582,
    3.927,
    1.673,
    1.319,
    2.545,
    2.884,
    1.647,
    2.064,
    1.487,
    2.481,
    1.861,
    1.689,
    1.615,
    1.566,
    2.243,
    5.185,
    5.259,
    1.637,
    0.901,
    1.376,
    1.047,
    1.636,
    1.401353,
    0.977,
    0.866,
    0.823,
    1.171,
    0.935,
    0.814,
    0.951,
    1.742,
    2.301,
    5.977,
    0.708,
    0.876,
    1.515,
    1.3,
    1.725,
    0.699,
    1.115,
    1.006,
    1.465,
    0.812,
    1.29,
    1.482,
    1.248,
    1.999,
    0.893,
    2.776393,
    1.409,
    2.249303,
    2.642,
    2.062,
    1.943537,
    2.283,
    2.640678,
    1.674697,
    2.648181,
    1.664,
    1.462,
    1.62008,
    5.543816,
    6.196,
    12.286,
    0.819,
    1.457,
    1.773,
    0.696,
    1.274807,
    1.708481,
    1.704,
    0.751,
    0.873,
    0.965,
    1.291,
    1.618,
    0.696,
    0.892,
    4.342,
    1.936,
    1.506556,
    1.350278,
    1.46,
    2.107,
    2.216608,
    1.472786,
    1.719,
    1.97,
    1.492,
    1.764071,
    1.653429,
    1.359271,
    1.498195,
    1.390038,
    1.404962,
    4.481263,
    1.392687,
    2.409687,
    2.09839,
    1.611657,
    2.554409,
    1.299338,
    1.712355,
    1.612508,
    1.655591,
    1.483722,
    2.545793,
    1.987929,
    3.17,
    1.288,
    1.39516,
    2.22,
    1.253,
    1.301,
    1.694596,
    1.63,
    1.586,
    1.344,
    1.112,
    1.505851,
    4.726832,
    4.700738,
    5.772136,
    5.042845,
    4.012,
    3.846428,
    10.105,
    9.929057,
    3.023,
    2.512,
    2.192,
    2.301,
    2.974,
    1.816,
    2.256233,
    2.583413,
    2.318935,
    1.759,
    2.21,
    2.627997,
    2.404,
    1.794729,
    8.646213,
    4.958,
    2.188,
    1.066,
    1.493,
    2.386,
    1.955,
    2.0,
    1.902,
    1.833,
    1.823,
    2.253,
    1.647,
    1.371,
    1.809,
    1.732,
    1.825,
    4.701,
    0.77637,
    1.465377,
    0.878318,
    1.05484,
    0.713,
    0.897904,
    1.035263,
    0.88293,
    0.775276,
    0.943,
    1.494,
    0.575,
    0.800702,
    1.768,
    1.983977,
    5.727,
    0.562,
    0.898,
    2.288,
    1.757,
    1.412,
    1.01,
    0.691,
    1.563,
    1.055,
    1.611,
    1.168856,
    0.662,
    0.904,
    4.425,
    1.661,
    6.377,
    2.43539,
    1.475,
    1.667,
    3.084,
    1.731,
    1.925,
    2.033,
    1.744,
    2.126,
    1.461,
    3.461,
    2.1,
    1.42,
    2.008284,
    6.006,
    2.907,
    1.677,
    1.834,
    2.371,
    1.565,
    1.864,
    1.746,
    2.277,
    1.807,
    1.410202,
    1.551,
    1.64,
    4.768,
    5.324,
    6.527716,
    16.22,
    1.522,
    1.852,
    2.403,
    1.5,
    1.641,
    2.252,
    2.071,
    1.437,
    2.374,
    1.668,
    1.45,
    3.098,
    1.697,
    8.84,
    10.084,
    10.712,
    1.599,
    2.25,
    2.803,
    1.549,
    2.007,
    2.317,
    1.869,
    1.559,
    4.631,
    1.866,
    2.089,
    4.769,
    6.034,
    7.713,
    15.535,
    1.757713,
    2.588934,
    1.906,
    2.264,
    1.416906,
    2.038,
    1.643,
    1.893,
    1.786098,
    2.29852,
    1.746,
    2.257,
    1.970996,
    5.896324,
    4.82,
    5.175447,
    2.502,
    1.371,
    1.883,
    2.252,
    3.071,
    1.9,
    1.645,
    1.591,
    1.376,
    1.399,
    1.534,
    2.145,
    1.323,
    5.397,
    11.045,
    1.367,
    2.152,
    1.587,
    2.052,
    2.154,
    3.135,
    1.948,
    2.273,
    1.529,
    1.939,
    23.175,
    5.075,
    5.604,
    6.194,
    2.171,
    1.772,
    1.857,
    1.681,
    2.792,
    1.92,
    1.631,
    1.687,
    1.93,
    1.651,
    1.596,
    1.442,
    1.464,
    2.307,
    11.567,
    12.927,
    1.554,
    0.917,
    0.822,
    1.762762,
    1.512,
    1.121,
    1.40248,
    2.321,
    1.731,
    0.919,
    0.992,
    0.772,
    1.582,
    0.846,
    2.268,
    8.474,
    1.933298,
    1.857893,
    2.28,
    1.806152,
    2.765,
    2.85709,
    2.045465,
    2.132,
    1.72,
    2.206617,
    1.805876,
    1.737128,
    2.064,
    1.978731,
    7.611,
    6.783,
    1.553,
    1.228,
    0.976,
    0.896,
    1.989,
    1.254,
    1.075,
    9.842,
    0.672,
    1.859,
    3.085,
    12.566,
    4.71,
    12.314,
    1.091,
    1.104,
    2.783,
    3.35,
    1.586,
    1.269,
    1.325,
    2.864,
    1.21,
    0.951,
    1.334,
    1.218,
    3.109,
    3.948,
    5.513,
    2.719,
    2.214,
    2.005,
    2.44,
    2.267,
    2.024,
    2.051,
    2.667,
    2.071,
    2.863,
    2.439,
    1.683,
    1.634,
    5.512,
    1.812,
    1.15,
    0.979,
    1.292,
    0.789,
    1.43,
    1.591111,
    1.737,
    0.939,
    1.05,
    1.328,
    0.776,
    0.874,
    3.556,
    4.594,
    2.218,
    1.337,
    0.987,
    1.029111,
    1.841,
    1.047729,
    1.046966,
    1.660008,
    1.089,
    0.807788,
    1.055,
    0.589007,
    1.266,
    2.531,
    5.618,
    1.560974,
    1.619,
    1.754,
    2.187,
    1.48,
    1.297,
    1.82,
    1.993,
    2.646,
    1.71,
    2.438,
    1.483,
    4.041,
    5.684331,
    1.496,
    1.194,
    1.774,
    2.457,
    1.217,
    1.505,
    1.713,
    1.509,
    1.33,
    1.286,
    1.153,
    1.765,
    3.802,
    4.634,
    6.006,
    2.029,
    1.54,
    1.726,
    1.909,
    2.373,
    1.81,
    2.235,
    1.957,
    2.598,
    1.514,
    1.978,
    1.454,
    1.738,
    1.621,
    1.598,
    0.895,
    1.243,
    1.367,
    0.863,
    5.458,
    0.825,
    1.209,
    1.125,
    0.974,
    1.653,
    0.683,
    1.322,
    0.752,
    0.6,
    0.762,
    2.109487,
    1.564,
    1.76,
    1.969,
    1.822,
    2.728,
    1.648,
    1.906,
    2.281,
    1.489,
    1.442,
    1.703,
    2.116,
    2.06,
    4.483,
    11.63,
    1.331,
    1.878,
    1.909,
    1.686,
    1.313,
    1.724,
    2.314,
    1.587,
    1.84,
    2.285,
    1.572,
    1.875,
    2.479,
    1.526,
    1.432,
    19.827,
    0.498,
    1.212,
    1.190298,
    1.789,
    0.801,
    1.145,
    1.464785,
    2.85,
    0.91,
    0.757,
    0.535,
    0.578,
    0.914,
    1.954178,
    2.803,
    7.341,
    1.27,
    0.563,
    0.929,
    1.004,
    1.222,
    1.013,
    1.533,
    1.04,
    1.35,
    0.852,
    1.943,
    1.453,
    3.252,
    2.445,
    6.365,
    28.464,
    0.982,
    0.832,
    0.95,
    1.718,
    1.338,
    1.335,
    0.867,
    0.775,
    0.638,
    1.008,
    2.879,
    2.096,
    4.329,
    3.126,
    7.268,
    0.541,
    1.275,
    0.999,
    1.81,
    0.898,
    1.507,
    1.587,
    1.278,
    0.657,
    1.594,
    1.409,
    0.755,
    6.153,
    5.939,
    2.124,
    9.157,
    1.326,
    1.228,
    2.543,
    2.043,
    1.487,
    1.772,
    3.549,
    1.426,
    1.282,
    1.538,
    2.139,
    1.27,
    1.197,
    4.351,
    3.794,
    3.635,
    0.73,
    0.671,
    0.959,
    1.669916,
    0.601,
    1.184,
    1.372,
    1.103,
    0.598,
    1.64,
    1.43,
    0.798,
    0.92,
    1.011,
    2.375,
    8.502,
    1.251,
    0.616,
    0.790298,
    1.78,
    1.936,
    1.569,
    1.393001,
    0.959,
    0.954,
    1.342,
    0.746,
    1.023,
    1.157,
    3.496,
    2.97,
    4.64,
    1.729,
    2.242,
    1.992,
    1.985,
    2.77,
    1.905,
    1.85,
    1.989,
    2.074,
    2.109,
    2.127,
    1.515,
    2.052,
    2.8,
    4.523,
    1.58,
    2.186,
    1.6,
    2.274,
    1.3,
    1.526,
    2.464,
    2.002,
    1.381,
    1.605,
    1.859,
    1.255,
    2.143,
    5.053,
    9.093,
    2.631,
    1.999,
    2.555,
    1.69,
    3.418,
    1.641,
    2.003,
    2.22,
    2.078,
    1.558,
    1.539,
    1.5,
    2.356,
    4.026,
    1.717,
    4.985,
    1.178,
    2.684,
    2.145,
    2.784563,
    1.979,
    1.606,
    1.314,
    1.697,
    1.255,
    2.543,
    1.23,
    1.364,
    4.466,
    4.987,
    1.595,
    1.377,
    1.784,
    1.776,
    1.833,
    1.528,
    2.11,
    1.975,
    1.557888,
    1.487,
    1.775,
    1.621,
    1.673,
    6.617,
    8.354,
    1.662,
    1.016,
    1.016,
    1.81,
    0.837,
    0.952,
    1.169,
    0.975,
    0.736,
    1.182,
    1.866,
    0.766,
    0.791,
    4.637,
    6.575,
    1.384,
    1.31,
    1.802,
    1.472,
    2.201,
    1.791639,
    1.666,
    2.271,
    1.292,
    2.17,
    1.337,
    1.431,
    3.75,
    6.418,
    4.916,
    11.602,
    1.259,
    0.854054,
    1.089097,
    1.719,
    0.736,
    1.268,
    2.102,
    0.699,
    0.792897,
    1.49,
    0.828,
    0.661883,
    0.800031,
    2.322,
    2.311,
    3.392897,
    0.86,
    1.521,
    1.738,
    1.922,
    0.878,
    1.141,
    1.131,
    1.276,
    1.309,
    0.927,
    1.454419,
    0.765,
    1.365,
    2.572162,
    3.849,
    3.613,
    2.611,
    1.953,
    1.794,
    2.201,
    2.716,
    1.622,
    2.033,
    2.247,
    1.698,
    1.531,
    2.524,
    1.658,
    2.77,
    2.281,
    2.872,
    1.566,
    2.621,
    1.775,
    1.935,
    1.767,
    2.052,
    2.715,
    1.265,
    1.38,
    2.193,
    1.366,
    6.379,
    4.772,
    9.619,
    1.424,
    1.493,
    1.539,
    1.557,
    2.312,
    1.559,
    1.754,
    2.047,
    1.746,
    1.445,
    3.273,
    1.269,
    1.33,
    1.396,
    2.084,
    4.244,
    1.653,
    1.328,
    1.707,
    2.504,
    1.457,
    1.903,
    2.178,
    1.901,
    1.219,
    1.851,
    1.325,
    2.224,
    2.083,
    1.471,
    8.884045,
    13.38,
    1.392,
    1.818,
    1.71,
    2.885,
    1.209,
    1.349,
    1.63,
    2.115,
    1.394,
    1.845,
    1.374,
    1.306,
    4.36743,
    5.694,
    3.824,
    10.768,
    1.883,
    1.967,
    1.578,
    2.140787,
    1.651957,
    1.671,
    1.555,
    1.818,
    1.866,
    3.95,
    5.336029,
    5.09,
    6.017,
    12.829,
    15.493,
    10.542,
    1.541,
    1.22,
    0.978,
    1.239,
    1.217767,
    1.421,
    1.21,
    0.746,
    1.952,
    1.451,
    0.685,
    1.036,
    4.549,
    7.660928,
    6.721,
    5.712675,
    1.061272,
    1.077,
    1.762955,
    0.759,
    1.211119,
    1.004526,
    0.929064,
    1.508,
    1.561,
    1.706,
    0.796,
    3.18526,
    3.333,
    6.476,
    2.329,
    2.316,
    1.924317,
    2.736,
    2.075,
    2.673,
    2.341,
    1.908,
    2.652,
    2.846,
    2.532,
    1.618391,
    2.152,
    1.545,
    6.039,
    1.206,
    0.927,
    1.514,
    1.191,
    0.591,
    2.006,
    4.275,
    3.032,
    4.36,
    4.954,
    2.199,
    2.421,
    6.477,
    7.022,
    7.438,
    9.104,
    2.244,
    1.582,
    2.141,
    1.553,
    1.901744,
    2.405,
    1.384,
    3.097,
    2.119124,
    1.456,
    2.908,
    6.395,
    4.529744,
    4.632,
    6.331,
    3.785,
    4.655,
    1.562,
    2.076,
    1.927,
    3.057,
    2.591,
    1.948,
    3.482,
    2.03,
    2.292,
    1.82,
    1.555,
    1.653,
    1.51,
    1.754,
    2.505,
    2.294,
    1.507,
    2.081,
    1.17,
    2.265,
    2.441,
    1.292,
    1.249,
    1.791,
    2.011,
    2.038,
    1.52,
    4.353,
    5.409,
    1.53,
    1.55,
    2.284,
    1.62,
    2.868,
    2.218,
    1.838,
    1.638,
    1.503,
    2.051,
    1.402,
    2.117,
    2.22,
    1.572,
    4.756,
    15.447,
    2.131623,
    1.472056,
    2.245,
    1.607623,
    2.8462,
    2.514296,
    1.811003,
    1.684006,
    1.67365,
    2.303855,
    1.490719,
    4.539,
    4.462583,
    4.963359,
    12.545234,
    12.805,
    1.119,
    1.427,
    1.125,
    0.943,
    2.414,
    0.974,
    2.1,
    1.305,
    1.046,
    1.092,
    2.508,
    1.67,
    0.898,
    1.104,
    14.88,
    4.554,
    2.364,
    1.709,
    1.943,
    2.345,
    1.529,
    2.088,
    1.914,
    1.587,
    2.304,
    1.849,
    1.471,
    2.228,
    1.522,
    2.23,
    13.087,
    16.329,
    1.022,
    1.071,
    1.44,
    2.108,
    1.817604,
    1.046,
    1.436,
    1.575,
    1.373,
    2.14,
    1.769,
    1.177,
    3.053,
    2.855,
    3.739,
    4.373,
    1.505,
    1.912129,
    1.922,
    2.411716,
    1.365,
    2.137875,
    2.006456,
    1.83,
    2.258264,
    1.727,
    1.496719,
    4.494,
    5.206,
    5.668284,
    22.879,
    1.313,
    1.415,
    0.914,
    0.912111,
    2.377,
    1.404,
    1.249,
    1.429392,
    1.222,
    0.917,
    1.326,
    0.950095,
    0.68,
    0.666,
    0.742,
    1.267,
    1.366,
    1.319,
    1.553,
    3.097,
    2.612,
    1.3,
    1.727,
    2.594,
    1.708,
    2.218765,
    1.473,
    1.535,
    1.490666,
    4.14,
    4.249192,
    11.038,
    1.651,
    1.88,
    1.585,
    2.451,
    2.297,
    2.097,
    1.414,
    1.887,
    1.682,
    1.462,
    1.823,
    1.421,
    4.267,
    4.788,
    5.256,
    5.728,
    1.106,
    1.564,
    1.419,
    2.608,
    1.159,
    1.869,
    1.496,
    1.641,
    1.411,
    1.532,
    1.934,
    1.219,
    1.303,
    1.504,
    5.694,
    10.997,
    1.478,
    1.411,
    1.701,
    1.949,
    2.755,
    2.14,
    2.084,
    2.109,
    1.431,
    1.705,
    2.155,
    1.491,
    1.615,
    1.578,
    2.643,
    14.901,
    1.607,
    1.751,
    2.028,
    3.098,
    1.374,
    1.674,
    1.834,
    1.403,
    1.697,
    1.332,
    1.408,
    1.525,
    1.651,
    5.591,
    10.388,
    13.528,
    1.708,
    1.722,
    2.195,
    1.641,
    2.197,
    1.894,
    1.886,
    2.564,
    1.707,
    1.569,
    1.749,
    1.427,
    1.55,
    1.432,
    4.183924,
    4.316897,
    1.986,
    1.485,
    2.093,
    1.336,
    1.65,
    1.561,
    1.304,
    1.11,
    2.279,
    2.209,
    1.494,
    1.254,
    1.381,
    5.166,
    4.556,
    1.628,
    1.799,
    2.369,
    1.408,
    2.041,
    2.072,
    2.065,
    1.413,
    1.991,
    1.462,
    6.497,
    5.056,
    4.49,
    4.648,
    15.887
  ]
}