{
  "net_scale": 0.01,
  "num_circuits_ten_minutes": 22400,
  "num_dir_authorities": 3,
  "num_emulated_users": 7919,
  "num_public_relays": 6746,
  "num_sampled_relays": 67,
  "num_tgen_markov_clients": 100,
  "num_tgen_perf_clients": 8,
  "num_tgen_servers": 10,
  "tornettools_generate_seed": 1
}