{
  "900": 3252191757,
  "901": 3265314770,
  "902": 3325766884,
  "903": 3319285303,
  "904": 3320091196,
  "905": 3384018129,
  "906": 3357985746,
  "907": 3303821325,
  "908": 3328122572,
  "909": 3318615715,
  "910": 3319180339,
  "911": 3368140553,
  "912": 3340143892,
  "913": 3358550206,
  "914": 3341251221,
  "915": 3349199362,
  "916": 3245379777,
  "917": 3314551291,
  "918": 3406978280,
  "919": 3317593128,
  "920": 3337191237,
  "921": 3330634974,
  "922": 3337231988,
  "923": 3339718516,
  "924": 3369386535,
  "925": 3373004182,
  "926": 3416338393,
  "927": 3389189560,
  "928": 3377219610,
  "929": 3425583263,
  "930": 3405311763,
  "931": 3354688045,
  "932": 3402354922,
  "933": 3359090783,
  "934": 3390098581,
  "935": 3400923877,
  "936": 3433263032,
  "937": 3381755270,
  "938": 3309135201,
  "939": 3326474856,
  "940": 3346278292,
  "941": 3362489397,
  "942": 3441484153,
  "943": 3495305396,
  "944": 3417395608,
  "945": 3402469701,
  "946": 3466167056,
  "947": 3415180487,
  "948": 3497998545,
  "949": 3433694009,
  "950": 3391500223,
  "951": 3400733352,
  "952": 3472403930,
  "953": 3413018030,
  "954": 3406050250,
  "955": 3388380280,
  "956": 3397350309,
  "957": 3441253797,
  "958": 3459857678,
  "959": 3466025459,
  "960": 3532207364,
  "961": 3522469397,
  "962": 3483536939,
  "963": 3477737881,
  "964": 3494049800,
  "965": 3463917585,
  "966": 3466041354,
  "967": 3471828438,
  "968": 3439429621,
  "969": 3502961252,
  "970": 3466099181,
  "971": 3494392245,
  "972": 3441819979,
  "973": 3416946993,
  "974": 3403414543,
  "975": 3438483462,
  "976": 3461396784,
  "977": 3495802636,
  "978": 3521887509,
  "979": 3541494905,
  "980": 3495739069,
  "981": 3513745641,
  "982": 3454765889,
  "983": 3490244597,
  "984": 3518787061,
  "985": 3589433892,
  "986": 3524773073,
  "987": 3517385700,
  "988": 3457673849,
  "989": 3463319055,
  "990": 3460863490,
  "991": 3496868686,
  "992": 3466587892,
  "993": 3501199124,
  "994": 3454961261,
  "995": 3496457068,
  "996": 3479856246,
  "997": 3448454117,
  "998": 3487252724,
  "999": 3504468848,
  "1000": 3558183897,
  "1001": 3543210565,
  "1002": 3492623413,
  "1003": 3548687352,
  "1004": 3540944166,
  "1005": 3539433971,
  "1006": 3570525174,
  "1007": 3500365478,
  "1008": 3524267533,
  "1009": 3588786360,
  "1010": 3565036301,
  "1011": 3605579281,
  "1012": 3550751636,
  "1013": 3543814311,
  "1014": 3563395628,
  "1015": 3642351383,
  "1016": 3582220997,
  "1017": 3599613385,
  "1018": 3554344539,
  "1019": 3521794458,
  "1020": 3554130627,
  "1021": 3553383839,
  "1022": 3625361788,
  "1023": 3565010936,
  "1024": 3617496721,
  "1025": 3603518748,
  "1026": 3592777919,
  "1027": 3651421878,
  "1028": 3578580958,
  "1029": 3544553973,
  "1030": 3551843774,
  "1031": 3524151899,
  "1032": 3578813751,
  "1033": 3542753962,
  "1034": 3545122351,
  "1035": 3641010367,
  "1036": 3625889305,
  "1037": 3639416845,
  "1038": 3604077009,
  "1039": 3585269098,
  "1040": 3607526994,
  "1041": 3604592433,
  "1042": 3650392467,
  "1043": 3632494004,
  "1044": 3596778739,
  "1045": 3542245199,
  "1046": 3575062329,
  "1047": 3623877075,
  "1048": 3633420415,
  "1049": 3647082392,
  "1050": 3615009167,
  "1051": 3574394522,
  "1052": 3598887425,
  "1053": 3610990206,
  "1054": 3598062832,
  "1055": 3602549770,
  "1056": 3576472263,
  "1057": 3603671465,
  "1058": 3560086287,
  "1059": 3588558810,
  "1060": 3599101832,
  "1061": 3578873264,
  "1062": 3499178054,
  "1063": 3619040795,
  "1064": 3692017632,
  "1065": 3611988899,
  "1066": 3675306881,
  "1067": 3673269629,
  "1068": 3595234189,
  "1069": 3554884023,
  "1070": 3560937322,
  "1071": 3618983708,
  "1072": 3689892539,
  "1073": 3691699260,
  "1074": 3614519272,
  "1075": 3642489110,
  "1076": 3584702352,
  "1077": 3677047035,
  "1078": 3630338438,
  "1079": 3616917754,
  "1080": 3573697819,
  "1081": 3616156122,
  "1082": 3645189698,
  "1083": 3642058779,
  "1084": 3635931938,
  "1085": 3632412123,
  "1086": 3694626366,
  "1087": 3644069048,
  "1088": 3593575173,
  "1089": 3589049963,
  "1090": 3597183177,
  "1091": 3651336594,
  "1092": 3645348672,
  "1093": 3666316580,
  "1094": 3653645977,
  "1095": 3698523176,
  "1096": 3653464163,
  "1097": 3630742022,
  "1098": 3648376991,
  "1099": 3620028901,
  "1100": 3643180893,
  "1101": 3603073467,
  "1102": 3552075887,
  "1103": 3598427145,
  "1104": 3631453919,
  "1105": 3654622082,
  "1106": 3658785109,
  "1107": 3694242236,
  "1108": 3692317786,
  "1109": 3690723695,
  "1110": 3721460284,
  "1111": 3724035529,
  "1112": 3673209202,
  "1113": 3675430033,
  "1114": 3576306022,
  "1115": 3581604054,
  "1116": 3629028180,
  "1117": 3649954501,
  "1118": 3618786241,
  "1119": 3609440925,
  "1120": 3628385529,
  "1121": 3629827577,
  "1122": 3609889714,
  "1123": 3650089132,
  "1124": 3660261879,
  "1125": 3617901070,
  "1126": 3611993221,
  "1127": 3603661453,
  "1128": 3692256103,
  "1129": 3637565137,
  "1130": 3645832059,
  "1131": 3625309812,
  "1132": 3612016350,
  "1133": 3657670089,
  "1134": 3647347058,
  "1135": 3630728367,
  "1136": 3673550307,
  "1137": 3717669147,
  "1138": 3677859096,
  "1139": 3636585113,
  "1140": 3650068260,
  "1141": 3657323055,
  "1142": 3664474743,
  "1143": 3696948648,
  "1144": 3673209694,
  "1145": 3633533437,
  "1146": 3661565286,
  "1147": 3672448045,
  "1148": 3686257208,
  "1149": 3650822896,
  "1150": 3629858432,
  "1151": 3623342778,
  "1152": 3643605478,
  "1153": 3684564718,
  "1154": 3664739252,
  "1155": 3645649439,
  "1156": 3626101732,
  "1157": 3658791709,
  "1158": 3633830851,
  "1159": 3637664386,
  "1160": 3633099734,
  "1161": 3574551490,
  "1162": 3617492122,
  "1163": 3649375939,
  "1164": 3626313177,
  "1165": 3622849053,
  "1166": 3597247355,
  "1167": 3670463201,
  "1168": 3666527938,
  "1169": 3634347955,
  "1170": 3639622100,
  "1171": 3720982682,
  "1172": 3692740359,
  "1173": 3663568366,
  "1174": 3597798345,
  "1175": 3650069768,
  "1176": 3710302346,
  "1177": 3637220147,
  "1178": 3628697521,
  "1179": 3606662783,
  "1180": 3606535118,
  "1181": 3588587183,
  "1182": 3610687836,
  "1183": 3609751863,
  "1184": 3613469561,
  "1185": 3563600361,
  "1186": 3625874179,
  "1187": 3655568513,
  "1188": 3660800233,
  "1189": 3663272976,
  "1190": 3645398183,
  "1191": 3623801455,
  "1192": 3607794473,
  "1193": 3641643915,
  "1194": 3648228683,
  "1195": 3649907812,
  "1196": 3651982538,
  "1197": 3648658845,
  "1198": 3704552662,
  "1199": 3747754537,
  "1200": 3683578896,
  "1201": 3749407890,
  "1202": 3725238149,
  "1203": 3710726504,
  "1204": 3693255354,
  "1205": 3665204051,
  "1206": 3610325873,
  "1207": 3626799066,
  "1208": 3638758472,
  "1209": 3670426308,
  "1210": 3651028535,
  "1211": 3716699657,
  "1212": 3706159004,
  "1213": 3655005363,
  "1214": 3628306258,
  "1215": 3651760309,
  "1216": 3698945999,
  "1217": 3739883542,
  "1218": 3740103749,
  "1219": 3762438649,
  "1220": 3777923034,
  "1221": 3717789277,
  "1222": 3692016208,
  "1223": 3656827178,
  "1224": 3653595144,
  "1225": 3693537973,
  "1226": 3643715099,
  "1227": 3703355606,
  "1228": 3666630544,
  "1229": 3675692402,
  "1230": 3690525776,
  "1231": 3693425924,
  "1232": 3688733080,
  "1233": 3651659745,
  "1234": 3720336979,
  "1235": 3708199392,
  "1236": 3716334661,
  "1237": 3743042347,
  "1238": 3697892234,
  "1239": 3658216050,
  "1240": 3671658600,
  "1241": 3718890645,
  "1242": 3681289409,
  "1243": 3697672314,
  "1244": 3702375986,
  "1245": 3729763512,
  "1246": 3749488130,
  "1247": 3695353792,
  "1248": 3697752015,
  "1249": 3721910557,
  "1250": 3707616168,
  "1251": 3693633422,
  "1252": 3679168084,
  "1253": 3662662102,
  "1254": 3771510734,
  "1255": 3806408337,
  "1256": 3704337236,
  "1257": 3715807334,
  "1258": 3763092214,
  "1259": 3794657589,
  "1260": 3736974627,
  "1261": 3723684522,
  "1262": 3768022793,
  "1263": 3696113395,
  "1264": 3738954618,
  "1265": 3700471560,
  "1266": 3720658633,
  "1267": 3768122426,
  "1268": 3774883054,
  "1269": 3782603034,
  "1270": 3748409485,
  "1271": 3763399819,
  "1272": 3717708136,
  "1273": 3707121878,
  "1274": 3702855850,
  "1275": 3730191804,
  "1276": 3757724192,
  "1277": 3706804377,
  "1278": 3721274343,
  "1279": 3697929943,
  "1280": 3773576663,
  "1281": 3771148461,
  "1282": 3692500652,
  "1283": 3795113119,
  "1284": 3737087615,
  "1285": 3677379412,
  "1286": 3716702067,
  "1287": 3730858115,
  "1288": 3688093159,
  "1289": 3728720936,
  "1290": 3734555954,
  "1291": 3718639615,
  "1292": 3770873945,
  "1293": 3754345858,
  "1294": 3752640147,
  "1295": 3804652664,
  "1296": 3765555366,
  "1297": 3768149798,
  "1298": 3733124942,
  "1299": 3816476447,
  "1300": 3741082010,
  "1301": 3789413817,
  "1302": 3819568953,
  "1303": 3789887022,
  "1304": 3692117404,
  "1305": 3747644487,
  "1306": 3733423343,
  "1307": 3685785016,
  "1308": 3758948305,
  "1309": 3729434775,
  "1310": 3703141921,
  "1311": 3735093923,
  "1312": 3787841120,
  "1313": 3783039575,
  "1314": 3781470133,
  "1315": 3803458362,
  "1316": 3789854128,
  "1317": 3728170476,
  "1318": 3792007490,
  "1319": 3740926972,
  "1320": 3782796596,
  "1321": 3717619732,
  "1322": 3761486978,
  "1323": 3834989607,
  "1324": 3834492511,
  "1325": 3758072769,
  "1326": 3752527501,
  "1327": 3791544895,
  "1328": 3814577464,
  "1329": 3837637086,
  "1330": 3786745241,
  "1331": 3759407959,
  "1332": 3779894560,
  "1333": 3813482315,
  "1334": 3807856718,
  "1335": 3793274861,
  "1336": 3753803127,
  "1337": 3782019121,
  "1338": 3761287846,
  "1339": 3814424066,
  "1340": 3847689188,
  "1341": 3779172651,
  "1342": 3759780005,
  "1343": 3743127349,
  "1344": 3738266582,
  "1345": 3738823339,
  "1346": 3778499832,
  "1347": 3807977848,
  "1348": 3728681048,
  "1349": 3801251889,
  "1350": 3764977063,
  "1351": 3785781206,
  "1352": 3760483479,
  "1353": 3710700385,
  "1354": 3840953841,
  "1355": 3778252936,
  "1356": 3719286092,
  "1357": 3838477221,
  "1358": 3782458464,
  "1359": 3766064983,
  "1360": 3740109505,
  "1361": 3692492099,
  "1362": 3717843393,
  "1363": 3732625178,
  "1364": 3760662628,
  "1365": 3733257473,
  "1366": 3723181695,
  "1367": 3741893515,
  "1368": 3750563779,
  "1369": 3725326123,
  "1370": 3728259138,
  "1371": 3756208908,
  "1372": 3797372306,
  "1373": 3795408274,
  "1374": 3711451371,
  "1375": 3715684566,
  "1376": 3728535416,
  "1377": 3701816535,
  "1378": 3720311134,
  "1379": 3786088367,
  "1380": 3803375563,
  "1381": 3770353134,
  "1382": 3790054981,
  "1383": 3869747832,
  "1384": 3828246733,
  "1385": 3724063679,
  "1386": 3793505994,
  "1387": 3788833770,
  "1388": 3762185924,
  "1389": 3775488463,
  "1390": 3771373855,
  "1391": 3687182939,
  "1392": 3785666380,
  "1393": 3730402967,
  "1394": 3744866885,
  "1395": 3732010106,
  "1396": 3751292464,
  "1397": 3728741123,
  "1398": 3729716271,
  "1399": 3730039845,
  "1400": 3692391955,
  "1401": 3791806586,
  "1402": 3714122240,
  "1403": 3777307169,
  "1404": 3781615427,
  "1405": 3759603620,
  "1406": 3652443018,
  "1407": 3670245910,
  "1408": 3730456037,
  "1409": 3762454988,
  "1410": 3798627356,
  "1411": 3743026487,
  "1412": 3737461319,
  "1413": 3745832379,
  "1414": 3745254214,
  "1415": 3744042377,
  "1416": 3756923725,
  "1417": 3776022202,
  "1418": 3720345164,
  "1419": 3758440082,
  "1420": 3740210444,
  "1421": 3751918609,
  "1422": 3744549374,
  "1423": 3803352208,
  "1424": 3753140259,
  "1425": 3721007461,
  "1426": 3707753795,
  "1427": 3697393477,
  "1428": 3756011924,
  "1429": 3755263889,
  "1430": 3705701322,
  "1431": 3740610824,
  "1432": 3757082620,
  "1433": 3787513012,
  "1434": 3778314255,
  "1435": 3763523807,
  "1436": 3742615151,
  "1437": 3673234038,
  "1438": 3690211364,
  "1439": 3665118154,
  "1440": 3735307982,
  "1441": 3712330340,
  "1442": 3729400930,
  "1443": 3749263273,
  "1444": 3738007975,
  "1445": 3759483516,
  "1446": 3748540765,
  "1447": 3764077072,
  "1448": 3798659598,
  "1449": 3718891249,
  "1450": 3721099155,
  "1451": 3733930687,
  "1452": 3717081846,
  "1453": 3686569321,
  "1454": 3736842290,
  "1455": 3758568630,
  "1456": 3786051153,
  "1457": 3741650410,
  "1458": 3730480418,
  "1459": 3730105113,
  "1460": 3751051034,
  "1461": 3720064009,
  "1462": 3743923662,
  "1463": 3722016404,
  "1464": 3724607405,
  "1465": 3685527829,
  "1466": 3678992345,
  "1467": 3732639813,
  "1468": 3684081523,
  "1469": 3729541354,
  "1470": 3750422660,
  "1471": 3707694742,
  "1472": 3718632013,
  "1473": 3774638346,
  "1474": 3728357304,
  "1475": 3729125455,
  "1476": 3716403498,
  "1477": 3689327151,
  "1478": 3764813634,
  "1479": 3692485663,
  "1480": 3674145284,
  "1481": 3691860605,
  "1482": 3705293900,
  "1483": 3680762268,
  "1484": 3707372855,
  "1485": 3679417210,
  "1486": 3710066801,
  "1487": 3701258450,
  "1488": 3728474223,
  "1489": 3686821786,
  "1490": 3730487134,
  "1491": 3709686125,
  "1492": 3749793864,
  "1493": 3762613218,
  "1494": 3729065589,
  "1495": 3733578019,
  "1496": 3725340878,
  "1497": 3764164664,
  "1498": 3742203436,
  "1499": 3777763607,
  "1500": 3755519919,
  "1501": 3735292620,
  "1502": 3775513221,
  "1503": 3755507230,
  "1504": 3716659888,
  "1505": 3768223950,
  "1506": 3756478005,
  "1507": 3768133047,
  "1508": 3766096379,
  "1509": 3789982822,
  "1510": 3694996956,
  "1511": 3713814032,
  "1512": 3718266512,
  "1513": 3677620739,
  "1514": 3702206812,
  "1515": 3723002628,
  "1516": 3709932700,
  "1517": 3676560630,
  "1518": 3712402877,
  "1519": 3788126370,
  "1520": 3778036440,
  "1521": 3741416794,
  "1522": 3726042152,
  "1523": 3732641568,
  "1524": 3709333923,
  "1525": 3668882040,
  "1526": 3730513109,
  "1527": 3775647562,
  "1528": 3760387611,
  "1529": 3769932424,
  "1530": 3771293799,
  "1531": 3791260898,
  "1532": 3775153852,
  "1533": 3733324086,
  "1534": 3782698943,
  "1535": 3750201300,
  "1536": 3748140760,
  "1537": 3793157482,
  "1538": 3809209761,
  "1539": 3781092417,
  "1540": 3751839071,
  "1541": 3706586865,
  "1542": 3815305864,
  "1543": 3792751784,
  "1544": 3741051957,
  "1545": 3722696923,
  "1546": 3765391048,
  "1547": 3730661613,
  "1548": 3740764601,
  "1549": 3726467177,
  "1550": 3750304001,
  "1551": 3796811419,
  "1552": 3753681061,
  "1553": 3752445987,
  "1554": 3765233682,
  "1555": 3770376162,
  "1556": 3786035702,
  "1557": 3754513326,
  "1558": 3662299767,
  "1559": 3727557853,
  "1560": 3770784580,
  "1561": 3715645837,
  "1562": 3696995593,
  "1563": 3710480967,
  "1564": 3792484255,
  "1565": 3759547282,
  "1566": 3785566235,
  "1567": 3812178082,
  "1568": 3780244206,
  "1569": 3775243991,
  "1570": 3757720087,
  "1571": 3796085715,
  "1572": 3843234628,
  "1573": 3773716750,
  "1574": 3736371470,
  "1575": 3797247572,
  "1576": 3808851083,
  "1577": 3876963714,
  "1578": 3843391451,
  "1579": 3821017009,
  "1580": 3820201959,
  "1581": 3827436604,
  "1582": 3860346767,
  "1583": 3797472281,
  "1584": 3771887687,
  "1585": 3835402962,
  "1586": 3803915901,
  "1587": 3803119224,
  "1588": 3812666208,
  "1589": 3858626595,
  "1590": 3835051592,
  "1591": 3811814989,
  "1592": 3782707609,
  "1593": 3771147719,
  "1594": 3742377352,
  "1595": 3729677047,
  "1596": 3729929143,
  "1597": 3803372360,
  "1598": 3828335476,
  "1599": 3770300503,
  "1600": 3728409650,
  "1601": 3835745461,
  "1602": 3797290085,
  "1603": 3811488697,
  "1604": 3836937870,
  "1605": 3820938221,
  "1606": 3796436182,
  "1607": 3709902128,
  "1608": 3756338786,
  "1609": 3825127153,
  "1610": 3883299918,
  "1611": 3784165170,
  "1612": 3787997063,
  "1613": 3756706900,
  "1614": 3804152717,
  "1615": 3808207955,
  "1616": 3828537055,
  "1617": 3763859524,
  "1618": 3744134088,
  "1619": 3781382825,
  "1620": 3860636511,
  "1621": 3853247800,
  "1622": 3775642171,
  "1623": 3798370639,
  "1624": 3833440449,
  "1625": 3785105381,
  "1626": 3807238899,
  "1627": 3703635504,
  "1628": 3773591601,
  "1629": 3819846973,
  "1630": 3826833254,
  "1631": 3798175170,
  "1632": 3791833353,
  "1633": 3783792773,
  "1634": 3776519533,
  "1635": 3800200509,
  "1636": 3827965065,
  "1637": 3822539230,
  "1638": 3802138353,
  "1639": 3763150795,
  "1640": 3789019303,
  "1641": 3842278441,
  "1642": 3774782815,
  "1643": 3829894068,
  "1644": 3784673158,
  "1645": 3756444111,
  "1646": 3846745034,
  "1647": 3756378512,
  "1648": 3725861193,
  "1649": 3754244712,
  "1650": 3770913280,
  "1651": 3803525092,
  "1652": 3744262131,
  "1653": 3748792098,
  "1654": 3702935022,
  "1655": 3764161642,
  "1656": 3724976158,
  "1657": 3746680979,
  "1658": 3733731064,
  "1659": 3791881808,
  "1660": 3848100662,
  "1661": 3809929252,
  "1662": 3804024305,
  "1663": 3809184301,
  "1664": 3768616815,
  "1665": 3797484658,
  "1666": 3798308780,
  "1667": 3775938896,
  "1668": 3805217240,
  "1669": 3786561419,
  "1670": 3699480693,
  "1671": 3771255644,
  "1672": 3720201715,
  "1673": 3821346760,
  "1674": 3806310356,
  "1675": 3869425254,
  "1676": 3822288350,
  "1677": 3815448801,
  "1678": 3760481320,
  "1679": 3756796609,
  "1680": 3773456953,
  "1681": 3701361103,
  "1682": 3753074090,
  "1683": 3777619698,
  "1684": 3811303934,
  "1685": 3786896608,
  "1686": 3782416205,
  "1687": 3875850291,
  "1688": 3848098692,
  "1689": 3764262312,
  "1690": 3818614578,
  "1691": 3783136550,
  "1692": 3792660793,
  "1693": 3796666533,
  "1694": 3743063726,
  "1695": 3815646558,
  "1696": 3770003405,
  "1697": 3811950491,
  "1698": 3842270998,
  "1699": 3766416249,
  "1700": 3802545852,
  "1701": 3802772416,
  "1702": 3814383173,
  "1703": 3769988691,
  "1704": 3719184355,
  "1705": 3764961892,
  "1706": 3805526496,
  "1707": 3771663087,
  "1708": 3797828362,
  "1709": 3762243766,
  "1710": 3773695993,
  "1711": 3786874905,
  "1712": 3739890112,
  "1713": 3741827162,
  "1714": 3699952489,
  "1715": 3687653306,
  "1716": 3762599535,
  "1717": 3744168697,
  "1718": 3719951187,
  "1719": 3774319229,
  "1720": 3758853453,
  "1721": 3775516477,
  "1722": 3706555115,
  "1723": 3750884621,
  "1724": 3705316145,
  "1725": 3621152246,
  "1726": 3714990331,
  "1727": 3701242812,
  "1728": 3704679691,
  "1729": 3747904195,
  "1730": 3801592283,
  "1731": 3754142755,
  "1732": 3812752792,
  "1733": 3791511091,
  "1734": 3767676881,
  "1735": 3741402468,
  "1736": 3753195605,
  "1737": 3784044926,
  "1738": 3770951496,
  "1739": 3821063053,
  "1740": 3747263527,
  "1741": 3796616438,
  "1742": 3762481172,
  "1743": 3752867312,
  "1744": 3720228096,
  "1745": 3793710000,
  "1746": 3800779660,
  "1747": 3805382205,
  "1748": 3756833942,
  "1749": 3770584251,
  "1750": 3755025125,
  "1751": 3774390094,
  "1752": 3768864130,
  "1753": 3796847947,
  "1754": 3725603672,
  "1755": 3763947303,
  "1756": 3782386508,
  "1757": 3827940619,
  "1758": 3851912361,
  "1759": 3795112459,
  "1760": 3772297453,
  "1761": 3752202616,
  "1762": 3714626037,
  "1763": 3723015512,
  "1764": 3854686073,
  "1765": 3861753719,
  "1766": 3801746748,
  "1767": 3796005673,
  "1768": 3846846550,
  "1769": 3802041791,
  "1770": 3814185960,
  "1771": 3781265086,
  "1772": 3793910130,
  "1773": 3789007437,
  "1774": 3745443530,
  "1775": 3814139067,
  "1776": 3831669220,
  "1777": 3808013905,
  "1778": 3870978079,
  "1779": 3814330726,
  "1780": 3789787762,
  "1781": 3719937782,
  "1782": 3730107817,
  "1783": 3763570013,
  "1784": 3727219896,
  "1785": 3763091623,
  "1786": 3778182308,
  "1787": 3782433304,
  "1788": 3793386064,
  "1789": 3854048313,
  "1790": 3807582720,
  "1791": 3781253270,
  "1792": 3737728941,
  "1793": 3735522510,
  "1794": 3740082279,
  "1795": 3782986207,
  "1796": 3765908118,
  "1797": 3746122134,
  "1798": 3747776157,
  "1799": 3765851059,
  "1800": 3761238597,
  "1801": 3828835626,
  "1802": 3845126606,
  "1803": 3812964950,
  "1804": 3760862246,
  "1805": 3757306984,
  "1806": 3769297368,
  "1807": 3738395255,
  "1808": 3810330960,
  "1809": 3796941645,
  "1810": 3779055735,
  "1811": 3787807789,
  "1812": 3723074149,
  "1813": 3799453673,
  "1814": 3775095891,
  "1815": 3779771797,
  "1816": 3767316380,
  "1817": 3762242426,
  "1818": 3715162026,
  "1819": 3689231906,
  "1820": 3714694784,
  "1821": 3692206699,
  "1822": 3708314337,
  "1823": 3761426834,
  "1824": 3765295317,
  "1825": 3797550242,
  "1826": 3822214336,
  "1827": 3828159546,
  "1828": 3829781618,
  "1829": 3768494059,
  "1830": 3775553441,
  "1831": 3792610055,
  "1832": 3796478532,
  "1833": 3734857847,
  "1834": 3749561762,
  "1835": 3790968030,
  "1836": 3688272220,
  "1837": 3680507313,
  "1838": 3706313465,
  "1839": 3773505247,
  "1840": 3768771657,
  "1841": 3804349704,
  "1842": 3752639405,
  "1843": 3739763238,
  "1844": 3791545819,
  "1845": 3783114923,
  "1846": 3753080900,
  "1847": 3697981888,
  "1848": 3660378728,
  "1849": 3682788082,
  "1850": 3653139131,
  "1851": 3661578648,
  "1852": 3761954615,
  "1853": 3751714603,
  "1854": 3721026134,
  "1855": 3703669802,
  "1856": 3756864065,
  "1857": 3715179644,
  "1858": 3721356730,
  "1859": 3766299347
}