[
  0.418,
  0.408,
  0.651,
  0.483,
  0.469,
  0.535,
  0.388,
  0.49,
  0.49802,
  0.49,
  0.564,
  0.772,
  0.584,
  0.745,
  0.607,
  0.456,
  0.279,
  0.271142,
  0.273,
  0.341614,
  0.264,
  0.366,
  0.535,
  0.274,
  0.301,
  0.331,
  0.450318,
  0.608,
  0.35,
  0.641,
  0.479,
  0.369,
  0.477,
  0.427,
  0.535,
  0.486,
  0.444,
  0.609,
  0.489,
  0.51,
  0.57,
  0.696,
  0.632,
  0.459,
  0.513,
  0.65,
  0.874,
  0.527,
  0.42,
  0.19,
  0.466,
  0.239,
  0.255,
  0.288,
  0.286,
  0.218,
  0.266,
  0.303,
  0.407,
  0.255,
  0.300977,
  0.457,
  0.396,
  0.286,
  0.193626,
  0.352368,
  0.282002,
  0.338626,
  0.20201,
  0.38,
  0.256,
  0.233832,
  0.337285,
  0.275002,
  0.386963,
  0.236429,
  0.395229,
  0.756802,
  0.376622,
  0.299,
  0.189,
  0.223,
  0.29,
  0.409,
  0.35,
  0.402,
  0.266,
  0.279,
  0.308,
  0.432,
  0.373,
  0.31,
  0.483,
  0.602,
  0.378,
  0.358,
  0.352,
  0.206,
  0.454,
  0.39,
  0.328,
  0.265,
  0.234,
  0.474,
  0.258,
  0.336,
  0.27,
  0.338,
  0.445,
  0.357,
  0.288,
  0.25,
  0.207,
  0.405,
  0.313,
  0.244,
  0.399,
  0.28,
  0.206,
  0.314,
  0.407,
  0.317,
  0.277,
  0.508,
  0.371,
  0.32,
  0.188,
  0.443,
  0.214,
  0.286,
  0.166,
  0.295,
  0.192,
  0.414,
  0.374,
  0.284,
  0.402,
  0.319,
  0.283,
  0.447,
  0.358,
  0.309,
  0.506,
  0.525,
  0.485,
  0.593,
  0.459,
  0.58,
  0.472,
  0.713,
  0.523,
  0.494,
  0.626,
  0.839,
  0.475,
  0.69,
  0.606,
  0.555,
  0.495,
  0.364,
  0.338,
  0.252,
  0.389,
  0.407,
  0.225,
  0.372,
  0.33,
  0.355,
  0.402,
  0.255,
  0.431,
  0.568,
  0.234,
  0.239,
  0.261,
  0.282,
  0.28,
  0.28,
  0.329,
  0.413,
  0.316,
  0.563,
  0.312,
  0.359,
  0.609,
  0.398,
  0.502,
  0.393,
  0.331,
  0.427,
  0.309,
  0.223,
  0.322,
  0.263,
  0.362,
  0.179,
  0.258,
  0.348,
  0.28,
  0.435,
  0.317,
  0.337,
  0.623,
  0.407,
  0.296,
  0.274,
  0.222,
  0.453,
  0.413,
  0.217,
  0.321,
  0.268,
  0.32,
  0.465,
  0.493,
  0.452,
  0.605,
  0.327,
  0.63,
  0.573,
  0.392,
  0.15,
  0.219,
  0.384,
  0.432,
  0.379,
  0.259,
  0.229,
  0.53,
  0.494,
  0.361,
  0.319,
  0.638,
  0.684,
  0.797,
  0.313,
  0.245,
  0.189,
  0.482,
  0.354,
  0.263,
  0.293,
  3.068,
  0.238,
  0.295,
  0.302,
  0.416,
  0.296,
  0.336,
  0.45,
  0.386,
  0.319,
  0.685,
  0.464,
  0.575922,
  0.488,
  0.437461,
  0.51738,
  0.573,
  0.427539,
  0.565179,
  0.476,
  0.607,
  0.513018,
  0.617,
  0.655,
  0.82,
  0.58,
  0.397,
  0.404,
  0.405,
  0.492,
  0.655,
  0.45,
  0.39,
  0.396,
  0.478,
  0.422,
  0.532,
  0.452,
  0.46,
  0.717,
  0.537,
  0.452,
  0.58,
  0.381,
  0.443,
  0.445,
  0.414,
  0.483,
  0.557,
  0.419,
  0.513,
  0.566,
  0.606,
  0.542,
  0.806,
  0.598,
  0.401005,
  0.293,
  0.909,
  0.307,
  0.352,
  0.309,
  0.384,
  0.54,
  0.497,
  0.402,
  0.269,
  0.358,
  0.75,
  0.677,
  0.555,
  0.707,
  0.337,
  0.227103,
  0.455698,
  0.467,
  0.296302,
  0.268,
  0.33521,
  0.447,
  0.355,
  0.305853,
  0.402065,
  0.381444,
  0.24,
  0.248087,
  0.448,
  0.46,
  0.308698,
  0.429,
  0.233,
  0.427,
  0.392,
  0.244,
  0.471,
  0.217,
  0.279,
  0.353,
  0.271,
  0.379,
  0.338,
  0.519,
  0.339,
  0.471,
  0.441,
  0.425117,
  0.403,
  0.472145,
  0.43652,
  0.529,
  0.416,
  0.346508,
  0.486,
  0.433151,
  0.563,
  0.420062,
  0.533755,
  0.598537,
  0.502181,
  0.511299,
  0.425,
  0.507,
  0.739,
  0.565,
  0.542,
  0.693,
  0.519,
  0.557,
  0.8,
  0.604,
  0.687,
  0.499,
  0.683,
  0.734,
  0.514,
  0.889,
  0.827,
  0.636,
  0.917,
  0.563,
  0.641,
  0.509,
  0.52,
  0.493,
  1.919,
  0.762,
  15.732,
  0.746,
  0.675,
  0.176,
  0.234,
  0.237,
  0.263,
  0.193,
  0.535,
  0.449,
  0.813,
  0.273,
  0.311,
  0.6,
  0.261,
  0.274,
  0.443,
  0.443,
  0.498,
  0.526,
  0.586,
  0.471,
  0.722724,
  0.503,
  0.63,
  0.499,
  0.475,
  0.544,
  0.541,
  0.613,
  0.719,
  0.54,
  0.784,
  0.631,
  0.605,
  0.717442,
  0.438,
  0.577,
  0.542958,
  0.479,
  0.601,
  0.483244,
  0.73,
  0.585,
  0.779,
  0.69,
  0.590805,
  0.552,
  0.686,
  0.689,
  0.560225,
  0.467,
  0.619,
  0.454,
  0.591,
  0.452,
  0.578,
  0.471,
  0.594,
  0.652,
  0.837,
  0.731,
  0.542,
  0.548,
  0.676,
  0.556,
  0.753,
  0.745113,
  0.564,
  0.511,
  0.527808,
  0.584,
  0.532,
  0.483,
  0.529277,
  0.544805,
  0.658192,
  0.602,
  0.566,
  0.707,
  0.920016,
  0.600958,
  0.706,
  0.695,
  0.443,
  0.536,
  0.402,
  0.419,
  0.436,
  0.504,
  0.722,
  0.744,
  0.489,
  0.52,
  0.678,
  0.573,
  0.49,
  0.521698,
  0.51,
  0.591,
  0.52,
  0.575,
  0.502,
  0.552,
  0.531,
  0.79,
  0.702,
  0.541,
  0.598,
  0.736,
  0.661,
  0.605,
  0.212,
  0.178,
  0.219,
  0.254,
  0.213,
  0.527,
  0.419,
  0.233,
  0.25,
  0.288,
  0.422,
  0.306,
  0.534,
  0.428,
  0.369,
  0.288,
  0.53,
  0.517,
  0.789,
  0.488,
  0.628,
  0.585,
  0.478,
  1.126,
  0.633,
  0.468,
  0.63,
  0.543,
  0.612,
  1.098,
  0.614163,
  0.574,
  0.25,
  0.192,
  0.222,
  0.26,
  0.387,
  0.342,
  0.322,
  0.306,
  0.269,
  0.236,
  0.4,
  0.266,
  0.296,
  0.384,
  0.387,
  0.551,
  0.168,
  0.253388,
  0.231388,
  0.333,
  0.158,
  0.375,
  0.404,
  0.261,
  0.274,
  0.291,
  0.31,
  0.646,
  0.333,
  0.461,
  0.394,
  0.271,
  0.455,
  0.419,
  0.573,
  0.412,
  0.602,
  0.613,
  0.465,
  0.543,
  0.534,
  0.663,
  0.5,
  0.647,
  0.695,
  0.582,
  0.504,
  0.496,
  0.419,
  0.526,
  0.46,
  0.469,
  0.835,
  0.795,
  0.489,
  0.855,
  0.675,
  0.636,
  0.528,
  0.523,
  0.672,
  0.634,
  0.388,
  0.193,
  0.201,
  0.274,
  0.392,
  0.351,
  0.227,
  0.247,
  0.264,
  0.261,
  0.34,
  0.301,
  0.329,
  0.487,
  0.395,
  0.319,
  0.28241,
  0.558354,
  0.557,
  0.339973,
  0.328957,
  0.391,
  0.506,
  0.351159,
  0.271253,
  0.374,
  0.442267,
  0.361011,
  0.417701,
  0.481,
  0.410724,
  0.346646,
  0.437,
  0.166,
  0.194,
  0.421,
  0.702,
  0.371,
  0.222,
  0.252,
  0.28,
  0.482,
  0.568,
  0.572,
  0.593,
  0.601,
  0.426,
  0.297,
  0.766,
  0.501,
  0.533568,
  0.643,
  0.707,
  0.641,
  0.507413,
  0.708,
  0.564,
  0.883,
  0.655974,
  0.590291,
  0.557,
  0.86,
  0.715,
  0.66832,
  0.604,
  0.423,
  0.461,
  0.489,
  0.437,
  0.542,
  0.77,
  0.73,
  0.474,
  0.663,
  0.627,
  0.671,
  0.507,
  0.678,
  0.771,
  0.538,
  0.444,
  0.366,
  0.258,
  0.287,
  0.227,
  0.348,
  0.223,
  0.256,
  0.249,
  0.466,
  0.396,
  0.529,
  0.69,
  0.474,
  0.359,
  0.382,
  0.46798,
  0.472695,
  0.461579,
  0.522,
  0.502,
  0.59924,
  0.466,
  0.494983,
  0.492478,
  0.69,
  0.545481,
  0.726441,
  0.5,
  0.634,
  0.5835,
  0.572862,
  0.434,
  0.541,
  0.444,
  0.71,
  0.589,
  0.44,
  0.636,
  0.593,
  0.429,
  0.703,
  0.667,
  0.415,
  1.238,
  0.998,
  0.587,
  0.468,
  0.259,
  0.418,
  0.311,
  0.221,
  0.446,
  0.214,
  0.27,
  0.298,
  0.237,
  0.364,
  0.521,
  0.336,
  0.445,
  0.506,
  0.44,
  0.627778,
  0.505,
  0.702,
  0.629,
  0.469,
  0.57,
  0.633,
  0.522,
  0.504,
  0.492103,
  0.678,
  0.693,
  0.662,
  0.702,
  1.047,
  0.589,
  0.472,
  0.44,
  0.501,
  0.503,
  0.609,
  0.486,
  0.601,
  0.53,
  0.655,
  0.543,
  0.597,
  0.717,
  0.599,
  0.585,
  0.456,
  0.647,
  0.479,
  0.588,
  0.498,
  0.51,
  0.413,
  0.424,
  0.568,
  0.499,
  0.596,
  0.844,
  0.607,
  0.819,
  0.577,
  0.584,
  0.519,
  0.219,
  0.261,
  0.287,
  0.433,
  0.368,
  0.211,
  0.23,
  0.275,
  0.488,
  0.329,
  0.598,
  0.252,
  0.47,
  0.373,
  0.256,
  0.707752,
  0.485,
  0.534124,
  0.585,
  0.661892,
  0.661369,
  0.492,
  0.529,
  0.563,
  0.679,
  0.527382,
  0.525,
  0.705,
  0.625,
  0.543673,
  0.499,
  0.506,
  0.699,
  0.399,
  0.537,
  0.713,
  0.431,
  0.512,
  0.594,
  0.515,
  0.552,
  0.672,
  0.546,
  0.461,
  0.213,
  0.433,
  0.222,
  0.324,
  0.262,
  0.297,
  0.423,
  0.295,
  0.231,
  0.525,
  0.448,
  0.334,
  0.397,
  0.447,
  0.368,
  0.356,
  0.181526,
  0.34,
  0.412106,
  0.308779,
  0.21,
  0.331,
  0.243,
  0.232737,
  0.282,
  0.263,
  0.698487,
  0.603123,
  0.630106,
  0.688,
  0.307,
  0.419,
  0.565,
  0.21,
  0.211,
  0.231,
  0.231,
  0.258483,
  0.267566,
  0.266,
  0.253,
  0.38,
  0.298,
  0.241,
  0.474,
  0.394,
  0.265,
  0.401,
  0.406,
  0.368,
  0.482,
  0.66,
  0.576083,
  0.41676,
  0.465575,
  0.615471,
  0.546621,
  0.606473,
  0.613568,
  0.446579,
  0.644,
  0.622,
  0.511691,
  0.846,
  0.629,
  0.723,
  0.492,
  0.717,
  0.578,
  0.565,
  0.534,
  0.482,
  0.563,
  0.662,
  0.779,
  0.628,
  0.613,
  1.119078,
  0.472,
  0.438,
  0.556,
  0.6,
  0.42,
  0.759,
  0.731,
  0.629,
  0.548,
  0.664,
  0.614,
  0.53,
  0.697,
  0.607,
  0.616,
  0.201,
  0.489,
  0.495608,
  0.27,
  0.474042,
  0.359,
  0.25835,
  0.261,
  0.308,
  0.382,
  0.409392,
  0.309,
  0.383,
  0.55813,
  0.445,
  0.301,
  0.473,
  0.656,
  0.43,
  0.522,
  0.503,
  0.498,
  0.477,
  0.551,
  1.036,
  0.538,
  0.478,
  0.631,
  0.751,
  0.52,
  0.522802,
  0.417784,
  0.486,
  0.388,
  0.606779,
  0.371111,
  0.623,
  0.488,
  0.408,
  0.531,
  0.769541,
  0.398,
  0.668177,
  0.526,
  0.436,
  0.281,
  0.232,
  0.51,
  0.312,
  0.235,
  0.383,
  0.2,
  0.43,
  0.638,
  0.549,
  0.418,
  0.404,
  0.437,
  0.499,
  0.756,
  0.443,
  0.42,
  0.384,
  0.459,
  0.826,
  0.44,
  1.567852,
  0.669,
  0.669,
  0.561,
  0.466,
  0.645,
  0.74,
  0.515,
  0.686,
  0.573,
  0.548,
  0.717,
  0.468,
  0.437,
  0.62,
  0.753,
  0.638,
  0.438,
  0.513,
  0.577,
  0.505,
  0.61,
  0.675,
  0.554,
  0.631,
  0.602,
  0.521,
  0.766,
  0.539,
  0.529,
  0.455,
  0.628,
  0.736,
  0.484,
  0.501,
  0.555,
  0.689,
  0.512,
  0.479,
  0.713,
  0.61,
  0.751,
  0.496,
  0.532,
  0.523,
  0.538,
  0.582,
  0.567,
  0.529,
  0.51,
  0.831,
  0.809,
  0.677,
  0.565,
  0.538,
  0.786,
  0.684,
  0.925,
  0.231,
  0.35,
  0.533,
  0.277,
  0.185,
  0.228,
  0.308,
  0.467,
  0.384,
  0.318,
  0.25,
  0.475,
  0.583,
  0.32,
  0.475,
  0.41,
  0.499,
  0.496135,
  0.552567,
  0.558,
  0.679,
  0.494,
  0.595,
  0.595443,
  0.612,
  0.555,
  0.498792,
  0.738,
  0.633172,
  0.633,
  0.592,
  0.712,
  0.453,
  0.515,
  0.574,
  0.434,
  0.48,
  0.609,
  0.489,
  0.64,
  0.896,
  0.586,
  0.698,
  0.64,
  0.701,
  0.486,
  0.564,
  0.686,
  0.601,
  0.429671,
  0.504882,
  0.627,
  0.477,
  0.525,
  0.491574,
  0.665,
  0.561,
  0.512,
  0.703,
  0.585,
  0.599,
  0.606,
  0.379,
  0.435,
  0.4,
  0.492,
  0.718,
  0.421,
  0.463,
  0.732,
  0.473,
  0.465279,
  0.44,
  0.588,
  0.55,
  0.429,
  0.479,
  0.671,
  0.717,
  0.458,
  0.404,
  0.541,
  0.667,
  0.4,
  0.702,
  0.494,
  0.905,
  0.508206,
  0.558,
  0.723174,
  0.487174,
  0.509,
  0.422,
  0.387,
  0.428,
  0.551,
  0.441,
  0.658,
  0.419,
  0.745,
  0.535,
  0.559,
  0.508,
  0.592,
  0.679,
  0.61,
  0.54,
  0.252,
  0.259,
  0.236699,
  0.317,
  0.556,
  0.319,
  0.194678,
  0.268,
  0.7,
  0.344,
  0.389452,
  0.334,
  0.363,
  0.429,
  1.352,
  0.325,
  0.438,
  0.422,
  0.609,
  0.546,
  0.628,
  0.732303,
  0.482,
  0.654,
  0.528,
  0.482,
  1.92,
  0.564,
  0.528562,
  0.207,
  0.423,
  0.219,
  0.303,
  0.468,
  0.332,
  0.221,
  0.273,
  0.316,
  0.493,
  0.643,
  0.346,
  0.347,
  0.426,
  0.345,
  0.256,
  0.179,
  0.197,
  0.212,
  0.288,
  0.218,
  0.332,
  0.184,
  0.202,
  0.375,
  0.395,
  0.407,
  0.441,
  0.55,
  0.535,
  0.371,
  0.307,
  0.75,
  0.562,
  0.489,
  0.563,
  0.377,
  0.537,
  0.479,
  0.522,
  0.506,
  0.787,
  0.479,
  0.457,
  0.785,
  0.585,
  0.58
]