[
  6.639004149377593,
  12.139605462822463,
  4.054738976178407,
  8.359456635318706,
  3.984063745019922,
  9.864364981504316,
  4.43213296398892,
  5.604399453571059,
  4.38116100766703,
  8.688050130049254,
  6.476647234026357,
  11.510791366906485,
  12.718600953895072,
  10.78167115902965,
  4.869141813755329,
  3.0395136778115495,
  9.039548022598872,
  5.6577086280056585,
  10.217113665389535,
  9.153318077803197,
  5.460750853242321,
  5.578800557880059,
  11.747430249632892,
  10.126582278481012,
  12.461059190031163,
  8.565310492505352,
  4.770423375074539,
  11.331444759206793,
  12.195121951219502,
  8.869179600886925,
  8.629989212513488,
  5.256241787122207,
  4.987531172069828,
  5.02291390537207,
  7.468838604932975,
  6.7057837384744365,
  3.6182722749886924,
  6.269592476489029,
  4.990642545227699,
  4.268943436499465,
  5.037783375314864,
  10.403120936280894,
  7.469654528478054,
  5.333333333333333,
  5.449591280653948,
  9.673518742442564,
  6.872852233676977,
  12.422360248447202,
  8.968609865470848,
  4.756242568370986,
  4.848484848484848,
  3.1140521603736873,
  7.9443892750744745,
  8.130081300813009,
  9.744214372716202,
  9.122006841505133,
  4.262120404901441,
  4.816375677302825,
  5.988023952095807,
  4.036326942482343,
  9.791921664626681,
  4.235044997353098,
  4.8691418137553235,
  10.126582278481012,
  5.2682806044298305,
  10.335917312661499,
  5.780346820809255,
  10.540184453227926,
  12.441679626749615,
  11.363636363636369,
  9.791921664626681,
  5.225342913128678,
  9.302325581395346,
  3.8131553860819816,
  6.90250215703192,
  4.162330905306974,
  4.5558086560364455,
  7.881773399014781,
  10.884353741496595,
  5.174644243208282,
  3.6036036036036028,
  3.7192003719200346,
  10.26708539263259,
  9.205983889528195,
  8.53788687299893,
  11.730205278592384,
  3.3098882912701697,
  6.374501992031869
]