{
  "900": 3356707521,
  "901": 3441836357,
  "902": 3454113479,
  "903": 3444449754,
  "904": 3441949129,
  "905": 3360389133,
  "906": 3405513532,
  "907": 3394482601,
  "908": 3379156816,
  "909": 3368429460,
  "910": 3372088975,
  "911": 3370704828,
  "912": 3404236627,
  "913": 3400371960,
  "914": 3391915551,
  "915": 3331011505,
  "916": 3389549619,
  "917": 3388526253,
  "918": 3370921617,
  "919": 3375801754,
  "920": 3341673403,
  "921": 3398604814,
  "922": 3382309696,
  "923": 3332800232,
  "924": 3349579452,
  "925": 3374053684,
  "926": 3378036074,
  "927": 3334044503,
  "928": 3346137087,
  "929": 3358322934,
  "930": 3387394997,
  "931": 3414015881,
  "932": 3447022875,
  "933": 3386853442,
  "934": 3437135897,
  "935": 3371453714,
  "936": 3427706936,
  "937": 3401929223,
  "938": 3429613221,
  "939": 3411062628,
  "940": 3400709788,
  "941": 3447190995,
  "942": 3458410798,
  "943": 3412599518,
  "944": 3395107997,
  "945": 3433729655,
  "946": 3397251191,
  "947": 3360490934,
  "948": 3338378196,
  "949": 3428270088,
  "950": 3442552295,
  "951": 3364427940,
  "952": 3359990736,
  "953": 3389275400,
  "954": 3362146074,
  "955": 3419278644,
  "956": 3454290519,
  "957": 3460927337,
  "958": 3434015019,
  "959": 3449044521,
  "960": 3455540740,
  "961": 3456238188,
  "962": 3448347410,
  "963": 3418237579,
  "964": 3492180857,
  "965": 3480447582,
  "966": 3516333323,
  "967": 3500271190,
  "968": 3503478049,
  "969": 3495414078,
  "970": 3471177417,
  "971": 3454820900,
  "972": 3449216045,
  "973": 3489350189,
  "974": 3501286718,
  "975": 3435024075,
  "976": 3484441135,
  "977": 3458006130,
  "978": 3462168904,
  "979": 3466938175,
  "980": 3500495462,
  "981": 3500270549,
  "982": 3467743141,
  "983": 3462462096,
  "984": 3428836509,
  "985": 3470171959,
  "986": 3507631661,
  "987": 3518535480,
  "988": 3519560801,
  "989": 3472305883,
  "990": 3460495915,
  "991": 3436004577,
  "992": 3450376402,
  "993": 3500192771,
  "994": 3492102501,
  "995": 3534931070,
  "996": 3513396255,
  "997": 3497041446,
  "998": 3514558396,
  "999": 3488073198,
  "1000": 3493818220,
  "1001": 3468712973,
  "1002": 3475207971,
  "1003": 3439576873,
  "1004": 3457684186,
  "1005": 3556569518,
  "1006": 3515966555,
  "1007": 3543225536,
  "1008": 3559339176,
  "1009": 3503417642,
  "1010": 3525470409,
  "1011": 3598452651,
  "1012": 3595680899,
  "1013": 3631474461,
  "1014": 3592217211,
  "1015": 3542491448,
  "1016": 3538151115,
  "1017": 3610714333,
  "1018": 3599541119,
  "1019": 3647161741,
  "1020": 3579714129,
  "1021": 3524484553,
  "1022": 3532541400,
  "1023": 3576613214,
  "1024": 3587367877,
  "1025": 3506176766,
  "1026": 3500130245,
  "1027": 3551203908,
  "1028": 3564173414,
  "1029": 3552070255,
  "1030": 3536294506,
  "1031": 3501786618,
  "1032": 3516761680,
  "1033": 3520626431,
  "1034": 3568429413,
  "1035": 3618099652,
  "1036": 3610261759,
  "1037": 3605032396,
  "1038": 3555981162,
  "1039": 3604647964,
  "1040": 3573586093,
  "1041": 3550764378,
  "1042": 3583214865,
  "1043": 3605711414,
  "1044": 3558894439,
  "1045": 3558481000,
  "1046": 3602033228,
  "1047": 3572875338,
  "1048": 3539320166,
  "1049": 3576900805,
  "1050": 3526095151,
  "1051": 3568382706,
  "1052": 3602189043,
  "1053": 3548638677,
  "1054": 3607090043,
  "1055": 3635635400,
  "1056": 3577462600,
  "1057": 3542993272,
  "1058": 3573878592,
  "1059": 3577646927,
  "1060": 3569471791,
  "1061": 3557056322,
  "1062": 3518999710,
  "1063": 3475896089,
  "1064": 3510118772,
  "1065": 3648953854,
  "1066": 3599264374,
  "1067": 3596998440,
  "1068": 3559000506,
  "1069": 3585412992,
  "1070": 3615580425,
  "1071": 3588489235,
  "1072": 3617903493,
  "1073": 3648221129,
  "1074": 3594178607,
  "1075": 3629578266,
  "1076": 3629405199,
  "1077": 3602402197,
  "1078": 3587341242,
  "1079": 3594890582,
  "1080": 3553075754,
  "1081": 3659063743,
  "1082": 3564393634,
  "1083": 3547191931,
  "1084": 3557710924,
  "1085": 3623516292,
  "1086": 3637264585,
  "1087": 3591165416,
  "1088": 3595560299,
  "1089": 3619304209,
  "1090": 3557355088,
  "1091": 3602783456,
  "1092": 3635657451,
  "1093": 3562452583,
  "1094": 3564277464,
  "1095": 3581330558,
  "1096": 3593871916,
  "1097": 3577434337,
  "1098": 3609462155,
  "1099": 3572600397,
  "1100": 3625352664,
  "1101": 3561473610,
  "1102": 3616621675,
  "1103": 3610305368,
  "1104": 3593266560,
  "1105": 3653090445,
  "1106": 3643917581,
  "1107": 3657014315,
  "1108": 3645214904,
  "1109": 3630574952,
  "1110": 3592922341,
  "1111": 3568850265,
  "1112": 3614964427,
  "1113": 3653589097,
  "1114": 3621865727,
  "1115": 3614194283,
  "1116": 3623347855,
  "1117": 3673240318,
  "1118": 3638062717,
  "1119": 3667811474,
  "1120": 3672718465,
  "1121": 3640783076,
  "1122": 3649062227,
  "1123": 3595942453,
  "1124": 3638298951,
  "1125": 3681561891,
  "1126": 3616698752,
  "1127": 3661642424,
  "1128": 3657514869,
  "1129": 3686016473,
  "1130": 3708671418,
  "1131": 3691489029,
  "1132": 3661202543,
  "1133": 3648897764,
  "1134": 3698438615,
  "1135": 3665454505,
  "1136": 3677756784,
  "1137": 3650562252,
  "1138": 3653509737,
  "1139": 3685881733,
  "1140": 3668245612,
  "1141": 3693981847,
  "1142": 3660200927,
  "1143": 3716474537,
  "1144": 3711561395,
  "1145": 3667858861,
  "1146": 3709146391,
  "1147": 3694420071,
  "1148": 3617907804,
  "1149": 3645683496,
  "1150": 3687106047,
  "1151": 3746209106,
  "1152": 3750865215,
  "1153": 3720218043,
  "1154": 3659670396,
  "1155": 3608967174,
  "1156": 3652236735,
  "1157": 3676302797,
  "1158": 3620331789,
  "1159": 3598533095,
  "1160": 3615159158,
  "1161": 3581050297,
  "1162": 3623167352,
  "1163": 3581033636,
  "1164": 3584048028,
  "1165": 3595973381,
  "1166": 3588761605,
  "1167": 3579636348,
  "1168": 3605490268,
  "1169": 3642629262,
  "1170": 3625216211,
  "1171": 3630591378,
  "1172": 3664990093,
  "1173": 3692351913,
  "1174": 3680404075,
  "1175": 3627542395,
  "1176": 3665848236,
  "1177": 3637895120,
  "1178": 3639572914,
  "1179": 3603749929,
  "1180": 3631477822,
  "1181": 3612333223,
  "1182": 3634938330,
  "1183": 3668171420,
  "1184": 3672264022,
  "1185": 3680348153,
  "1186": 3628512511,
  "1187": 3673657255,
  "1188": 3665513034,
  "1189": 3637499278,
  "1190": 3612372908,
  "1191": 3588408065,
  "1192": 3575389254,
  "1193": 3560635413,
  "1194": 3637343688,
  "1195": 3673278143,
  "1196": 3704828943,
  "1197": 3629669305,
  "1198": 3613364713,
  "1199": 3661874329,
  "1200": 3666679137,
  "1201": 3755645108,
  "1202": 3674700351,
  "1203": 3673613923,
  "1204": 3754361454,
  "1205": 3712327129,
  "1206": 3670217004,
  "1207": 3651184332,
  "1208": 3641089702,
  "1209": 3644528550,
  "1210": 3704696077,
  "1211": 3636917617,
  "1212": 3677599868,
  "1213": 3681609374,
  "1214": 3656687032,
  "1215": 3639535067,
  "1216": 3631692450,
  "1217": 3623211690,
  "1218": 3674249190,
  "1219": 3628711870,
  "1220": 3689533626,
  "1221": 3576141290,
  "1222": 3629660099,
  "1223": 3653540510,
  "1224": 3642824265,
  "1225": 3623333549,
  "1226": 3631397945,
  "1227": 3648378288,
  "1228": 3654520315,
  "1229": 3660901250,
  "1230": 3679278703,
  "1231": 3666292251,
  "1232": 3607380157,
  "1233": 3600781745,
  "1234": 3561713111,
  "1235": 3633316544,
  "1236": 3713314830,
  "1237": 3676024747,
  "1238": 3699656273,
  "1239": 3681557199,
  "1240": 3657730342,
  "1241": 3674308648,
  "1242": 3714334824,
  "1243": 3687442643,
  "1244": 3649473119,
  "1245": 3727331523,
  "1246": 3719278436,
  "1247": 3668251000,
  "1248": 3662635413,
  "1249": 3636160164,
  "1250": 3690379379,
  "1251": 3699287686,
  "1252": 3654280077,
  "1253": 3710443435,
  "1254": 3699679031,
  "1255": 3646749490,
  "1256": 3658921351,
  "1257": 3733684533,
  "1258": 3685204891,
  "1259": 3693152124,
  "1260": 3685412473,
  "1261": 3707703700,
  "1262": 3725967329,
  "1263": 3685131484,
  "1264": 3637744783,
  "1265": 3656258992,
  "1266": 3659718417,
  "1267": 3625164819,
  "1268": 3604381802,
  "1269": 3621501737,
  "1270": 3571159087,
  "1271": 3636741442,
  "1272": 3666881473,
  "1273": 3652852624,
  "1274": 3670733655,
  "1275": 3690884702,
  "1276": 3701691449,
  "1277": 3679379717,
  "1278": 3706017316,
  "1279": 3679606532,
  "1280": 3684582475,
  "1281": 3688408988,
  "1282": 3753860650,
  "1283": 3726962055,
  "1284": 3766682916,
  "1285": 3690102408,
  "1286": 3652982944,
  "1287": 3668501462,
  "1288": 3665703515,
  "1289": 3707870969,
  "1290": 3650372040,
  "1291": 3680750949,
  "1292": 3689570730,
  "1293": 3746277864,
  "1294": 3773065535,
  "1295": 3794001998,
  "1296": 3750315958,
  "1297": 3754308368,
  "1298": 3698672054,
  "1299": 3706799172,
  "1300": 3659414106,
  "1301": 3692135289,
  "1302": 3726455496,
  "1303": 3737806081,
  "1304": 3684603842,
  "1305": 3647021662,
  "1306": 3676285963,
  "1307": 3718365396,
  "1308": 3730260113,
  "1309": 3647365227,
  "1310": 3716905889,
  "1311": 3697821362,
  "1312": 3747044393,
  "1313": 3732484874,
  "1314": 3728266843,
  "1315": 3644265423,
  "1316": 3714149226,
  "1317": 3689284955,
  "1318": 3646948200,
  "1319": 3677152353,
  "1320": 3618569517,
  "1321": 3673196634,
  "1322": 3668611485,
  "1323": 3692460638,
  "1324": 3695833264,
  "1325": 3725199518,
  "1326": 3762639007,
  "1327": 3728681683,
  "1328": 3708790809,
  "1329": 3727877969,
  "1330": 3710489595,
  "1331": 3696561940,
  "1332": 3678401795,
  "1333": 3657766223,
  "1334": 3690855254,
  "1335": 3691319964,
  "1336": 3679899692,
  "1337": 3650347223,
  "1338": 3655807002,
  "1339": 3716444538,
  "1340": 3688696110,
  "1341": 3655253234,
  "1342": 3659747991,
  "1343": 3663108285,
  "1344": 3659858072,
  "1345": 3691510882,
  "1346": 3699643793,
  "1347": 3653933589,
  "1348": 3696029413,
  "1349": 3686345851,
  "1350": 3693393001,
  "1351": 3685461014,
  "1352": 3688517776,
  "1353": 3699818157,
  "1354": 3726039913,
  "1355": 3708597982,
  "1356": 3727167700,
  "1357": 3693382649,
  "1358": 3656435807,
  "1359": 3723354682,
  "1360": 3676572083,
  "1361": 3712016732,
  "1362": 3757011482,
  "1363": 3637754055,
  "1364": 3712549360,
  "1365": 3714823121,
  "1366": 3673175992,
  "1367": 3706256815,
  "1368": 3651607677,
  "1369": 3678263927,
  "1370": 3661454797,
  "1371": 3671707066,
  "1372": 3699196806,
  "1373": 3761376303,
  "1374": 3663021160,
  "1375": 3665156938,
  "1376": 3720842998,
  "1377": 3686002223,
  "1378": 3701625523,
  "1379": 3699363768,
  "1380": 3673570396,
  "1381": 3678309211,
  "1382": 3659548448,
  "1383": 3693810059,
  "1384": 3739856271,
  "1385": 3694435882,
  "1386": 3692305203,
  "1387": 3679400159,
  "1388": 3706162994,
  "1389": 3715690828,
  "1390": 3730659164,
  "1391": 3681406905,
  "1392": 3730178634,
  "1393": 3741661049,
  "1394": 3720257828,
  "1395": 3734980911,
  "1396": 3731791613,
  "1397": 3732385409,
  "1398": 3729454148,
  "1399": 3681314377,
  "1400": 3687528553,
  "1401": 3690872608,
  "1402": 3662495764,
  "1403": 3693397279,
  "1404": 3666029991,
  "1405": 3726672805,
  "1406": 3766835870,
  "1407": 3735438926,
  "1408": 3685685224,
  "1409": 3653304311,
  "1410": 3633182207,
  "1411": 3667648803,
  "1412": 3731689607,
  "1413": 3742017187,
  "1414": 3733521057,
  "1415": 3759906625,
  "1416": 3699053317,
  "1417": 3703006870,
  "1418": 3681103840,
  "1419": 3691966298,
  "1420": 3695630557,
  "1421": 3734865785,
  "1422": 3753849976,
  "1423": 3700266505,
  "1424": 3707667276,
  "1425": 3711956980,
  "1426": 3756744501,
  "1427": 3736104752,
  "1428": 3647015068,
  "1429": 3660169125,
  "1430": 3725390890,
  "1431": 3713992145,
  "1432": 3719751225,
  "1433": 3735833638,
  "1434": 3764761508,
  "1435": 3712558237,
  "1436": 3789831958,
  "1437": 3694558658,
  "1438": 3717929000,
  "1439": 3699408232,
  "1440": 3667216849,
  "1441": 3666860363,
  "1442": 3650025649,
  "1443": 3725528518,
  "1444": 3758560899,
  "1445": 3778882611,
  "1446": 3771336329,
  "1447": 3742054040,
  "1448": 3723205353,
  "1449": 3786746317,
  "1450": 3788616792,
  "1451": 3826703513,
  "1452": 3867048810,
  "1453": 3801493117,
  "1454": 3746634819,
  "1455": 3806831473,
  "1456": 3740603057,
  "1457": 3741763876,
  "1458": 3678258196,
  "1459": 3752093552,
  "1460": 3809258743,
  "1461": 3764259255,
  "1462": 3740933501,
  "1463": 3738787492,
  "1464": 3765435754,
  "1465": 3737784571,
  "1466": 3715640515,
  "1467": 3747658632,
  "1468": 3741272649,
  "1469": 3743524280,
  "1470": 3636386179,
  "1471": 3682475350,
  "1472": 3763039179,
  "1473": 3781745927,
  "1474": 3712303546,
  "1475": 3770475496,
  "1476": 3737589510,
  "1477": 3697751573,
  "1478": 3677554131,
  "1479": 3696687637,
  "1480": 3711846503,
  "1481": 3654774028,
  "1482": 3650602635,
  "1483": 3665180742,
  "1484": 3663116916,
  "1485": 3700386602,
  "1486": 3721941572,
  "1487": 3742554641,
  "1488": 3772205881,
  "1489": 3757809204,
  "1490": 3761405336,
  "1491": 3681117673,
  "1492": 3747517554,
  "1493": 3734710964,
  "1494": 3706663433,
  "1495": 3739168642,
  "1496": 3695851258,
  "1497": 3705520674,
  "1498": 3740121648,
  "1499": 3716163601,
  "1500": 3772991225,
  "1501": 3783164789,
  "1502": 3841392728,
  "1503": 3797256336,
  "1504": 3743369734,
  "1505": 3742902623,
  "1506": 3774461530,
  "1507": 3776316769,
  "1508": 3763584302,
  "1509": 3711890516,
  "1510": 3702417888,
  "1511": 3682608642,
  "1512": 3680054954,
  "1513": 3702991461,
  "1514": 3715033804,
  "1515": 3629711040,
  "1516": 3675407475,
  "1517": 3720971630,
  "1518": 3708223321,
  "1519": 3651334813,
  "1520": 3720537365,
  "1521": 3685042733,
  "1522": 3667711569,
  "1523": 3737527490,
  "1524": 3716008431,
  "1525": 3754691408,
  "1526": 3740318484,
  "1527": 3771303723,
  "1528": 3715643884,
  "1529": 3694642753,
  "1530": 3740253786,
  "1531": 3722646426,
  "1532": 3687304011,
  "1533": 3756041620,
  "1534": 3727635557,
  "1535": 3712284396,
  "1536": 3666903652,
  "1537": 3678843762,
  "1538": 3767181394,
  "1539": 3770474039,
  "1540": 3749690878,
  "1541": 3701769514,
  "1542": 3654131609,
  "1543": 3647058592,
  "1544": 3701092942,
  "1545": 3713283614,
  "1546": 3744546628,
  "1547": 3789738036,
  "1548": 3687255343,
  "1549": 3712125395,
  "1550": 3740308748,
  "1551": 3699681367,
  "1552": 3766753879,
  "1553": 3759634415,
  "1554": 3799233404,
  "1555": 3723062434,
  "1556": 3775072652,
  "1557": 3735313484,
  "1558": 3789671261,
  "1559": 3782798059,
  "1560": 3751779969,
  "1561": 3750074788,
  "1562": 3805792403,
  "1563": 3751092117,
  "1564": 3796286846,
  "1565": 3788418919,
  "1566": 3753177370,
  "1567": 3716927618,
  "1568": 3717521742,
  "1569": 3704538419,
  "1570": 3709919675,
  "1571": 3781504529,
  "1572": 3783529354,
  "1573": 3756029301,
  "1574": 3775487850,
  "1575": 3774982768,
  "1576": 3728864521,
  "1577": 3745613598,
  "1578": 3735393446,
  "1579": 3778102385,
  "1580": 3753605546,
  "1581": 3798736322,
  "1582": 3777305364,
  "1583": 3742755233,
  "1584": 3727535957,
  "1585": 3690866019,
  "1586": 3724734994,
  "1587": 3734286862,
  "1588": 3755113840,
  "1589": 3729524476,
  "1590": 3726479010,
  "1591": 3685069855,
  "1592": 3705911851,
  "1593": 3669867936,
  "1594": 3765503540,
  "1595": 3743379937,
  "1596": 3686290226,
  "1597": 3705021354,
  "1598": 3739833012,
  "1599": 3740984763,
  "1600": 3716105768,
  "1601": 3729324399,
  "1602": 3692261543,
  "1603": 3725965461,
  "1604": 3725674723,
  "1605": 3774218782,
  "1606": 3821290084,
  "1607": 3820106130,
  "1608": 3798456466,
  "1609": 3722297783,
  "1610": 3673522558,
  "1611": 3750927078,
  "1612": 3810527769,
  "1613": 3791828287,
  "1614": 3807299606,
  "1615": 3747913165,
  "1616": 3662125807,
  "1617": 3731779220,
  "1618": 3739593386,
  "1619": 3780732196,
  "1620": 3746430260,
  "1621": 3771979377,
  "1622": 3814132063,
  "1623": 3773194607,
  "1624": 3759099716,
  "1625": 3705947067,
  "1626": 3747908261,
  "1627": 3790080324,
  "1628": 3809494621,
  "1629": 3746449070,
  "1630": 3762218823,
  "1631": 3784094285,
  "1632": 3760551201,
  "1633": 3756996637,
  "1634": 3730109114,
  "1635": 3732979718,
  "1636": 3692059943,
  "1637": 3779114054,
  "1638": 3816851783,
  "1639": 3781662515,
  "1640": 3796905123,
  "1641": 3787710944,
  "1642": 3797280427,
  "1643": 3776466772,
  "1644": 3819303137,
  "1645": 3796470653,
  "1646": 3805982307,
  "1647": 3786812023,
  "1648": 3779770641,
  "1649": 3815320387,
  "1650": 3813507450,
  "1651": 3739680969,
  "1652": 3776449949,
  "1653": 3780932190,
  "1654": 3811695552,
  "1655": 3800883188,
  "1656": 3769720053,
  "1657": 3781346806,
  "1658": 3854979472,
  "1659": 3823657123,
  "1660": 3795728275,
  "1661": 3814082255,
  "1662": 3774109894,
  "1663": 3825947045,
  "1664": 3820597920,
  "1665": 3808593799,
  "1666": 3725282732,
  "1667": 3770549763,
  "1668": 3805423558,
  "1669": 3729425471,
  "1670": 3758406203,
  "1671": 3786322134,
  "1672": 3769513411,
  "1673": 3817071592,
  "1674": 3891242395,
  "1675": 3824935642,
  "1676": 3814551665,
  "1677": 3818836561,
  "1678": 3804310898,
  "1679": 3854251505,
  "1680": 3860024469,
  "1681": 3815301142,
  "1682": 3823495512,
  "1683": 3815436002,
  "1684": 3789633792,
  "1685": 3769475181,
  "1686": 3744139310,
  "1687": 3738447131,
  "1688": 3766923127,
  "1689": 3823975541,
  "1690": 3751514868,
  "1691": 3783408275,
  "1692": 3808093639,
  "1693": 3781151194,
  "1694": 3852598254,
  "1695": 3793474876,
  "1696": 3769122537,
  "1697": 3758536824,
  "1698": 3780872643,
  "1699": 3747010149,
  "1700": 3749010574,
  "1701": 3797642055,
  "1702": 3785399140,
  "1703": 3798096007,
  "1704": 3853319634,
  "1705": 3814331957,
  "1706": 3778132493,
  "1707": 3759530102,
  "1708": 3768741720,
  "1709": 3770492082,
  "1710": 3807179567,
  "1711": 3785366085,
  "1712": 3779758121,
  "1713": 3799760036,
  "1714": 3858923323,
  "1715": 3811776507,
  "1716": 3754405807,
  "1717": 3781418569,
  "1718": 3810053488,
  "1719": 3737633130,
  "1720": 3745408719,
  "1721": 3746964270,
  "1722": 3754303349,
  "1723": 3756403659,
  "1724": 3756283033,
  "1725": 3811115379,
  "1726": 3752982857,
  "1727": 3758446425,
  "1728": 3768549861,
  "1729": 3744507889,
  "1730": 3733974140,
  "1731": 3793678522,
  "1732": 3800720593,
  "1733": 3790527418,
  "1734": 3803078584,
  "1735": 3752215160,
  "1736": 3785288936,
  "1737": 3732305898,
  "1738": 3729756431,
  "1739": 3767716035,
  "1740": 3737370454,
  "1741": 3734852069,
  "1742": 3776159992,
  "1743": 3764136837,
  "1744": 3759347759,
  "1745": 3777034704,
  "1746": 3750777219,
  "1747": 3716405500,
  "1748": 3772265527,
  "1749": 3804281855,
  "1750": 3811818582,
  "1751": 3770455739,
  "1752": 3763705582,
  "1753": 3769645596,
  "1754": 3732667516,
  "1755": 3744808139,
  "1756": 3692843773,
  "1757": 3713939519,
  "1758": 3759592517,
  "1759": 3787781237,
  "1760": 3768601044,
  "1761": 3845066457,
  "1762": 3805003872,
  "1763": 3832472589,
  "1764": 3822943306,
  "1765": 3735015276,
  "1766": 3782552527,
  "1767": 3730615660,
  "1768": 3742449794,
  "1769": 3769325457,
  "1770": 3736115690,
  "1771": 3692462931,
  "1772": 3722442254,
  "1773": 3755999538,
  "1774": 3756234888,
  "1775": 3704220067,
  "1776": 3761901200,
  "1777": 3761571995,
  "1778": 3778010147,
  "1779": 3776680482,
  "1780": 3742720707,
  "1781": 3833245566,
  "1782": 3855360795,
  "1783": 3834749008,
  "1784": 3778694223,
  "1785": 3755249980,
  "1786": 3795890748,
  "1787": 3839409370,
  "1788": 3821375561,
  "1789": 3814238557,
  "1790": 3745517882,
  "1791": 3768188007,
  "1792": 3773938005,
  "1793": 3723044968,
  "1794": 3737283184,
  "1795": 3837710438,
  "1796": 3775734636,
  "1797": 3706993978,
  "1798": 3772741285,
  "1799": 3797415976,
  "1800": 3842539504,
  "1801": 3848474179,
  "1802": 3816856965,
  "1803": 3803814088,
  "1804": 3758980675,
  "1805": 3789836891,
  "1806": 3794265536,
  "1807": 3778691963,
  "1808": 3777446440,
  "1809": 3771749468,
  "1810": 3764083953,
  "1811": 3710314072,
  "1812": 3725599235,
  "1813": 3785699420,
  "1814": 3791345617,
  "1815": 3725995392,
  "1816": 3716234052,
  "1817": 3727412238,
  "1818": 3782703382,
  "1819": 3845325278,
  "1820": 3817302542,
  "1821": 3834668126,
  "1822": 3812139611,
  "1823": 3833090444,
  "1824": 3792851936,
  "1825": 3807136708,
  "1826": 3741682562,
  "1827": 3786569783,
  "1828": 3819616916,
  "1829": 3823249495,
  "1830": 3811958210,
  "1831": 3814201728,
  "1832": 3786447656,
  "1833": 3797999899,
  "1834": 3870169297,
  "1835": 3839792491,
  "1836": 3816629996,
  "1837": 3852624626,
  "1838": 3805389085,
  "1839": 3852685300,
  "1840": 3847036051,
  "1841": 3794835025,
  "1842": 3795380528,
  "1843": 3772731888,
  "1844": 3810880318,
  "1845": 3862864815,
  "1846": 3830824599,
  "1847": 3861453441,
  "1848": 3753882773,
  "1849": 3756148504,
  "1850": 3812267366,
  "1851": 3798591147,
  "1852": 3787641330,
  "1853": 3790959068,
  "1854": 3792745443,
  "1855": 3740347004,
  "1856": 3778495630,
  "1857": 3776750700,
  "1858": 3762811170,
  "1859": 3751739219
}