Jan 01 00:17:36.150 [warn] relay36exitguard CIRC=17:3474004412: Our clock has been stalled during slow start of a circuit. Performance may be sub-optimal. Current time: 1054150103
/shadow/cap3outbuf/16722/49996/tornet/3/shadow.data/hosts/markovclient190/markovclient190.tor.1000.stdout:Jan 01 00:21:22.839 [warn] Sending XOFF: 249400 249000
/shadow/cap3outbuf/16722/49996/tornet/3/shadow.data/hosts/markovclient190/markovclient190.tor.1000.stdout:Jan 01 00:21:44.439 [warn] Sending XOFF: 249400 249000
/shadow/cap3outbuf/16722/49996/tornet/3/shadow.data/hosts/markovclient190/markovclient190.tor.1000.stdout:Jan 01 00:23:09.246 [warn] Sending XOFF: 249400 249000
/shadow/cap3outbuf/16722/49996/tornet/3/shadow.data/hosts/markovclient190/markovclient190.tor.1000.stdout:Jan 01 00:23:25.146 [warn] Sending XOFF: 249326 249000
/shadow/cap3outbuf/16722/49996/tornet/3/shadow.data/hosts/markovclient190/markovclient190.tor.1000.stdout:Jan 01 00:23:59.138 [warn] Sending XOFF: 249200 249000
/shadow/cap3outbuf/16722/49996/tornet/3/shadow.data/hosts/markovclient190/markovclient190.tor.1000.stdout:Jan 01 00:25:02.336 [warn] Sending XOFF: 249400 249000
/shadow/cap3outbuf/16722/49996/tornet/3/shadow.data/hosts/markovclient190/markovclient190.tor.1000.stdout:Jan 01 00:25:37.005 [warn] Sending XOFF: 249326 249000
/shadow/cap3outbuf/16722/49996/tornet/3/shadow.data/hosts/markovclient190/markovclient190.tor.1000.stdout:Jan 01 00:25:40.559 [warn] Sending XOFF: 249074 249000
/shadow/cap3outbuf/16722/49996/tornet/3/shadow.data/hosts/markovclient190/markovclient190.tor.1000.stdout:Jan 01 00:26:30.245 [warn] Sending XOFF: 249169 249000
/shadow/cap3outbuf/16722/49996/tornet/3/shadow.data/hosts/markovclient190/markovclient190.tor.1000.stdout:Jan 01 00:27:11.071 [warn] Sending XOFF: 249224 249000
/shadow/cap3outbuf/16722/49996/tornet/3/shadow.data/hosts/markovclient190/markovclient190.tor.1000.stdout:Jan 01 00:27:11.540 [warn] Sending XOFF: 249103 249000
/shadow/cap3outbuf/16722/49996/tornet/3/shadow.data/hosts/markovclient190/markovclient190.tor.1000.stdout:Jan 01 00:27:17.618 [warn] Sending XOFF: 249170 249000
/shadow/cap3outbuf/16722/49996/tornet/3/shadow.data/hosts/markovclient190/markovclient190.tor.1000.stdout:Jan 01 00:27:21.844 [warn] Sending XOFF: 249194 249000
/shadow/cap3outbuf/16722/49996/tornet/3/shadow.data/hosts/markovclient190/markovclient190.tor.1000.stdout:Jan 01 00:27:29.486 [warn] Sending XOFF: 249170 249000
/shadow/cap3outbuf/16722/49996/tornet/3/shadow.data/hosts/markovclient190/markovclient190.tor.1000.stdout:Jan 01 00:27:34.348 [warn] Sending XOFF: 249452 249000
/shadow/cap3outbuf/16722/49996/tornet/3/shadow.data/hosts/markovclient190/markovclient190.tor.1000.stdout:Jan 01 00:27:34.544 [warn] Sending XOFF: 249380 249000
/shadow/cap3outbuf/16722/49996/tornet/3/shadow.data/hosts/markovclient190/markovclient190.tor.1000.stdout:Jan 01 00:27:36.822 [warn] Sending XOFF: 249074 249000
/shadow/cap3outbuf/16722/49996/tornet/3/shadow.data/hosts/markovclient190/markovclient190.tor.1000.stdout:Jan 01 00:27:43.214 [warn] Sending XOFF: 249254 249000
/shadow/cap3outbuf/16722/49996/tornet/3/shadow.data/hosts/markovclient190/markovclient190.tor.1000.stdout:Jan 01 00:27:57.389 [warn] Sending XOFF: 249464 249000
/shadow/cap3outbuf/16722/49996/tornet/3/shadow.data/hosts/markovclient190/markovclient190.tor.1000.stdout:Jan 01 00:28:03.094 [warn] Sending XOFF: 249110 249000
/shadow/cap3outbuf/16722/49996/tornet/3/shadow.data/hosts/markovclient190/markovclient190.tor.1000.stdout:Jan 01 00:28:15.269 [warn] Sending XOFF: 249272 249000
/shadow/cap3outbuf/16722/49996/tornet/3/shadow.data/hosts/markovclient190/markovclient190.tor.1000.stdout:Jan 01 00:28:20.542 [warn] Sending XOFF: 249074 249000
/shadow/cap3outbuf/16722/49996/tornet/3/shadow.data/hosts/markovclient190/markovclient190.tor.1000.stdout:Jan 01 00:28:25.593 [warn] Sending XOFF: 249470 249000
/shadow/cap3outbuf/16722/49996/tornet/3/shadow.data/hosts/markovclient190/markovclient190.tor.1000.stdout:Jan 01 00:28:27.016 [warn] Sending XOFF: 249098 249000
/shadow/cap3outbuf/16722/49996/tornet/3/shadow.data/hosts/markovclient190/markovclient190.tor.1000.stdout:Jan 01 00:28:35.374 [warn] Sending XOFF: 249074 249000
/shadow/cap3outbuf/16722/49996/tornet/3/shadow.data/hosts/markovclient190/markovclient190.tor.1000.stdout:Jan 01 00:28:37.922 [warn] Sending XOFF: 249054 249000
/shadow/cap3outbuf/16722/49996/tornet/3/shadow.data/hosts/markovclient190/markovclient190.tor.1000.stdout:Jan 01 00:28:45.294 [warn] Sending XOFF: 249451 249000
/shadow/cap3outbuf/16722/49996/tornet/3/shadow.data/hosts/markovclient190/markovclient190.tor.1000.stdout:Jan 01 00:28:55.329 [warn] Sending XOFF: 249074 249000
/shadow/cap3outbuf/16722/49996/tornet/3/shadow.data/hosts/markovclient190/markovclient190.tor.1000.stdout:Jan 01 00:28:58.748 [warn] Sending XOFF: 249331 249000
/shadow/cap3outbuf/16722/49996/tornet/3/shadow.data/hosts/markovclient190/markovclient190.tor.1000.stdout:Jan 01 00:29:06.145 [warn] Sending XOFF: 249400 249000
/shadow/cap3outbuf/16722/49996/tornet/3/shadow.data/hosts/markovclient190/markovclient190.tor.1000.stdout:Jan 01 00:29:08.697 [warn] Sending XOFF: 249054 249000
/shadow/cap3outbuf/16722/49996/tornet/3/shadow.data/hosts/markovclient190/markovclient190.tor.1000.stdout:Jan 01 00:29:13.101 [warn] Sending XOFF: 249448 249000
/shadow/cap3outbuf/16722/49996/tornet/3/shadow.data/hosts/markovclient190/markovclient190.tor.1000.stdout:Jan 01 00:29:25.378 [warn] Sending XOFF: 249116 249000
/shadow/cap3outbuf/16722/49996/tornet/3/shadow.data/hosts/markovclient190/markovclient190.tor.1000.stdout:Jan 01 00:29:34.283 [warn] Sending XOFF: 249290 249000
/shadow/cap3outbuf/16722/49996/tornet/3/shadow.data/hosts/markovclient190/markovclient190.tor.1000.stdout:Jan 01 00:29:34.609 [warn] Sending XOFF: 249476 249000
/shadow/cap3outbuf/16722/49996/tornet/3/shadow.data/hosts/markovclient190/markovclient190.tor.1000.stdout:Jan 01 00:30:20.397 [warn] Sending XOFF: 249164 249000
/shadow/cap3outbuf/16722/49996/tornet/3/shadow.data/hosts/markovclient190/markovclient190.tor.1000.stdout:Jan 01 00:30:34.197 [warn] Sending XOFF: 249338 249000
/shadow/cap3outbuf/16722/49996/tornet/3/shadow.data/hosts/markovclient190/markovclient190.tor.1000.stdout:Jan 01 00:30:44.783 [warn] Sending XOFF: 249110 249000
/shadow/cap3outbuf/16722/49996/tornet/3/shadow.data/hosts/markovclient190/markovclient190.tor.1000.stdout:Jan 01 00:30:50.391 [warn] Sending XOFF: 249146 249000
/shadow/cap3outbuf/16722/49996/tornet/3/shadow.data/hosts/markovclient190/markovclient190.tor.1000.stdout:Jan 01 00:30:55.951 [warn] Sending XOFF: 249400 249000
/shadow/cap3outbuf/16722/49996/tornet/3/shadow.data/hosts/markovclient266/markovclient266.tor.1000.stdout:Jan 01 00:16:11.419 [warn] Sending XOFF: 249400 249000
/shadow/cap3outbuf/16722/49996/tornet/3/shadow.data/hosts/markovclient52/markovclient52.tor.1000.stdout:Jan 01 00:18:37.812 [warn] Sending XOFF: 249032 249000
/shadow/cap3outbuf/16722/49996/tornet/3/shadow.data/hosts/markovclient52/markovclient52.tor.1000.stdout:Jan 01 00:19:04.375 [warn] Sending XOFF: 249110 249000
/shadow/cap3outbuf/16722/49996/tornet/3/shadow.data/hosts/markovclient52/markovclient52.tor.1000.stdout:Jan 01 00:19:48.638 [warn] Sending XOFF: 249484 249000
/shadow/cap3outbuf/16722/49996/tornet/3/shadow.data/hosts/markovclient52/markovclient52.tor.1000.stdout:Jan 01 00:19:59.105 [warn] Sending XOFF: 249007 249000
/shadow/cap3outbuf/16722/49996/tornet/3/shadow.data/hosts/markovclient52/markovclient52.tor.1000.stdout:Jan 01 00:20:24.315 [warn] Sending XOFF: 249254 249000
/shadow/cap3outbuf/16722/49996/tornet/3/shadow.data/hosts/markovclient52/markovclient52.tor.1000.stdout:Jan 01 00:22:01.370 [warn] Sending XOFF: 249344 249000
/shadow/cap3outbuf/16722/49996/tornet/3/shadow.data/hosts/markovclient52/markovclient52.tor.1000.stdout:Jan 01 00:22:02.611 [warn] Sending XOFF: 249380 249000
/shadow/cap3outbuf/16722/49996/tornet/3/shadow.data/hosts/markovclient52/markovclient52.tor.1000.stdout:Jan 01 00:24:58.116 [warn] Sending XOFF: 249338 249000
/shadow/cap3outbuf/16722/49996/tornet/3/shadow.data/hosts/markovclient52/markovclient52.tor.1000.stdout:Jan 01 00:25:14.830 [warn] Sending XOFF: 249422 249000
/shadow/cap3outbuf/16722/49996/tornet/3/shadow.data/hosts/markovclient52/markovclient52.tor.1000.stdout:Jan 01 00:25:30.852 [warn] Sending XOFF: 249416 249000
/shadow/cap3outbuf/16722/49996/tornet/3/shadow.data/hosts/markovclient52/markovclient52.tor.1000.stdout:Jan 01 00:26:15.954 [warn] Sending XOFF: 249074 249000
/shadow/cap3outbuf/16722/49996/tornet/3/shadow.data/hosts/markovclient52/markovclient52.tor.1000.stdout:Jan 01 00:26:21.651 [warn] Sending XOFF: 249308 249000
/shadow/cap3outbuf/16722/49996/tornet/3/shadow.data/hosts/markovclient52/markovclient52.tor.1000.stdout:Jan 01 00:26:41.618 [warn] Sending XOFF: 249235 249000
/shadow/cap3outbuf/16722/49996/tornet/3/shadow.data/hosts/markovclient52/markovclient52.tor.1000.stdout:Jan 01 00:26:53.030 [warn] Sending XOFF: 249476 249000
/shadow/cap3outbuf/16722/49996/tornet/3/shadow.data/hosts/markovclient52/markovclient52.tor.1000.stdout:Jan 01 00:27:25.197 [warn] Sending XOFF: 249400 249000
/shadow/cap3outbuf/16722/49996/tornet/3/shadow.data/hosts/markovclient52/markovclient52.tor.1000.stdout:Jan 01 00:27:32.886 [warn] Sending XOFF: 249400 249000
/shadow/cap3outbuf/16722/49996/tornet/3/shadow.data/hosts/markovclient52/markovclient52.tor.1000.stdout:Jan 01 00:27:51.975 [warn] Sending XOFF: 249163 249000
/shadow/cap3outbuf/16722/49996/tornet/3/shadow.data/hosts/markovclient52/markovclient52.tor.1000.stdout:Jan 01 00:27:56.682 [warn] Sending XOFF: 249368 249000
/shadow/cap3outbuf/16722/49996/tornet/3/shadow.data/hosts/markovclient52/markovclient52.tor.1000.stdout:Jan 01 00:28:17.790 [warn] Sending XOFF: 249092 249000
/shadow/cap3outbuf/16722/49996/tornet/3/shadow.data/hosts/markovclient52/markovclient52.tor.1000.stdout:Jan 01 00:28:37.435 [warn] Sending XOFF: 249194 249000
/shadow/cap3outbuf/16722/49996/tornet/3/shadow.data/hosts/markovclient52/markovclient52.tor.1000.stdout:Jan 01 00:29:33.282 [warn] Sending XOFF: 249400 249000
/shadow/cap3outbuf/16722/49996/tornet/3/shadow.data/hosts/markovclient52/markovclient52.tor.1000.stdout:Jan 01 00:29:41.621 [warn] Sending XOFF: 249446 249000
/shadow/cap3outbuf/16722/49996/tornet/3/shadow.data/hosts/markovclient52/markovclient52.tor.1000.stdout:Jan 01 00:29:46.693 [warn] Sending XOFF: 249400 249000
/shadow/cap3outbuf/16722/49996/tornet/3/shadow.data/hosts/markovclient52/markovclient52.tor.1000.stdout:Jan 01 00:30:10.360 [warn] Sending XOFF: 249464 249000
/shadow/cap3outbuf/16722/49996/tornet/3/shadow.data/hosts/markovclient52/markovclient52.tor.1000.stdout:Jan 01 00:30:20.484 [warn] Sending XOFF: 249265 249000
/shadow/cap3outbuf/16722/49996/tornet/3/shadow.data/hosts/markovclient52/markovclient52.tor.1000.stdout:Jan 01 00:30:33.710 [warn] Sending XOFF: 249400 249000
/shadow/cap3outbuf/16722/49996/tornet/3/shadow.data/hosts/markovclient52/markovclient52.tor.1000.stdout:Jan 01 00:30:36.884 [warn] Sending XOFF: 249488 249000
/shadow/cap3outbuf/16722/49996/tornet/3/shadow.data/hosts/markovclient52/markovclient52.tor.1000.stdout:Jan 01 00:30:47.857 [warn] Sending XOFF: 249235 249000
/shadow/cap3outbuf/16722/49996/tornet/3/shadow.data/hosts/markovclient316/markovclient316.tor.1000.stdout:Jan 01 00:24:32.098 [warn] Sending XOFF: 249068 249000
/shadow/cap3outbuf/16722/49996/tornet/3/shadow.data/hosts/markovclient316/markovclient316.tor.1000.stdout:Jan 01 00:26:00.772 [warn] Sending XOFF: 249254 249000
/shadow/cap3outbuf/16722/49996/tornet/3/shadow.data/hosts/markovclient316/markovclient316.tor.1000.stdout:Jan 01 00:26:28.714 [warn] Sending XOFF: 249364 249000
/shadow/cap3outbuf/16722/49996/tornet/3/shadow.data/hosts/markovclient316/markovclient316.tor.1000.stdout:Jan 01 00:28:16.781 [warn] Sending XOFF: 249400 249000
/shadow/cap3outbuf/16722/49996/tornet/3/shadow.data/hosts/markovclient316/markovclient316.tor.1000.stdout:Jan 01 00:29:11.027 [warn] Sending XOFF: 249400 249000
/shadow/cap3outbuf/16722/49996/tornet/3/shadow.data/hosts/markovclient316/markovclient316.tor.1000.stdout:Jan 01 00:29:17.389 [warn] Sending XOFF: 249206 249000
/shadow/cap3outbuf/16722/49996/tornet/3/shadow.data/hosts/markovclient316/markovclient316.tor.1000.stdout:Jan 01 00:29:27.294 [warn] Sending XOFF: 249380 249000
/shadow/cap3outbuf/16722/49996/tornet/3/shadow.data/hosts/markovclient316/markovclient316.tor.1000.stdout:Jan 01 00:29:35.158 [warn] Sending XOFF: 249400 249000
/shadow/cap3outbuf/16722/49996/tornet/3/shadow.data/hosts/markovclient316/markovclient316.tor.1000.stdout:Jan 01 00:29:40.652 [warn] Sending XOFF: 249400 249000
/shadow/cap3outbuf/16722/49996/tornet/3/shadow.data/hosts/markovclient316/markovclient316.tor.1000.stdout:Jan 01 00:29:48.540 [warn] Sending XOFF: 249176 249000
/shadow/cap3outbuf/16722/49996/tornet/3/shadow.data/hosts/markovclient316/markovclient316.tor.1000.stdout:Jan 01 00:30:06.248 [warn] Sending XOFF: 249089 249000
/shadow/cap3outbuf/16722/49996/tornet/3/shadow.data/hosts/markovclient316/markovclient316.tor.1000.stdout:Jan 01 00:30:42.600 [warn] Sending XOFF: 249400 249000
/shadow/cap3outbuf/16722/49996/tornet/3/shadow.data/hosts/markovclient316/markovclient316.tor.1000.stdout:Jan 01 00:30:53.283 [warn] Sending XOFF: 249314 249000
/shadow/cap3outbuf/16722/49996/tornet/3/shadow.data/hosts/markovclient316/markovclient316.tor.1000.stdout:Jan 01 00:30:57.250 [warn] Sending XOFF: 249164 249000
/shadow/cap3outbuf/16722/49996/tornet/3/shadow.data/hosts/markovclient238/markovclient238.tor.1000.stdout:Jan 01 00:23:16.526 [warn] Sending XOFF: 249400 249000
/shadow/cap3outbuf/16722/49996/tornet/3/shadow.data/hosts/markovclient238/markovclient238.tor.1000.stdout:Jan 01 00:23:59.223 [warn] Sending XOFF: 249400 249000
/shadow/cap3outbuf/16722/49996/tornet/3/shadow.data/hosts/markovclient238/markovclient238.tor.1000.stdout:Jan 01 00:24:01.436 [warn] Sending XOFF: 249074 249000
/shadow/cap3outbuf/16722/49996/tornet/3/shadow.data/hosts/markovclient238/markovclient238.tor.1000.stdout:Jan 01 00:24:09.348 [warn] Sending XOFF: 249400 249000
/shadow/cap3outbuf/16722/49996/tornet/3/shadow.data/hosts/markovclient238/markovclient238.tor.1000.stdout:Jan 01 00:24:57.616 [warn] Sending XOFF: 249400 249000
/shadow/cap3outbuf/16722/49996/tornet/3/shadow.data/hosts/markovclient238/markovclient238.tor.1000.stdout:Jan 01 00:25:28.747 [warn] Sending XOFF: 249400 249000
/shadow/cap3outbuf/16722/49996/tornet/3/shadow.data/hosts/markovclient238/markovclient238.tor.1000.stdout:Jan 01 00:25:55.998 [warn] Sending XOFF: 249400 249000
/shadow/cap3outbuf/16722/49996/tornet/3/shadow.data/hosts/markovclient238/markovclient238.tor.1000.stdout:Jan 01 00:25:58.832 [warn] Sending XOFF: 249400 249000
/shadow/cap3outbuf/16722/49996/tornet/3/shadow.data/hosts/markovclient238/markovclient238.tor.1000.stdout:Jan 01 00:26:03.435 [warn] Sending XOFF: 249400 249000
/shadow/cap3outbuf/16722/49996/tornet/3/shadow.data/hosts/markovclient238/markovclient238.tor.1000.stdout:Jan 01 00:26:34.440 [warn] Sending XOFF: 249295 249000
/shadow/cap3outbuf/16722/49996/tornet/3/shadow.data/hosts/markovclient238/markovclient238.tor.1000.stdout:Jan 01 00:26:49.837 [warn] Sending XOFF: 249380 249000
/shadow/cap3outbuf/16722/49996/tornet/3/shadow.data/hosts/markovclient238/markovclient238.tor.1000.stdout:Jan 01 00:26:59.397 [warn] Sending XOFF: 249400 249000
/shadow/cap3outbuf/16722/49996/tornet/3/shadow.data/hosts/markovclient238/markovclient238.tor.1000.stdout:Jan 01 00:27:22.241 [warn] Sending XOFF: 249400 249000
/shadow/cap3outbuf/16722/49996/tornet/3/shadow.data/hosts/markovclient238/markovclient238.tor.1000.stdout:Jan 01 00:28:16.826 [warn] Sending XOFF: 249400 249000
/shadow/cap3outbuf/16722/49996/tornet/3/shadow.data/hosts/markovclient238/markovclient238.tor.1000.stdout:Jan 01 00:28:40.312 [warn] Sending XOFF: 249380 249000
/shadow/cap3outbuf/16722/49996/tornet/3/shadow.data/hosts/markovclient238/markovclient238.tor.1000.stdout:Jan 01 00:29:00.935 [warn] Sending XOFF: 249400 249000
/shadow/cap3outbuf/16722/49996/tornet/3/shadow.data/hosts/markovclient238/markovclient238.tor.1000.stdout:Jan 01 00:29:22.335 [warn] Sending XOFF: 249380 249000
/shadow/cap3outbuf/16722/49996/tornet/3/shadow.data/hosts/markovclient238/markovclient238.tor.1000.stdout:Jan 01 00:29:24.995 [warn] Sending XOFF: 249400 249000
/shadow/cap3outbuf/16722/49996/tornet/3/shadow.data/hosts/markovclient238/markovclient238.tor.1000.stdout:Jan 01 00:29:41.641 [warn] Sending XOFF: 249266 249000
/shadow/cap3outbuf/16722/49996/tornet/3/shadow.data/hosts/markovclient238/markovclient238.tor.1000.stdout:Jan 01 00:29:44.155 [warn] Sending XOFF: 249400 249000
/shadow/cap3outbuf/16722/49996/tornet/3/shadow.data/hosts/markovclient238/markovclient238.tor.1000.stdout:Jan 01 00:30:04.593 [warn] Sending XOFF: 249196 249000
/shadow/cap3outbuf/16722/49996/tornet/3/shadow.data/hosts/markovclient238/markovclient238.tor.1000.stdout:Jan 01 00:30:18.845 [warn] Sending XOFF: 249496 249000
/shadow/cap3outbuf/16722/49996/tornet/3/shadow.data/hosts/markovclient238/markovclient238.tor.1000.stdout:Jan 01 00:30:21.022 [warn] Sending XOFF: 249400 249000
/shadow/cap3outbuf/16722/49996/tornet/3/shadow.data/hosts/markovclient238/markovclient238.tor.1000.stdout:Jan 01 00:30:52.054 [warn] Sending XOFF: 249400 249000
/shadow/cap3outbuf/16722/49996/tornet/3/shadow.data/hosts/markovclient61/markovclient61.tor.1000.stdout:Jan 01 00:23:37.367 [warn] Sending XOFF: 249400 249000
/shadow/cap3outbuf/16722/49996/tornet/3/shadow.data/hosts/markovclient61/markovclient61.tor.1000.stdout:Jan 01 00:26:05.990 [warn] Sending XOFF: 249302 249000
/shadow/cap3outbuf/16722/49996/tornet/3/shadow.data/hosts/markovclient61/markovclient61.tor.1000.stdout:Jan 01 00:26:39.382 [warn] Sending XOFF: 249400 249000
/shadow/cap3outbuf/16722/49996/tornet/3/shadow.data/hosts/markovclient61/markovclient61.tor.1000.stdout:Jan 01 00:26:44.024 [warn] Sending XOFF: 249164 249000
/shadow/cap3outbuf/16722/49996/tornet/3/shadow.data/hosts/markovclient61/markovclient61.tor.1000.stdout:Jan 01 00:26:50.991 [warn] Sending XOFF: 249410 249000
/shadow/cap3outbuf/16722/49996/tornet/3/shadow.data/hosts/markovclient61/markovclient61.tor.1000.stdout:Jan 01 00:28:09.365 [warn] Sending XOFF: 249400 249000
/shadow/cap3outbuf/16722/49996/tornet/3/shadow.data/hosts/markovclient61/markovclient61.tor.1000.stdout:Jan 01 00:28:12.355 [warn] Sending XOFF: 249400 249000
/shadow/cap3outbuf/16722/49996/tornet/3/shadow.data/hosts/markovclient61/markovclient61.tor.1000.stdout:Jan 01 00:28:16.880 [warn] Sending XOFF: 249400 249000
/shadow/cap3outbuf/16722/49996/tornet/3/shadow.data/hosts/markovclient61/markovclient61.tor.1000.stdout:Jan 01 00:28:20.305 [warn] Sending XOFF: 249068 249000
/shadow/cap3outbuf/16722/49996/tornet/3/shadow.data/hosts/markovclient61/markovclient61.tor.1000.stdout:Jan 01 00:28:38.533 [warn] Sending XOFF: 249400 249000
/shadow/cap3outbuf/16722/49996/tornet/3/shadow.data/hosts/markovclient61/markovclient61.tor.1000.stdout:Jan 01 00:28:43.190 [warn] Sending XOFF: 249212 249000
/shadow/cap3outbuf/16722/49996/tornet/3/shadow.data/hosts/markovclient61/markovclient61.tor.1000.stdout:Jan 01 00:29:26.201 [warn] Sending XOFF: 249260 249000
/shadow/cap3outbuf/16722/49996/tornet/3/shadow.data/hosts/markovclient61/markovclient61.tor.1000.stdout:Jan 01 00:30:18.077 [warn] Sending XOFF: 249374 249000
/shadow/cap3outbuf/16722/49996/tornet/3/shadow.data/hosts/markovclient61/markovclient61.tor.1000.stdout:Jan 01 00:30:19.956 [warn] Sending XOFF: 249074 249000
/shadow/cap3outbuf/16722/49996/tornet/3/shadow.data/hosts/markovclient61/markovclient61.tor.1000.stdout:Jan 01 00:30:45.620 [warn] Sending XOFF: 249074 249000
/shadow/cap3outbuf/16722/49996/tornet/3/shadow.data/hosts/markovclient61/markovclient61.tor.1000.stdout:Jan 01 00:30:47.273 [warn] Sending XOFF: 249236 249000
/shadow/cap3outbuf/16722/49996/tornet/3/shadow.data/hosts/markovclient149/markovclient149.tor.1000.stdout:Jan 01 00:28:26.902 [warn] Sending XOFF: 249236 249000
/shadow/cap3outbuf/16722/49996/tornet/3/shadow.data/hosts/markovclient149/markovclient149.tor.1000.stdout:Jan 01 00:28:47.266 [warn] Sending XOFF: 249128 249000
/shadow/cap3outbuf/16722/49996/tornet/3/shadow.data/hosts/markovclient149/markovclient149.tor.1000.stdout:Jan 01 00:29:11.013 [warn] Sending XOFF: 249448 249000
/shadow/cap3outbuf/16722/49996/tornet/3/shadow.data/hosts/markovclient149/markovclient149.tor.1000.stdout:Jan 01 00:29:23.964 [warn] Sending XOFF: 249236 249000
/shadow/cap3outbuf/16722/49996/tornet/3/shadow.data/hosts/markovclient149/markovclient149.tor.1000.stdout:Jan 01 00:30:52.024 [warn] Sending XOFF: 249207 249000
/shadow/cap3outbuf/16722/49996/tornet/3/shadow.data/hosts/markovclient149/markovclient149.tor.1000.stdout:Jan 01 00:30:52.435 [warn] Sending XOFF: 249308 249000
/shadow/cap3outbuf/16722/49996/tornet/3/shadow.data/hosts/markovclient717/markovclient717.tor.1000.stdout:Jan 01 00:17:12.814 [warn] Sending XOFF: 249498 249000
/shadow/cap3outbuf/16722/49996/tornet/3/shadow.data/hosts/markovclient717/markovclient717.tor.1000.stdout:Jan 01 00:19:01.223 [warn] Sending XOFF: 249223 249000
/shadow/cap3outbuf/16722/49996/tornet/3/shadow.data/hosts/markovclient717/markovclient717.tor.1000.stdout:Jan 01 00:19:39.340 [warn] Sending XOFF: 249404 249000
/shadow/cap3outbuf/16722/49996/tornet/3/shadow.data/hosts/markovclient717/markovclient717.tor.1000.stdout:Jan 01 00:24:25.888 [warn] Sending XOFF: 249164 249000
/shadow/cap3outbuf/16722/49996/tornet/3/shadow.data/hosts/markovclient717/markovclient717.tor.1000.stdout:Jan 01 00:24:26.295 [warn] Sending XOFF: 249312 249000
/shadow/cap3outbuf/16722/49996/tornet/3/shadow.data/hosts/markovclient717/markovclient717.tor.1000.stdout:Jan 01 00:24:37.314 [warn] Sending XOFF: 249362 249000
/shadow/cap3outbuf/16722/49996/tornet/3/shadow.data/hosts/markovclient717/markovclient717.tor.1000.stdout:Jan 01 00:25:30.925 [warn] Sending XOFF: 249074 249000
/shadow/cap3outbuf/16722/49996/tornet/3/shadow.data/hosts/markovclient717/markovclient717.tor.1000.stdout:Jan 01 00:26:02.325 [warn] Sending XOFF: 249062 249000
/shadow/cap3outbuf/16722/49996/tornet/3/shadow.data/hosts/markovclient717/markovclient717.tor.1000.stdout:Jan 01 00:26:14.827 [warn] Sending XOFF: 249212 249000
/shadow/cap3outbuf/16722/49996/tornet/3/shadow.data/hosts/markovclient717/markovclient717.tor.1000.stdout:Jan 01 00:26:23.577 [warn] Sending XOFF: 249464 249000
/shadow/cap3outbuf/16722/49996/tornet/3/shadow.data/hosts/markovclient717/markovclient717.tor.1000.stdout:Jan 01 00:26:54.219 [warn] Sending XOFF: 249074 249000
/shadow/cap3outbuf/16722/49996/tornet/3/shadow.data/hosts/markovclient717/markovclient717.tor.1000.stdout:Jan 01 00:27:08.954 [warn] Sending XOFF: 249236 249000
/shadow/cap3outbuf/16722/49996/tornet/3/shadow.data/hosts/markovclient717/markovclient717.tor.1000.stdout:Jan 01 00:27:23.305 [warn] Sending XOFF: 249486 249000
/shadow/cap3outbuf/16722/49996/tornet/3/shadow.data/hosts/markovclient717/markovclient717.tor.1000.stdout:Jan 01 00:27:38.520 [warn] Sending XOFF: 249235 249000
/shadow/cap3outbuf/16722/49996/tornet/3/shadow.data/hosts/markovclient717/markovclient717.tor.1000.stdout:Jan 01 00:27:44.192 [warn] Sending XOFF: 249116 249000
/shadow/cap3outbuf/16722/49996/tornet/3/shadow.data/hosts/markovclient717/markovclient717.tor.1000.stdout:Jan 01 00:27:56.691 [warn] Sending XOFF: 249230 249000
/shadow/cap3outbuf/16722/49996/tornet/3/shadow.data/hosts/markovclient717/markovclient717.tor.1000.stdout:Jan 01 00:28:01.604 [warn] Sending XOFF: 249409 249000
/shadow/cap3outbuf/16722/49996/tornet/3/shadow.data/hosts/markovclient717/markovclient717.tor.1000.stdout:Jan 01 00:28:43.505 [warn] Sending XOFF: 249400 249000
/shadow/cap3outbuf/16722/49996/tornet/3/shadow.data/hosts/markovclient717/markovclient717.tor.1000.stdout:Jan 01 00:29:03.421 [warn] Sending XOFF: 249052 249000
/shadow/cap3outbuf/16722/49996/tornet/3/shadow.data/hosts/markovclient717/markovclient717.tor.1000.stdout:Jan 01 00:29:13.335 [warn] Sending XOFF: 249400 249000
/shadow/cap3outbuf/16722/49996/tornet/3/shadow.data/hosts/markovclient717/markovclient717.tor.1000.stdout:Jan 01 00:30:14.276 [warn] Sending XOFF: 249236 249000
/shadow/cap3outbuf/16722/49996/tornet/3/shadow.data/hosts/markovclient717/markovclient717.tor.1000.stdout:Jan 01 00:30:35.888 [warn] Sending XOFF: 249286 249000
/shadow/cap3outbuf/16722/49996/tornet/3/shadow.data/hosts/markovclient717/markovclient717.tor.1000.stdout:Jan 01 00:30:39.249 [warn] Sending XOFF: 249308 249000
/shadow/cap3outbuf/16722/49996/tornet/3/shadow.data/hosts/markovclient717/markovclient717.tor.1000.stdout:Jan 01 00:30:42.984 [warn] Sending XOFF: 249368 249000
/shadow/cap3outbuf/16722/49996/tornet/3/shadow.data/hosts/markovclient717/markovclient717.tor.1000.stdout:Jan 01 00:30:45.673 [warn] Sending XOFF: 249182 249000
/shadow/cap3outbuf/16722/49996/tornet/3/shadow.data/hosts/markovclient717/markovclient717.tor.1000.stdout:Jan 01 00:30:50.368 [warn] Sending XOFF: 249493 249000
/shadow/cap3outbuf/16722/49996/tornet/3/shadow.data/hosts/markovclient717/markovclient717.tor.1000.stdout:Jan 01 00:30:54.613 [warn] Sending XOFF: 249312 249000
/shadow/cap3outbuf/16722/49996/tornet/3/shadow.data/hosts/markovclient438/markovclient438.tor.1000.stdout:Jan 01 00:20:27.469 [warn] Sending XOFF: 249400 249000
/shadow/cap3outbuf/16722/49996/tornet/3/shadow.data/hosts/markovclient438/markovclient438.tor.1000.stdout:Jan 01 00:20:31.321 [warn] Sending XOFF: 249481 249000
/shadow/cap3outbuf/16722/49996/tornet/3/shadow.data/hosts/markovclient438/markovclient438.tor.1000.stdout:Jan 01 00:21:04.016 [warn] Sending XOFF: 249163 249000
/shadow/cap3outbuf/16722/49996/tornet/3/shadow.data/hosts/markovclient438/markovclient438.tor.1000.stdout:Jan 01 00:22:05.528 [warn] Sending XOFF: 249400 249000
/shadow/cap3outbuf/16722/49996/tornet/3/shadow.data/hosts/markovclient438/markovclient438.tor.1000.stdout:Jan 01 00:22:55.868 [warn] Sending XOFF: 249134 249000
/shadow/cap3outbuf/16722/49996/tornet/3/shadow.data/hosts/markovclient438/markovclient438.tor.1000.stdout:Jan 01 00:23:00.588 [warn] Sending XOFF: 249380 249000
/shadow/cap3outbuf/16722/49996/tornet/3/shadow.data/hosts/markovclient438/markovclient438.tor.1000.stdout:Jan 01 00:23:42.561 [warn] Sending XOFF: 249084 249000
/shadow/cap3outbuf/16722/49996/tornet/3/shadow.data/hosts/markovclient438/markovclient438.tor.1000.stdout:Jan 01 00:24:30.236 [warn] Sending XOFF: 249074 249000
/shadow/cap3outbuf/16722/49996/tornet/3/shadow.data/hosts/markovclient438/markovclient438.tor.1000.stdout:Jan 01 00:25:07.041 [warn] Sending XOFF: 249074 249000
/shadow/cap3outbuf/16722/49996/tornet/3/shadow.data/hosts/markovclient438/markovclient438.tor.1000.stdout:Jan 01 00:26:36.402 [warn] Sending XOFF: 249320 249000
/shadow/cap3outbuf/16722/49996/tornet/3/shadow.data/hosts/markovclient438/markovclient438.tor.1000.stdout:Jan 01 00:26:42.744 [warn] Sending XOFF: 249474 249000
/shadow/cap3outbuf/16722/49996/tornet/3/shadow.data/hosts/markovclient438/markovclient438.tor.1000.stdout:Jan 01 00:27:32.383 [warn] Sending XOFF: 249364 249000
/shadow/cap3outbuf/16722/49996/tornet/3/shadow.data/hosts/markovclient438/markovclient438.tor.1000.stdout:Jan 01 00:27:33.775 [warn] Sending XOFF: 249400 249000
/shadow/cap3outbuf/16722/49996/tornet/3/shadow.data/hosts/markovclient438/markovclient438.tor.1000.stdout:Jan 01 00:27:45.719 [warn] Sending XOFF: 249400 249000
/shadow/cap3outbuf/16722/49996/tornet/3/shadow.data/hosts/markovclient438/markovclient438.tor.1000.stdout:Jan 01 00:27:52.451 [warn] Sending XOFF: 249400 249000
/shadow/cap3outbuf/16722/49996/tornet/3/shadow.data/hosts/markovclient438/markovclient438.tor.1000.stdout:Jan 01 00:27:56.952 [warn] Sending XOFF: 249008 249000
/shadow/cap3outbuf/16722/49996/tornet/3/shadow.data/hosts/markovclient438/markovclient438.tor.1000.stdout:Jan 01 00:29:10.276 [warn] Sending XOFF: 249306 249000
/shadow/cap3outbuf/16722/49996/tornet/3/shadow.data/hosts/markovclient438/markovclient438.tor.1000.stdout:Jan 01 00:29:13.102 [warn] Sending XOFF: 249400 249000
/shadow/cap3outbuf/16722/49996/tornet/3/shadow.data/hosts/markovclient438/markovclient438.tor.1000.stdout:Jan 01 00:29:15.501 [warn] Sending XOFF: 249400 249000
/shadow/cap3outbuf/16722/49996/tornet/3/shadow.data/hosts/markovclient438/markovclient438.tor.1000.stdout:Jan 01 00:29:16.073 [warn] Sending XOFF: 249400 249000
/shadow/cap3outbuf/16722/49996/tornet/3/shadow.data/hosts/markovclient438/markovclient438.tor.1000.stdout:Jan 01 00:29:34.084 [warn] Sending XOFF: 249085 249000
/shadow/cap3outbuf/16722/49996/tornet/3/shadow.data/hosts/markovclient438/markovclient438.tor.1000.stdout:Jan 01 00:29:37.633 [warn] Sending XOFF: 249074 249000
/shadow/cap3outbuf/16722/49996/tornet/3/shadow.data/hosts/markovclient438/markovclient438.tor.1000.stdout:Jan 01 00:29:54.080 [warn] Sending XOFF: 249242 249000
/shadow/cap3outbuf/16722/49996/tornet/3/shadow.data/hosts/markovclient438/markovclient438.tor.1000.stdout:Jan 01 00:30:09.251 [warn] Sending XOFF: 249188 249000
/shadow/cap3outbuf/16722/49996/tornet/3/shadow.data/hosts/markovclient438/markovclient438.tor.1000.stdout:Jan 01 00:30:46.524 [warn] Sending XOFF: 249212 249000
/shadow/cap3outbuf/16722/49996/tornet/3/shadow.data/hosts/markovclient438/markovclient438.tor.1000.stdout:Jan 01 00:30:49.255 [warn] Sending XOFF: 249400 249000
/shadow/cap3outbuf/16722/49996/tornet/3/shadow.data/hosts/markovclient438/markovclient438.tor.1000.stdout:Jan 01 00:30:50.907 [warn] Sending XOFF: 249400 249000
/shadow/cap3outbuf/16722/49996/tornet/3/shadow.data/hosts/markovclient438/markovclient438.tor.1000.stdout:Jan 01 00:30:53.819 [warn] Sending XOFF: 249380 249000
/shadow/cap3outbuf/16722/49996/tornet/3/shadow.data/hosts/markovclient438/markovclient438.tor.1000.stdout:Jan 01 00:30:55.446 [warn] Sending XOFF: 249178 249000
/shadow/cap3outbuf/16722/49996/tornet/3/shadow.data/hosts/markovclient76/markovclient76.tor.1000.stdout:Jan 01 00:24:41.793 [warn] Sending XOFF: 249206 249000
/shadow/cap3outbuf/16722/49996/tornet/3/shadow.data/hosts/markovclient76/markovclient76.tor.1000.stdout:Jan 01 00:25:24.768 [warn] Sending XOFF: 249404 249000
/shadow/cap3outbuf/16722/49996/tornet/3/shadow.data/hosts/markovclient76/markovclient76.tor.1000.stdout:Jan 01 00:29:35.979 [warn] Sending XOFF: 249176 249000
/shadow/cap3outbuf/16722/49996/tornet/3/shadow.data/hosts/markovclient76/markovclient76.tor.1000.stdout:Jan 01 00:29:37.454 [warn] Sending XOFF: 249308 249000
/shadow/cap3outbuf/16722/49996/tornet/3/shadow.data/hosts/markovclient76/markovclient76.tor.1000.stdout:Jan 01 00:30:33.726 [warn] Sending XOFF: 249400 249000
/shadow/cap3outbuf/16722/49996/tornet/3/shadow.data/hosts/markovclient76/markovclient76.tor.1000.stdout:Jan 01 00:30:36.450 [warn] Sending XOFF: 249236 249000
/shadow/cap3outbuf/16722/49996/tornet/3/shadow.data/hosts/markovclient76/markovclient76.tor.1000.stdout:Jan 01 00:30:43.640 [warn] Sending XOFF: 249193 249000
/shadow/cap3outbuf/16722/49996/tornet/3/shadow.data/hosts/markovclient76/markovclient76.tor.1000.stdout:Jan 01 00:30:59.815 [warn] Sending XOFF: 249032 249000
/shadow/cap3outbuf/16722/49996/tornet/3/shadow.data/hosts/markovclient409/markovclient409.tor.1000.stdout:Jan 01 00:27:28.581 [warn] Sending XOFF: 249400 249000
/shadow/cap3outbuf/16722/49996/tornet/3/shadow.data/hosts/markovclient409/markovclient409.tor.1000.stdout:Jan 01 00:30:31.281 [warn] Sending XOFF: 249400 249000
/shadow/cap3outbuf/16722/49996/tornet/3/shadow.data/hosts/markovclient409/markovclient409.tor.1000.stdout:Jan 01 00:30:48.970 [warn] Sending XOFF: 249400 249000
/shadow/cap3outbuf/16722/49996/tornet/3/shadow.data/hosts/markovclient300/markovclient300.tor.1000.stdout:Jan 01 00:18:42.486 [warn] Sending XOFF: 249400 249000
/shadow/cap3outbuf/16722/49996/tornet/3/shadow.data/hosts/markovclient300/markovclient300.tor.1000.stdout:Jan 01 00:18:53.108 [warn] Sending XOFF: 249400 249000
/shadow/cap3outbuf/16722/49996/tornet/3/shadow.data/hosts/markovclient300/markovclient300.tor.1000.stdout:Jan 01 00:19:15.480 [warn] Sending XOFF: 249400 249000
/shadow/cap3outbuf/16722/49996/tornet/3/shadow.data/hosts/markovclient300/markovclient300.tor.1000.stdout:Jan 01 00:19:29.797 [warn] Sending XOFF: 249400 249000
/shadow/cap3outbuf/16722/49996/tornet/3/shadow.data/hosts/markovclient300/markovclient300.tor.1000.stdout:Jan 01 00:23:48.204 [warn] Sending XOFF: 249116 249000
/shadow/cap3outbuf/16722/49996/tornet/3/shadow.data/hosts/markovclient300/markovclient300.tor.1000.stdout:Jan 01 00:24:42.979 [warn] Sending XOFF: 249194 249000
/shadow/cap3outbuf/16722/49996/tornet/3/shadow.data/hosts/markovclient300/markovclient300.tor.1000.stdout:Jan 01 00:24:55.884 [warn] Sending XOFF: 249074 249000
/shadow/cap3outbuf/16722/49996/tornet/3/shadow.data/hosts/markovclient300/markovclient300.tor.1000.stdout:Jan 01 00:25:28.364 [warn] Sending XOFF: 249416 249000
/shadow/cap3outbuf/16722/49996/tornet/3/shadow.data/hosts/markovclient300/markovclient300.tor.1000.stdout:Jan 01 00:25:50.494 [warn] Sending XOFF: 249134 249000
/shadow/cap3outbuf/16722/49996/tornet/3/shadow.data/hosts/markovclient300/markovclient300.tor.1000.stdout:Jan 01 00:26:12.561 [warn] Sending XOFF: 249380 249000
/shadow/cap3outbuf/16722/49996/tornet/3/shadow.data/hosts/markovclient300/markovclient300.tor.1000.stdout:Jan 01 00:26:34.503 [warn] Sending XOFF: 249200 249000
/shadow/cap3outbuf/16722/49996/tornet/3/shadow.data/hosts/markovclient300/markovclient300.tor.1000.stdout:Jan 01 00:27:56.146 [warn] Sending XOFF: 249236 249000
/shadow/cap3outbuf/16722/49996/tornet/3/shadow.data/hosts/markovclient300/markovclient300.tor.1000.stdout:Jan 01 00:29:41.715 [warn] Sending XOFF: 249236 249000
/shadow/cap3outbuf/16722/49996/tornet/3/shadow.data/hosts/markovclient300/markovclient300.tor.1000.stdout:Jan 01 00:30:03.948 [warn] Sending XOFF: 249204 249000
/shadow/cap3outbuf/16722/49996/tornet/3/shadow.data/hosts/markovclient300/markovclient300.tor.1000.stdout:Jan 01 00:30:11.120 [warn] Sending XOFF: 249410 249000
/shadow/cap3outbuf/16722/49996/tornet/3/shadow.data/hosts/markovclient300/markovclient300.tor.1000.stdout:Jan 01 00:30:40.573 [warn] Sending XOFF: 249164 249000
Jan 01 00:24:45.309 [warn] Got XOFF!
Jan 01 00:24:53.916 [warn] Got XOFF!
Jan 01 00:28:33.031 [warn] Got XOFF!
Jan 01 00:29:45.770 [warn] Got XOFF!
Jan 01 00:24:06.246 [warn] Got XOFF!
Jan 01 00:29:18.583 [warn] Got XOFF!
Jan 01 00:29:20.984 [warn] Got XOFF!
Jan 01 00:18:46.246 [warn] Got XOFF!
Jan 01 00:26:55.910 [warn] Got XOFF!
Jan 01 00:21:20.740 [warn] Got XOFF!
Jan 01 00:29:07.208 [warn] Got XOFF!
Jan 01 00:26:17.405 [warn] Got XOFF!
Jan 01 00:27:00.817 [warn] Got XOFF!
Jan 01 00:28:18.416 [warn] Got XOFF!
Jan 01 00:30:37.022 [warn] Got XOFF!
Jan 01 00:25:49.297 [warn] Got XOFF!
Jan 01 00:22:07.613 [warn] Got XOFF!
Jan 01 00:27:06.396 [warn] Got XOFF!
Jan 01 00:28:52.554 [warn] Got XOFF!
Jan 01 00:29:06.048 [notice] Request to start reading on an edgeconn blocked with XOFF
Jan 01 00:29:06.383 [notice] Request to start reading on an edgeconn blocked with XOFF
Jan 01 00:29:08.552 [notice] Request to start reading on an edgeconn blocked with XOFF
Jan 01 00:20:29.529 [warn] Got XOFF!
Jan 01 00:27:48.872 [warn] Got XOFF!
Jan 01 00:28:32.854 [warn] Got XOFF!
Jan 01 00:28:48.916 [warn] Got XOFF!
Jan 01 00:29:28.731 [warn] Got XOFF!
Jan 01 00:29:28.814 [warn] Got XOFF!
Jan 01 00:30:52.150 [warn] Got XOFF!
Jan 01 00:26:25.109 [warn] Got XOFF!
Jan 01 00:26:32.318 [warn] Got XOFF!
Jan 01 00:28:50.913 [warn] Got XOFF!
Jan 01 00:30:49.196 [warn] Got XOFF!
Jan 01 00:18:44.473 [warn] Got XOFF!
Jan 01 00:18:55.036 [notice] Request to start reading on an edgeconn blocked with XOFF
Jan 01 00:18:55.547 [warn] Got XOFF!
Jan 01 00:19:18.331 [warn] Got XOFF!
Jan 01 00:19:33.605 [warn] Got XOFF!
Jan 01 00:23:27.945 [notice] Request to start reading on an edgeconn blocked with XOFF
Jan 01 00:23:27.945 [notice] Request to start reading on an edgeconn blocked with XOFF
Jan 01 00:23:27.945 [notice] Request to start reading on an edgeconn blocked with XOFF
Jan 01 00:23:28.101 [notice] Request to start reading on an edgeconn blocked with XOFF
Jan 01 00:23:28.101 [notice] Request to start reading on an edgeconn blocked with XOFF
Jan 01 00:23:28.101 [notice] Request to start reading on an edgeconn blocked with XOFF
Jan 01 00:23:28.110 [notice] Request to start reading on an edgeconn blocked with XOFF
Jan 01 00:23:28.110 [notice] Request to start reading on an edgeconn blocked with XOFF
Jan 01 00:23:28.110 [notice] Request to start reading on an edgeconn blocked with XOFF
Jan 01 00:23:28.258 [notice] Request to start reading on an edgeconn blocked with XOFF
Jan 01 00:23:28.258 [notice] Request to start reading on an edgeconn blocked with XOFF
Jan 01 00:23:28.258 [notice] Request to start reading on an edgeconn blocked with XOFF
Jan 01 00:23:51.189 [warn] Got XOFF!
Jan 01 00:24:28.648 [notice] Request to start reading on an edgeconn blocked with XOFF
Jan 01 00:24:28.648 [notice] Request to start reading on an edgeconn blocked with XOFF
Jan 01 00:24:28.648 [notice] Request to start reading on an edgeconn blocked with XOFF
Jan 01 00:24:28.688 [notice] Request to start reading on an edgeconn blocked with XOFF
Jan 01 00:24:28.688 [notice] Request to start reading on an edgeconn blocked with XOFF
Jan 01 00:24:28.688 [notice] Request to start reading on an edgeconn blocked with XOFF
Jan 01 00:24:28.698 [notice] Request to start reading on an edgeconn blocked with XOFF
Jan 01 00:24:28.698 [notice] Request to start reading on an edgeconn blocked with XOFF
Jan 01 00:24:28.698 [notice] Request to start reading on an edgeconn blocked with XOFF
Jan 01 00:24:28.738 [notice] Request to start reading on an edgeconn blocked with XOFF
Jan 01 00:24:28.738 [notice] Request to start reading on an edgeconn blocked with XOFF
Jan 01 00:24:28.738 [notice] Request to start reading on an edgeconn blocked with XOFF
Jan 01 00:24:45.604 [warn] Got XOFF!
Jan 01 00:26:15.320 [notice] Request to start reading on an edgeconn blocked with XOFF
Jan 01 00:26:15.320 [notice] Request to start reading on an edgeconn blocked with XOFF
Jan 01 00:26:15.320 [notice] Request to start reading on an edgeconn blocked with XOFF
Jan 01 00:26:15.379 [notice] Request to start reading on an edgeconn blocked with XOFF
Jan 01 00:26:15.379 [notice] Request to start reading on an edgeconn blocked with XOFF
Jan 01 00:26:15.379 [notice] Request to start reading on an edgeconn blocked with XOFF
Jan 01 00:26:15.439 [notice] Request to start reading on an edgeconn blocked with XOFF
Jan 01 00:26:15.439 [notice] Request to start reading on an edgeconn blocked with XOFF
Jan 01 00:26:15.439 [notice] Request to start reading on an edgeconn blocked with XOFF
Jan 01 00:26:15.449 [notice] Request to start reading on an edgeconn blocked with XOFF
Jan 01 00:26:15.449 [notice] Request to start reading on an edgeconn blocked with XOFF
Jan 01 00:26:15.449 [notice] Request to start reading on an edgeconn blocked with XOFF
Jan 01 00:26:35.620 [notice] Request to start reading on an edgeconn blocked with XOFF
Jan 01 00:26:35.620 [notice] Request to start reading on an edgeconn blocked with XOFF
Jan 01 00:26:35.620 [notice] Request to start reading on an edgeconn blocked with XOFF
Jan 01 00:26:37.129 [warn] Got XOFF!
Jan 01 00:26:58.032 [notice] Request to start reading on an edgeconn blocked with XOFF
Jan 01 00:26:58.032 [notice] Request to start reading on an edgeconn blocked with XOFF
Jan 01 00:27:59.557 [warn] Got XOFF!
Jan 01 00:28:24.584 [warn] Got XOFF!
Jan 01 00:29:38.016 [warn] Got XOFF!
Jan 01 00:29:45.277 [warn] Got XOFF!
Jan 01 00:30:14.946 [warn] Got XOFF!
Jan 01 00:30:19.506 [warn] Got XOFF!
Jan 01 00:30:47.273 [warn] Got XOFF!
Jan 01 00:23:09.013 [warn] Got XOFF!
Jan 01 00:25:43.628 [warn] Got XOFF!
Jan 01 00:26:41.527 [warn] Got XOFF!
Jan 01 00:27:56.276 [warn] Got XOFF!
Jan 01 00:28:04.124 [warn] Got XOFF!
Jan 01 00:29:46.106 [warn] Got XOFF!
Jan 01 00:26:10.508 [warn] Got XOFF!
Jan 01 00:29:04.881 [warn] Got XOFF!
Jan 01 00:30:03.289 [warn] Got XOFF!
Jan 01 00:27:44.314 [warn] Got XOFF!
Jan 01 00:29:16.857 [warn] Got XOFF!
Jan 01 00:29:48.010 [warn] Got XOFF!
Jan 01 00:23:59.614 [warn] Got XOFF!
Jan 01 00:26:34.633 [warn] Got XOFF!
Jan 01 00:26:55.086 [warn] Got XOFF!
Jan 01 00:30:58.421 [warn] Got XOFF!
Jan 01 00:25:31.082 [warn] Got XOFF!
Jan 01 00:25:51.942 [warn] Got XOFF!
Jan 01 00:27:32.315 [warn] Got XOFF!
Jan 01 00:28:42.903 [warn] Got XOFF!
Jan 01 00:29:52.591 [notice] Request to start reading on an edgeconn blocked with XOFF
Jan 01 00:29:52.675 [notice] Request to start reading on an edgeconn blocked with XOFF
Jan 01 00:29:52.685 [notice] Request to start reading on an edgeconn blocked with XOFF
Jan 01 00:29:52.754 [notice] Request to start reading on an edgeconn blocked with XOFF
Jan 01 00:29:52.764 [notice] Request to start reading on an edgeconn blocked with XOFF
Jan 01 00:29:52.774 [notice] Request to start reading on an edgeconn blocked with XOFF
Jan 01 00:29:52.784 [notice] Request to start reading on an edgeconn blocked with XOFF
Jan 01 00:28:09.209 [warn] Got XOFF!
Jan 01 00:27:37.718 [warn] Got XOFF!
Jan 01 00:27:42.409 [warn] Got XOFF!
Jan 01 00:30:52.824 [warn] Got XOFF!
Jan 01 00:30:54.030 [warn] Got XOFF!
Jan 01 00:26:21.281 [warn] Got XOFF!
Jan 01 00:27:43.888 [warn] Got XOFF!
Jan 01 00:27:52.224 [warn] Got XOFF!
Jan 01 00:28:22.071 [warn] Got XOFF!
Jan 01 00:28:31.106 [warn] Got XOFF!
Jan 01 00:29:00.720 [warn] Got XOFF!
Jan 01 00:29:37.929 [warn] Got XOFF!
Jan 01 00:30:40.956 [warn] Got XOFF!
Jan 01 00:26:16.114 [warn] Got XOFF!
Jan 01 00:26:39.868 [warn] Got XOFF!
Jan 01 00:27:54.573 [warn] Got XOFF!
Jan 01 00:28:49.478 [warn] Got XOFF!
Jan 01 00:29:09.630 [warn] Got XOFF!
Jan 01 00:30:34.675 [warn] Got XOFF!
Jan 01 00:30:45.882 [warn] Got XOFF!
Jan 01 00:26:43.439 [warn] Got XOFF!
Jan 01 00:29:58.370 [warn] Got XOFF!
Jan 01 00:20:36.815 [warn] Got XOFF!
Jan 01 00:25:28.931 [warn] Got XOFF!
Jan 01 00:29:45.090 [warn] Got XOFF!
Jan 01 00:25:37.961 [warn] Got XOFF!
Jan 01 00:26:20.075 [warn] Got XOFF!
Jan 01 00:27:24.030 [warn] Got XOFF!
Jan 01 00:29:47.867 [warn] Got XOFF!
Jan 01 00:19:11.430 [warn] Got XOFF!
Jan 01 00:27:01.925 [warn] Got XOFF!
Jan 01 00:28:06.385 [warn] Got XOFF!
Jan 01 00:30:41.546 [warn] Got XOFF!
Jan 01 00:22:19.196 [warn] Got XOFF!
Jan 01 00:25:28.112 [warn] Got XOFF!
Jan 01 00:25:44.294 [warn] Got XOFF!
Jan 01 00:24:31.260 [warn] Got XOFF!
Jan 01 00:25:30.242 [warn] Got XOFF!
Jan 01 00:28:13.654 [warn] Got XOFF!
Jan 01 00:30:04.459 [warn] Got XOFF!
Jan 01 00:30:44.703 [warn] Got XOFF!
Jan 01 00:30:58.421 [warn] Got XOFF!
Jan 01 00:27:23.053 [warn] Got XOFF!
Jan 01 00:28:07.306 [warn] Got XOFF!
Jan 01 00:21:28.768 [warn] Got XOFF!
Jan 01 00:21:51.527 [warn] Got XOFF!
Jan 01 00:22:09.281 [notice] Request to start reading on an edgeconn blocked with XOFF
Jan 01 00:22:09.281 [notice] Request to start reading on an edgeconn blocked with XOFF
Jan 01 00:23:12.665 [warn] Got XOFF!
Jan 01 00:20:44.019 [warn] Got XOFF!
Jan 01 00:25:50.968 [warn] Got XOFF!
Jan 01 00:28:34.005 [warn] Got XOFF!
Jan 01 00:29:38.172 [warn] Got XOFF!
Jan 01 00:27:26.176 [warn] Got XOFF!
Jan 01 00:29:25.502 [warn] Got XOFF!
Jan 01 00:23:46.888 [warn] Got XOFF!
Jan 01 00:23:52.001 [notice] Request to start reading on an edgeconn blocked with XOFF
Jan 01 00:23:52.060 [notice] Request to start reading on an edgeconn blocked with XOFF
Jan 01 00:23:52.070 [notice] Request to start reading on an edgeconn blocked with XOFF
Jan 01 00:23:52.117 [notice] Request to start reading on an edgeconn blocked with XOFF
Jan 01 00:23:52.127 [notice] Request to start reading on an edgeconn blocked with XOFF
Jan 01 00:23:52.137 [notice] Request to start reading on an edgeconn blocked with XOFF
Jan 01 00:23:52.147 [notice] Request to start reading on an edgeconn blocked with XOFF
Jan 01 00:25:18.268 [notice] Request to start reading on an edgeconn blocked with XOFF
Jan 01 00:25:57.114 [notice] Request to start reading on an edgeconn blocked with XOFF
Jan 01 00:27:22.249 [notice] Request to start reading on an edgeconn blocked with XOFF
Jan 01 00:27:22.259 [notice] Request to start reading on an edgeconn blocked with XOFF
Jan 01 00:27:22.269 [notice] Request to start reading on an edgeconn blocked with XOFF
Jan 01 00:27:22.279 [notice] Request to start reading on an edgeconn blocked with XOFF
Jan 01 00:27:22.882 [notice] Request to start reading on an edgeconn blocked with XOFF
Jan 01 00:27:22.892 [notice] Request to start reading on an edgeconn blocked with XOFF
Jan 01 00:27:22.901 [notice] Request to start reading on an edgeconn blocked with XOFF
Jan 01 00:27:22.911 [notice] Request to start reading on an edgeconn blocked with XOFF
Jan 01 00:30:49.178 [warn] Got XOFF!
Jan 01 00:28:28.546 [warn] Got XOFF!
Jan 01 00:30:28.353 [warn] Got XOFF!
Jan 01 00:30:53.134 [warn] Got XOFF!
Jan 01 00:30:36.176 [warn] Got XOFF!
Jan 01 00:25:12.760 [warn] Got XOFF!
Jan 01 00:17:16.506 [warn] Got XOFF!
Jan 01 00:17:25.948 [notice] Request to start reading on an edgeconn blocked with XOFF
Jan 01 00:17:26.222 [notice] Request to start reading on an edgeconn blocked with XOFF
Jan 01 00:28:17.416 [warn] Got XOFF!
Jan 01 00:29:45.018 [warn] Got XOFF!
Jan 01 00:30:28.461 [warn] Got XOFF!
Jan 01 00:30:26.808 [warn] Got XOFF!
Jan 01 00:30:43.546 [warn] Got XOFF!
Jan 01 00:19:03.938 [warn] Got XOFF!
Jan 01 00:19:13.253 [notice] Request to start reading on an edgeconn blocked with XOFF
Jan 01 00:19:13.262 [notice] Request to start reading on an edgeconn blocked with XOFF
Jan 01 00:19:13.272 [notice] Request to start reading on an edgeconn blocked with XOFF
Jan 01 00:19:13.282 [notice] Request to start reading on an edgeconn blocked with XOFF
Jan 01 00:19:13.292 [notice] Request to start reading on an edgeconn blocked with XOFF
Jan 01 00:27:02.503 [warn] Got XOFF!
Jan 01 00:30:20.847 [warn] Got XOFF!
Jan 01 00:29:59.306 [warn] Got XOFF!
Jan 01 00:24:32.703 [warn] Got XOFF!
Jan 01 00:28:10.637 [warn] Got XOFF!
Jan 01 00:24:58.758 [warn] Got XOFF!
Jan 01 00:26:13.803 [warn] Got XOFF!
Jan 01 00:27:42.000 [warn] Got XOFF!
Jan 01 00:28:27.722 [warn] Got XOFF!
Jan 01 00:29:27.389 [warn] Got XOFF!
Jan 01 00:30:46.404 [warn] Got XOFF!
Jan 01 00:23:13.448 [warn] Got XOFF!
Jan 01 00:29:16.925 [warn] Got XOFF!
Jan 01 00:29:56.238 [warn] Got XOFF!
Jan 01 00:30:01.996 [warn] Got XOFF!
Jan 01 00:29:11.548 [warn] Got XOFF!
Jan 01 00:30:49.274 [warn] Got XOFF!
Jan 01 00:26:38.544 [warn] Got XOFF!
Jan 01 00:24:44.154 [warn] Got XOFF!
Jan 01 00:27:58.335 [warn] Got XOFF!
Jan 01 00:28:18.608 [notice] Request to start reading on an edgeconn blocked with XOFF
Jan 01 00:28:18.617 [notice] Request to start reading on an edgeconn blocked with XOFF
Jan 01 00:28:18.628 [notice] Request to start reading on an edgeconn blocked with XOFF
Jan 01 00:28:18.637 [notice] Request to start reading on an edgeconn blocked with XOFF
Jan 01 00:28:18.647 [notice] Request to start reading on an edgeconn blocked with XOFF
Jan 01 00:28:18.658 [notice] Request to start reading on an edgeconn blocked with XOFF
Jan 01 00:28:43.306 [warn] Got XOFF!
Jan 01 00:29:11.269 [notice] Request to start reading on an edgeconn blocked with XOFF
Jan 01 00:29:11.446 [notice] Request to start reading on an edgeconn blocked with XOFF
Jan 01 00:29:11.624 [notice] Request to start reading on an edgeconn blocked with XOFF
Jan 01 00:29:11.634 [notice] Request to start reading on an edgeconn blocked with XOFF
Jan 01 00:29:12.328 [notice] Request to start reading on an edgeconn blocked with XOFF
Jan 01 00:29:12.338 [notice] Request to start reading on an edgeconn blocked with XOFF
Jan 01 00:29:47.507 [warn] Got XOFF!
Jan 01 00:28:03.626 [warn] Got XOFF!
Jan 01 00:30:37.346 [warn] Got XOFF!
Jan 01 00:16:13.211 [warn] Got XOFF!
Jan 01 00:16:13.671 [notice] Request to start reading on an edgeconn blocked with XOFF
Jan 01 00:16:13.681 [notice] Request to start reading on an edgeconn blocked with XOFF
Jan 01 00:16:13.691 [notice] Request to start reading on an edgeconn blocked with XOFF
Jan 01 00:16:16.024 [notice] Request to start reading on an edgeconn blocked with XOFF
Jan 01 00:16:16.458 [notice] Request to start reading on an edgeconn blocked with XOFF
