{
  "1048576": [
    0.549,
    0.725,
    0.794,
    0.509,
    0.62246,
    0.462,
    0.477,
    0.264,
    0.413,
    0.363,
    0.66,
    0.766,
    0.45,
    0.657,
    0.5,
    0.519,
    0.429394,
    0.401714,
    0.572,
    0.724,
    0.604,
    0.957,
    0.586,
    0.28,
    0.41,
    0.558,
    0.353,
    0.448,
    0.792,
    0.732,
    0.878,
    0.575,
    0.573,
    0.605,
    0.912,
    0.585,
    0.723532,
    0.624,
    0.814,
    0.502,
    0.486,
    0.727,
    0.96,
    0.776,
    0.489,
    1.041,
    0.68,
    0.375,
    0.44,
    0.65,
    0.662,
    0.677,
    0.633905,
    0.701,
    0.629,
    0.763,
    0.696,
    0.499,
    0.845881,
    0.294071,
    0.64,
    0.835,
    0.581,
    0.89,
    0.829,
    1.045,
    0.536,
    0.893,
    0.700802,
    0.648,
    0.645,
    0.295,
    0.643,
    0.225,
    0.802,
    0.592,
    0.505,
    0.633,
    0.494,
    0.647,
    0.815,
    0.724,
    0.355,
    0.6,
    0.667,
    0.524,
    0.306,
    0.873,
    0.519,
    0.597,
    0.539,
    0.524,
    0.739,
    0.615,
    0.54,
    0.856,
    0.487,
    0.534,
    0.754,
    0.575,
    0.541513,
    0.419,
    0.612,
    0.462,
    0.351,
    0.389,
    0.777,
    0.711,
    0.906,
    0.494,
    0.471,
    0.676,
    1.103607,
    0.505928,
    0.746,
    0.579,
    0.428,
    0.345,
    0.789,
    0.749,
    0.278,
    0.51,
    0.612,
    0.644,
    0.294,
    0.307,
    0.484,
    0.459,
    0.477,
    0.493,
    0.443,
    0.313,
    0.537185,
    0.996,
    0.714,
    1.015,
    0.63,
    0.267,
    0.899,
    0.535,
    0.36,
    1.047,
    0.66,
    0.761,
    0.708,
    0.982,
    0.546,
    0.652,
    0.97,
    0.518,
    0.557,
    0.502,
    0.555,
    0.737
  ],
  "51200": [
    0.566,
    0.861,
    0.577,
    0.614,
    0.596,
    0.519,
    0.525,
    0.854,
    0.521,
    0.528,
    0.526,
    0.682,
    1.084,
    0.736527,
    0.786,
    0.707,
    0.524,
    0.631,
    0.733,
    0.828,
    0.478,
    0.809,
    0.932,
    0.615,
    0.796,
    0.778,
    1.107,
    0.464,
    0.844,
    0.698,
    0.652,
    1.083,
    0.639,
    0.735,
    0.545,
    0.812,
    0.959,
    0.378,
    0.605,
    0.45,
    0.436,
    0.846,
    0.557,
    0.544,
    0.28,
    0.503,
    0.296,
    0.312,
    0.598,
    0.331,
    0.358,
    0.263,
    0.715,
    0.432,
    0.859,
    0.773,
    0.469,
    0.673,
    0.433,
    0.341,
    0.367,
    0.345,
    0.337,
    0.406,
    0.478,
    0.796,
    0.615,
    0.931,
    0.553,
    1.018,
    0.634,
    0.734,
    0.475,
    0.55,
    0.469,
    0.508,
    0.496,
    0.556,
    0.479,
    0.465,
    1.053,
    0.439965,
    0.491594,
    0.693,
    0.613,
    0.577,
    0.697592,
    0.525,
    0.511869,
    0.746,
    0.773,
    0.634,
    0.752,
    0.864,
    0.649024,
    0.985,
    0.657,
    0.923,
    0.724,
    0.619,
    0.688,
    0.854,
    0.926,
    0.591,
    0.552,
    0.714,
    0.814,
    0.7,
    0.527,
    0.451,
    0.817,
    0.85,
    0.528,
    0.538,
    0.543714,
    0.36,
    0.4,
    0.408,
    0.666,
    0.680796,
    0.638,
    0.737,
    0.306,
    0.271,
    0.418,
    0.842103,
    0.6,
    0.626,
    0.696,
    1.149,
    0.469,
    0.75,
    0.71,
    0.638,
    0.676,
    0.538,
    0.657,
    0.759,
    0.931,
    0.564912,
    0.72,
    0.641,
    0.799,
    1.026,
    0.987,
    0.702,
    0.601,
    0.625524,
    0.472,
    0.614,
    12.875811,
    0.568,
    0.34034,
    0.490075,
    0.579,
    0.31519,
    0.588,
    0.7,
    0.505,
    0.457,
    0.262834,
    0.431,
    0.288,
    0.228074,
    0.477,
    0.331,
    0.444,
    0.578,
    0.406,
    1.039,
    0.387,
    0.548,
    0.556,
    0.36,
    0.557,
    0.329,
    0.308,
    0.4,
    0.616,
    0.648,
    0.615,
    0.72,
    0.904,
    0.538,
    0.801,
    0.543,
    0.659,
    0.559,
    0.565,
    0.342,
    0.392,
    0.366,
    0.654,
    0.761,
    0.59,
    0.532,
    0.57,
    0.266,
    0.302,
    0.434,
    0.3,
    0.369,
    0.3,
    0.337,
    0.893,
    0.747,
    1.105,
    0.899,
    0.659,
    1.665,
    0.715,
    0.614,
    0.846,
    0.614,
    0.908,
    0.535,
    0.527,
    0.515,
    0.704,
    0.583,
    0.499841,
    0.535,
    0.498,
    0.787,
    0.577,
    0.752,
    0.546,
    0.538,
    0.647,
    0.983,
    0.482,
    0.613,
    1.219,
    0.684,
    0.505,
    0.828,
    0.669,
    0.482,
    0.684,
    0.502,
    0.522,
    0.626,
    1.927,
    0.739,
    0.703,
    1.053,
    0.531,
    0.806,
    0.582,
    0.499,
    0.751,
    0.518,
    0.607,
    1.323,
    0.56,
    0.95,
    0.742,
    0.903,
    1.531,
    0.991,
    0.614,
    0.708,
    0.69,
    0.535,
    0.643,
    0.522,
    0.548,
    0.439,
    0.683,
    0.528,
    0.492,
    0.411,
    0.697,
    0.777,
    0.879,
    0.43,
    0.625,
    0.588,
    0.464,
    0.759,
    0.498,
    0.362393,
    0.596,
    0.481,
    0.506,
    0.817,
    0.309,
    0.545,
    0.426,
    0.404,
    0.348,
    0.391,
    0.655103,
    0.261,
    0.336,
    0.3,
    1.621,
    0.668,
    0.773,
    1.312,
    0.784,
    0.889,
    0.712,
    0.586,
    0.601,
    0.609,
    0.556,
    0.658,
    0.768,
    0.333731,
    0.241,
    0.586,
    0.422,
    0.734,
    0.573,
    0.474,
    0.618,
    0.527,
    0.656,
    0.967,
    0.785,
    0.592,
    0.91975,
    0.418592,
    0.681408,
    0.499744,
    0.699148,
    0.429,
    0.479,
    1.208155,
    0.557124,
    0.552,
    1.068,
    0.714656,
    1.146897,
    1.073,
    0.728,
    0.75,
    0.867,
    0.659,
    0.488,
    0.864,
    0.572,
    0.689,
    0.500514,
    0.909996,
    0.718,
    0.612757,
    0.903,
    0.474,
    0.683695,
    0.901,
    0.783168,
    0.674,
    0.546,
    0.521351,
    0.527,
    0.598851,
    0.4,
    0.400669,
    0.883,
    0.319851,
    0.528344,
    0.47,
    0.479,
    0.269,
    0.408,
    0.477,
    0.338,
    0.642076,
    0.963,
    0.664,
    0.518,
    0.683,
    0.775,
    0.764,
    0.85,
    0.536,
    0.564,
    0.605,
    0.83,
    0.387,
    0.6,
    0.531,
    0.912,
    0.492,
    0.728,
    0.667,
    0.48,
    0.461,
    0.895,
    0.484,
    0.538,
    0.479,
    0.531,
    0.793,
    0.711,
    0.532,
    0.703,
    0.883,
    0.645,
    0.574,
    0.648,
    0.606,
    0.487,
    0.512,
    0.527,
    0.574,
    0.497,
    0.748753,
    0.808382,
    0.498124,
    0.658354,
    0.599381,
    0.589363,
    0.535973,
    0.422517,
    0.51,
    0.516332,
    0.652,
    0.67,
    0.968,
    0.506,
    0.764,
    0.59197,
    0.812,
    0.55,
    0.598124,
    0.744271,
    0.637,
    0.484,
    0.945,
    0.599,
    0.538,
    0.697,
    0.911,
    0.998,
    0.898,
    0.716,
    0.72,
    0.915,
    0.566,
    0.53,
    0.989,
    0.658,
    0.604,
    0.555,
    0.586,
    0.285,
    0.825484,
    0.366,
    0.467,
    0.73,
    0.236,
    0.437,
    0.537,
    0.478,
    0.295,
    0.334,
    0.273,
    0.272,
    0.354,
    0.651,
    0.464,
    1.057145,
    0.485,
    0.836,
    0.496,
    0.649,
    0.351,
    0.455,
    0.338,
    0.503,
    0.53,
    0.576,
    0.593,
    0.889,
    0.714,
    0.712,
    0.649,
    0.491845,
    0.922,
    0.753,
    0.49,
    0.467,
    0.509,
    0.409,
    0.576,
    0.859,
    0.314,
    0.755,
    0.709,
    0.301,
    0.474,
    0.47,
    0.561,
    0.641,
    0.864,
    0.772,
    0.565,
    1.158,
    0.763,
    0.685,
    0.665,
    0.527,
    0.711,
    0.733,
    0.499,
    0.535,
    0.495,
    0.279,
    0.555,
    0.52,
    0.738,
    1.963,
    0.498,
    0.322,
    0.48,
    0.641,
    0.323,
    0.521,
    0.679,
    0.383,
    0.475,
    0.399,
    0.701,
    0.691,
    0.573,
    0.773,
    0.413,
    0.302,
    0.283,
    0.305,
    0.454,
    0.530299,
    0.772,
    0.599,
    0.9,
    0.454,
    0.702,
    0.738,
    0.784,
    0.74,
    0.754,
    0.498,
    0.525,
    0.582,
    0.601,
    0.636,
    0.51142,
    0.682,
    0.742075,
    0.550343,
    0.796506,
    0.423,
    0.864,
    0.564,
    0.583459,
    0.528,
    0.864,
    0.684,
    0.458,
    0.879,
    0.729,
    0.685,
    0.53,
    0.607,
    0.537,
    0.428,
    0.616,
    0.762,
    0.626,
    0.474,
    0.565,
    0.669,
    0.488,
    0.614,
    0.792,
    1.157,
    0.625,
    1.163,
    1.017,
    0.581,
    0.538,
    0.5,
    0.849,
    0.598,
    0.688,
    0.857,
    0.658,
    1.089,
    0.968,
    0.593,
    0.747,
    0.5,
    0.626,
    0.372,
    0.525,
    0.34,
    0.575,
    6.643129,
    0.525,
    0.602,
    0.391,
    1.815,
    0.298,
    0.372,
    0.519,
    0.596,
    0.74,
    1.092,
    0.827,
    0.794,
    0.709,
    0.726,
    1.049,
    0.636,
    0.574,
    0.846,
    0.733,
    0.224818,
    0.513,
    0.54,
    0.85,
    0.238,
    0.532,
    0.655,
    0.219,
    0.428,
    0.335,
    0.596,
    0.296,
    0.442,
    0.438,
    0.43,
    0.737,
    0.635,
    0.713,
    0.587,
    0.333,
    1.029,
    1.209,
    0.869,
    0.927,
    0.585,
    0.612,
    0.896,
    0.738,
    0.706,
    0.773,
    0.576,
    0.598,
    0.676,
    0.799,
    0.813,
    0.526,
    0.525,
    0.508,
    0.579,
    0.53,
    0.899,
    0.493,
    0.543,
    1.178,
    0.527,
    0.69,
    0.467,
    0.543,
    0.294,
    0.332,
    0.398,
    0.384,
    0.707,
    0.246,
    0.541,
    0.42,
    0.234,
    0.571,
    0.44,
    0.532,
    0.385,
    0.285,
    0.339,
    0.553692,
    0.549601,
    0.727923,
    0.9,
    0.611589,
    0.768455,
    0.642,
    0.651,
    0.574,
    0.623876,
    0.896511,
    0.541,
    0.998,
    0.663,
    0.735,
    0.639516,
    1.011,
    0.713,
    0.725,
    0.622,
    0.708,
    0.581,
    0.592,
    0.561,
    0.693,
    0.535,
    1.014,
    0.499,
    0.829,
    0.678,
    0.613,
    0.41,
    0.634,
    0.617,
    0.452,
    0.508,
    0.381,
    0.7,
    0.526,
    0.495,
    0.309,
    0.464,
    0.383,
    0.855,
    0.718,
    0.385,
    0.296,
    0.545,
    0.804,
    0.986,
    0.426,
    0.483,
    0.429,
    0.249,
    0.412,
    0.306,
    0.284951,
    0.491,
    0.769,
    0.627,
    1.195,
    0.752,
    0.822,
    0.582,
    1.0,
    0.562,
    0.763,
    0.541,
    0.859,
    0.547,
    0.607,
    0.698,
    0.271,
    0.477,
    0.408,
    0.621,
    0.646,
    0.394,
    0.329,
    0.358,
    0.32,
    0.628,
    0.329,
    0.497,
    0.199223,
    0.437,
    0.319,
    0.714,
    0.376,
    0.529,
    0.417,
    0.294,
    0.326,
    0.431,
    0.26,
    0.581,
    0.609,
    0.632,
    0.550199,
    1.089,
    0.738,
    0.645959,
    0.689097,
    0.579,
    0.623885,
    0.516154,
    0.678299,
    1.144246,
    0.513373,
    0.429,
    0.701,
    0.689,
    0.584,
    0.986,
    0.58,
    0.664,
    1.408,
    0.764,
    0.858,
    0.881,
    0.542,
    0.617,
    0.906,
    0.617,
    0.98,
    0.459,
    0.79,
    0.994,
    0.927,
    0.944,
    7.312,
    0.777,
    0.881,
    0.559,
    0.506,
    0.635,
    0.646,
    1.143,
    0.55,
    1.517,
    0.616,
    0.528,
    0.799,
    0.593,
    0.997,
    0.724,
    0.701,
    0.639929,
    0.771,
    0.737,
    0.543,
    0.562,
    0.55,
    0.656,
    0.329,
    0.515,
    0.578,
    0.738,
    0.288,
    0.608,
    0.419,
    0.318604,
    0.302,
    0.499,
    0.328,
    0.495,
    0.344,
    0.621,
    0.578,
    0.509,
    0.827,
    0.754,
    1.193,
    0.719,
    0.811,
    0.533,
    0.557,
    0.788,
    0.821,
    1.639,
    0.56,
    0.574,
    0.41,
    0.398,
    0.496,
    1.009,
    0.361,
    0.476,
    0.741,
    0.519,
    0.434,
    0.341,
    0.625,
    0.533,
    0.705,
    0.581,
    1.733784,
    0.545,
    0.645,
    0.739,
    0.64,
    0.851,
    0.564,
    0.525,
    0.538,
    0.52,
    0.669,
    0.655,
    0.443,
    0.41,
    0.893,
    0.317,
    0.848,
    0.622,
    0.539,
    0.492,
    0.309,
    0.489,
    0.222,
    0.338,
    0.618,
    0.459,
    0.895,
    0.762,
    1.166,
    0.586,
    0.921,
    0.704,
    0.875,
    0.61,
    0.529,
    0.681,
    0.607,
    0.86,
    0.626,
    0.68,
    1.262,
    0.681,
    0.659,
    0.825,
    0.873,
    1.028,
    0.656,
    0.672,
    0.93,
    0.607,
    0.607,
    2.127,
    0.533,
    0.401,
    0.904,
    0.938,
    0.454,
    0.726,
    0.712,
    0.916,
    0.589,
    0.497,
    0.49,
    0.506,
    0.525,
    0.446,
    0.711,
    0.568,
    0.966,
    0.848,
    0.521,
    0.523,
    0.485,
    0.769,
    0.861,
    0.543,
    1.309,
    0.846,
    0.612,
    0.982,
    0.902,
    0.48,
    0.726,
    0.617,
    0.762,
    0.483,
    0.762,
    0.87,
    0.669,
    0.694,
    0.527,
    1.022,
    0.825,
    0.614,
    0.645,
    0.516,
    0.514,
    0.624,
    0.645,
    0.458,
    0.774,
    0.605,
    0.455,
    0.647,
    0.638,
    1.0,
    0.72,
    0.853,
    0.63,
    0.784,
    0.828,
    0.872,
    0.573,
    0.593,
    0.7,
    0.60294,
    0.903,
    0.666,
    0.73,
    0.866,
    0.699233,
    0.475,
    0.537,
    0.51,
    0.498,
    0.822
  ],
  "5242880": [
    1.086,
    0.688,
    0.493,
    0.912,
    0.757,
    1.075,
    1.11,
    0.703,
    0.74017,
    0.464,
    0.759,
    0.87,
    0.518,
    0.371,
    0.755,
    1.115,
    0.699,
    0.847,
    0.703,
    0.858,
    0.551,
    0.332,
    0.679,
    0.494,
    0.652,
    0.895,
    0.638,
    0.709,
    0.567,
    0.623,
    0.729,
    0.718,
    0.849,
    0.827717,
    0.457,
    0.592,
    0.365,
    0.310897,
    0.307,
    0.732,
    0.407,
    0.731,
    0.505,
    0.558,
    0.6,
    0.64,
    0.709,
    0.52,
    0.628
  ],
  "ALL": [
    0.566,
    0.861,
    0.577,
    0.614,
    0.596,
    0.519,
    0.525,
    0.854,
    0.521,
    0.528,
    0.526,
    0.549,
    0.725,
    1.086,
    0.688,
    0.682,
    1.084,
    0.736527,
    0.786,
    0.707,
    0.524,
    0.631,
    0.733,
    0.828,
    0.478,
    0.809,
    0.794,
    0.509,
    0.62246,
    0.462,
    0.477,
    0.932,
    0.615,
    0.796,
    0.778,
    1.107,
    0.464,
    0.844,
    0.698,
    0.652,
    1.083,
    0.639,
    0.735,
    0.545,
    0.812,
    0.959,
    0.378,
    0.605,
    0.45,
    0.436,
    0.846,
    0.557,
    0.544,
    0.28,
    0.503,
    0.296,
    0.312,
    0.598,
    0.331,
    0.264,
    0.413,
    0.358,
    0.263,
    0.715,
    0.432,
    0.859,
    0.773,
    0.469,
    0.673,
    0.433,
    0.341,
    0.367,
    0.345,
    0.337,
    0.406,
    0.363,
    0.493,
    0.478,
    0.796,
    0.615,
    0.931,
    0.553,
    1.018,
    0.634,
    0.734,
    0.475,
    0.55,
    0.469,
    0.508,
    0.66,
    0.766,
    0.45,
    0.496,
    0.556,
    0.479,
    0.465,
    1.053,
    0.439965,
    0.491594,
    0.693,
    0.613,
    0.577,
    0.697592,
    0.525,
    0.511869,
    0.912,
    0.746,
    0.773,
    0.634,
    0.752,
    0.864,
    0.649024,
    0.985,
    0.657,
    0.923,
    0.724,
    0.619,
    0.688,
    0.657,
    0.757,
    1.075,
    0.854,
    0.926,
    0.591,
    0.552,
    0.714,
    0.814,
    0.7,
    0.527,
    0.451,
    0.817,
    0.85,
    0.528,
    0.538,
    0.5,
    0.519,
    1.11,
    0.543714,
    0.36,
    0.4,
    0.408,
    0.666,
    0.680796,
    0.638,
    0.737,
    0.306,
    0.271,
    0.418,
    0.842103,
    0.429394,
    0.401714,
    0.572,
    0.703,
    0.6,
    0.626,
    0.696,
    1.149,
    0.469,
    0.75,
    0.71,
    0.638,
    0.676,
    0.538,
    0.657,
    0.759,
    0.931,
    0.724,
    0.564912,
    0.72,
    0.641,
    0.799,
    1.026,
    0.987,
    0.702,
    0.601,
    0.625524,
    0.472,
    0.614,
    12.875811,
    0.568,
    0.604,
    0.957,
    0.586,
    0.34034,
    0.490075,
    0.579,
    0.31519,
    0.588,
    0.7,
    0.505,
    0.457,
    0.262834,
    0.431,
    0.288,
    0.228074,
    0.477,
    0.28,
    0.41,
    0.74017,
    0.331,
    0.444,
    0.578,
    0.406,
    1.039,
    0.387,
    0.548,
    0.556,
    0.36,
    0.557,
    0.329,
    0.308,
    0.4,
    0.558,
    0.353,
    0.448,
    0.616,
    0.648,
    0.615,
    0.72,
    0.904,
    0.538,
    0.801,
    0.543,
    0.659,
    0.559,
    0.565,
    0.792,
    0.732,
    0.878,
    0.575,
    0.342,
    0.392,
    0.366,
    0.654,
    0.761,
    0.59,
    0.532,
    0.57,
    0.266,
    0.302,
    0.434,
    0.3,
    0.369,
    0.3,
    0.337,
    0.464,
    0.893,
    0.747,
    1.105,
    0.899,
    0.659,
    1.665,
    0.715,
    0.614,
    0.846,
    0.614,
    0.908,
    0.535,
    0.573,
    0.605,
    0.527,
    0.515,
    0.704,
    0.583,
    0.499841,
    0.535,
    0.498,
    0.787,
    0.577,
    0.752,
    0.912,
    0.585,
    0.723532,
    0.624,
    0.759,
    0.546,
    0.538,
    0.647,
    0.983,
    0.482,
    0.613,
    1.219,
    0.684,
    0.505,
    0.828,
    0.669,
    0.482,
    0.684,
    0.502,
    0.522,
    0.626,
    1.927,
    0.739,
    0.703,
    1.053,
    0.531,
    0.806,
    0.582,
    0.499,
    0.751,
    0.518,
    0.607,
    1.323,
    0.814,
    0.502,
    0.56,
    0.95,
    0.742,
    0.903,
    1.531,
    0.991,
    0.614,
    0.708,
    0.69,
    0.535,
    0.643,
    0.522,
    0.548,
    0.486,
    0.727,
    0.96,
    0.439,
    0.683,
    0.528,
    0.492,
    0.411,
    0.697,
    0.777,
    0.879,
    0.43,
    0.625,
    0.588,
    0.464,
    0.759,
    0.498,
    0.776,
    0.87,
    0.362393,
    0.596,
    0.481,
    0.506,
    0.817,
    0.309,
    0.545,
    0.426,
    0.404,
    0.348,
    0.391,
    0.655103,
    0.261,
    0.336,
    0.3,
    0.489,
    1.621,
    0.668,
    0.773,
    1.312,
    0.784,
    0.889,
    0.712,
    0.586,
    0.601,
    0.609,
    0.556,
    0.658,
    0.768,
    1.041,
    0.68,
    0.333731,
    0.241,
    0.586,
    0.422,
    0.734,
    0.573,
    0.474,
    0.618,
    0.527,
    0.656,
    0.375,
    0.44,
    0.65,
    0.662,
    0.518,
    0.371,
    0.967,
    0.785,
    0.592,
    0.91975,
    0.418592,
    0.681408,
    0.499744,
    0.699148,
    0.429,
    0.479,
    1.208155,
    0.557124,
    0.677,
    0.552,
    1.068,
    0.714656,
    1.146897,
    1.073,
    0.728,
    0.75,
    0.867,
    0.659,
    0.488,
    0.864,
    0.572,
    0.689,
    0.633905,
    0.701,
    0.629,
    0.500514,
    0.909996,
    0.718,
    0.612757,
    0.903,
    0.474,
    0.683695,
    0.901,
    0.783168,
    0.674,
    0.546,
    0.521351,
    0.527,
    0.763,
    0.696,
    0.499,
    0.598851,
    0.4,
    0.400669,
    0.883,
    0.319851,
    0.528344,
    0.47,
    0.479,
    0.269,
    0.408,
    0.477,
    0.338,
    0.642076,
    0.845881,
    0.294071,
    0.64,
    0.963,
    0.664,
    0.518,
    0.683,
    0.775,
    0.764,
    0.85,
    0.536,
    0.564,
    0.605,
    0.835,
    0.581,
    0.89,
    0.755,
    1.115,
    0.83,
    0.387,
    0.6,
    0.531,
    0.912,
    0.492,
    0.728,
    0.667,
    0.48,
    0.461,
    0.895,
    0.484,
    0.538,
    0.479,
    0.531,
    0.829,
    0.793,
    0.711,
    0.532,
    0.703,
    0.883,
    0.645,
    0.574,
    0.648,
    0.606,
    0.487,
    0.512,
    0.527,
    1.045,
    0.536,
    0.699,
    0.574,
    0.497,
    0.748753,
    0.808382,
    0.498124,
    0.658354,
    0.599381,
    0.589363,
    0.535973,
    0.422517,
    0.51,
    0.516332,
    0.893,
    0.847,
    0.652,
    0.67,
    0.968,
    0.506,
    0.764,
    0.59197,
    0.812,
    0.55,
    0.598124,
    0.744271,
    0.637,
    0.484,
    0.945,
    0.599,
    0.700802,
    0.648,
    0.538,
    0.697,
    0.911,
    0.998,
    0.898,
    0.716,
    0.72,
    0.915,
    0.566,
    0.53,
    0.989,
    0.658,
    0.604,
    0.555,
    0.586,
    0.645,
    0.285,
    0.825484,
    0.366,
    0.467,
    0.73,
    0.236,
    0.437,
    0.537,
    0.478,
    0.295,
    0.334,
    0.273,
    0.272,
    0.295,
    0.643,
    0.225,
    0.354,
    0.651,
    0.464,
    1.057145,
    0.485,
    0.836,
    0.496,
    0.649,
    0.351,
    0.455,
    0.338,
    0.503,
    0.53,
    0.703,
    0.858,
    0.576,
    0.593,
    0.889,
    0.714,
    0.712,
    0.649,
    0.491845,
    0.922,
    0.753,
    0.49,
    0.467,
    0.509,
    0.802,
    0.592,
    0.505,
    0.409,
    0.576,
    0.859,
    0.314,
    0.755,
    0.709,
    0.301,
    0.474,
    0.47,
    0.561,
    0.641,
    0.633,
    0.494,
    0.551,
    0.332,
    0.864,
    0.772,
    0.565,
    1.158,
    0.763,
    0.685,
    0.665,
    0.527,
    0.711,
    0.733,
    0.499,
    0.535,
    0.495,
    0.647,
    0.815,
    0.724,
    0.279,
    0.555,
    0.52,
    0.738,
    1.963,
    0.498,
    0.322,
    0.48,
    0.641,
    0.323,
    0.521,
    0.355,
    0.6,
    0.667,
    0.679,
    0.679,
    0.383,
    0.475,
    0.399,
    0.701,
    0.691,
    0.573,
    0.773,
    0.413,
    0.302,
    0.283,
    0.305,
    0.454,
    0.524,
    0.306,
    0.494,
    0.530299,
    0.772,
    0.599,
    0.9,
    0.454,
    0.702,
    0.738,
    0.784,
    0.74,
    0.754,
    0.498,
    0.873,
    0.519,
    0.652,
    0.525,
    0.582,
    0.601,
    0.636,
    0.51142,
    0.682,
    0.742075,
    0.550343,
    0.796506,
    0.423,
    0.864,
    0.564,
    0.583459,
    0.597,
    0.895,
    0.638,
    0.528,
    0.864,
    0.684,
    0.458,
    0.879,
    0.729,
    0.685,
    0.53,
    0.607,
    0.537,
    0.428,
    0.616,
    0.762,
    0.626,
    0.474,
    0.565,
    0.669,
    0.488,
    0.614,
    0.792,
    1.157,
    0.625,
    1.163,
    1.017,
    0.581,
    0.538,
    0.5,
    0.849,
    0.539,
    0.524,
    0.739,
    0.598,
    0.688,
    0.857,
    0.658,
    1.089,
    0.968,
    0.593,
    0.747,
    0.5,
    0.626,
    0.615,
    0.54,
    0.856,
    0.487,
    0.709,
    0.372,
    0.525,
    0.34,
    0.575,
    6.643129,
    0.525,
    0.602,
    0.391,
    1.815,
    0.298,
    0.372,
    0.519,
    0.534,
    0.754,
    0.567,
    0.623,
    0.596,
    0.74,
    1.092,
    0.827,
    0.794,
    0.709,
    0.726,
    1.049,
    0.636,
    0.574,
    0.846,
    0.575,
    0.729,
    0.733,
    0.224818,
    0.513,
    0.54,
    0.85,
    0.238,
    0.532,
    0.655,
    0.219,
    0.428,
    0.335,
    0.596,
    0.296,
    0.541513,
    0.419,
    0.612,
    0.442,
    0.438,
    0.43,
    0.737,
    0.635,
    0.713,
    0.587,
    0.333,
    1.029,
    1.209,
    0.869,
    0.927,
    0.462,
    0.351,
    0.389,
    0.585,
    0.612,
    0.896,
    0.738,
    0.706,
    0.773,
    0.576,
    0.598,
    0.676,
    0.799,
    0.813,
    0.526,
    0.777,
    0.711,
    0.906,
    0.525,
    0.508,
    0.579,
    0.53,
    0.899,
    0.493,
    0.543,
    1.178,
    0.527,
    0.69,
    0.467,
    0.543,
    0.494,
    0.471,
    0.718,
    0.294,
    0.332,
    0.398,
    0.384,
    0.707,
    0.246,
    0.541,
    0.42,
    0.234,
    0.571,
    0.44,
    0.532,
    0.385,
    0.285,
    0.339,
    0.676,
    0.553692,
    0.549601,
    0.727923,
    0.9,
    0.611589,
    0.768455,
    0.642,
    0.651,
    0.574,
    0.623876,
    0.896511,
    0.541,
    1.103607,
    0.505928,
    0.849,
    0.827717,
    0.998,
    0.663,
    0.735,
    0.639516,
    1.011,
    0.713,
    0.725,
    0.622,
    0.708,
    0.581,
    0.592,
    0.561,
    0.746,
    0.579,
    0.693,
    0.535,
    1.014,
    0.499,
    0.829,
    0.678,
    0.613,
    0.41,
    0.634,
    0.617,
    0.452,
    0.428,
    0.345,
    0.789,
    0.749,
    0.457,
    0.508,
    0.381,
    0.7,
    0.526,
    0.495,
    0.309,
    0.464,
    0.383,
    0.855,
    0.718,
    0.385,
    0.296,
    0.278,
    0.51,
    0.592,
    0.365,
    0.545,
    0.804,
    0.986,
    0.426,
    0.483,
    0.429,
    0.249,
    0.412,
    0.306,
    0.284951,
    0.612,
    0.644,
    0.294,
    0.307,
    0.310897,
    0.307,
    0.491,
    0.769,
    0.627,
    1.195,
    0.752,
    0.822,
    0.582,
    1.0,
    0.562,
    0.763,
    0.541,
    0.859,
    0.547,
    0.607,
    0.484,
    0.698,
    0.271,
    0.477,
    0.408,
    0.621,
    0.646,
    0.394,
    0.329,
    0.358,
    0.32,
    0.628,
    0.329,
    0.459,
    0.477,
    0.493,
    0.732,
    0.497,
    0.199223,
    0.437,
    0.319,
    0.714,
    0.376,
    0.529,
    0.417,
    0.294,
    0.326,
    0.431,
    0.26,
    0.581,
    0.609,
    0.443,
    0.313,
    0.632,
    0.550199,
    1.089,
    0.738,
    0.645959,
    0.689097,
    0.579,
    0.623885,
    0.516154,
    0.678299,
    1.144246,
    0.513373,
    0.429,
    0.537185,
    0.407,
    0.701,
    0.689,
    0.584,
    0.986,
    0.58,
    0.664,
    1.408,
    0.764,
    0.858,
    0.881,
    0.542,
    0.617,
    0.906,
    0.617,
    0.996,
    0.98,
    0.459,
    0.79,
    0.994,
    0.927,
    0.944,
    7.312,
    0.777,
    0.881,
    0.559,
    0.506,
    0.635,
    0.646,
    1.143,
    0.55,
    1.517,
    0.616,
    0.528,
    0.799,
    0.593,
    0.997,
    0.724,
    0.701,
    0.639929,
    0.771,
    0.737,
    0.543,
    0.562,
    0.55,
    0.714,
    0.731,
    0.656,
    0.329,
    0.515,
    0.578,
    0.738,
    0.288,
    0.608,
    0.419,
    0.318604,
    0.302,
    0.499,
    0.328,
    0.495,
    0.344,
    0.621,
    1.015,
    0.578,
    0.509,
    0.827,
    0.754,
    1.193,
    0.719,
    0.811,
    0.533,
    0.557,
    0.788,
    0.821,
    1.639,
    0.56,
    0.574,
    0.41,
    0.398,
    0.496,
    1.009,
    0.361,
    0.476,
    0.741,
    0.519,
    0.434,
    0.341,
    0.63,
    0.267,
    0.505,
    0.558,
    0.6,
    0.64,
    0.625,
    0.533,
    0.705,
    0.581,
    1.733784,
    0.545,
    0.645,
    0.739,
    0.64,
    0.851,
    0.564,
    0.525,
    0.538,
    0.52,
    0.899,
    0.669,
    0.655,
    0.443,
    0.41,
    0.893,
    0.317,
    0.848,
    0.622,
    0.539,
    0.492,
    0.309,
    0.489,
    0.222,
    0.338,
    0.535,
    0.36,
    0.618,
    0.459,
    0.895,
    0.762,
    1.166,
    0.586,
    0.921,
    0.704,
    0.875,
    0.61,
    0.529,
    0.681,
    0.607,
    0.86,
    0.626,
    0.68,
    1.262,
    0.681,
    0.659,
    0.825,
    0.873,
    1.028,
    0.656,
    0.672,
    0.93,
    0.607,
    0.607,
    2.127,
    1.047,
    0.66,
    0.533,
    0.401,
    0.904,
    0.938,
    0.454,
    0.726,
    0.712,
    0.916,
    0.589,
    0.497,
    0.49,
    0.506,
    0.761,
    0.708,
    0.709,
    0.525,
    0.446,
    0.711,
    0.568,
    0.966,
    0.848,
    0.521,
    0.523,
    0.485,
    0.982,
    0.546,
    0.652,
    0.97,
    0.518,
    0.52,
    0.769,
    0.861,
    0.543,
    1.309,
    0.846,
    0.612,
    0.982,
    0.902,
    0.48,
    0.726,
    0.617,
    0.762,
    0.483,
    0.762,
    0.628,
    0.87,
    0.669,
    0.694,
    0.527,
    1.022,
    0.825,
    0.614,
    0.645,
    0.516,
    0.514,
    0.624,
    0.645,
    0.458,
    0.774,
    0.557,
    0.502,
    0.605,
    0.455,
    0.647,
    0.638,
    1.0,
    0.72,
    0.853,
    0.63,
    0.784,
    0.828,
    0.872,
    0.555,
    0.737,
    0.573,
    0.593,
    0.7,
    0.60294,
    0.903,
    0.666,
    0.73,
    0.866,
    0.699233,
    0.475,
    0.537,
    0.51,
    0.498,
    0.822
  ]
}