[
  0.945,
  1.023,
  1.17185,
  0.982,
  1.034,
  1.975,
  1.387,
  1.051,
  1.265,
  1.699,
  1.781,
  1.051,
  0.957,
  1.055,
  0.955,
  1.234,
  1.022,
  1.122,
  1.03,
  1.339506,
  1.031,
  0.95,
  1.173,
  2.005,
  0.957506,
  1.408,
  1.08,
  1.026506,
  0.267,
  1.007,
  1.154,
  0.965,
  1.036506,
  1.974,
  1.109,
  1.006,
  1.034,
  1.154506,
  1.179,
  1.144,
  1.048506,
  0.991,
  0.942,
  1.094506,
  1.006,
  0.993,
  0.994,
  1.064,
  1.037,
  0.918506,
  1.28,
  0.961506,
  1.09,
  1.331,
  1.69,
  1.034506,
  0.998812,
  1.098,
  1.051,
  0.986,
  1.082,
  1.159,
  0.97275,
  1.331066,
  1.103,
  1.137713,
  1.366,
  1.041,
  1.075,
  1.545,
  1.065599,
  1.075,
  1.205,
  0.992,
  1.142,
  1.261713,
  1.295,
  0.991,
  1.521525,
  1.289,
  1.296,
  1.131,
  1.319926,
  0.997713,
  0.943,
  1.536818,
  1.246182,
  1.029713,
  1.347,
  1.250244,
  0.975,
  1.337713,
  1.009,
  1.069,
  0.981,
  1.015,
  1.115713,
  1.218897,
  1.308867,
  1.145713,
  1.085,
  0.986,
  1.303,
  1.124713,
  1.179858,
  1.185,
  0.993,
  1.313,
  1.015713,
  1.038,
  1.005,
  1.044187,
  1.084768,
  1.068,
  1.055713,
  1.027,
  1.145,
  1.177,
  1.101,
  0.932,
  0.962146,
  1.26,
  0.958,
  1.070352,
  0.995,
  0.991858,
  1.024,
  0.952393,
  0.923,
  0.851897,
  0.93379,
  1.057,
  1.186,
  1.053492,
  0.986578,
  1.053,
  0.96,
  0.969578,
  1.032,
  1.025,
  1.027,
  1.03773,
  1.323578,
  1.285,
  1.534953,
  1.104,
  0.863578,
  0.997,
  0.988,
  0.959,
  0.865578,
  1.016695,
  0.894,
  1.137,
  1.407,
  0.924578,
  1.026,
  1.204,
  0.934578,
  0.941,
  1.041897,
  0.266,
  1.009,
  1.001578,
  1.261,
  1.217,
  0.926,
  0.914,
  1.085578,
  0.927084,
  0.905,
  1.141037,
  0.916,
  1.251889,
  0.968487,
  1.093,
  0.906,
  0.942,
  1.024,
  0.339903,
  0.356869,
  0.398,
  0.514903,
  0.61,
  0.282,
  0.354,
  0.508,
  0.384,
  0.46,
  0.373,
  0.365,
  0.335,
  0.403,
  0.507,
  0.268903,
  0.665,
  0.525,
  0.384,
  0.331903,
  0.374,
  0.373,
  0.407,
  0.520903,
  0.449,
  0.35592,
  0.762903,
  0.358164,
  0.370514,
  0.392,
  0.664,
  0.852903,
  0.56,
  0.304809,
  0.364,
  0.379903,
  0.428789,
  0.4,
  0.422,
  0.414903,
  0.983,
  0.506,
  0.501,
  0.456,
  0.450903,
  0.293,
  1.073,
  0.331903,
  0.421735,
  0.376514,
  0.401903,
  0.440514,
  0.343,
  0.705,
  0.499,
  0.539,
  0.309421,
  0.364,
  0.448,
  0.484264,
  0.203957,
  0.468111,
  0.504744,
  0.426,
  0.581,
  0.486008,
  0.538036,
  0.542,
  0.670933,
  0.606,
  0.462,
  0.451,
  0.671,
  0.451111,
  0.468848,
  0.458,
  0.449,
  0.710111,
  0.688,
  0.74,
  0.501,
  0.475111,
  0.200848,
  0.541889,
  0.607,
  0.566417,
  0.541111,
  0.435992,
  0.482008,
  0.722,
  0.746111,
  0.447008,
  0.677983,
  0.767111,
  0.776,
  2.026866,
  0.4835,
  0.542111,
  0.418371,
  0.535889,
  0.514,
  0.475,
  0.552111,
  0.426,
  0.424,
  0.653111,
  0.537008,
  0.467897,
  0.565,
  0.665111,
  0.518889,
  0.760008,
  0.668895,
  0.474105,
  0.471846,
  0.796,
  0.496,
  1.517513,
  1.28081,
  1.212932,
  1.223339,
  1.665935,
  1.779872,
  1.146617,
  1.208899,
  1.140431,
  1.488888,
  1.352319,
  1.313,
  1.185836,
  1.422022,
  1.780312,
  1.303222,
  1.293972,
  1.251751,
  1.44184,
  1.163453,
  1.161547,
  1.239584,
  1.323,
  1.370015,
  1.216936,
  1.400148,
  1.189128,
  3.460102,
  1.134856,
  1.875982,
  1.204935,
  1.190194,
  1.207812,
  1.239985,
  1.34252,
  1.259123,
  1.155935,
  1.292681,
  1.512931,
  1.373844,
  1.161091,
  1.238903,
  1.219713,
  1.292807,
  1.18,
  2.587,
  1.156223,
  1.081602,
  1.385935,
  1.178,
  1.173,
  1.358935,
  2.073476,
  1.194811,
  1.737838,
  1.153466,
  1.255759,
  1.320193,
  1.234162,
  0.473996,
  0.428,
  0.607111,
  0.441363,
  0.476,
  0.621,
  0.421,
  0.691,
  0.477,
  0.493,
  0.559,
  0.624,
  0.511,
  0.486,
  0.503111,
  0.697889,
  0.443,
  0.457,
  0.449111,
  0.471,
  0.464,
  1.068,
  0.566111,
  0.929,
  0.48,
  0.784,
  0.910111,
  0.691,
  0.495,
  0.468,
  0.465111,
  0.397,
  0.201326,
  0.418,
  0.514111,
  0.402,
  0.393,
  0.457,
  0.490111,
  0.452,
  0.478,
  0.44,
  0.454,
  0.385111,
  0.388,
  0.419,
  0.488111,
  0.473,
  0.374,
  0.447,
  0.475111,
  0.758,
  0.412,
  0.555,
  0.453,
  0.635,
  0.492,
  0.934,
  0.95,
  0.998,
  1.02789,
  0.940192,
  1.084627,
  0.943,
  0.909,
  0.957,
  0.949,
  1.130568,
  1.672056,
  1.033,
  1.108081,
  1.03,
  1.327192,
  1.003876,
  1.155192,
  1.055,
  0.972,
  0.962,
  3.096167,
  0.983,
  0.266,
  1.410192,
  0.995353,
  1.079,
  0.976192,
  1.198,
  0.945,
  0.954192,
  0.951332,
  0.965668,
  0.994,
  0.89,
  0.943,
  1.200192,
  0.955452,
  0.971301,
  0.261429,
  0.960192,
  0.957548,
  1.192,
  1.068192,
  1.036,
  0.999,
  0.928,
  0.946,
  0.911,
  1.007192,
  1.226,
  1.254,
  0.996192,
  0.997889,
  1.122672,
  1.121136,
  0.999889,
  1.655,
  1.144,
  1.104,
  0.264,
  1.037,
  1.005148,
  0.967,
  1.331784,
  1.092664,
  1.1,
  1.033,
  1.108,
  1.056,
  0.977,
  41.889,
  1.033404,
  1.082,
  1.351,
  1.6,
  1.015775,
  1.291786,
  1.029214,
  1.167775,
  1.165276,
  1.025,
  1.059,
  1.09308,
  1.112775,
  1.031351,
  1.162397,
  1.181603,
  1.011775,
  1.431,
  1.003628,
  1.115775,
  1.313781,
  1.151,
  1.004181,
  1.15394,
  1.009775,
  1.022,
  1.126,
  1.023905,
  1.367,
  1.088097,
  1.177487,
  1.469,
  1.320775,
  1.023,
  1.053,
  1.080268,
  1.063036,
  1.072775,
  1.089691,
  1.017,
  1.059775,
  1.008628,
  0.975,
  1.117392,
  1.146775,
  0.206416,
  1.165027,
  1.079,
  1.143,
  1.281,
  0.653,
  0.405,
  0.755111,
  0.728,
  0.391,
  0.443,
  0.412,
  0.398,
  0.34,
  0.469,
  0.406,
  0.529,
  0.457,
  0.474111,
  0.48,
  0.564,
  0.951,
  0.547111,
  0.391,
  0.591,
  0.368,
  0.389,
  0.689,
  1.029,
  0.364,
  0.469111,
  0.515661,
  0.351,
  0.447,
  0.419111,
  0.986,
  0.354,
  0.912,
  0.09,
  0.931,
  0.372,
  0.392,
  0.541,
  0.527889,
  0.447571,
  0.415,
  1.589,
  0.414111,
  0.386,
  0.579,
  0.386111,
  0.39746,
  0.405,
  0.537,
  0.571,
  0.453111,
  0.415,
  0.522,
  0.426,
  0.655,
  0.357,
  0.732,
  0.083,
  1.151,
  1.137,
  1.064,
  1.193,
  1.207352,
  1.029,
  1.567,
  1.266,
  1.091,
  1.744,
  1.128897,
  1.058,
  1.351,
  1.303,
  1.091,
  1.080352,
  1.255,
  1.115,
  2.280352,
  1.151,
  1.045,
  1.124,
  1.451,
  1.250352,
  1.38914,
  1.461,
  1.087,
  1.350352,
  1.066,
  1.382,
  1.123,
  1.097352,
  1.157,
  1.105,
  1.64,
  1.898,
  1.136352,
  1.103,
  1.127,
  1.283352,
  1.365,
  1.091,
  1.572,
  3.588352,
  1.186,
  1.12,
  1.199,
  1.099,
  1.150352,
  0.295,
  1.04,
  1.128,
  1.368352,
  1.537,
  1.308,
  1.193352,
  1.083,
  1.11,
  1.12,
  1.314,
  1.252,
  1.139889,
  1.18219,
  1.141,
  1.245531,
  1.128989,
  1.14,
  1.164,
  1.113111,
  1.115222,
  1.113255,
  1.112889,
  1.144,
  1.1,
  1.10219,
  1.156531,
  1.273,
  1.139699,
  1.181531,
  1.512,
  1.16,
  1.156045,
  1.181,
  1.108531,
  1.158889,
  1.119502,
  1.108531,
  1.165,
  1.169,
  1.391,
  1.279531,
  1.098,
  1.139,
  1.158,
  1.4,
  0.31392,
  1.123,
  1.402778,
  1.376,
  1.285531,
  1.260903,
  1.103,
  1.179,
  1.123531,
  1.186,
  1.171,
  1.197763,
  1.407,
  1.384531,
  1.271153,
  1.141,
  1.407531,
  1.217408,
  1.184,
  1.123531,
  1.152,
  1.158,
  1.461,
  2.041,
  0.487,
  1.675,
  0.574111,
  0.072,
  0.451,
  0.606,
  0.451,
  0.523,
  0.424,
  1.498,
  0.489,
  1.579,
  0.431257,
  1.20392,
  0.374111,
  1.540111,
  0.502889,
  1.546,
  0.556,
  0.636111,
  0.544,
  0.445,
  0.419,
  0.456111,
  0.533,
  0.129955,
  0.427,
  0.446111,
  0.443,
  0.475,
  0.459,
  0.469,
  1.512111,
  1.371408,
  0.434,
  0.439111,
  0.625,
  0.699656,
  0.449,
  0.625111,
  0.829,
  0.072,
  0.39212,
  0.464,
  0.502111,
  0.556,
  0.437889,
  1.618111,
  0.572,
  1.477,
  0.860408,
  0.481111,
  0.73,
  0.482,
  1.520352,
  0.442,
  0.428352,
  0.502,
  0.2151,
  0.495,
  1.109,
  0.199197,
  0.369,
  0.463,
  0.401,
  0.473,
  0.401,
  0.452,
  0.528,
  0.41,
  0.507,
  0.473,
  0.459,
  0.467,
  0.709111,
  0.406889,
  0.453,
  0.742,
  0.467111,
  0.427,
  1.285,
  0.497,
  0.409111,
  0.405,
  0.50792,
  0.431,
  0.589111,
  0.578,
  0.481,
  1.464,
  0.464111,
  0.569,
  0.499,
  0.438111,
  0.302173,
  1.146,
  0.403,
  0.593,
  0.598111,
  0.432,
  0.487,
  0.522,
  0.626,
  0.676111,
  0.607,
  0.737,
  0.480111,
  0.814,
  0.498,
  0.536065,
  0.708111,
  0.458,
  1.162634,
  0.573,
  0.448,
  0.514,
  0.510362,
  0.087,
  0.986,
  1.33239,
  1.011,
  1.093,
  1.042,
  1.025267,
  1.085,
  0.972,
  1.15,
  1.031,
  1.149,
  0.939,
  1.039,
  1.005,
  1.024,
  0.981,
  1.097267,
  0.949,
  1.669205,
  0.953,
  0.970267,
  1.036,
  0.984,
  1.13,
  1.051,
  1.038267,
  1.374,
  3.871,
  1.062267,
  1.306347,
  1.09,
  1.732,
  0.994267,
  1.149,
  1.077,
  1.042,
  1.006,
  1.005267,
  1.191,
  1.131,
  1.106267,
  1.048,
  1.067,
  1.019,
  1.167267,
  1.248,
  0.991,
  1.039,
  1.328,
  1.046267,
  1.019,
  1.226,
  6.676267,
  0.97,
  11.106,
  0.938267,
  0.270546,
  1.053,
  0.928,
  1.128,
  0.966,
  0.599,
  0.450815,
  0.528731,
  0.467,
  0.74,
  0.72078,
  0.419031,
  0.437,
  0.47992,
  0.457,
  0.435112,
  0.665,
  0.544472,
  0.404648,
  0.492253,
  0.541285,
  0.356559,
  0.459847,
  0.499222,
  0.40747,
  0.445,
  0.358,
  0.428365,
  0.553889,
  0.071481,
  0.529751,
  0.849,
  0.45192,
  0.421982,
  0.440125,
  0.436764,
  0.548111,
  0.465,
  0.515408,
  0.476111,
  0.449,
  0.368,
  0.415111,
  0.640408,
  0.513825,
  0.230992,
  0.421011,
  0.412989,
  0.432639,
  0.440609,
  0.751659,
  0.524978,
  0.587111,
  0.565,
  0.337,
  0.476111,
  0.451,
  0.462,
  0.376786,
  0.392333,
  0.610362,
  0.410408,
  1.049,
  1.253253,
  0.954747,
  1.021,
  1.615235,
  0.914165,
  1.142,
  1.000975,
  0.966,
  1.099,
  1.061,
  2.101,
  0.988,
  0.938,
  1.087,
  0.921165,
  0.958,
  0.983,
  0.937,
  0.965165,
  1.021,
  1.422,
  1.018302,
  1.004165,
  1.126257,
  0.989746,
  0.999165,
  1.214,
  1.015,
  1.768,
  0.89,
  1.208165,
  1.138,
  0.93,
  1.039,
  0.966165,
  1.39561,
  1.122,
  1.098975,
  1.000165,
  0.995,
  1.469,
  0.954165,
  0.981,
  1.299,
  1.09,
  1.081,
  1.188,
  0.903165,
  1.007534,
  0.966743,
  0.920165,
  1.453659,
  0.991,
  0.995165,
  1.049952,
  1.06,
  0.274,
  1.122877,
  0.985,
  0.851,
  0.889,
  1.182,
  1.167,
  1.65,
  1.185,
  0.335,
  1.240685,
  1.243,
  1.234,
  1.245372,
  1.381103,
  1.725,
  1.316402,
  1.192661,
  1.340884,
  1.226561,
  1.272328,
  1.188685,
  1.262106,
  1.665685,
  1.204656,
  1.221954,
  1.166207,
  1.382,
  1.432561,
  1.261644,
  1.22,
  2.193206,
  1.188685,
  3.308,
  1.153496,
  1.317685,
  1.273,
  1.284,
  1.270492,
  1.355515,
  1.582,
  1.257685,
  1.183671,
  1.293329,
  1.32,
  1.235685,
  1.412,
  1.356,
  1.583196,
  1.293547,
  1.208905,
  1.446103,
  1.212253,
  1.955747,
  1.200685,
  1.212,
  1.345204,
  1.492685,
  1.178876,
  1.414564,
  1.319796,
  1.2,
  1.274,
  1.229,
  1.333,
  0.987,
  0.940696,
  1.356411,
  1.023,
  0.889,
  0.972754,
  0.934,
  0.982,
  1.162,
  1.021,
  1.014147,
  0.99,
  0.917,
  0.961,
  1.09,
  0.935,
  0.962754,
  0.989311,
  1.260144,
  1.228754,
  1.097,
  1.085,
  0.993,
  0.911,
  1.232754,
  0.933,
  0.980318,
  1.05885,
  0.917754,
  0.939,
  0.958381,
  1.109754,
  0.98,
  0.955,
  0.963,
  0.995708,
  1.250754,
  1.159582,
  1.058639,
  0.981,
  1.051,
  1.052,
  0.986,
  0.971754,
  1.362411,
  1.859,
  0.961,
  0.92,
  1.177,
  1.047754,
  0.966,
  1.041,
  0.974754,
  1.281,
  1.232159,
  1.235451,
  0.948,
  0.962,
  0.911,
  1.017,
  1.004,
  1.087,
  1.386412,
  1.357,
  1.342,
  1.23,
  1.400338,
  1.261674,
  1.262428,
  1.235,
  1.803,
  1.500156,
  1.298598,
  1.220792,
  1.274714,
  1.235231,
  1.385,
  0.306348,
  1.286769,
  1.366579,
  1.248876,
  1.298338,
  1.303353,
  1.448,
  1.22,
  1.28822,
  1.259607,
  1.4,
  1.28,
  1.359338,
  1.248,
  1.400353,
  1.412777,
  1.182338,
  1.309,
  1.281,
  1.313,
  1.306,
  1.317338,
  1.306,
  1.415278,
  1.296338,
  1.32,
  1.186231,
  1.360224,
  1.370401,
  1.2627,
  1.338,
  1.354072,
  1.214543,
  1.295338,
  1.264231,
  1.16,
  1.190161,
  1.095338,
  1.251011,
  1.460994,
  1.418338,
  1.261,
  1.1,
  1.479,
  1.367419,
  1.199,
  1.367,
  1.105,
  1.071,
  1.149254,
  1.129555,
  1.372,
  1.43,
  1.257,
  1.258,
  1.069716,
  1.704,
  1.077911,
  1.041,
  1.216473,
  1.189254,
  1.316,
  1.129385,
  1.240254,
  1.145,
  1.389,
  1.311,
  1.073,
  1.283598,
  1.147,
  1.301,
  1.095,
  1.265254,
  1.131,
  1.133,
  1.44,
  1.172254,
  1.177,
  1.235,
  1.139,
  1.187,
  1.113254,
  1.198,
  1.236687,
  1.310254,
  1.371,
  1.222,
  1.234198,
  1.203254,
  1.206,
  1.381,
  1.154,
  1.271,
  1.136254,
  1.202,
  1.110095,
  1.159254,
  0.33,
  1.469,
  2.001,
  1.192254,
  1.332,
  1.153097,
  1.283385,
  1.21,
  0.919845,
  0.988871,
  0.938,
  0.820008,
  1.025972,
  0.925047,
  0.886548,
  0.91189,
  1.04611,
  0.94,
  0.953388,
  0.892,
  0.928,
  1.101,
  0.933,
  1.002047,
  0.846,
  0.892244,
  0.18,
  0.886047,
  0.918174,
  0.933,
  0.951,
  0.857,
  0.885047,
  0.951,
  0.921,
  0.921047,
  0.939,
  1.037,
  0.862174,
  0.893047,
  0.941,
  0.941374,
  0.883626,
  1.754,
  1.032047,
  0.879,
  0.837095,
  0.892047,
  0.842,
  0.97,
  1.026,
  0.912039,
  0.97,
  1.244,
  0.697,
  0.979,
  1.425305,
  0.865047,
  0.874,
  0.971,
  0.883047,
  0.912,
  1.007,
  1.136047,
  0.905415,
  0.966,
  1.225,
  0.921,
  0.95,
  0.317,
  0.342,
  0.268,
  0.243103,
  0.314,
  0.343,
  0.334,
  1.354,
  0.583,
  0.439,
  0.325,
  0.418,
  0.311,
  0.251,
  0.639,
  0.415103,
  0.045,
  0.351,
  0.589,
  0.274103,
  0.644,
  0.336,
  0.443715,
  0.362103,
  0.63,
  0.32,
  0.347103,
  0.336,
  0.374,
  0.725,
  0.34,
  0.321103,
  0.625,
  0.327,
  0.348103,
  0.334,
  0.052,
  0.292,
  0.304103,
  0.281,
  0.336752,
  0.376,
  0.290932,
  1.477021,
  0.278103,
  0.289,
  0.316855,
  0.292103,
  0.424,
  0.277374,
  0.249103,
  0.392718,
  0.499879,
  0.752,
  0.448,
  0.35,
  0.276172,
  0.260367,
  1.938692,
  0.953028,
  1.298874,
  1.173479,
  1.046868,
  1.219154,
  1.087154,
  1.039154,
  1.101192,
  1.085889,
  1.381354,
  1.02065,
  1.74934,
  0.99495,
  0.994616,
  1.2918,
  1.000073,
  1.160913,
  1.03824,
  1.332199,
  1.28451,
  0.940319,
  1.065522,
  1.503868,
  1.026949,
  1.080423,
  0.955223,
  0.998,
  1.255234,
  1.042171,
  1.018199,
  1.047211,
  1.585847,
  1.272663,
  1.389466,
  1.146154,
  1.07791,
  1.173877,
  0.989804,
  0.995102,
  1.056,
  1.25246,
  1.127098,
  1.00824,
  0.995933,
  1.115906,
  1.024035,
  1.068173,
  1.820868,
  1.013,
  1.202923,
  1.23897,
  0.987126,
  1.438226,
  1.690567,
  1.126301,
  1.04713,
  1.027732,
  1.119356,
  0.268522,
  0.617,
  0.514,
  0.376111,
  0.499,
  1.962,
  0.456,
  0.426,
  0.614881,
  0.542751,
  0.514,
  0.450667,
  0.44592,
  0.674,
  2.204,
  0.568111,
  0.907,
  0.754,
  0.447,
  0.469111,
  0.522,
  0.461,
  0.476,
  0.734111,
  0.476,
  0.773,
  0.435889,
  0.746111,
  0.474,
  0.681,
  0.502,
  0.072,
  0.487,
  0.622,
  0.63,
  0.695,
  0.567,
  0.491,
  0.668,
  0.470111,
  0.453762,
  0.469,
  0.468,
  0.453,
  0.715111,
  0.669,
  0.435,
  0.675111,
  0.45,
  0.547,
  0.657,
  0.635111,
  0.401,
  0.527889,
  0.516,
  0.643,
  0.667,
  0.442762,
  0.732,
  0.380599,
  0.166755,
  0.568903,
  0.498,
  0.845,
  0.467,
  0.365,
  0.403796,
  0.328097,
  0.43,
  0.318,
  0.439,
  0.346,
  0.444903,
  0.571,
  0.682,
  0.363,
  0.484,
  0.715903,
  0.359,
  1.606606,
  0.505,
  0.594903,
  0.26532,
  0.37,
  0.376511,
  0.444903,
  0.42,
  0.365287,
  1.195713,
  0.365,
  0.654903,
  0.561,
  0.435829,
  0.18615,
  0.269,
  0.365491,
  0.685,
  0.601,
  0.650903,
  0.385,
  0.372,
  0.406,
  0.389,
  0.437903,
  0.399252,
  0.37131,
  0.361903,
  0.414022,
  0.749796,
  0.435224,
  0.390883,
  0.365,
  0.372,
  0.464,
  0.79,
  0.363,
  1.121,
  1.058889,
  1.014085,
  1.306,
  1.046343,
  0.981438,
  1.156,
  1.055,
  1.130452,
  0.990185,
  1.037051,
  1.032,
  0.95842,
  0.987046,
  0.942,
  1.159343,
  1.747,
  1.015662,
  0.948343,
  1.001,
  2.071362,
  1.016,
  1.035,
  1.066343,
  1.08,
  1.042,
  1.157343,
  0.98,
  1.058,
  0.279,
  1.047,
  1.008343,
  1.569,
  1.166,
  1.723,
  0.959,
  1.133343,
  1.064,
  1.122922,
  0.973343,
  1.005,
  1.015853,
  1.414,
  1.058343,
  1.635,
  1.004,
  1.709,
  1.016,
  1.356343,
  0.959374,
  0.983,
  1.186343,
  1.039,
  1.072,
  1.372343,
  1.097,
  0.955093,
  1.081907,
  0.977,
  0.414,
  0.437881,
  0.436111,
  1.403,
  1.002,
  0.4,
  0.478,
  0.891,
  0.673,
  0.669,
  0.614982,
  0.82,
  0.441751,
  0.573,
  0.538111,
  0.413402,
  0.388,
  0.448,
  0.411111,
  1.871,
  0.468206,
  1.48607,
  0.453111,
  0.628,
  0.427,
  0.406,
  1.159111,
  0.48692,
  0.358,
  0.489,
  0.422111,
  0.452,
  1.968,
  0.371,
  0.751,
  0.444,
  0.456,
  0.512,
  0.443111,
  0.5,
  0.447,
  0.507,
  0.406,
  0.452111,
  0.67,
  0.453,
  0.449111,
  0.5,
  0.774,
  0.546788,
  2.763,
  0.45,
  0.385989,
  0.463,
  0.392,
  0.468,
  0.218992,
  0.559,
  0.958,
  0.485111,
  0.494,
  0.545,
  0.497,
  0.629,
  0.473,
  0.668621,
  0.658,
  0.500365,
  0.472,
  0.411,
  0.552,
  0.441111,
  0.461,
  0.422,
  0.106,
  0.525,
  0.455111,
  0.563,
  0.586,
  0.657,
  0.485,
  0.407111,
  0.41,
  0.584,
  0.485111,
  0.559,
  0.573,
  0.568,
  0.516111,
  0.88,
  0.891,
  0.678,
  0.565,
  0.923,
  0.371,
  0.372,
  0.601,
  1.320111,
  0.558,
  0.498,
  0.509,
  1.283111,
  0.868,
  0.478,
  0.526111,
  0.855,
  0.814,
  0.524,
  0.483,
  0.929111,
  0.5,
  0.552,
  0.472,
  0.515,
  0.403,
  0.162146,
  0.494,
  0.895,
  0.920654,
  0.877695,
  0.883695,
  0.904578,
  0.947695,
  1.01681,
  0.933,
  0.928,
  1.202,
  0.967414,
  1.052,
  0.899368,
  0.921,
  0.960553,
  1.236578,
  1.247935,
  0.959,
  1.020578,
  0.942,
  0.926,
  1.364,
  0.941,
  1.196108,
  1.172959,
  1.511684,
  1.530367,
  1.105578,
  1.044,
  0.937,
  0.911943,
  1.037578,
  0.939738,
  0.950262,
  1.145,
  0.966473,
  0.896578,
  1.059,
  1.245889,
  0.886578,
  0.932957,
  0.970652,
  1.250135,
  0.915573,
  0.940541,
  0.883,
  1.059602,
  0.863398,
  0.933578,
  0.935,
  0.980897,
  1.621993,
  0.85,
  1.037818,
  0.92518,
  0.974398,
  1.0026,
  1.033,
  0.943,
  1.631,
  1.135,
  1.172,
  1.11,
  1.123097,
  1.142463,
  1.10755,
  1.118,
  1.184,
  1.081,
  1.07,
  1.156876,
  1.191,
  1.032,
  1.248304,
  1.103352,
  1.02,
  1.796,
  1.110352,
  1.055,
  1.143,
  1.036,
  1.14393,
  1.044352,
  1.385836,
  1.200956,
  1.154903,
  1.629352,
  1.329,
  1.13,
  1.149897,
  1.317352,
  1.08,
  0.996,
  1.087,
  1.339,
  1.038352,
  1.372,
  1.09,
  1.022352,
  1.183,
  1.241,
  1.134,
  1.182352,
  1.12,
  1.054,
  1.11,
  1.099,
  1.053352,
  0.331,
  1.297,
  1.041,
  1.930352,
  1.10267,
  1.348,
  1.017575,
  0.991,
  1.105,
  1.038,
  1.106,
  2.10262,
  2.020211,
  0.980454,
  1.594249,
  1.941933,
  0.918148,
  2.221433,
  2.27609,
  0.712958,
  0.931247,
  2.084485,
  0.754491,
  2.032457,
  0.945954,
  0.910076,
  1.484923,
  2.053199,
  0.857516,
  1.061178,
  0.96844,
  1.969777,
  0.882805,
  0.89516,
  0.777692,
  0.903331,
  1.961753,
  1.993345,
  2.207437,
  1.077554,
  2.141166,
  1.236649,
  0.974,
  0.902745,
  0.916106,
  1.366702,
  1.982182,
  0.942899,
  1.014735,
  0.618264,
  1.953,
  0.90287,
  0.921895,
  0.863804,
  0.919832,
  2.130756,
  0.924779,
  2.111106,
  0.990182,
  0.903154,
  0.872097,
  0.877182,
  0.960849,
  0.968253,
  0.879285,
  1.300057,
  0.844237,
  0.893695,
  0.573498,
  0.308399,
  0.389103,
  0.371008,
  0.270992,
  0.52412,
  0.379111,
  0.329897,
  0.251099,
  0.592341,
  1.229897,
  0.686024,
  0.554,
  0.358889,
  0.265326,
  0.28188,
  0.286,
  12.28,
  0.295326,
  0.567636,
  0.26932,
  0.198103,
  0.336008,
  1.196326,
  0.698103,
  0.281263,
  0.306206,
  0.370876,
  0.910103,
  0.3548,
  0.302326,
  0.503101,
  0.342517,
  0.326208,
  0.633889,
  0.385599,
  1.307,
  0.506897,
  0.330214,
  0.372354,
  0.490646,
  0.292097,
  0.337792,
  0.301629,
  0.334897,
  0.2442,
  0.310103,
  0.325103,
  0.282103,
  0.647021,
  0.388897,
  0.040206,
  0.307889,
  1.179,
  0.334097,
  0.571918,
  0.356008,
  0.43,
  1.132792,
  1.131517,
  1.023046,
  1.32061,
  2.018946,
  1.13,
  1.073031,
  1.335834,
  1.09146,
  1.088619,
  1.027,
  1.031844,
  1.099473,
  1.147765,
  1.07661,
  1.223,
  1.11341,
  1.403374,
  1.006773,
  0.985605,
  1.13988,
  1.116564,
  1.027375,
  0.984407,
  1.33912,
  1.095503,
  1.155036,
  1.188922,
  0.96689,
  0.995825,
  1.395493,
  1.05934,
  1.054833,
  1.322562,
  1.047453,
  1.112929,
  1.005,
  1.240071,
  1.02761,
  1.061864,
  1.06142,
  2.215479,
  0.98761,
  0.990265,
  1.037309,
  1.000167,
  1.301203,
  1.056418,
  1.535775,
  1.135182,
  0.962778,
  1.08561,
  1.060889,
  0.97935,
  1.04261,
  0.280912,
  1.033264,
  1.074,
  1.060311,
  1.060456,
  1.136,
  1.071509,
  0.923,
  1.159159,
  1.011754,
  0.936114,
  0.943159,
  1.008,
  1.216,
  0.974,
  0.926692,
  0.888376,
  1.333,
  1.06,
  1.181,
  0.924754,
  0.949,
  1.346075,
  1.073925,
  1.134754,
  1.005751,
  1.035,
  1.178,
  0.944,
  0.972754,
  0.994,
  1.165296,
  0.996754,
  0.93,
  0.908,
  0.98,
  1.004754,
  0.956,
  0.958,
  1.947879,
  0.990135,
  0.934754,
  1.024,
  0.948,
  1.035754,
  0.944976,
  0.982135,
  1.038535,
  0.966754,
  1.023,
  1.013,
  1.201,
  2.531,
  1.355072,
  1.081121,
  1.049717,
  1.068,
  1.101754,
  1.002012,
  0.988,
  1.054754,
  1.054,
  0.946,
  1.035,
  1.011561,
  0.926,
  0.451236,
  0.481519,
  0.49607,
  0.429,
  0.367,
  0.49007,
  0.656647,
  0.363,
  0.296208,
  0.375306,
  0.365,
  0.810847,
  0.409967,
  0.409403,
  0.450945,
  0.366,
  0.369533,
  0.464403,
  0.353418,
  0.400765,
  0.880662,
  0.353403,
  0.353,
  0.404472,
  0.339019,
  0.363453,
  0.468403,
  0.390596,
  0.401,
  0.35,
  1.443403,
  0.425,
  0.839522,
  0.372403,
  0.404,
  0.330603,
  0.345513,
  0.830403,
  0.323,
  0.386,
  0.456,
  0.351,
  0.388403,
  0.35,
  0.472,
  0.336403,
  0.411,
  0.455036,
  0.470266,
  0.740403,
  0.392597,
  0.372829,
  0.372,
  0.325,
  0.81824,
  0.358558,
  0.34,
  0.345,
  0.330103,
  0.368,
  0.304,
  0.236,
  0.589,
  0.273,
  0.584,
  0.436,
  0.29,
  0.340822,
  0.402178,
  0.391,
  0.333103,
  0.381519,
  0.359296,
  0.341,
  0.325,
  0.400103,
  0.657,
  0.333,
  0.311,
  0.355103,
  0.328,
  0.242,
  0.695103,
  0.419,
  0.533,
  0.341,
  0.261252,
  0.272103,
  0.53111,
  0.747,
  0.318082,
  0.379184,
  0.292119,
  0.4,
  0.319103,
  0.61421,
  0.25879,
  0.287,
  0.322,
  0.316,
  0.332405,
  0.727,
  0.624355,
  0.606,
  0.513,
  0.314897,
  0.337103,
  0.294326,
  0.376,
  0.264,
  0.606,
  0.294,
  0.472381,
  0.414,
  0.4068,
  0.334103,
  0.384898,
  0.354,
  0.455,
  0.317,
  0.515,
  0.4,
  0.572,
  0.461,
  0.588,
  0.402,
  1.813,
  0.661103,
  1.334,
  0.547,
  0.402,
  1.310103,
  0.385,
  0.487,
  0.378,
  0.533103,
  0.297,
  0.326182,
  0.496,
  0.383103,
  0.469,
  0.865,
  0.571,
  0.359103,
  0.367,
  0.063,
  0.344,
  0.408103,
  0.325,
  0.385,
  0.286,
  0.443103,
  0.37,
  0.291,
  0.287,
  0.295,
  0.357103,
  0.587,
  0.333542,
  0.330103,
  0.43,
  0.367,
  0.794103,
  0.415,
  0.403,
  0.336763,
  0.489237,
  0.431,
  0.881,
  0.196824,
  0.545,
  0.293,
  0.05,
  0.314103,
  0.271,
  0.334,
  0.242304,
  0.326889,
  0.316,
  0.879528,
  0.407,
  0.302253,
  0.445244,
  0.428,
  0.404975,
  0.402103,
  0.247,
  0.329,
  0.325,
  0.284103,
  0.395,
  0.818314,
  0.369,
  0.261103,
  0.319,
  0.351,
  0.795,
  0.228103,
  0.296,
  0.271,
  0.304,
  0.051,
  0.257782,
  0.249,
  0.42,
  0.811103,
  0.229,
  0.3125,
  0.57,
  0.481103,
  0.351,
  0.359782,
  0.25,
  0.587,
  0.354103,
  0.403,
  0.267,
  0.369103,
  0.403,
  0.266756,
  0.455,
  0.340103,
  0.338,
  0.337,
  0.312,
  0.215,
  0.308,
  0.261,
  1.187022,
  0.961845,
  1.21317,
  1.789272,
  3.113841,
  1.201978,
  0.934093,
  1.313786,
  1.030839,
  1.923821,
  1.256508,
  0.892219,
  0.937598,
  1.092011,
  0.94481,
  0.942524,
  0.992093,
  0.24659,
  0.978462,
  0.933645,
  1.273293,
  1.14494,
  0.989391,
  1.060042,
  0.976253,
  1.127622,
  0.881192,
  0.908958,
  0.951787,
  1.166285,
  0.952132,
  1.047864,
  0.973085,
  1.152937,
  0.963762,
  1.226519,
  1.178257,
  0.959452,
  0.969957,
  2.221932,
  2.30034,
  1.170607,
  0.973446,
  0.964206,
  0.94185,
  1.396907,
  0.25559,
  1.104,
  0.943392,
  0.958058,
  1.027624,
  1.121872,
  1.867362,
  2.251998,
  0.973127,
  1.278281,
  1.586448,
  0.962814,
  0.931258,
  0.952743,
  0.442,
  0.586,
  0.483111,
  0.262112,
  0.446646,
  0.451,
  0.483,
  0.609989,
  0.949,
  0.439,
  0.669,
  0.423,
  0.668,
  0.42683,
  0.419111,
  0.485,
  0.699,
  0.785302,
  0.483698,
  0.752111,
  0.45,
  0.490422,
  0.632698,
  0.737111,
  0.442,
  0.729698,
  0.558111,
  0.575,
  0.448698,
  0.467,
  0.594111,
  0.761302,
  0.467,
  0.612,
  0.722698,
  0.496,
  0.629,
  0.467111,
  0.378698,
  0.473302,
  0.544698,
  0.610111,
  0.450509,
  0.075871,
  0.661455,
  0.482111,
  0.463698,
  1.315245,
  0.50383,
  0.496377,
  0.723698,
  0.86,
  0.521,
  0.617,
  0.427,
  0.414,
  0.546752,
  9.378,
  0.64,
  0.362777,
  0.375133,
  0.553,
  0.623,
  0.366,
  0.459,
  0.36,
  0.407,
  0.496,
  0.774753,
  0.573,
  1.161,
  0.721,
  0.493133,
  0.425,
  0.593,
  0.421,
  0.359363,
  0.356,
  0.406238,
  0.463,
  0.285753,
  0.514919,
  0.419133,
  0.471,
  0.498,
  0.325133,
  0.393,
  0.389,
  0.406,
  0.446133,
  0.357674,
  0.427586,
  0.385777,
  0.632637,
  0.355363,
  0.475,
  0.674,
  0.361133,
  0.342,
  0.408,
  0.398,
  0.059,
  0.286,
  0.348432,
  0.669363,
  0.361133,
  0.37,
  0.398246,
  0.379,
  0.846133,
  0.344363,
  0.302,
  1.311226,
  0.364,
  0.374,
  0.323,
  0.055,
  0.916,
  0.959,
  1.141,
  0.893,
  0.934356,
  0.956,
  0.94,
  0.964,
  0.932,
  0.952,
  1.493,
  0.966,
  0.946,
  1.034978,
  1.833,
  1.095356,
  1.926,
  0.929,
  1.184356,
  0.919,
  0.908,
  0.862,
  0.922,
  0.898356,
  0.975,
  0.249,
  1.043,
  0.947356,
  1.115,
  0.904,
  0.971,
  0.954356,
  1.038,
  1.132,
  0.959,
  0.921,
  0.897356,
  0.973,
  0.978796,
  0.947356,
  0.241,
  1.626,
  0.998,
  1.014,
  0.930356,
  0.895,
  0.962,
  0.893737,
  0.977356,
  48.044,
  0.941,
  0.981356,
  0.884,
  0.917162,
  1.049,
  0.980356,
  0.929,
  0.979,
  1.277,
  1.01,
  1.316853,
  1.106,
  1.343208,
  1.224,
  1.088275,
  1.100535,
  1.058689,
  1.086,
  1.133,
  1.109,
  1.212,
  1.180208,
  1.533044,
  1.229,
  1.144064,
  1.115,
  1.460977,
  1.099,
  1.078,
  1.077783,
  1.092193,
  1.167,
  1.093,
  1.331,
  1.308977,
  0.317,
  1.364,
  1.292,
  1.139977,
  1.125,
  1.126356,
  1.097,
  1.184977,
  1.145,
  1.223,
  1.161,
  1.398,
  1.219977,
  1.102,
  1.126977,
  1.144,
  1.221208,
  1.341,
  1.053589,
  1.197,
  1.134193,
  1.075,
  1.099,
  1.325,
  1.120042,
  1.140713,
  1.158977,
  1.537208,
  1.121069,
  1.340977,
  1.111,
  1.189756,
  1.128,
  1.117,
  1.08,
  1.216423,
  1.033,
  0.968,
  0.957897,
  0.961,
  0.992008,
  0.997945,
  0.979277,
  1.271148,
  1.054903,
  0.934364,
  1.12,
  0.967074,
  1.482,
  0.977,
  0.996333,
  1.084842,
  0.966,
  0.973,
  0.994842,
  1.044905,
  1.279,
  1.06936,
  1.006,
  1.039842,
  0.997,
  0.94,
  1.446842,
  0.277,
  1.007,
  0.957644,
  1.653,
  1.285842,
  1.008517,
  1.019,
  1.046076,
  1.054988,
  0.963842,
  0.994,
  2.488638,
  0.971054,
  1.0672,
  1.158,
  1.089842,
  0.967,
  1.027,
  1.062,
  1.000328,
  1.210815,
  1.115747,
  0.954064,
  1.037,
  0.986842,
  1.146,
  0.984936,
  0.952558,
  1.073,
  1.066,
  0.975,
  1.09,
  1.214508,
  1.392276,
  1.075542,
  1.39,
  1.198,
  1.160754,
  1.144212,
  1.33135,
  1.438,
  1.179891,
  1.156,
  1.191997,
  1.200293,
  1.497975,
  1.269903,
  1.276754,
  1.475903,
  1.186,
  1.171754,
  1.312934,
  1.196,
  1.203978,
  1.42102,
  1.12098,
  1.186478,
  1.627226,
  1.128754,
  1.122283,
  1.222139,
  1.193999,
  1.080754,
  1.201774,
  1.526251,
  1.474619,
  1.379826,
  1.516037,
  1.125611,
  1.419485,
  1.130595,
  1.144634,
  1.224294,
  0.340724,
  1.229042,
  1.084754,
  1.329092,
  1.192578,
  1.213,
  1.233,
  1.672354,
  1.161711,
  1.142043,
  1.40498,
  1.18,
  1.32,
  1.646615,
  1.270506,
  0.335159,
  1.173635,
  1.187,
  1.238903,
  1.214333,
  1.02,
  1.059,
  1.017,
  1.087,
  0.973,
  1.124352,
  1.462915,
  1.145,
  1.112,
  2.222,
  1.122,
  1.089889,
  1.054,
  1.294897,
  1.063897,
  1.038,
  1.095352,
  1.189,
  1.047,
  1.101352,
  1.009,
  1.0,
  1.03,
  1.086085,
  1.049352,
  1.062,
  1.048,
  1.031352,
  1.059,
  1.345,
  0.295,
  1.172,
  2.262352,
  1.012,
  1.06,
  1.106,
  1.147,
  1.224352,
  1.042,
  1.263352,
  1.062,
  2.056,
  1.333,
  1.044352,
  1.382876,
  1.098,
  1.015,
  1.326,
  1.079,
  1.042352,
  1.112,
  1.109352,
  1.15,
  1.729784,
  1.114352,
  1.082,
  1.067,
  1.112,
  1.027,
  1.067,
  0.478,
  0.351905,
  0.580111,
  0.360639,
  0.344,
  0.583,
  0.07,
  0.485928,
  0.855,
  0.41394,
  0.783766,
  0.806758,
  0.444,
  0.491,
  0.352,
  0.359617,
  0.32,
  0.442,
  0.394,
  0.349224,
  0.710889,
  0.63868,
  0.536073,
  0.565111,
  0.459,
  0.355944,
  0.353,
  0.389111,
  0.423408,
  0.446,
  0.454,
  0.675111,
  0.474,
  0.435,
  0.307111,
  0.542,
  0.39,
  0.34,
  0.20892,
  0.432,
  0.507242,
  0.381906,
  0.342,
  0.342,
  0.429111,
  0.380756,
  0.35,
  0.459111,
  0.450331,
  0.614,
  0.509,
  0.513111,
  0.476,
  0.411881,
  0.488,
  0.663,
  0.461876,
  0.217992,
  0.34979,
  1.097,
  1.047067,
  0.982777,
  0.934314,
  1.090754,
  1.240566,
  0.968,
  1.042,
  0.981,
  1.054,
  1.001751,
  0.979696,
  1.108,
  1.214159,
  0.930754,
  0.984,
  0.963914,
  1.084,
  1.085754,
  0.976,
  0.997,
  1.001,
  0.980628,
  1.176754,
  0.974,
  1.064,
  0.971754,
  1.227975,
  1.15,
  1.39,
  0.934754,
  1.064,
  0.923,
  0.971,
  1.311584,
  1.319438,
  0.978754,
  1.245,
  1.048003,
  0.949754,
  1.189488,
  0.91496,
  1.042754,
  0.931,
  0.984,
  1.118,
  1.137751,
  1.071,
  1.005754,
  0.885562,
  0.959,
  0.939,
  1.139,
  1.208754,
  0.956307,
  0.912203,
  0.938562,
  2.234438,
  0.262215,
  1.207926,
  0.323563,
  0.275602,
  1.207208,
  0.429903,
  0.429,
  0.305103,
  0.341,
  0.330196,
  0.349804,
  0.366111,
  0.405111,
  0.307698,
  0.63339,
  0.271218,
  0.318,
  0.313103,
  0.388343,
  0.905143,
  0.040867,
  0.344889,
  0.899,
  0.441557,
  0.388897,
  0.429,
  0.38166,
  0.368777,
  0.534642,
  0.289227,
  0.342897,
  0.355,
  0.423918,
  0.487103,
  0.620293,
  0.320707,
  0.282103,
  0.41861,
  0.268506,
  0.041219,
  0.471111,
  0.305992,
  0.312202,
  0.277337,
  0.273,
  0.526112,
  0.64638,
  0.328071,
  0.472111,
  0.275013,
  0.366099,
  0.310103,
  0.302979,
  0.556114,
  0.303206,
  0.328112,
  0.459879,
  0.373214,
  0.324111,
  0.5836,
  0.350289,
  0.296,
  0.382,
  0.536,
  0.439103,
  0.47788,
  0.557,
  0.561,
  0.432,
  0.486,
  0.545,
  0.351,
  0.988,
  0.431,
  0.324,
  0.402,
  0.24366,
  0.414,
  0.38,
  0.486,
  0.632,
  0.275103,
  0.351,
  0.421,
  0.391,
  0.305103,
  0.441,
  0.391,
  0.354897,
  0.606103,
  0.39074,
  0.618,
  0.528,
  1.039103,
  0.342,
  0.41,
  0.399103,
  0.633,
  0.409,
  0.313,
  0.324103,
  0.507,
  0.326,
  0.619,
  0.417,
  0.427103,
  0.451,
  0.289,
  0.403103,
  0.321,
  0.42,
  0.23512,
  0.30688,
  0.616103,
  0.505,
  0.389,
  0.362,
  0.393,
  0.408,
  0.763,
  1.195,
  0.536,
  0.871928,
  1.220412,
  1.006,
  0.862072,
  1.083,
  0.210663,
  0.755,
  0.802,
  0.924,
  0.828,
  0.882,
  0.74739,
  0.727,
  0.844,
  0.83217,
  0.819,
  1.012332,
  0.748,
  0.833208,
  0.778,
  1.7,
  0.827,
  1.517,
  0.887679,
  0.850208,
  1.435,
  0.73802,
  0.778208,
  0.904,
  0.952876,
  0.762208,
  0.758,
  0.925784,
  0.906216,
  0.86835,
  0.814208,
  0.871889,
  0.879,
  0.806,
  0.77928,
  0.743,
  0.816248,
  0.907601,
  0.907881,
  0.833,
  1.679,
  0.766607,
  0.826208,
  0.746421,
  1.370444,
  8.739,
  0.858611,
  0.830208,
  0.874,
  0.98,
  0.962208,
  0.827699,
  0.796,
  0.857,
  0.892564,
  0.988,
  1.04,
  0.961,
  1.055,
  1.010657,
  1.068595,
  1.014902,
  0.996,
  1.045,
  1.330322,
  1.046,
  1.16948,
  1.011657,
  0.976812,
  1.088,
  1.027657,
  1.036,
  1.125698,
  1.020657,
  1.049,
  1.06,
  1.011,
  1.417695,
  0.963,
  1.323657,
  1.039302,
  1.017698,
  1.009657,
  0.997,
  1.045,
  0.949144,
  1.045657,
  1.045698,
  1.818,
  0.963,
  0.99,
  0.968657,
  1.03,
  1.122418,
  1.041,
  1.079657,
  1.01,
  1.04146,
  0.98946,
  1.111657,
  1.008902,
  1.018,
  0.987,
  0.994,
  0.981657,
  1.004302,
  1.163,
  1.058657,
  1.148595,
  1.325698,
  0.984657,
  0.992,
  1.096,
  1.074,
  1.123,
  0.47,
  0.398068,
  0.553492,
  0.457,
  0.764,
  0.519637,
  0.538363,
  2.42,
  0.608,
  0.436,
  0.663,
  0.700214,
  0.421,
  0.480614,
  0.587111,
  0.6164,
  0.441,
  0.387,
  0.579111,
  2.693,
  0.601,
  0.451,
  0.457,
  0.513796,
  0.078,
  0.618238,
  0.491,
  0.616111,
  0.446227,
  0.448762,
  0.572,
  1.705111,
  0.387496,
  0.513762,
  0.476,
  0.748,
  0.442,
  0.421,
  0.454762,
  0.477662,
  0.774055,
  0.473945,
  0.491,
  0.495111,
  0.47,
  0.363,
  0.456111,
  0.560379,
  0.080889,
  1.392716,
  0.44,
  0.449111,
  0.847762,
  0.433,
  0.783,
  4.821,
  0.483,
  0.42104,
  1.32,
  1.146881,
  1.183081,
  1.169889,
  1.168,
  1.134856,
  1.153,
  1.282,
  1.184,
  1.192,
  1.402,
  1.174,
  1.156,
  1.149613,
  1.607531,
  1.187,
  1.187,
  1.174,
  1.165531,
  1.199,
  1.488,
  1.172,
  1.218,
  1.188531,
  1.198,
  1.152,
  1.209825,
  1.168206,
  1.19892,
  1.436575,
  1.182,
  1.303531,
  1.239,
  0.980825,
  1.187175,
  1.453404,
  1.179531,
  1.147,
  1.172,
  1.180531,
  1.138683,
  1.288889,
  1.168,
  1.629175,
  1.158,
  1.188,
  1.217,
  1.439,
  1.325531,
  1.321,
  1.176175,
  1.184531,
  1.230531,
  1.193,
  1.208,
  1.219,
  1.187,
  1.218,
  1.176,
  1.066897,
  1.105,
  1.068,
  1.145,
  1.645,
  1.057,
  1.242,
  1.202,
  1.63,
  1.076,
  1.344,
  1.148986,
  1.467,
  1.45,
  1.376352,
  1.121,
  1.071,
  1.023,
  1.789352,
  1.035,
  2.107,
  1.248889,
  1.089,
  1.393352,
  1.404,
  1.1,
  1.394044,
  1.068352,
  1.163,
  1.291,
  1.127,
  1.250352,
  1.153,
  1.401,
  1.106,
  1.734,
  1.241352,
  1.214,
  1.18,
  1.106352,
  1.098,
  1.354,
  1.325352,
  1.42,
  1.401,
  1.044,
  1.158,
  1.193,
  1.353352,
  0.289,
  1.18,
  1.063,
  1.236352,
  1.053,
  1.366352,
  1.083897,
  1.124,
  1.083,
  1.342897,
  1.032,
  1.334,
  1.106,
  1.245889,
  29.934,
  1.096,
  1.199531,
  1.160039,
  1.111,
  1.354,
  1.44408,
  1.127,
  1.244775,
  1.134573,
  1.323522,
  1.381,
  1.228,
  1.184275,
  1.12,
  1.131674,
  1.719531,
  1.181528,
  1.117,
  1.241,
  1.067408,
  1.189531,
  1.15292,
  1.120889,
  1.189531,
  1.256888,
  1.086,
  1.346,
  1.347531,
  1.426499,
  1.445825,
  1.359889,
  1.234,
  1.366,
  1.165531,
  1.094,
  1.095881,
  2.095531,
  1.17,
  1.161515,
  1.174,
  1.172531,
  1.252,
  1.982,
  1.115,
  1.127,
  2.099531,
  1.351215,
  1.12,
  1.104531,
  1.178,
  1.083,
  1.182531,
  1.056522,
  1.382,
  1.311,
  1.423917,
  1.117501,
  0.268,
  0.319,
  0.300103,
  0.334,
  0.318,
  0.237,
  0.354,
  0.35,
  0.264,
  0.367379,
  1.162,
  1.263,
  0.311847,
  0.417103,
  0.360004,
  0.256,
  0.306,
  0.296,
  0.339103,
  0.327,
  0.444461,
  0.279675,
  0.321103,
  0.226,
  0.415905,
  0.270103,
  0.253,
  0.269,
  0.703,
  0.326,
  0.343103,
  0.344,
  0.340905,
  0.291103,
  0.049,
  0.362702,
  0.371487,
  0.707,
  0.223103,
  0.403,
  0.339866,
  0.296,
  0.402,
  0.316103,
  0.354,
  0.602041,
  0.316103,
  0.415084,
  0.516,
  0.317,
  0.352103,
  0.545,
  0.331,
  0.289,
  0.329,
  0.746,
  0.48,
  0.352,
  0.436,
  29.138,
  0.596111,
  0.453,
  0.46,
  0.572621,
  0.838,
  0.438,
  0.541,
  0.392,
  0.683,
  0.641,
  0.462,
  0.728941,
  0.674111,
  0.696,
  0.559,
  0.482,
  0.496111,
  0.585,
  0.401,
  0.48,
  0.474111,
  0.488989,
  0.482,
  0.485,
  0.624111,
  0.469,
  0.377,
  0.501,
  0.475111,
  0.286681,
  0.5,
  0.696,
  0.648111,
  0.451,
  0.457889,
  0.845,
  0.442111,
  0.438742,
  0.505,
  0.466,
  0.452,
  0.483111,
  0.551,
  0.763,
  0.495111,
  0.414,
  0.488,
  0.497,
  0.469111,
  0.446,
  0.486282,
  0.42,
  0.454,
  0.937,
  0.41,
  1.055,
  1.04579,
  1.135897,
  1.01,
  1.15761,
  1.033,
  1.179789,
  1.184,
  1.087,
  1.876,
  1.376,
  1.058681,
  1.07,
  1.043,
  6.501416,
  1.37161,
  1.142388,
  1.145,
  1.07661,
  1.12,
  1.348,
  1.526921,
  1.041955,
  1.024789,
  1.07461,
  1.005,
  1.02,
  1.02461,
  1.06,
  1.257,
  1.048,
  1.12161,
  0.96,
  1.06,
  1.061,
  1.164,
  1.08861,
  1.001,
  1.030897,
  1.06161,
  1.159,
  1.135,
  1.085,
  1.550921,
  1.001,
  1.079,
  1.544,
  2.98,
  1.001,
  1.122858,
  1.077,
  1.881,
  1.03761,
  1.055,
  1.151,
  1.01161,
  1.068,
  1.011,
  1.26,
  1.058,
  1.50574,
  0.907,
  0.875,
  0.169244,
  0.788,
  0.918124,
  0.908238,
  0.778,
  0.884,
  0.824,
  0.890314,
  0.85459,
  0.737,
  0.977,
  0.936408,
  1.022,
  0.862,
  1.224124,
  0.859408,
  0.806023,
  0.880124,
  0.86,
  0.856876,
  0.843014,
  0.844124,
  1.04859,
  1.006,
  0.9,
  0.888124,
  1.025568,
  0.162,
  0.764598,
  0.934,
  0.865124,
  0.818056,
  0.725,
  0.856124,
  0.844177,
  0.994314,
  0.863,
  1.389124,
  0.989382,
  0.981,
  0.663,
  1.894712,
  0.811348,
  3.272,
  0.864,
  1.004124,
  0.797,
  1.019596,
  0.754885,
  0.95934,
  1.010876,
  0.79,
  0.809432,
  0.917,
  0.774,
  0.964094,
  0.286099,
  0.602,
  0.644131,
  0.73,
  0.851994,
  0.626,
  0.614,
  0.605,
  0.795774,
  0.633,
  0.628,
  0.667221,
  0.654564,
  0.639618,
  0.914433,
  0.95,
  0.585994,
  0.589,
  0.65,
  0.607,
  0.564994,
  0.826,
  0.776456,
  0.633,
  0.593994,
  0.786208,
  1.739,
  0.600994,
  0.756,
  0.688,
  0.817,
  0.748,
  0.619994,
  0.95,
  0.276467,
  0.717193,
  0.549994,
  0.692,
  0.558,
  0.639219,
  0.762178,
  0.585178,
  0.657713,
  1.218,
  0.625,
  0.659994,
  0.618,
  0.674994,
  0.627503,
  0.56,
  0.579994,
  0.614653,
  0.639,
  0.738896,
  0.679,
  0.746,
  0.874,
  0.727248,
  1.579698,
  0.922028,
  0.914297,
  1.226675,
  0.954,
  1.098724,
  0.986694,
  1.097614,
  1.006972,
  1.075,
  0.999159,
  1.086972,
  1.120325,
  0.965685,
  1.005315,
  6.147883,
  1.011,
  1.182,
  1.214883,
  0.910982,
  1.190018,
  1.015,
  1.630964,
  1.049891,
  1.008,
  1.280695,
  1.0124,
  1.130883,
  1.002942,
  1.141021,
  0.935302,
  1.116883,
  1.032086,
  0.92446,
  1.181,
  1.162,
  1.321883,
  1.260379,
  1.271324,
  1.291883,
  0.999,
  0.887784,
  0.92772,
  1.03633,
  1.048,
  0.916,
  1.026,
  1.158046,
  2.630702,
  1.162181,
  1.022188,
  1.139262,
  1.238585,
  1.088469,
  1.125535,
  1.056883,
  1.651,
  1.063,
  1.310861,
  0.894,
  0.996621,
  1.32993,
  1.034,
  1.674594,
  1.14988,
  1.127,
  1.049,
  1.341973,
  1.170097,
  1.33,
  1.13,
  1.01,
  1.083743,
  1.0038,
  1.1882,
  1.983,
  1.346,
  1.054352,
  1.022,
  1.221,
  1.027352,
  1.352195,
  1.058097,
  1.002805,
  1.117889,
  1.079463,
  0.289,
  1.158,
  1.27967,
  1.221575,
  1.119,
  1.210392,
  1.052889,
  1.012352,
  1.075,
  1.063,
  1.041,
  1.196,
  1.111352,
  1.140805,
  1.101897,
  2.780352,
  1.185,
  1.215889,
  1.043097,
  1.357352,
  1.079248,
  1.064,
  1.06267,
  1.187897,
  1.028352,
  1.08593,
  1.243,
  1.087352,
  1.326111,
  1.075,
  1.164352,
  1.353,
  1.066,
  1.11314,
  1.05,
  1.135,
  1.197825,
  1.427522,
  1.177,
  1.137986,
  1.136,
  1.15,
  1.010989,
  1.894,
  1.116,
  1.252,
  1.144,
  1.06722,
  1.201,
  1.105,
  1.115707,
  1.152531,
  1.426,
  1.639,
  1.100531,
  1.260716,
  1.094927,
  1.138,
  1.200711,
  1.318531,
  1.341,
  1.254,
  1.114309,
  1.142889,
  1.188,
  1.149,
  1.085531,
  1.593751,
  1.439,
  1.446452,
  1.191825,
  1.238889,
  1.270531,
  1.18,
  1.358424,
  1.240531,
  1.15,
  1.123758,
  2.913,
  1.367531,
  1.16,
  1.12,
  7.186,
  1.327889,
  1.234531,
  1.148,
  1.143,
  1.138531,
  1.27,
  1.154796,
  1.125531,
  1.081,
  1.362,
  1.318111,
  1.114,
  1.204,
  1.223876,
  1.424829,
  1.333617,
  1.233933,
  1.926829,
  1.367236,
  1.529,
  1.228,
  1.297,
  1.31795,
  1.321592,
  1.314,
  1.356,
  1.322275,
  1.333933,
  1.318451,
  1.267876,
  1.211933,
  1.323,
  1.211,
  1.322,
  1.254737,
  1.238933,
  1.328,
  1.527598,
  1.3,
  1.285933,
  1.227,
  1.374964,
  1.236,
  1.303933,
  1.400114,
  1.413498,
  1.219829,
  1.270278,
  1.324933,
  1.271,
  1.304096,
  1.276933,
  1.351,
  1.315,
  1.296829,
  1.251057,
  1.302363,
  1.367,
  1.23524,
  1.26609,
  1.302933,
  1.172876,
  1.351386,
  1.276933,
  1.252901,
  2.357687,
  1.376933,
  2.027,
  1.35,
  1.235,
  1.32,
  0.860407,
  0.499794,
  0.411836,
  0.54,
  0.257959,
  0.29,
  0.406794,
  0.289206,
  0.335794,
  0.278,
  0.354189,
  0.501811,
  0.33,
  0.278,
  0.043,
  0.317,
  0.384,
  0.269,
  0.31,
  0.307103,
  0.490897,
  0.288,
  0.393,
  0.264103,
  0.237,
  0.240407,
  0.332,
  0.542103,
  0.399,
  0.409,
  0.815,
  0.271817,
  0.318,
  0.309,
  0.451103,
  1.617,
  0.424,
  0.281388,
  0.264103,
  0.232,
  0.21412,
  1.661859,
  0.347,
  0.262713,
  0.308897,
  0.268,
  0.487103,
  0.324,
  0.493,
  0.206753,
  0.306151,
  0.295,
  0.297,
  0.681889,
  0.392,
  0.376,
  0.565,
  0.35658,
  1.337,
  1.114,
  1.153667,
  1.092,
  2.390531,
  1.683,
  1.224889,
  1.138,
  1.128,
  1.262,
  1.312,
  1.411358,
  1.33,
  1.125,
  1.159693,
  1.146531,
  1.199,
  1.27,
  1.538531,
  1.197,
  1.137,
  1.19,
  2.169408,
  1.194531,
  1.17,
  25.491,
  1.722531,
  1.118,
  1.123,
  1.149778,
  1.538,
  1.156531,
  1.167,
  1.169,
  1.282,
  1.949,
  1.170531,
  1.128,
  1.17,
  1.193531,
  1.256,
  1.169363,
  1.071889,
  1.254531,
  1.415816,
  1.16,
  1.335,
  1.288,
  1.174531,
  1.147,
  1.471,
  1.130531,
  1.273,
  1.170408,
  1.172531,
  1.162,
  1.159,
  1.213,
  1.205,
  0.411,
  0.360794,
  0.440927,
  0.383,
  0.545,
  0.548,
  0.565,
  0.327,
  0.337672,
  0.272,
  0.561,
  0.871,
  0.407,
  0.81,
  0.416927,
  0.439,
  0.451,
  0.417,
  0.504927,
  0.404,
  0.588,
  0.390193,
  0.380927,
  0.394,
  0.522,
  0.494,
  0.573927,
  0.307137,
  0.485,
  0.651,
  1.631,
  0.381927,
  0.464,
  0.598,
  0.546927,
  0.36,
  0.448,
  0.389,
  0.387927,
  0.456,
  0.335,
  0.431,
  0.513,
  0.544927,
  0.502,
  0.39,
  0.377927,
  0.453,
  0.548,
  0.546927,
  0.907,
  50.616,
  0.473,
  0.361,
  0.525,
  0.486,
  0.51,
  1.363,
  1.016,
  1.079,
  1.125698,
  1.014,
  1.032657,
  0.26846,
  0.999,
  1.374,
  1.682,
  1.053,
  5.197,
  1.097,
  1.017,
  1.005,
  1.168188,
  1.091657,
  1.088319,
  1.016,
  1.037657,
  0.989319,
  0.991681,
  1.071,
  0.962,
  1.296853,
  1.019,
  0.999195,
  1.293657,
  0.999,
  1.205,
  1.070691,
  1.102657,
  1.024,
  1.273,
  0.981,
  1.029,
  0.997657,
  1.174,
  0.995398,
  1.100261,
  1.059698,
  1.051,
  1.101,
  1.106657,
  0.966,
  1.329,
  1.06,
  1.216641,
  0.947657,
  1.045302,
  1.109657,
  50.446698,
  1.292,
  1.04046,
  0.994657,
  0.276,
  1.034,
  1.02,
  1.035349,
  0.987302,
  0.483,
  0.501,
  0.491111,
  1.717,
  0.9,
  0.54,
  0.457,
  0.456,
  0.563,
  0.539,
  0.637,
  0.418,
  0.41,
  0.817,
  0.400111,
  0.485,
  0.446,
  0.524,
  0.409111,
  0.82,
  0.541,
  0.22975,
  0.46,
  0.413111,
  0.463,
  0.624,
  0.541,
  0.476111,
  0.552,
  0.402,
  0.377,
  0.512111,
  0.462,
  0.578658,
  0.462111,
  0.409,
  0.454,
  0.459,
  0.588111,
  0.408,
  0.468,
  0.455,
  0.575,
  0.584111,
  0.619,
  0.484,
  0.25775,
  0.554,
  1.123,
  0.423,
  0.76,
  0.504111,
  0.495,
  0.702,
  0.389,
  0.411,
  0.439,
  0.519,
  1.022532,
  1.053107,
  0.998912,
  1.0343,
  1.084002,
  1.390755,
  1.057703,
  1.093367,
  2.304895,
  1.061482,
  1.04652,
  1.3276,
  1.340375,
  1.093598,
  1.189103,
  0.25952,
  1.087598,
  1.220418,
  1.908582,
  1.264352,
  1.040597,
  0.986,
  1.106,
  1.022615,
  1.221255,
  1.293,
  1.821,
  1.431558,
  1.088223,
  1.278598,
  1.174558,
  1.050891,
  1.102214,
  1.024335,
  1.045539,
  1.848,
  1.106352,
  1.165,
  1.083111,
  1.519352,
  1.164326,
  1.298506,
  1.032352,
  1.046832,
  1.176279,
  1.082,
  1.218111,
  1.276897,
  2.460352,
  1.119693,
  1.057103,
  1.036463,
  1.06236,
  1.300299,
  1.012,
  1.806352,
  1.027,
  1.026994,
  1.052832,
  1.127,
  1.118,
  0.941,
  1.040957,
  1.006,
  1.01523,
  0.99737,
  0.951,
  1.014,
  1.174,
  0.933,
  1.191,
  0.952,
  1.005,
  0.943,
  1.094,
  1.085603,
  0.949866,
  0.953,
  0.980555,
  0.942,
  0.934,
  0.97,
  0.992,
  0.97623,
  0.915575,
  0.965274,
  0.92823,
  0.916737,
  1.407166,
  0.944,
  0.910286,
  0.93623,
  0.945753,
  0.973,
  0.964,
  0.955,
  1.00123,
  1.017,
  0.922,
  1.31023,
  1.371,
  1.038,
  1.191637,
  0.93823,
  0.937,
  1.059,
  2.098,
  0.957,
  0.936798,
  1.012988,
  0.974,
  1.405166,
  0.885,
  0.98751,
  0.942777,
  1.01523,
  1.087,
  0.993988,
  0.927,
  0.892,
  1.052,
  0.928381,
  0.925388,
  0.951695,
  0.953,
  0.861578,
  1.531953,
  0.868097,
  2.361947,
  1.059,
  0.962462,
  1.786897,
  1.112262,
  1.04547,
  0.959687,
  0.979143,
  1.181578,
  0.912786,
  0.883248,
  1.065578,
  0.945,
  0.979,
  1.236,
  1.020843,
  1.004578,
  1.038808,
  1.003695,
  0.827578,
  0.873818,
  0.956695,
  0.902695,
  1.191578,
  1.007872,
  1.034,
  1.039,
  0.929,
  0.874693,
  0.897,
  0.932135,
  0.942578,
  1.026,
  1.199,
  0.97679,
  0.874578,
  0.947,
  1.302,
  0.925,
  0.913,
  1.029578,
  1.061695,
  1.187554,
  0.264897,
  2.155578,
  1.315233,
  0.943586,
  0.928578,
  0.895,
  1.015,
  0.932,
  1.01,
  1.428,
  1.276,
  1.085492,
  1.200772,
  0.339,
  1.294,
  1.166022,
  1.233,
  1.809,
  1.97,
  1.153,
  1.247,
  1.751,
  1.313,
  1.221,
  1.543,
  1.202754,
  1.164,
  1.221,
  1.220754,
  1.143,
  1.285,
  1.314,
  1.152,
  1.124754,
  1.366,
  1.364,
  1.178754,
  1.513191,
  1.242,
  1.204,
  1.328,
  1.178754,
  1.294,
  1.196,
  1.171439,
  2.256,
  1.174754,
  2.004,
  1.366,
  1.405754,
  1.794,
  1.636668,
  1.27592,
  1.281,
  1.185,
  1.182136,
  1.227,
  1.28,
  1.191754,
  1.282,
  1.353,
  1.282754,
  1.894,
  1.659,
  1.231754,
  1.395,
  1.412,
  1.39,
  1.284,
  0.902,
  1.175,
  0.954541,
  4.133,
  1.841192,
  0.901438,
  0.931,
  1.022,
  1.836,
  1.018,
  0.959,
  0.949,
  1.26,
  0.946,
  0.895498,
  0.965192,
  2.055,
  1.02125,
  0.928192,
  0.931332,
  0.962668,
  1.14134,
  0.923314,
  1.074474,
  0.898786,
  1.012,
  1.596386,
  1.01973,
  1.039,
  1.069805,
  1.053398,
  1.275192,
  0.987,
  1.845,
  0.99,
  1.230725,
  1.251192,
  1.182194,
  1.022202,
  1.204192,
  1.177,
  1.08,
  1.02,
  0.992,
  1.03546,
  1.191,
  0.899,
  1.836,
  0.918877,
  1.080993,
  1.044,
  1.134192,
  1.007,
  0.939,
  1.015192,
  1.165,
  0.987281,
  0.969,
  1.033,
  1.609442,
  1.021,
  1.02489,
  1.235854,
  1.082,
  1.033,
  1.074192,
  0.963,
  1.044,
  1.167,
  0.991,
  0.932,
  1.118876,
  0.970192,
  0.927582,
  1.136146,
  1.571192,
  1.023402,
  1.009,
  1.424418,
  1.037192,
  0.963,
  1.055,
  1.044,
  1.044,
  0.952192,
  1.074,
  1.248,
  1.204192,
  1.064,
  1.032,
  0.952071,
  0.955192,
  1.001,
  0.929,
  1.053,
  1.226,
  1.143192,
  1.048,
  1.117408,
  1.092311,
  2.814647,
  1.403,
  1.302,
  1.025192,
  1.012344,
  0.956111,
  1.012889,
  0.928,
  0.941311,
  1.213,
  1.003,
  1.428192,
  0.976,
  1.149778,
  0.261,
  0.933326,
  1.013,
  1.038,
  1.017,
  1.056,
  1.002,
  1.038,
  1.022,
  0.98423,
  0.922,
  0.948732,
  1.66,
  1.001,
  0.983554,
  1.23213,
  0.956,
  0.893,
  0.897,
  1.015,
  0.931,
  0.95223,
  1.066081,
  1.07623,
  1.355,
  1.277,
  1.062,
  1.111362,
  1.134363,
  0.96723,
  1.39,
  1.199,
  0.948,
  1.03023,
  0.972,
  0.931,
  0.96923,
  0.926,
  0.897,
  1.085,
  0.945413,
  1.06623,
  0.975242,
  0.962311,
  1.289,
  0.931,
  0.939,
  1.063112,
  1.286331,
  1.25823,
  0.931587,
  0.931,
  1.0,
  0.944,
  0.96923,
  0.884,
  0.993,
  0.98623,
  1.205,
  0.942,
  1.163,
  1.75923,
  0.983,
  0.962,
  0.998,
  1.289,
  1.318889,
  1.159,
  1.194889,
  1.160531,
  1.342,
  1.259,
  1.173,
  1.17,
  1.414,
  1.387,
  1.405,
  1.956,
  1.385889,
  1.149,
  1.173531,
  1.21,
  1.144,
  1.377531,
  2.133,
  1.172,
  1.2,
  1.17007,
  1.188531,
  1.16,
  1.325,
  1.161531,
  1.281,
  1.196,
  1.128,
  1.168531,
  0.32,
  1.415,
  1.16,
  1.249,
  1.577,
  1.174531,
  1.15092,
  1.164,
  1.188531,
  1.142,
  1.2,
  1.161,
  1.423531,
  1.135,
  1.411,
  1.173,
  1.173,
  1.176531,
  1.193,
  2.353531,
  1.174,
  1.149,
  1.421,
  1.453531,
  1.496,
  1.236,
  1.204,
  2.387,
  0.308889
]