{
  "1048576": [
    2.273,
    5.035,
    2.892,
    3.522124,
    2.062,
    2.813,
    1.181,
    1.804,
    1.454,
    1.649,
    3.37,
    2.578,
    2.599,
    2.624,
    1.515,
    3.351,
    2.13,
    5.029,
    2.287,
    2.389,
    2.477,
    3.1,
    2.575,
    3.515,
    2.386,
    2.254,
    7.889,
    2.066,
    4.534,
    2.468,
    2.769,
    2.346,
    22.033,
    3.926,
    3.848,
    2.628986,
    3.408,
    3.058,
    2.324,
    2.313,
    2.348,
    3.151,
    4.567012,
    3.133,
    2.985,
    3.129,
    3.828,
    2.306,
    2.366,
    2.595,
    2.75,
    3.304,
    3.648,
    2.734,
    3.376,
    2.562796,
    2.281,
    1.71,
    2.257,
    2.037,
    3.042,
    3.091,
    3.243695,
    3.656,
    4.847103,
    3.760111,
    3.825,
    4.085,
    3.192649,
    3.347,
    2.257103,
    3.449977,
    4.901909,
    3.060406,
    3.419,
    2.124,
    2.971,
    2.933,
    1.356,
    2.205,
    1.406,
    1.982,
    4.282,
    2.71,
    3.654,
    2.961,
    2.759,
    1.049,
    1.581,
    1.535,
    1.513,
    3.447261,
    2.671348,
    1.928,
    1.851,
    2.078,
    3.12,
    3.028,
    3.692,
    3.574,
    3.8,
    2.75,
    2.860692,
    3.234558,
    2.407,
    1.777,
    3.5,
    1.101,
    2.429,
    1.841,
    2.04,
    3.754,
    3.162,
    4.318,
    3.385,
    1.674,
    1.665,
    3.897,
    3.105,
    2.105072,
    2.248,
    3.146069,
    3.669,
    3.505,
    2.925,
    2.261,
    2.012,
    2.562,
    2.784,
    3.63,
    2.608,
    3.28,
    2.669,
    2.57,
    20.595,
    2.819,
    2.456,
    3.833,
    4.835,
    2.542,
    2.076,
    2.175,
    4.726,
    3.728897,
    4.147,
    2.869,
    5.632,
    2.625,
    1.803991,
    2.942238,
    1.919,
    2.375,
    3.847,
    3.848,
    1.635,
    2.726,
    2.502,
    3.249,
    3.160302,
    3.502,
    3.163,
    2.142,
    2.997,
    3.021,
    2.826824,
    2.651754,
    3.585992,
    2.667809,
    2.265,
    2.43,
    2.34,
    2.334,
    3.566,
    3.263,
    2.845,
    3.675,
    2.57,
    2.419446,
    3.286,
    3.42,
    4.099
  ],
  "51200": [
    0.827,
    1.998,
    1.557,
    1.137,
    1.999,
    0.968,
    1.674,
    1.307,
    0.77,
    0.823,
    1.502,
    1.445446,
    1.156,
    0.846,
    1.643,
    0.83,
    1.522,
    0.863,
    1.17,
    1.967,
    1.504,
    1.31286,
    0.687455,
    1.2,
    1.428,
    0.728,
    1.42879,
    0.84,
    1.863236,
    0.558103,
    1.034202,
    1.000206,
    2.131,
    0.897206,
    1.053,
    1.013,
    1.202289,
    1.551021,
    1.812305,
    1.119866,
    0.719372,
    0.792,
    0.325343,
    0.831486,
    0.408,
    1.098458,
    1.647,
    1.135516,
    0.379,
    0.604,
    0.405246,
    0.946,
    0.777,
    2.002,
    0.494,
    1.338,
    1.249,
    1.081937,
    0.537111,
    1.179341,
    0.477,
    0.565,
    1.017,
    0.658804,
    1.209579,
    0.875144,
    2.195643,
    1.512,
    1.091308,
    1.917062,
    1.346801,
    0.860155,
    0.742333,
    1.369,
    1.124514,
    1.487015,
    1.292,
    0.398723,
    0.641578,
    0.810184,
    1.873,
    1.463,
    1.941,
    0.827,
    0.598111,
    1.194,
    0.546,
    0.71508,
    0.671,
    0.736485,
    0.597,
    1.133,
    1.066698,
    1.786,
    1.157,
    0.774104,
    1.134727,
    0.988,
    0.809,
    0.779592,
    0.874,
    1.774674,
    1.544111,
    0.713149,
    1.287,
    1.107612,
    2.181,
    1.388228,
    0.853,
    1.408544,
    0.83,
    0.635,
    0.86,
    0.843,
    0.492,
    1.823,
    0.505,
    1.055915,
    0.548333,
    0.784,
    0.609,
    0.606,
    0.577,
    0.932,
    1.066,
    0.879,
    2.199,
    1.726,
    1.521,
    1.858,
    1.245,
    1.5,
    1.438,
    0.805,
    1.927,
    0.838111,
    1.375,
    1.343407,
    1.811,
    1.517371,
    1.684222,
    1.450905,
    0.962814,
    0.992847,
    0.954722,
    1.449,
    1.565,
    1.468706,
    0.915129,
    1.459222,
    0.966111,
    3.447743,
    2.007,
    1.225,
    1.065073,
    0.534,
    0.556592,
    1.214049,
    0.491,
    1.350408,
    1.323,
    0.674,
    1.761,
    1.900855,
    0.795,
    0.778,
    1.628478,
    0.743,
    0.906,
    0.799,
    1.497,
    1.006,
    1.228,
    0.735,
    0.495,
    0.637,
    0.809,
    1.104,
    1.272,
    0.776,
    1.293,
    1.394,
    0.987,
    0.965,
    1.573,
    0.772,
    0.742062,
    0.974,
    0.667502,
    0.649111,
    1.194427,
    1.228336,
    1.161778,
    1.473129,
    1.187975,
    0.664335,
    0.48608,
    1.119889,
    2.624,
    0.468737,
    0.740142,
    0.709,
    1.165257,
    1.034298,
    1.995498,
    0.938,
    1.351,
    1.372282,
    1.68,
    1.357,
    0.721,
    2.032,
    1.59,
    0.651,
    1.167,
    2.206206,
    1.08,
    0.891299,
    1.387083,
    1.290108,
    1.0,
    1.483,
    1.067328,
    0.827,
    0.68,
    1.017008,
    1.262,
    0.501027,
    1.079,
    1.064,
    2.066,
    0.665,
    1.053983,
    1.022,
    1.452841,
    0.781,
    0.9,
    1.06139,
    0.848641,
    0.591043,
    0.957693,
    0.805,
    1.098363,
    1.437,
    1.207404,
    1.190264,
    2.087,
    0.876647,
    1.612912,
    1.540956,
    0.854355,
    1.615361,
    1.495632,
    1.488,
    0.868552,
    0.852687,
    1.574,
    1.215,
    2.0,
    0.729,
    1.336,
    1.337,
    1.091921,
    1.514,
    1.498,
    1.523992,
    1.563,
    0.991895,
    0.803,
    1.084216,
    1.049722,
    0.719,
    0.937,
    1.629,
    1.105,
    1.098,
    1.121,
    0.644,
    0.77,
    0.636115,
    0.315016,
    0.722,
    0.930986,
    1.662,
    0.445,
    0.735,
    1.35637,
    1.162,
    0.443138,
    0.813,
    0.36,
    0.612468,
    1.170444,
    0.73105,
    1.914704,
    0.521943,
    1.165563,
    1.247884,
    1.701522,
    1.464748,
    1.508764,
    1.157554,
    0.58956,
    0.707206,
    0.723382,
    0.721436,
    0.789344,
    1.750059,
    0.621,
    0.972144,
    0.85315,
    0.824158,
    1.144,
    1.33917,
    1.252,
    0.668,
    1.211623,
    0.498,
    0.432,
    0.814,
    1.752,
    1.051,
    0.755,
    0.607748,
    1.606,
    1.041,
    0.574963,
    0.55,
    0.965,
    0.543456,
    0.963,
    0.499,
    0.861,
    0.611496,
    1.32608,
    0.806,
    1.955,
    1.398,
    1.662,
    1.34358,
    0.688468,
    1.492,
    0.74221,
    0.98408,
    0.768,
    0.599657,
    1.101011,
    1.740119,
    1.341,
    1.20144,
    1.269249,
    1.343,
    0.590111,
    1.061,
    1.762,
    1.308,
    0.802,
    0.783,
    1.018059,
    0.971,
    1.964935,
    0.483,
    1.46,
    1.087,
    1.507,
    1.325,
    1.339122,
    0.626,
    0.829,
    0.662,
    1.027104,
    1.296,
    1.230175,
    0.691441,
    1.32,
    1.382326,
    1.256664,
    0.698644,
    0.919708,
    1.10706,
    0.603192,
    0.746,
    0.565,
    0.873103,
    0.826903,
    1.12,
    1.494,
    0.971103,
    1.91,
    0.951,
    1.243,
    0.711,
    0.827,
    0.783883,
    0.657,
    0.814,
    1.769304,
    1.11609,
    1.325396,
    1.335,
    2.057015,
    1.557,
    1.215204,
    1.686,
    2.51,
    1.126415,
    1.15,
    1.168,
    1.168821,
    0.933,
    1.251978,
    0.310903,
    1.063103,
    0.93,
    1.77,
    0.433778,
    1.055,
    1.414897,
    1.104,
    2.881401,
    0.484587,
    0.969,
    0.627897,
    0.464889,
    0.774,
    1.566659,
    0.78655,
    1.452124,
    0.939838,
    0.925901,
    1.297899,
    0.749882,
    1.376182,
    1.265251,
    0.808688,
    0.791,
    1.316,
    1.041039,
    0.938,
    1.766,
    1.313,
    1.552841,
    0.726,
    0.711223,
    1.167,
    0.679536,
    1.412,
    0.774,
    1.03899,
    1.980087,
    0.469,
    1.152403,
    0.501074,
    0.482,
    1.497515,
    0.902,
    0.757024,
    0.52,
    1.013,
    0.963344,
    1.942,
    0.613643,
    1.174,
    1.302,
    1.198404,
    0.643,
    1.463,
    1.106069,
    1.368103,
    0.725146,
    0.382206,
    1.276,
    0.723,
    0.671,
    0.868,
    1.297,
    1.343,
    1.17365,
    0.465,
    0.711,
    1.324206,
    0.595,
    1.553678,
    1.931,
    1.449,
    1.347865,
    0.888773,
    1.151244,
    0.807897,
    1.134546,
    1.192,
    1.7,
    0.58,
    0.827744,
    1.078143,
    1.345763,
    1.967002,
    0.428485,
    1.26765,
    1.319591,
    1.839481,
    0.680218,
    0.820157,
    1.076,
    0.781,
    0.513,
    2.762,
    1.288,
    0.621371,
    0.484,
    0.905,
    0.445,
    0.592,
    0.761436,
    0.571583,
    0.876148,
    0.339,
    1.127325,
    2.011363,
    2.009221,
    0.636,
    0.833,
    1.254637,
    0.612,
    0.538,
    0.483,
    0.519,
    0.662,
    0.784,
    0.875,
    2.007,
    1.439103,
    2.175,
    0.65,
    1.355632,
    1.296,
    0.725,
    1.757,
    1.261528,
    0.668,
    0.755,
    0.722103,
    0.84,
    0.94,
    1.498756,
    1.252,
    1.125644,
    0.746807,
    0.916332,
    1.475988,
    1.203536,
    0.7,
    1.141807,
    0.897,
    0.504,
    1.074,
    1.959,
    0.754731,
    1.409,
    1.305905,
    1.148,
    2.512788,
    0.763,
    1.383,
    0.674713,
    1.462,
    0.88,
    2.367,
    1.111973,
    0.984446,
    2.05785,
    0.740857,
    1.684475,
    0.875857,
    1.051636,
    0.907331,
    1.453953,
    0.638,
    0.755512,
    0.658,
    1.02385,
    1.170103,
    0.541,
    1.095,
    1.996103,
    0.661,
    0.991,
    1.421,
    1.348,
    5.272,
    0.945,
    1.174,
    0.625577,
    0.803,
    1.749,
    0.93,
    0.756124,
    0.392876,
    1.356,
    0.508,
    0.466,
    1.169,
    0.58,
    1.265129,
    1.221688,
    1.279832,
    1.017,
    0.618841,
    1.343791,
    1.275027,
    1.01447,
    1.734791,
    1.315,
    0.681249,
    0.636176,
    0.635,
    0.658598,
    0.281,
    1.679768,
    1.023288,
    0.72,
    0.550043,
    0.903097,
    0.482326,
    0.707103,
    0.471897,
    0.575,
    0.688152,
    1.139,
    0.995,
    1.757,
    0.684597,
    1.275,
    0.994,
    0.721,
    0.694,
    0.54,
    1.226,
    1.325,
    0.786881,
    1.361602,
    0.738302,
    1.900443,
    0.834415,
    1.551111,
    1.241782,
    1.507111,
    0.72471,
    0.606486,
    0.784052,
    1.416048,
    1.527302,
    0.74,
    1.281007,
    1.318,
    1.335,
    1.155098,
    0.83,
    0.761,
    1.147302,
    0.778,
    0.814,
    1.428,
    0.342,
    0.767,
    2.27,
    1.350762,
    1.141,
    1.488,
    1.29,
    0.532,
    0.982,
    1.300215,
    0.894,
    1.046,
    0.643,
    1.141,
    1.118,
    2.033,
    1.675,
    1.879,
    0.772,
    1.207,
    1.465,
    1.496302,
    1.07,
    0.556,
    1.132,
    1.175,
    2.294,
    1.301,
    1.355,
    0.913,
    1.338103,
    0.796,
    1.371111,
    0.776,
    0.795,
    0.703014,
    0.56508,
    1.147785,
    2.566478,
    2.071111,
    0.712,
    1.335217,
    1.465,
    1.506,
    0.908889,
    0.783478,
    1.382111,
    0.844502,
    0.970502,
    0.721,
    1.312,
    0.948103,
    1.737996,
    1.435,
    0.714976,
    0.88,
    0.721,
    0.555755,
    1.193079,
    1.176103,
    1.282,
    0.936,
    0.816,
    0.354,
    1.811402,
    0.647,
    1.133,
    1.362,
    0.696,
    0.759,
    0.956,
    1.205,
    0.546,
    1.122167,
    1.199,
    1.598,
    1.362103,
    2.177,
    1.757,
    1.481,
    0.766,
    0.740443,
    0.776,
    0.762,
    0.89071,
    1.255,
    0.979124,
    2.064,
    0.67,
    1.34,
    1.148,
    1.332751,
    0.617,
    0.815,
    1.282762,
    0.673,
    1.428553,
    1.333211,
    0.466792,
    1.259065,
    0.890008,
    2.029,
    0.828,
    0.947,
    0.605,
    0.803822,
    0.568,
    0.671792,
    0.612,
    0.922,
    1.177198,
    1.384,
    1.985,
    1.644423,
    1.503674,
    1.781698,
    1.203698,
    0.801379,
    0.974,
    1.256,
    1.498553,
    0.681,
    0.79246,
    1.411159,
    0.803403,
    0.755103,
    1.563,
    1.336111,
    1.477,
    1.326,
    0.968366,
    0.768103,
    1.007572,
    1.030597,
    0.669,
    0.712903,
    1.149103,
    0.912379,
    1.978723,
    1.332284,
    1.007,
    1.439111,
    1.451881,
    1.094459,
    1.304,
    1.494938,
    0.883,
    1.091,
    1.18362,
    2.073775,
    1.122854,
    2.311,
    0.752,
    1.602,
    1.407924,
    0.748171,
    1.437892,
    0.893,
    0.867577,
    0.719577,
    1.153,
    0.605,
    0.99442,
    0.764253,
    0.464,
    1.193,
    0.490214,
    0.429187,
    0.898,
    0.388794,
    0.494813,
    0.757027,
    0.872908,
    1.538184,
    1.427592,
    2.147,
    1.041,
    1.950111,
    1.201111,
    1.599,
    0.953184,
    1.02,
    1.47,
    0.773,
    0.86,
    0.692,
    0.302,
    0.92,
    1.645,
    0.53,
    1.942,
    0.964,
    1.473909,
    0.557,
    1.134,
    0.487,
    0.909,
    0.848366,
    0.587717,
    1.108319,
    1.242302,
    2.417433,
    0.693,
    1.316,
    1.216,
    1.03754,
    0.75,
    0.890931,
    1.46,
    2.26,
    0.876,
    0.886,
    0.43,
    0.761,
    1.18,
    0.51,
    1.294,
    0.647,
    0.775,
    0.606,
    1.515,
    0.616897,
    0.886597,
    2.054889,
    0.943512,
    1.460897,
    1.075176,
    0.612897,
    1.02804,
    0.644897,
    1.145032,
    0.983593,
    0.523616,
    1.225,
    1.374361,
    1.956146,
    1.370476,
    1.607621,
    1.255,
    1.601,
    0.6621,
    1.494,
    0.693124,
    1.033706,
    2.378339,
    1.878468,
    0.631103,
    1.361,
    1.32373,
    1.108227,
    0.679433,
    1.18144,
    0.557305,
    1.484,
    1.58016,
    0.799784,
    0.91,
    2.007,
    0.85,
    1.267,
    1.536,
    1.899,
    1.941,
    0.768,
    0.853,
    0.946,
    0.941,
    1.506916,
    1.014,
    2.01,
    0.66,
    1.293889,
    1.693124,
    1.069,
    0.987614,
    0.708889,
    1.297087,
    0.775,
    1.491149,
    0.634892,
    0.956203,
    1.768332,
    1.131,
    1.093114,
    1.119899,
    1.937852,
    0.762,
    1.035,
    1.42,
    1.185,
    1.701,
    0.80527,
    1.917,
    0.799841,
    0.836111,
    0.664331,
    0.843,
    0.836475,
    0.598,
    2.216,
    0.625,
    1.461415,
    1.613,
    1.177,
    0.831746,
    1.261,
    0.700849,
    0.852,
    1.805043,
    1.728,
    0.707,
    1.170485,
    0.86,
    0.776876,
    1.428,
    1.629485,
    0.881,
    0.822,
    0.778,
    1.591111
  ],
  "5242880": [
    6.082,
    10.389547,
    8.945,
    4.943,
    11.304,
    12.791,
    6.362,
    13.379261,
    10.27,
    9.506,
    11.547,
    12.315,
    14.047,
    11.098,
    13.812,
    12.97898,
    6.216,
    6.22,
    9.655,
    5.581,
    15.817,
    12.078,
    13.094,
    9.817,
    5.41,
    9.652,
    15.255,
    11.662,
    11.779,
    11.486,
    10.084,
    9.793724,
    14.556,
    8.753,
    5.3,
    5.661889,
    4.426117,
    9.218,
    11.228,
    7.132,
    4.775889,
    11.311,
    10.647,
    12.072,
    3.845,
    7.436,
    9.454,
    5.97,
    9.785,
    5.836,
    52.962,
    9.531371,
    14.644786,
    10.927,
    20.153,
    12.948,
    7.178,
    11.143,
    7.921,
    13.52268,
    9.589,
    8.841,
    8.933897,
    10.083,
    9.075,
    10.432,
    14.877,
    10.395
  ],
  "ALL": [
    0.827,
    1.998,
    1.557,
    1.137,
    1.999,
    0.968,
    1.674,
    1.307,
    0.77,
    0.823,
    1.502,
    1.445446,
    1.156,
    0.846,
    1.643,
    0.83,
    1.522,
    0.863,
    1.17,
    1.967,
    1.504,
    1.31286,
    0.687455,
    1.2,
    1.428,
    0.728,
    1.42879,
    0.84,
    2.273,
    5.035,
    2.892,
    1.863236,
    0.558103,
    1.034202,
    1.000206,
    2.131,
    0.897206,
    1.053,
    1.013,
    1.202289,
    1.551021,
    1.812305,
    1.119866,
    0.719372,
    3.522124,
    0.792,
    0.325343,
    0.831486,
    0.408,
    1.098458,
    1.647,
    1.135516,
    0.379,
    0.604,
    2.062,
    2.813,
    1.181,
    1.804,
    1.454,
    1.649,
    0.405246,
    0.946,
    0.777,
    2.002,
    0.494,
    1.338,
    1.249,
    1.081937,
    0.537111,
    1.179341,
    0.477,
    0.565,
    3.37,
    2.578,
    2.599,
    6.082,
    1.017,
    0.658804,
    1.209579,
    0.875144,
    2.195643,
    1.512,
    1.091308,
    1.917062,
    1.346801,
    0.860155,
    0.742333,
    1.369,
    1.124514,
    1.487015,
    2.624,
    10.389547,
    1.292,
    0.398723,
    0.641578,
    0.810184,
    1.873,
    1.463,
    1.941,
    0.827,
    0.598111,
    1.194,
    0.546,
    0.71508,
    0.671,
    1.515,
    3.351,
    2.13,
    0.736485,
    0.597,
    1.133,
    1.066698,
    1.786,
    1.157,
    0.774104,
    1.134727,
    0.988,
    0.809,
    0.779592,
    0.874,
    1.774674,
    1.544111,
    5.029,
    2.287,
    0.713149,
    1.287,
    1.107612,
    2.181,
    1.388228,
    0.853,
    1.408544,
    0.83,
    0.635,
    0.86,
    2.389,
    2.477,
    3.1,
    2.575,
    3.515,
    2.386,
    0.843,
    0.492,
    1.823,
    0.505,
    1.055915,
    0.548333,
    0.784,
    0.609,
    0.606,
    0.577,
    2.254,
    7.889,
    2.066,
    8.945,
    4.943,
    0.932,
    1.066,
    0.879,
    2.199,
    1.726,
    1.521,
    1.858,
    1.245,
    1.5,
    1.438,
    0.805,
    1.927,
    4.534,
    2.468,
    11.304,
    0.838111,
    1.375,
    1.343407,
    1.811,
    1.517371,
    1.684222,
    1.450905,
    0.962814,
    0.992847,
    0.954722,
    1.449,
    1.565,
    1.468706,
    0.915129,
    2.769,
    12.791,
    1.459222,
    0.966111,
    3.447743,
    2.007,
    1.225,
    1.065073,
    0.534,
    0.556592,
    1.214049,
    0.491,
    1.350408,
    1.323,
    0.674,
    2.346,
    22.033,
    6.362,
    1.761,
    1.900855,
    0.795,
    0.778,
    1.628478,
    0.743,
    0.906,
    0.799,
    1.497,
    1.006,
    1.228,
    0.735,
    0.495,
    0.637,
    3.926,
    0.809,
    1.104,
    1.272,
    0.776,
    1.293,
    1.394,
    0.987,
    0.965,
    1.573,
    0.772,
    0.742062,
    0.974,
    3.848,
    13.379261,
    10.27,
    9.506,
    0.667502,
    0.649111,
    1.194427,
    1.228336,
    1.161778,
    1.473129,
    1.187975,
    0.664335,
    0.48608,
    1.119889,
    2.624,
    0.468737,
    0.740142,
    2.628986,
    3.408,
    3.058,
    0.709,
    1.165257,
    1.034298,
    1.995498,
    0.938,
    1.351,
    1.372282,
    1.68,
    1.357,
    0.721,
    2.032,
    2.324,
    2.313,
    2.348,
    11.547,
    1.59,
    0.651,
    1.167,
    2.206206,
    1.08,
    0.891299,
    1.387083,
    1.290108,
    1.0,
    1.483,
    1.067328,
    0.827,
    0.68,
    1.017008,
    3.151,
    4.567012,
    1.262,
    0.501027,
    1.079,
    1.064,
    2.066,
    0.665,
    1.053983,
    1.022,
    1.452841,
    0.781,
    0.9,
    1.06139,
    0.848641,
    0.591043,
    0.957693,
    0.805,
    1.098363,
    1.437,
    1.207404,
    1.190264,
    2.087,
    0.876647,
    1.612912,
    1.540956,
    0.854355,
    1.615361,
    1.495632,
    1.488,
    0.868552,
    0.852687,
    1.574,
    3.133,
    1.215,
    2.0,
    0.729,
    1.336,
    1.337,
    1.091921,
    1.514,
    1.498,
    1.523992,
    1.563,
    0.991895,
    2.985,
    3.129,
    3.828,
    12.315,
    14.047,
    0.803,
    1.084216,
    1.049722,
    0.719,
    0.937,
    1.629,
    1.105,
    1.098,
    1.121,
    0.644,
    0.77,
    0.636115,
    2.306,
    2.366,
    11.098,
    13.812,
    0.315016,
    0.722,
    0.930986,
    1.662,
    0.445,
    0.735,
    1.35637,
    1.162,
    0.443138,
    0.813,
    0.36,
    0.612468,
    1.170444,
    0.73105,
    2.595,
    2.75,
    1.914704,
    0.521943,
    1.165563,
    1.247884,
    1.701522,
    1.464748,
    1.508764,
    1.157554,
    0.58956,
    0.707206,
    0.723382,
    0.721436,
    0.789344,
    1.750059,
    3.304,
    12.97898,
    0.621,
    0.972144,
    0.85315,
    0.824158,
    1.144,
    1.33917,
    1.252,
    0.668,
    1.211623,
    0.498,
    0.432,
    0.814,
    3.648,
    2.734,
    6.216,
    1.752,
    1.051,
    0.755,
    0.607748,
    1.606,
    1.041,
    0.574963,
    0.55,
    0.965,
    0.543456,
    0.963,
    0.499,
    3.376,
    2.562796,
    6.22,
    0.861,
    0.611496,
    1.32608,
    0.806,
    1.955,
    1.398,
    1.662,
    1.34358,
    0.688468,
    1.492,
    0.74221,
    0.98408,
    0.768,
    2.281,
    9.655,
    0.599657,
    1.101011,
    1.740119,
    1.341,
    1.20144,
    1.269249,
    1.343,
    0.590111,
    1.061,
    1.762,
    1.308,
    0.802,
    1.71,
    2.257,
    5.581,
    0.783,
    1.018059,
    0.971,
    1.964935,
    0.483,
    1.46,
    1.087,
    1.507,
    1.325,
    1.339122,
    0.626,
    0.829,
    0.662,
    2.037,
    3.042,
    3.091,
    1.027104,
    1.296,
    1.230175,
    0.691441,
    1.32,
    1.382326,
    1.256664,
    0.698644,
    0.919708,
    1.10706,
    0.603192,
    0.746,
    0.565,
    0.873103,
    3.243695,
    3.656,
    0.826903,
    1.12,
    1.494,
    0.971103,
    1.91,
    0.951,
    1.243,
    0.711,
    0.827,
    0.783883,
    0.657,
    0.814,
    4.847103,
    3.760111,
    3.825,
    4.085,
    1.769304,
    1.11609,
    1.325396,
    1.335,
    2.057015,
    1.557,
    1.215204,
    1.686,
    2.51,
    1.126415,
    1.15,
    1.168,
    1.168821,
    0.933,
    3.192649,
    3.347,
    1.251978,
    0.310903,
    1.063103,
    0.93,
    1.77,
    0.433778,
    1.055,
    1.414897,
    1.104,
    2.881401,
    0.484587,
    0.969,
    0.627897,
    0.464889,
    0.774,
    2.257103,
    1.566659,
    0.78655,
    1.452124,
    0.939838,
    0.925901,
    1.297899,
    0.749882,
    1.376182,
    1.265251,
    0.808688,
    0.791,
    3.449977,
    4.901909,
    3.060406,
    15.817,
    1.316,
    1.041039,
    0.938,
    1.766,
    1.313,
    1.552841,
    0.726,
    0.711223,
    1.167,
    0.679536,
    1.412,
    0.774,
    3.419,
    12.078,
    13.094,
    9.817,
    1.03899,
    1.980087,
    0.469,
    1.152403,
    0.501074,
    0.482,
    1.497515,
    0.902,
    2.124,
    2.971,
    2.933,
    1.356,
    2.205,
    1.406,
    1.982,
    0.757024,
    0.52,
    1.013,
    0.963344,
    1.942,
    0.613643,
    1.174,
    1.302,
    1.198404,
    0.643,
    1.463,
    1.106069,
    1.368103,
    0.725146,
    0.382206,
    1.276,
    0.723,
    0.671,
    0.868,
    1.297,
    1.343,
    1.17365,
    0.465,
    0.711,
    1.324206,
    0.595,
    4.282,
    2.71,
    3.654,
    2.961,
    2.759,
    1.553678,
    1.931,
    1.449,
    1.347865,
    0.888773,
    1.151244,
    0.807897,
    1.134546,
    1.192,
    1.7,
    0.58,
    1.049,
    1.581,
    1.535,
    1.513,
    5.41,
    0.827744,
    1.078143,
    1.345763,
    1.967002,
    0.428485,
    1.26765,
    1.319591,
    1.839481,
    0.680218,
    0.820157,
    1.076,
    3.447261,
    2.671348,
    9.652,
    15.255,
    11.662,
    0.781,
    0.513,
    2.762,
    1.288,
    0.621371,
    0.484,
    0.905,
    0.445,
    0.592,
    0.761436,
    0.571583,
    1.928,
    1.851,
    2.078,
    3.12,
    0.876148,
    0.339,
    1.127325,
    2.011363,
    2.009221,
    0.636,
    0.833,
    1.254637,
    0.612,
    0.538,
    0.483,
    0.519,
    0.662,
    3.028,
    3.692,
    0.784,
    0.875,
    2.007,
    1.439103,
    2.175,
    0.65,
    1.355632,
    1.296,
    0.725,
    1.757,
    1.261528,
    0.668,
    0.755,
    0.722103,
    0.84,
    11.779,
    0.94,
    1.498756,
    1.252,
    1.125644,
    0.746807,
    0.916332,
    1.475988,
    1.203536,
    0.7,
    1.141807,
    3.574,
    3.8,
    2.75,
    11.486,
    0.897,
    0.504,
    1.074,
    1.959,
    0.754731,
    1.409,
    1.305905,
    1.148,
    2.512788,
    0.763,
    1.383,
    0.674713,
    1.462,
    0.88,
    2.860692,
    10.084,
    2.367,
    1.111973,
    0.984446,
    2.05785,
    0.740857,
    1.684475,
    0.875857,
    1.051636,
    0.907331,
    1.453953,
    0.638,
    0.755512,
    0.658,
    1.02385,
    3.234558,
    9.793724,
    1.170103,
    0.541,
    1.095,
    1.996103,
    0.661,
    0.991,
    1.421,
    1.348,
    5.272,
    0.945,
    1.174,
    0.625577,
    0.803,
    1.749,
    0.93,
    14.556,
    0.756124,
    0.392876,
    1.356,
    0.508,
    0.466,
    1.169,
    0.58,
    1.265129,
    1.221688,
    2.407,
    1.777,
    3.5,
    1.101,
    2.429,
    1.841,
    2.04,
    1.279832,
    1.017,
    0.618841,
    1.343791,
    1.275027,
    1.01447,
    1.734791,
    1.315,
    0.681249,
    0.636176,
    0.635,
    3.754,
    3.162,
    4.318,
    3.385,
    8.753,
    0.658598,
    0.281,
    1.679768,
    1.023288,
    0.72,
    0.550043,
    0.903097,
    0.482326,
    0.707103,
    0.471897,
    0.575,
    1.674,
    5.3,
    5.661889,
    4.426117,
    0.688152,
    1.139,
    0.995,
    1.757,
    0.684597,
    1.275,
    0.994,
    0.721,
    0.694,
    0.54,
    1.226,
    1.325,
    1.665,
    3.897,
    3.105,
    0.786881,
    1.361602,
    0.738302,
    1.900443,
    0.834415,
    1.551111,
    1.241782,
    1.507111,
    0.72471,
    0.606486,
    0.784052,
    1.416048,
    2.105072,
    2.248,
    9.218,
    1.527302,
    0.74,
    1.281007,
    1.318,
    1.335,
    1.155098,
    0.83,
    0.761,
    1.147302,
    0.778,
    0.814,
    3.146069,
    3.669,
    3.505,
    2.925,
    11.228,
    1.428,
    0.342,
    0.767,
    2.27,
    1.350762,
    1.141,
    1.488,
    1.29,
    0.532,
    0.982,
    1.300215,
    0.894,
    2.261,
    2.012,
    7.132,
    4.775889,
    1.046,
    0.643,
    1.141,
    1.118,
    2.033,
    1.675,
    1.879,
    0.772,
    1.207,
    1.465,
    1.496302,
    2.562,
    2.784,
    11.311,
    10.647,
    1.07,
    0.556,
    1.132,
    1.175,
    2.294,
    1.301,
    1.355,
    0.913,
    1.338103,
    0.796,
    1.371111,
    0.776,
    0.795,
    0.703014,
    3.63,
    12.072,
    0.56508,
    1.147785,
    2.566478,
    2.071111,
    0.712,
    1.335217,
    1.465,
    1.506,
    0.908889,
    0.783478,
    1.382111,
    0.844502,
    0.970502,
    0.721,
    2.608,
    3.28,
    1.312,
    0.948103,
    1.737996,
    1.435,
    0.714976,
    0.88,
    0.721,
    0.555755,
    1.193079,
    1.176103,
    1.282,
    0.936,
    2.669,
    3.845,
    7.436,
    0.816,
    0.354,
    1.811402,
    0.647,
    1.133,
    1.362,
    0.696,
    0.759,
    0.956,
    1.205,
    0.546,
    2.57,
    20.595,
    2.819,
    9.454,
    5.97,
    1.122167,
    1.199,
    1.598,
    1.362103,
    2.177,
    1.757,
    1.481,
    0.766,
    0.740443,
    0.776,
    0.762,
    2.456,
    3.833,
    4.835,
    2.542,
    9.785,
    0.89071,
    1.255,
    0.979124,
    2.064,
    0.67,
    1.34,
    1.148,
    1.332751,
    0.617,
    0.815,
    1.282762,
    0.673,
    1.428553,
    2.076,
    1.333211,
    0.466792,
    1.259065,
    0.890008,
    2.029,
    0.828,
    0.947,
    0.605,
    0.803822,
    0.568,
    0.671792,
    0.612,
    2.175,
    5.836,
    52.962,
    0.922,
    1.177198,
    1.384,
    1.985,
    1.644423,
    1.503674,
    1.781698,
    1.203698,
    0.801379,
    0.974,
    1.256,
    1.498553,
    0.681,
    0.79246,
    1.411159,
    9.531371,
    0.803403,
    0.755103,
    1.563,
    1.336111,
    1.477,
    1.326,
    0.968366,
    0.768103,
    1.007572,
    1.030597,
    0.669,
    0.712903,
    1.149103,
    4.726,
    3.728897,
    4.147,
    0.912379,
    1.978723,
    1.332284,
    1.007,
    1.439111,
    1.451881,
    1.094459,
    1.304,
    1.494938,
    0.883,
    2.869,
    5.632,
    2.625,
    14.644786,
    10.927,
    20.153,
    1.091,
    1.18362,
    2.073775,
    1.122854,
    2.311,
    0.752,
    1.602,
    1.407924,
    0.748171,
    1.437892,
    0.893,
    0.867577,
    0.719577,
    1.153,
    12.948,
    0.605,
    0.99442,
    0.764253,
    0.464,
    1.193,
    0.490214,
    0.429187,
    0.898,
    0.388794,
    0.494813,
    0.757027,
    1.803991,
    2.942238,
    1.919,
    2.375,
    0.872908,
    1.538184,
    1.427592,
    2.147,
    1.041,
    1.950111,
    1.201111,
    1.599,
    0.953184,
    1.02,
    1.47,
    0.773,
    0.86,
    3.847,
    3.848,
    0.692,
    0.302,
    0.92,
    1.645,
    0.53,
    1.942,
    0.964,
    1.473909,
    0.557,
    1.134,
    0.487,
    0.909,
    1.635,
    2.726,
    2.502,
    7.178,
    0.848366,
    0.587717,
    1.108319,
    1.242302,
    2.417433,
    0.693,
    1.316,
    1.216,
    1.03754,
    0.75,
    0.890931,
    3.249,
    3.160302,
    3.502,
    3.163,
    11.143,
    1.46,
    2.26,
    0.876,
    0.886,
    0.43,
    0.761,
    1.18,
    0.51,
    1.294,
    0.647,
    0.775,
    0.606,
    2.142,
    2.997,
    3.021,
    7.921,
    1.515,
    0.616897,
    0.886597,
    2.054889,
    0.943512,
    1.460897,
    1.075176,
    0.612897,
    1.02804,
    0.644897,
    1.145032,
    2.826824,
    2.651754,
    3.585992,
    2.667809,
    13.52268,
    0.983593,
    0.523616,
    1.225,
    1.374361,
    1.956146,
    1.370476,
    1.607621,
    1.255,
    1.601,
    0.6621,
    1.494,
    2.265,
    2.43,
    2.34,
    9.589,
    8.841,
    0.693124,
    1.033706,
    2.378339,
    1.878468,
    0.631103,
    1.361,
    1.32373,
    1.108227,
    0.679433,
    1.18144,
    0.557305,
    1.484,
    1.58016,
    0.799784,
    2.334,
    8.933897,
    0.91,
    2.007,
    0.85,
    1.267,
    1.536,
    1.899,
    1.941,
    0.768,
    0.853,
    0.946,
    0.941,
    3.566,
    3.263,
    2.845,
    3.675,
    10.083,
    1.506916,
    1.014,
    2.01,
    0.66,
    1.293889,
    1.693124,
    1.069,
    0.987614,
    0.708889,
    1.297087,
    0.775,
    1.491149,
    0.634892,
    0.956203,
    2.57,
    9.075,
    1.768332,
    1.131,
    1.093114,
    1.119899,
    1.937852,
    0.762,
    1.035,
    1.42,
    1.185,
    1.701,
    0.80527,
    1.917,
    0.799841,
    0.836111,
    0.664331,
    0.843,
    0.836475,
    0.598,
    2.216,
    0.625,
    1.461415,
    1.613,
    1.177,
    0.831746,
    1.261,
    0.700849,
    0.852,
    1.805043,
    2.419446,
    3.286,
    10.432,
    1.728,
    0.707,
    1.170485,
    0.86,
    0.776876,
    1.428,
    1.629485,
    0.881,
    0.822,
    0.778,
    1.591111,
    3.42,
    4.099,
    14.877,
    10.395
  ]
}