[
  1.408258,
  1.057,
  1.062,
  1.046,
  1.035,
  1.029,
  1.036,
  1.059,
  1.058,
  1.07,
  1.177,
  1.198,
  1.476,
  1.147,
  1.051897,
  1.062352,
  1.117,
  1.075,
  1.054,
  1.116352,
  1.131,
  1.06,
  1.077,
  1.410258,
  1.527,
  1.028352,
  1.072,
  1.155352,
  1.053,
  1.088,
  1.105,
  1.278,
  1.048,
  1.041,
  1.108,
  1.047,
  1.234,
  1.044352,
  1.097,
  1.407258,
  1.030352,
  1.181,
  1.065,
  1.177352,
  1.042,
  1.089,
  1.101,
  1.169,
  2.023,
  1.028,
  1.020352,
  1.022,
  1.074352,
  1.175,
  1.079,
  1.137352,
  1.039,
  1.101,
  1.127,
  1.322115,
  1.168,
  0.64755,
  0.330475,
  1.821403,
  0.402372,
  0.405238,
  0.305863,
  0.490116,
  0.59,
  0.511441,
  0.412544,
  0.531,
  0.385517,
  0.697483,
  0.27002,
  1.442807,
  0.255984,
  0.755256,
  0.307787,
  0.528403,
  0.396533,
  0.367494,
  0.620265,
  0.498266,
  1.16755,
  0.35445,
  0.676403,
  0.275392,
  0.290863,
  0.298137,
  1.692911,
  0.371895,
  0.453478,
  0.313697,
  0.575779,
  0.369266,
  0.425,
  0.505,
  0.2007,
  0.324,
  0.800236,
  0.317504,
  0.309,
  0.383054,
  0.293128,
  0.389389,
  0.404168,
  0.292597,
  0.330137,
  0.670596,
  0.399806,
  0.385,
  0.262,
  0.295863,
  0.840137,
  0.371,
  0.698,
  0.867748,
  0.877,
  0.878,
  0.995,
  0.873,
  0.889208,
  0.902,
  0.897,
  0.908,
  0.841,
  0.857,
  0.998,
  0.857,
  0.8,
  0.877,
  0.761,
  0.952208,
  0.956,
  1.218,
  1.190928,
  1.176208,
  0.892,
  0.796,
  0.836,
  0.953,
  0.915208,
  0.9,
  1.02,
  0.853208,
  0.89,
  1.028,
  1.113216,
  0.933208,
  0.899,
  0.85,
  0.893,
  0.925,
  0.891208,
  1.069,
  0.834,
  0.909208,
  0.900019,
  1.078,
  0.786,
  0.769208,
  0.845,
  0.85,
  1.184,
  0.977856,
  0.883208,
  0.863,
  0.794,
  1.250208,
  0.865,
  1.017,
  0.218,
  0.918,
  1.545736,
  0.854,
  0.947,
  1.013,
  1.343298,
  1.243,
  1.172,
  1.175876,
  1.297352,
  1.051,
  1.058,
  1.086,
  1.074,
  1.01,
  1.316,
  1.094,
  1.062,
  1.061,
  1.112,
  1.142352,
  1.056,
  1.04,
  1.027352,
  1.046,
  1.064,
  0.994,
  1.069195,
  1.093352,
  1.018,
  1.413,
  1.040296,
  1.026352,
  1.1,
  1.078,
  1.046352,
  1.046897,
  1.131,
  1.081,
  1.512,
  1.211352,
  1.146,
  0.289597,
  1.452235,
  1.334,
  1.12,
  1.121453,
  1.035352,
  1.096889,
  1.005,
  1.087,
  1.033,
  1.081352,
  1.239,
  1.288461,
  1.164,
  1.045352,
  1.191,
  1.037,
  0.988352,
  0.995897,
  1.069,
  1.092,
  1.411897,
  1.277592,
  1.225,
  1.067,
  0.999243,
  0.91,
  0.861,
  0.828,
  0.927524,
  1.633,
  0.931132,
  0.903,
  0.749281,
  1.04,
  0.804695,
  1.182,
  0.982243,
  0.931752,
  0.84,
  0.874,
  0.177,
  0.912782,
  0.916,
  0.973,
  1.059243,
  0.871,
  0.935,
  1.01738,
  1.072,
  0.896243,
  0.853,
  0.866,
  0.885,
  0.840243,
  0.92,
  1.072665,
  0.924243,
  0.859,
  0.961,
  1.42876,
  1.405,
  0.859,
  1.014,
  0.869,
  0.905,
  0.764243,
  1.110876,
  1.062243,
  0.892876,
  0.359868,
  0.862876,
  0.969243,
  0.855,
  2.695018,
  0.899,
  0.865,
  0.969,
  0.877,
  0.899,
  0.077628,
  2.247,
  1.09,
  0.999876,
  1.032,
  1.182352,
  1.309226,
  1.036364,
  1.039897,
  1.042,
  1.039,
  1.253,
  1.14641,
  1.085889,
  1.035,
  1.224,
  1.341,
  1.011352,
  1.064273,
  1.339,
  1.220352,
  1.467,
  1.063,
  1.071097,
  1.125897,
  2.070352,
  1.158,
  1.032235,
  1.130352,
  1.684,
  1.06,
  0.285,
  1.04104,
  1.083352,
  1.353,
  1.127,
  1.087,
  1.059,
  1.133352,
  1.155,
  0.996,
  1.127352,
  1.054,
  1.042897,
  1.080352,
  1.102,
  1.048,
  1.034,
  1.825,
  1.118351,
  1.092352,
  1.088,
  1.033,
  1.114352,
  1.126,
  1.066,
  1.083352,
  1.053,
  1.082,
  1.039,
  0.29,
  1.052,
  0.86,
  0.374632,
  0.418103,
  0.657305,
  0.884,
  0.647,
  0.039,
  0.291876,
  0.367,
  0.356,
  0.374391,
  0.547888,
  0.345,
  0.296,
  0.396,
  0.598103,
  0.368767,
  0.431,
  0.908,
  0.613103,
  0.515768,
  0.350374,
  0.296644,
  0.593103,
  0.768,
  0.296,
  0.322,
  0.337103,
  0.694,
  0.306,
  0.343,
  0.559103,
  0.39,
  0.34198,
  0.440103,
  0.313522,
  0.306,
  0.495,
  0.229302,
  0.456103,
  0.339,
  0.644,
  0.946,
  6.925118,
  0.583103,
  0.619,
  0.354187,
  0.476103,
  0.490545,
  1.078659,
  0.263537,
  0.285103,
  0.305678,
  0.647678,
  0.315,
  0.557,
  0.306,
  0.046,
  0.423301,
  0.637,
  0.846,
  0.480111,
  0.412762,
  0.503,
  0.456,
  0.411,
  0.47,
  0.454889,
  0.448,
  0.452,
  0.444,
  0.53,
  0.585,
  0.474111,
  0.441889,
  0.426,
  0.479,
  0.467111,
  0.427,
  0.443,
  0.4,
  0.786111,
  0.501,
  0.587,
  0.484,
  0.570111,
  0.502,
  0.417,
  0.46,
  0.215992,
  0.579111,
  0.579,
  0.395,
  0.462111,
  0.707,
  0.431,
  0.54192,
  0.745111,
  0.474297,
  0.416636,
  0.425,
  0.481,
  0.519111,
  0.425008,
  0.547,
  0.444111,
  0.637889,
  0.676,
  0.378,
  0.463111,
  0.372,
  0.428989,
  0.443,
  0.434,
  0.504,
  0.209577,
  0.552,
  0.785,
  1.119,
  0.438,
  0.598,
  0.341907,
  0.2162,
  0.664903,
  0.451,
  0.51,
  0.374077,
  1.396648,
  0.384,
  0.457,
  0.595,
  0.531,
  0.402,
  0.437,
  0.475,
  0.2082,
  0.611903,
  0.434,
  0.529,
  0.633,
  0.466903,
  0.981,
  0.437,
  0.387,
  0.633903,
  0.489,
  0.422,
  0.395,
  1.277903,
  0.438,
  0.422,
  0.476,
  0.467903,
  0.538,
  1.138,
  0.467903,
  0.485323,
  0.453,
  0.427,
  0.575903,
  0.537238,
  0.379,
  0.433,
  0.412,
  0.487903,
  0.458,
  0.498,
  0.441903,
  0.427,
  0.432,
  0.101,
  0.398,
  0.477,
  0.445892,
  0.555,
  0.433,
  0.512,
  0.434,
  0.394418,
  0.615244,
  0.321134,
  0.355266,
  0.309,
  0.302,
  0.333,
  0.339244,
  0.352,
  0.339556,
  0.357052,
  2.536,
  0.446,
  0.494701,
  0.362134,
  0.204969,
  0.438,
  0.304,
  0.321,
  0.283134,
  0.56,
  0.343424,
  0.342,
  0.663134,
  0.339607,
  0.432,
  0.337134,
  0.358,
  0.347,
  0.355,
  0.4,
  0.315134,
  0.353237,
  0.633,
  0.383134,
  0.262889,
  0.334,
  0.347,
  0.302134,
  0.322,
  0.301,
  0.366,
  0.377,
  0.355134,
  0.379,
  0.322,
  0.051327,
  0.314134,
  0.29,
  0.333,
  0.314924,
  0.580134,
  0.370035,
  0.328,
  0.284,
  0.298,
  0.471,
  0.532,
  0.365,
  1.479959,
  1.067041,
  1.176574,
  1.164029,
  1.13258,
  1.032928,
  1.6699,
  1.279992,
  1.15,
  1.0871,
  1.1149,
  1.191,
  1.117952,
  1.059,
  1.195,
  1.415772,
  1.024,
  1.086023,
  1.11,
  1.13058,
  1.207,
  1.132174,
  1.246452,
  1.116,
  2.33058,
  1.268,
  1.064,
  1.329704,
  1.13861,
  1.228,
  1.216,
  1.01358,
  1.155,
  1.145,
  1.12,
  1.15799,
  1.150704,
  1.034,
  1.219442,
  1.070806,
  1.27322,
  1.201,
  1.07658,
  1.265,
  1.283,
  1.165,
  0.248573,
  1.154,
  1.129503,
  1.061,
  1.203482,
  1.176,
  1.17758,
  1.084,
  1.147,
  1.10958,
  1.151348,
  1.143,
  1.13,
  0.966172,
  1.058,
  1.799,
  1.352,
  1.120796,
  1.103,
  1.395531,
  1.414821,
  1.256,
  1.149386,
  1.223,
  1.107332,
  1.245,
  1.289,
  1.33,
  1.135531,
  1.29035,
  1.147408,
  1.164531,
  1.141,
  1.063,
  1.222531,
  1.386,
  1.14,
  1.167,
  1.163,
  1.380531,
  1.144358,
  1.043,
  1.165531,
  1.2,
  1.24,
  1.372,
  1.158531,
  1.131,
  1.141,
  1.171,
  1.221642,
  1.230531,
  1.171,
  1.348894,
  1.072531,
  1.242,
  1.127711,
  1.502,
  0.318,
  1.181,
  1.164,
  1.252,
  1.132,
  1.263701,
  1.349531,
  1.200111,
  1.138,
  1.120531,
  1.092887,
  1.151531,
  1.129,
  1.137,
  1.173,
  1.179,
  1.176,
  0.452623,
  0.64916,
  0.512195,
  0.497,
  0.474,
  0.5,
  0.496981,
  0.496459,
  0.404659,
  0.401805,
  0.643053,
  0.486467,
  0.451966,
  0.507,
  1.843195,
  0.46141,
  0.579,
  0.465,
  0.1944,
  0.477,
  0.498889,
  0.451344,
  0.480259,
  0.511621,
  0.441,
  0.502195,
  0.857805,
  0.466195,
  0.485806,
  0.457,
  0.465,
  0.428195,
  0.646409,
  0.552805,
  0.087,
  0.946,
  0.539195,
  0.542805,
  0.595,
  0.61639,
  0.968,
  0.491805,
  0.476,
  0.522,
  0.597195,
  0.499805,
  0.498,
  0.454195,
  0.687805,
  0.477,
  0.591805,
  0.597195,
  0.74416,
  0.503,
  0.466365,
  0.469635,
  0.449415,
  0.198908,
  0.458805,
  0.465,
  0.472,
  0.390111,
  0.449881,
  0.463,
  0.745,
  0.493,
  0.497,
  0.7,
  0.436,
  0.438159,
  0.402,
  0.612341,
  0.45886,
  0.495111,
  0.593,
  0.412,
  0.444,
  0.455111,
  0.52,
  0.077,
  0.632,
  0.596,
  1.214,
  0.693476,
  0.487,
  0.605111,
  0.819,
  0.761,
  0.774,
  1.352111,
  0.39,
  0.620602,
  0.841111,
  0.507,
  1.544,
  0.409,
  0.588373,
  0.703889,
  0.465,
  0.788,
  0.959,
  0.373111,
  0.373,
  0.215992,
  0.439,
  0.388111,
  0.544567,
  0.86,
  0.506,
  0.493111,
  0.567,
  0.692,
  0.846,
  0.821236,
  0.602,
  0.786,
  0.305,
  0.312,
  0.310943,
  0.207263,
  0.335,
  0.615,
  0.79,
  1.188,
  0.345466,
  0.469,
  0.467,
  1.718,
  0.500897,
  0.436,
  0.343396,
  1.216871,
  0.338103,
  0.744,
  0.762,
  0.523,
  0.335103,
  0.469,
  0.403,
  0.315103,
  0.382,
  0.368954,
  0.291,
  0.430103,
  0.366244,
  0.052,
  0.632,
  0.591,
  0.632,
  0.465103,
  0.31,
  0.431,
  0.701103,
  0.276,
  0.31661,
  0.245103,
  0.316,
  0.435097,
  0.765,
  0.607,
  0.61,
  0.344674,
  1.27,
  1.256,
  0.580103,
  0.342897,
  0.57,
  0.251214,
  0.289,
  0.772897,
  0.728103,
  0.736897,
  0.458006,
  0.623,
  0.05,
  0.346,
  0.252504,
  0.303539,
  0.29,
  0.293,
  0.271,
  0.327612,
  0.281,
  0.259,
  0.317,
  0.561461,
  0.246,
  0.26,
  0.317206,
  0.260539,
  0.29688,
  0.294,
  0.267,
  0.975539,
  0.452461,
  0.242,
  0.287,
  0.347572,
  0.426539,
  0.288588,
  0.818,
  0.861,
  0.321539,
  0.252,
  0.266,
  0.274,
  0.403539,
  0.304,
  0.363563,
  0.320539,
  0.455,
  0.311,
  0.327,
  0.271539,
  0.423,
  0.385614,
  0.312,
  0.273,
  0.271884,
  0.324,
  0.397,
  0.244539,
  0.343393,
  0.43888,
  0.337271,
  0.303206,
  0.417539,
  0.43,
  0.299,
  0.318,
  0.27,
  0.296,
  0.284778,
  0.297,
  0.322,
  0.616103,
  0.383,
  0.391,
  0.394,
  0.418,
  0.382,
  0.283,
  0.352,
  0.461,
  0.55,
  0.327,
  0.322,
  0.301103,
  0.3,
  0.282,
  0.304,
  0.310103,
  0.421803,
  0.199,
  0.471,
  0.317,
  0.311103,
  0.331,
  0.319,
  0.617,
  0.367103,
  0.378485,
  0.413,
  0.257,
  0.345103,
  0.354,
  0.310897,
  0.275103,
  0.329,
  0.294,
  0.341,
  0.358103,
  0.328,
  0.415966,
  0.414,
  0.438,
  0.291103,
  0.286897,
  0.244,
  0.751103,
  0.362,
  0.286897,
  0.323666,
  0.319103,
  0.32,
  0.196,
  1.162166,
  0.439,
  0.42,
  0.341,
  0.311,
  1.068,
  1.031,
  1.808,
  1.019778,
  0.285,
  1.01,
  1.041897,
  1.204,
  1.031,
  1.196897,
  1.078,
  1.071,
  1.072,
  1.099,
  1.068,
  1.278352,
  1.051,
  1.937,
  1.063352,
  1.094,
  1.043,
  1.067,
  1.182897,
  1.191352,
  1.037,
  1.144,
  1.117,
  1.083352,
  1.407,
  1.102,
  1.375352,
  1.072,
  1.082,
  1.093,
  1.236,
  1.202352,
  1.175,
  1.383,
  1.156352,
  1.082,
  1.105,
  1.061,
  1.365352,
  1.074,
  1.186,
  1.022,
  1.079,
  1.091352,
  0.287,
  1.068,
  1.269,
  1.068352,
  1.021897,
  1.152897,
  1.302352,
  1.101,
  1.111,
  0.293,
  1.107,
  1.056,
  1.337417,
  1.191,
  1.152623,
  1.351,
  1.193163,
  1.171426,
  1.362197,
  1.181,
  1.162,
  1.387,
  1.360048,
  1.184,
  1.465,
  1.469,
  1.190882,
  1.410163,
  1.339,
  1.281432,
  1.27235,
  1.161004,
  1.482,
  1.151,
  1.683552,
  1.466163,
  1.209,
  1.22086,
  1.223163,
  1.239,
  1.205,
  1.182,
  2.067163,
  1.14,
  1.311,
  1.334,
  0.357,
  1.718,
  1.406163,
  1.43,
  1.22,
  1.227033,
  1.234938,
  1.221,
  1.274,
  1.159223,
  1.352226,
  1.164,
  1.336,
  1.213417,
  1.180163,
  1.256,
  1.188,
  1.232163,
  1.19,
  1.173698,
  1.183163,
  0.336,
  1.488,
  1.321454,
  1.330897,
  1.139056,
  0.961,
  0.905,
  1.42116,
  0.892723,
  1.023923,
  1.007,
  0.899697,
  1.024,
  0.87,
  1.019,
  1.014097,
  0.949216,
  1.003,
  0.939843,
  1.059,
  1.074923,
  0.986,
  1.041,
  1.020923,
  0.878356,
  0.995,
  1.007,
  0.96705,
  0.984923,
  1.02,
  0.997,
  1.003923,
  1.031,
  0.888,
  0.947,
  1.020923,
  0.999,
  1.035,
  0.916,
  0.944,
  1.530608,
  0.911923,
  0.968,
  1.128157,
  0.973923,
  1.005644,
  0.910221,
  0.949923,
  1.006,
  1.013,
  0.872,
  1.078,
  1.104097,
  1.196923,
  0.941,
  0.909,
  0.910923,
  1.067,
  0.944,
  1.098923,
  0.884,
  0.896,
  0.936,
  1.085,
  0.261,
  0.447,
  0.305163,
  0.312223,
  0.308392,
  0.328,
  0.308,
  0.416,
  0.334,
  0.303,
  0.328,
  0.368,
  0.319322,
  0.62,
  0.38,
  0.351223,
  0.19788,
  0.343514,
  0.311,
  6.871,
  0.486223,
  0.358712,
  0.355,
  0.311,
  0.471223,
  0.319,
  0.475,
  0.379223,
  0.376,
  0.35369,
  0.366,
  0.432,
  0.469223,
  0.438,
  0.463,
  0.314,
  0.38,
  0.299,
  0.285322,
  0.690223,
  0.482392,
  0.406442,
  0.344,
  0.324,
  0.314223,
  0.291,
  0.357,
  0.20052,
  0.635223,
  0.284,
  0.428,
  0.413,
  0.619223,
  0.57,
  0.495755,
  0.352,
  0.349,
  0.318,
  0.836,
  0.975,
  0.866,
  1.038,
  0.926,
  1.113356,
  0.924,
  0.977,
  0.937,
  1.158,
  0.912,
  0.915,
  1.107,
  1.732,
  1.063,
  0.894,
  1.460356,
  0.894652,
  0.915,
  0.962356,
  0.908046,
  1.123,
  0.983,
  0.873,
  1.410123,
  1.277,
  0.86,
  0.945356,
  0.959,
  1.013,
  1.115,
  0.910356,
  1.038,
  1.187,
  1.032,
  1.025,
  0.999,
  1.113356,
  1.4,
  0.938356,
  0.956,
  0.882,
  0.955,
  1.005356,
  0.956,
  0.947,
  1.199,
  0.983,
  1.0,
  0.953356,
  1.03,
  1.414321,
  1.094356,
  0.967,
  1.064777,
  1.105356,
  1.059,
  0.95,
  1.172,
  1.244,
  1.213,
  0.603,
  0.403008,
  0.518111,
  0.488,
  0.484,
  0.555,
  0.518,
  0.762,
  1.012,
  0.406,
  0.51,
  0.681,
  0.434,
  0.554,
  0.619111,
  0.43,
  0.471,
  0.457,
  0.09,
  0.980111,
  0.496,
  0.395,
  0.94,
  1.039111,
  1.015,
  0.455837,
  0.575,
  0.403111,
  0.436,
  0.468,
  0.41,
  0.575111,
  0.429,
  0.506,
  0.543111,
  0.625,
  0.574,
  0.544,
  0.784111,
  0.395,
  0.200992,
  0.398,
  0.373,
  0.458,
  0.441111,
  0.853,
  0.589,
  0.471111,
  0.442,
  0.428,
  0.408,
  0.585111,
  0.778,
  0.615,
  0.556,
  0.368,
  0.409,
  0.1,
  1.233,
  1.172,
  1.341,
  1.35598,
  1.809589,
  1.217411,
  1.16,
  1.188925,
  1.246075,
  1.37208,
  1.074,
  1.575,
  1.229,
  1.333,
  1.46998,
  3.296,
  1.254,
  1.236985,
  1.74298,
  1.275,
  1.376,
  1.251,
  1.509,
  3.787,
  0.339,
  1.162233,
  1.832,
  1.303,
  1.27198,
  1.657,
  1.528,
  1.33598,
  1.251,
  1.303,
  1.203925,
  1.332,
  1.648,
  1.28298,
  1.358,
  1.335022,
  1.21598,
  1.32604,
  1.186,
  1.83598,
  1.232,
  1.191,
  1.221736,
  1.297022,
  1.353075,
  2.11798,
  1.175978,
  1.314,
  1.30298,
  1.665,
  2.613,
  1.274619,
  1.209978,
  1.234,
  1.204925,
  1.174022,
  0.304,
  0.315,
  0.369103,
  0.266777,
  0.397,
  0.253,
  0.743,
  0.321,
  0.463897,
  0.430897,
  0.324794,
  0.582388,
  0.367,
  0.660097,
  0.328103,
  0.996897,
  0.247,
  0.291,
  0.344103,
  0.292,
  0.622,
  0.249176,
  0.322266,
  0.318103,
  0.594,
  0.634388,
  0.352103,
  0.395,
  0.399,
  0.299,
  0.335103,
  0.31,
  0.321,
  0.424,
  0.34,
  0.322,
  0.351,
  0.322103,
  0.316,
  0.427,
  0.293,
  0.366,
  0.313103,
  0.257,
  0.343,
  0.467103,
  0.326,
  0.320641,
  0.316,
  0.269103,
  0.309897,
  0.273876,
  0.474,
  0.288,
  0.339,
  0.453,
  0.389,
  0.386,
  0.381223,
  0.326,
  0.507,
  0.353,
  0.367167,
  0.349,
  0.353,
  0.51,
  0.515,
  0.375958,
  0.381,
  0.445,
  0.349223,
  0.397392,
  0.544,
  0.356,
  0.351223,
  0.343578,
  0.353,
  0.327,
  0.331,
  0.336223,
  0.358,
  0.381,
  0.347223,
  0.341545,
  0.306,
  0.534,
  0.383223,
  0.357,
  0.318997,
  0.822,
  0.341,
  0.387,
  1.031777,
  0.407223,
  0.515,
  0.331,
  0.399,
  0.332,
  0.388223,
  0.318,
  0.349888,
  0.356,
  0.392223,
  0.29,
  0.75,
  0.33,
  0.318223,
  0.323,
  0.58,
  0.547,
  0.321,
  0.362,
  0.668,
  0.076888,
  1.32,
  1.395865,
  1.108378,
  1.153,
  1.297,
  1.173531,
  1.474,
  1.106053,
  1.204,
  1.185,
  1.264,
  1.152,
  1.135,
  1.153,
  1.186,
  1.252,
  1.204531,
  1.247135,
  1.126,
  1.178531,
  1.182111,
  1.205215,
  1.096,
  1.576,
  1.396865,
  1.366531,
  1.25,
  1.071882,
  1.233531,
  1.263,
  2.228,
  1.268531,
  1.114881,
  1.151,
  1.24,
  1.209,
  1.103,
  1.084531,
  1.152,
  1.152,
  0.304062,
  1.292531,
  1.142,
  1.253,
  2.199531,
  1.098,
  1.111,
  1.199,
  1.136,
  1.206,
  1.074531,
  1.155,
  1.16,
  1.570531,
  1.194,
  1.16,
  1.212531,
  1.086889,
  1.064,
  1.077,
  1.394796,
  1.129135,
  0.913,
  1.066173,
  1.081141,
  1.031173,
  0.972965,
  0.949,
  1.064214,
  0.876,
  0.759,
  1.066,
  0.992,
  0.180819,
  1.103,
  0.925,
  0.993563,
  1.088,
  1.084965,
  0.985284,
  0.928,
  1.065965,
  0.922,
  0.912,
  0.886,
  1.029004,
  1.023965,
  1.03992,
  0.969004,
  0.922965,
  1.725,
  1.066,
  1.074,
  1.001965,
  0.868,
  1.024,
  0.921,
  1.091,
  1.175143,
  1.055,
  1.008007,
  0.880965,
  1.042,
  1.004,
  0.184592,
  1.053,
  1.063,
  0.83226,
  0.895,
  0.918,
  1.055315,
  0.926965,
  0.939071,
  1.118466,
  0.927965,
  1.181822,
  1.089571,
  1.008965,
  1.217,
  1.765,
  0.896,
  1.004844,
  1.233,
  1.638,
  1.154964,
  1.428036,
  1.287964,
  1.184135,
  1.206,
  1.18851,
  1.291372,
  1.156,
  1.178195,
  1.967253,
  1.297248,
  1.110695,
  1.299252,
  1.133138,
  1.132,
  1.260369,
  1.091138,
  1.273124,
  1.196305,
  1.177257,
  1.303,
  1.268138,
  1.216,
  1.141,
  1.045164,
  1.179,
  1.194822,
  1.167,
  1.387138,
  1.206,
  1.216,
  1.18926,
  1.681763,
  1.089384,
  1.214587,
  1.796,
  1.046923,
  1.117059,
  1.345,
  1.274,
  1.199053,
  1.179138,
  1.236609,
  1.185,
  1.184124,
  1.285876,
  1.314138,
  1.22091,
  1.216946,
  1.110138,
  1.231822,
  1.259,
  1.184138,
  1.295178,
  1.897822,
  1.202,
  1.193,
  1.778,
  1.01783,
  1.287,
  0.974144,
  0.990876,
  1.087,
  1.132479,
  1.411778,
  1.267248,
  0.993,
  0.938218,
  0.888,
  1.233717,
  1.005,
  1.034,
  0.950684,
  0.925876,
  1.145,
  0.885,
  0.960876,
  1.406,
  1.114,
  1.414,
  1.107477,
  0.97073,
  0.94,
  0.97551,
  1.074876,
  0.956,
  0.252,
  1.343219,
  0.930876,
  0.970733,
  1.415,
  0.983,
  0.95,
  0.881876,
  0.868219,
  1.02,
  0.944,
  0.916,
  0.934,
  0.89513,
  1.527876,
  0.97651,
  0.969,
  0.972,
  1.304685,
  1.07,
  1.104856,
  1.007,
  1.063876,
  1.021,
  0.94,
  1.210167,
  1.247,
  0.959144,
  0.990898,
  1.027,
  0.984,
  0.933876,
  0.375,
  0.566,
  0.547111,
  0.415,
  0.371,
  0.655,
  0.537,
  0.363889,
  0.405,
  0.531889,
  0.477889,
  0.531,
  0.478,
  0.439889,
  0.464111,
  0.524,
  0.356,
  0.389,
  0.385111,
  0.073,
  0.375,
  0.451,
  0.388,
  0.491111,
  0.543928,
  0.38,
  0.544,
  0.420111,
  0.545928,
  0.429,
  0.721,
  0.349111,
  0.611,
  0.484701,
  0.423,
  0.451,
  0.569,
  0.070956,
  0.429,
  0.446111,
  0.444,
  0.339956,
  0.401,
  0.562,
  0.478111,
  0.545,
  0.437736,
  0.376111,
  0.355,
  0.378055,
  0.453,
  0.563111,
  0.428,
  0.446,
  0.461,
  0.388,
  0.644,
  0.51,
  0.302,
  0.29064,
  0.311103,
  0.327097,
  0.335,
  0.34,
  0.545592,
  0.359,
  0.36758,
  0.37,
  0.489,
  0.450264,
  0.519897,
  0.360778,
  0.413103,
  0.329,
  0.288,
  0.352,
  0.366103,
  0.322,
  0.051,
  0.327,
  0.555,
  0.303103,
  0.318,
  0.322,
  0.293,
  0.465103,
  0.302194,
  0.319,
  0.337,
  0.372103,
  0.300359,
  0.325624,
  0.75398,
  0.34,
  0.311448,
  0.439897,
  0.310103,
  0.250995,
  0.196448,
  0.313897,
  0.382,
  0.303,
  0.336103,
  0.371358,
  0.299432,
  0.484103,
  0.33588,
  0.44528,
  0.307,
  0.995103,
  0.675734,
  0.044304,
  0.311985,
  0.322,
  0.282,
  0.409994,
  0.328897,
  0.43,
  0.325,
  0.395735,
  0.336794,
  0.346,
  0.333,
  0.392794,
  0.32,
  0.299,
  0.438504,
  0.333889,
  0.285,
  0.265,
  0.311019,
  0.370735,
  0.359698,
  0.335,
  0.338,
  0.310735,
  0.337,
  0.273,
  0.36385,
  0.283735,
  0.324605,
  0.334,
  0.819735,
  0.249488,
  0.365794,
  0.331,
  0.309,
  0.352735,
  0.441897,
  0.368,
  0.441794,
  0.307033,
  0.304,
  0.589,
  0.346735,
  0.338,
  0.340764,
  0.341,
  0.352,
  0.412735,
  0.425889,
  0.063488,
  0.532559,
  0.298735,
  0.37,
  0.60384,
  0.317,
  0.331735,
  0.630562,
  0.383,
  0.351,
  0.312,
  0.33,
  0.343,
  1.188,
  1.1,
  1.053897,
  1.142,
  1.184,
  1.045352,
  1.033,
  1.108,
  1.136,
  1.09,
  1.171,
  1.049,
  1.104352,
  1.066,
  1.101,
  1.156352,
  1.055,
  1.778583,
  1.128417,
  1.062352,
  1.085,
  1.071,
  1.095,
  1.016,
  3.075352,
  1.03,
  1.129,
  1.306352,
  1.05,
  1.153897,
  1.083417,
  1.245352,
  1.129,
  1.071,
  1.07,
  1.04,
  1.047352,
  1.068,
  1.081,
  1.043352,
  1.21,
  1.028,
  1.052,
  1.544352,
  1.061,
  1.099,
  1.092,
  1.727,
  1.354411,
  1.039352,
  1.459,
  1.064,
  1.269352,
  1.177,
  1.381,
  1.073352,
  1.771,
  1.138,
  1.083,
  1.034,
  0.292752,
  0.367587,
  0.372,
  0.491612,
  0.361,
  0.362,
  0.354,
  0.639672,
  0.530111,
  0.32758,
  0.362,
  0.355,
  0.472,
  1.026388,
  0.436,
  0.709612,
  0.36,
  0.369,
  0.36,
  0.418612,
  0.341,
  0.330672,
  0.404,
  0.340612,
  0.6,
  0.355727,
  0.319,
  0.145065,
  0.409612,
  0.367704,
  0.333,
  0.36,
  0.354612,
  0.36,
  0.381763,
  0.397612,
  0.457,
  0.350388,
  0.344,
  0.539612,
  0.457,
  0.391,
  0.353,
  0.348,
  0.419612,
  0.388,
  0.410388,
  0.349612,
  0.363,
  0.352,
  0.327,
  0.329612,
  0.388,
  0.346852,
  0.389,
  0.338,
  0.464,
  0.549,
  0.691,
  0.335,
  0.284,
  0.325,
  0.346119,
  0.331215,
  0.394103,
  0.688,
  0.58,
  0.488,
  0.321,
  0.547478,
  0.308,
  0.316,
  0.436,
  0.334,
  0.285698,
  0.338,
  0.299103,
  0.335398,
  0.393,
  0.344206,
  0.714,
  0.299368,
  0.565504,
  0.313103,
  0.401378,
  0.298,
  0.818,
  0.349103,
  0.494,
  0.37,
  0.691,
  0.958103,
  0.694,
  0.318794,
  0.242863,
  0.359103,
  0.439,
  0.296897,
  0.582,
  0.313103,
  0.348698,
  0.42,
  0.351897,
  0.661,
  0.420103,
  0.369,
  0.473,
  0.299103,
  0.343,
  0.367,
  0.301,
  0.662103,
  0.612,
  0.360777,
  0.695,
  0.319,
  0.421,
  0.696,
  0.307,
  0.323,
  0.316103,
  0.36,
  0.334,
  0.56,
  0.291889,
  0.32,
  0.301802,
  0.473,
  0.499,
  0.421,
  0.337897,
  0.457,
  0.402103,
  0.634897,
  0.679,
  0.445,
  0.301103,
  0.71459,
  0.299897,
  0.396,
  0.485103,
  0.456597,
  0.309,
  0.378,
  0.309103,
  0.353478,
  0.715,
  0.366,
  0.375911,
  0.344,
  0.373,
  0.702,
  0.408103,
  0.547897,
  0.306,
  0.38912,
  0.349103,
  0.474897,
  0.369889,
  0.364,
  0.438,
  0.309103,
  0.319897,
  0.421876,
  0.306103,
  0.289897,
  0.321,
  0.710897,
  0.344103,
  0.418897,
  0.373776,
  0.386,
  0.327103,
  0.338,
  0.294,
  0.99,
  1.1,
  1.011,
  0.997,
  0.943898,
  0.986578,
  0.946,
  0.964,
  1.035,
  0.926,
  0.947054,
  0.953898,
  1.415,
  0.971,
  0.954,
  1.006578,
  1.249,
  0.992,
  1.004578,
  0.958,
  0.983,
  0.974,
  0.957578,
  0.993,
  0.884,
  0.964,
  1.109973,
  1.079,
  0.998,
  0.931,
  0.928,
  1.315578,
  0.943,
  0.944,
  1.057,
  0.915578,
  0.965,
  1.023619,
  0.948578,
  0.954,
  1.017,
  0.968,
  0.947,
  1.008,
  1.003,
  0.95,
  1.025,
  1.068578,
  0.963,
  0.975,
  0.263824,
  0.994578,
  1.095,
  1.055,
  0.944578,
  1.064,
  0.944,
  0.914,
  1.115,
  1.129,
  0.501,
  0.487139,
  0.527903,
  0.424,
  0.419,
  0.378,
  0.366,
  0.447,
  0.542,
  0.411992,
  0.384,
  0.463,
  0.375,
  0.376,
  0.476903,
  0.408,
  0.484,
  0.396,
  0.420903,
  0.429,
  0.425,
  0.626,
  0.824903,
  0.443,
  0.816,
  0.469,
  0.451903,
  0.082,
  0.481,
  0.509,
  0.41,
  0.407903,
  0.393,
  0.327,
  0.550903,
  0.502,
  0.696,
  0.46,
  0.367903,
  1.564,
  0.389,
  0.425,
  0.421,
  0.408903,
  0.411,
  0.522,
  0.367903,
  0.32,
  0.374,
  0.528,
  0.453903,
  0.408,
  0.366216,
  0.395,
  0.379,
  0.358,
  0.392,
  0.582,
  0.396,
  0.48741,
  0.411003,
  0.373385,
  0.491612,
  0.51,
  0.351545,
  0.37982,
  0.388,
  0.372,
  0.472,
  0.44,
  0.374,
  1.99341,
  1.64982,
  0.38,
  0.463,
  0.399,
  0.91241,
  0.424,
  0.427643,
  0.506774,
  0.49041,
  0.564,
  0.37141,
  0.34841,
  0.376,
  0.42859,
  0.453,
  0.475,
  0.39241,
  0.38941,
  0.667415,
  0.28641,
  0.334267,
  0.442301,
  0.636,
  0.34841,
  0.487,
  0.46082,
  0.50118,
  0.473,
  0.43041,
  0.482955,
  0.398,
  0.412003,
  0.39641,
  0.630757,
  0.523,
  0.343,
  0.42341,
  0.786,
  0.435,
  0.4727,
  0.4403,
  0.455535,
  0.462,
  0.959083,
  0.806,
  1.036,
  0.96836,
  0.925047,
  0.861343,
  1.058,
  0.917,
  0.95,
  0.842,
  0.84286,
  0.898,
  0.942,
  1.34982,
  0.973,
  0.898356,
  0.927,
  0.905,
  0.999047,
  0.904,
  1.447278,
  0.87804,
  0.17896,
  1.529,
  0.932047,
  1.008,
  1.02282,
  0.913047,
  0.974,
  0.854756,
  0.882917,
  1.042047,
  0.911,
  0.876,
  0.916,
  0.967,
  0.856047,
  0.936,
  0.839,
  0.826047,
  0.87318,
  0.913,
  0.857,
  0.870047,
  0.876,
  0.776701,
  1.009299,
  0.864,
  0.185592,
  0.932,
  0.93,
  0.875542,
  0.81736,
  0.944,
  0.945,
  0.841907,
  0.915,
  0.92514,
  0.949,
  5.641,
  0.339,
  0.317,
  0.237103,
  0.307,
  0.236,
  0.366,
  0.256897,
  0.28,
  0.702,
  0.515,
  0.405897,
  0.31,
  0.374272,
  0.31,
  0.325103,
  0.278479,
  0.27,
  0.423,
  0.338103,
  0.309,
  0.285,
  0.255,
  0.196779,
  0.274,
  0.329,
  0.363,
  0.318135,
  0.365103,
  0.27258,
  0.324,
  0.321,
  0.530103,
  0.32,
  0.224,
  0.323103,
  0.453,
  0.463362,
  0.285,
  0.294103,
  0.355,
  0.309,
  0.275,
  0.299,
  0.049,
  0.286,
  0.334,
  0.347,
  0.293103,
  0.328897,
  0.298,
  0.392776,
  0.233103,
  0.484,
  0.362,
  0.229,
  0.334,
  0.345,
  0.291,
  0.621111,
  0.273979,
  1.174345,
  0.377,
  0.292,
  0.317,
  0.481063,
  0.302461,
  0.582539,
  0.26,
  0.607564,
  0.330883,
  0.276,
  0.314103,
  0.419206,
  0.305897,
  0.284103,
  2.541,
  1.740969,
  0.278103,
  0.3083,
  0.4327,
  0.450715,
  0.400103,
  1.186,
  1.166949,
  0.339206,
  0.339,
  0.278103,
  0.302,
  0.443206,
  0.350008,
  0.376,
  0.038206,
  0.350103,
  0.464,
  0.38478,
  1.233,
  0.272206,
  0.425165,
  0.283835,
  0.271103,
  0.586,
  0.416206,
  1.236248,
  1.801897,
  0.742214,
  0.495927,
  0.34266,
  0.379,
  0.652506,
  0.323,
  0.295897,
  0.298103,
  0.391,
  0.297792,
  0.315217,
  0.309,
  0.302,
  0.383836,
  0.273,
  0.269,
  0.299,
  0.242,
  0.284,
  0.278,
  0.398,
  0.805,
  0.288,
  0.369,
  0.488,
  0.669836,
  0.477,
  0.256,
  0.274,
  0.257836,
  0.334,
  0.229,
  0.324,
  0.659836,
  0.335,
  0.376684,
  0.31,
  0.041,
  0.406587,
  0.293,
  0.279,
  0.294,
  0.286836,
  0.387837,
  0.246,
  0.276836,
  0.257,
  0.473444,
  0.253,
  0.305836,
  0.271,
  0.266,
  0.303,
  0.3,
  0.259836,
  0.324,
  0.277683,
  0.278836,
  0.414596,
  0.408,
  0.373,
  0.375836,
  0.36,
  0.324,
  0.28,
  0.278,
  0.382,
  0.432,
  0.4,
  0.382,
  0.284,
  0.414103,
  0.39654,
  0.414,
  0.388,
  0.403837,
  0.429,
  0.462,
  0.447448,
  0.31,
  0.348,
  0.485,
  0.315,
  0.304103,
  0.376809,
  0.385,
  0.342,
  0.310103,
  0.29274,
  0.352,
  0.31,
  0.255103,
  0.539,
  0.316,
  0.45,
  0.463103,
  0.314,
  0.365,
  0.346,
  0.385,
  0.292103,
  0.403619,
  0.396,
  0.341103,
  0.341008,
  0.493,
  0.358,
  1.775103,
  0.261,
  1.061,
  0.369,
  0.489,
  0.391,
  0.292103,
  0.334862,
  0.349636,
  0.341103,
  0.289,
  0.438897,
  0.367103,
  0.413944,
  0.312,
  0.937,
  0.354,
  0.301,
  0.517,
  0.340008,
  0.449,
  0.329327,
  0.405903,
  0.478988,
  0.349,
  0.345,
  0.413,
  0.393,
  0.442,
  0.408124,
  0.418638,
  0.419,
  0.699,
  0.286097,
  0.489903,
  0.438,
  0.478,
  0.381,
  0.388903,
  0.514,
  0.374,
  0.439405,
  0.435903,
  0.467,
  0.453,
  0.326,
  0.351903,
  0.362,
  0.331,
  0.363,
  0.417903,
  0.525,
  0.410178,
  0.2122,
  0.748903,
  0.427097,
  0.384,
  0.567405,
  0.659903,
  0.657,
  0.343,
  0.372,
  0.372,
  0.536903,
  0.421,
  0.407324,
  0.321903,
  0.615357,
  0.349134,
  0.432,
  0.449903,
  0.604,
  0.337,
  0.362,
  0.335,
  0.809992,
  0.366026,
  0.366,
  0.672517,
  0.41005,
  1.541541,
  0.896546,
  1.780393,
  0.498229,
  0.457,
  0.37,
  0.420852,
  0.326705,
  0.851636,
  0.456,
  0.547,
  0.38505,
  1.1311,
  0.513,
  0.464999,
  0.43905,
  0.529134,
  0.510148,
  0.539902,
  0.465,
  0.49937,
  0.507,
  1.125,
  0.44805,
  0.525,
  0.965,
  0.421,
  0.49505,
  0.423349,
  0.426678,
  0.095354,
  0.329301,
  0.426048,
  0.537,
  0.425,
  0.527,
  0.376349,
  0.426866,
  0.432,
  0.926,
  0.36305,
  0.383,
  0.697852,
  1.28705,
  0.495,
  0.502,
  0.36605,
  0.644,
  0.393852,
  0.372304,
  0.46783,
  0.412866,
  0.416,
  0.348,
  0.35,
  0.199491,
  0.299612,
  0.342,
  0.354,
  0.364889,
  0.456,
  0.41,
  0.494488,
  0.268388,
  0.355,
  0.731078,
  0.372,
  0.271,
  0.305612,
  0.407704,
  0.382,
  0.354,
  0.430612,
  0.372,
  0.560388,
  0.464588,
  0.491612,
  0.371797,
  0.38306,
  0.846285,
  0.303612,
  0.353388,
  0.363,
  0.38,
  0.432612,
  0.355,
  1.087,
  0.049704,
  0.605612,
  0.638,
  0.467,
  0.406285,
  0.344,
  0.494,
  0.37,
  0.483,
  0.37,
  0.588612,
  0.381388,
  0.373,
  0.640612,
  0.577,
  0.458727,
  0.695,
  0.605612,
  0.381,
  0.377392,
  0.37,
  0.357,
  0.551111,
  0.053538,
  0.912,
  1.06076,
  0.851,
  0.878124,
  0.196979,
  0.92838,
  0.804,
  0.914,
  1.01038,
  0.915,
  0.908,
  0.883857,
  1.004752,
  0.912,
  0.899876,
  0.838124,
  0.896852,
  0.844585,
  0.897,
  0.804,
  0.882124,
  1.138504,
  0.911876,
  0.932124,
  1.070902,
  0.995,
  1.01377,
  0.873124,
  0.948,
  0.8669,
  0.918,
  0.845,
  2.086124,
  0.743,
  0.899,
  0.882124,
  0.934,
  0.883386,
  0.968,
  0.812,
  1.003876,
  1.217,
  0.783,
  0.824,
  0.164,
  0.922124,
  0.902,
  0.975,
  0.856124,
  0.82694,
  0.899,
  0.820124,
  1.241,
  1.028,
  0.914,
  0.926,
  0.91,
  1.015,
  1.059,
  1.051,
  1.037388,
  0.959991,
  1.117691,
  0.957,
  1.10616,
  1.05,
  0.873,
  1.023,
  1.022,
  0.971,
  0.99987,
  1.021697,
  1.004524,
  1.058,
  1.134763,
  1.162,
  1.488,
  1.042763,
  1.008,
  1.025,
  0.928601,
  1.121,
  1.073763,
  0.992562,
  1.01784,
  0.900763,
  0.995,
  1.14,
  1.191859,
  1.095763,
  1.006672,
  0.93,
  1.123,
  1.063,
  0.274,
  1.029763,
  1.13,
  1.052,
  2.650763,
  1.039,
  1.401,
  1.153865,
  1.039,
  1.008,
  1.046,
  1.047,
  1.068,
  1.108763,
  1.090325,
  1.12342,
  1.056763,
  1.077388,
  1.165591,
  1.052763,
  1.038,
  1.012,
  0.952,
  1.102601,
  0.626683,
  0.495472,
  0.066156,
  0.40624,
  0.432433,
  1.136567,
  0.482528,
  0.439968,
  1.294,
  0.410569,
  0.395961,
  0.617318,
  0.521559,
  0.368704,
  0.515433,
  0.635584,
  0.065536,
  0.407292,
  0.405,
  0.402,
  0.49724,
  0.562279,
  0.4,
  0.458,
  0.70224,
  0.410321,
  1.104606,
  0.49224,
  0.508,
  0.376899,
  0.428906,
  0.378732,
  0.40424,
  0.8,
  0.57,
  0.649073,
  0.378,
  1.365288,
  0.428603,
  0.41924,
  0.413842,
  0.358084,
  0.421637,
  0.729,
  0.40424,
  0.392491,
  0.394778,
  0.200642,
  0.492,
  0.416862,
  0.526722,
  0.497632,
  0.513166,
  0.398479,
  0.501625,
  0.448344,
  0.364656,
  0.408462,
  0.368571,
  1.103,
  1.028,
  1.058,
  1.111,
  1.130352,
  1.442897,
  1.315787,
  1.134,
  1.076,
  1.689,
  1.067097,
  1.05,
  1.205,
  1.261,
  1.050698,
  1.01,
  1.048352,
  1.072,
  1.096,
  0.295989,
  1.1,
  1.071,
  1.097,
  28.697,
  1.06,
  1.175352,
  1.103897,
  1.063,
  1.078352,
  1.081,
  1.06,
  1.169,
  1.107352,
  1.196,
  1.105,
  1.18,
  1.093,
  1.073352,
  1.173,
  1.043,
  1.319787,
  1.097352,
  1.143562,
  1.102,
  1.151,
  1.081,
  1.074876,
  1.111,
  1.139,
  1.151,
  1.345352,
  1.06,
  1.036,
  1.028352,
  1.101767,
  1.103,
  1.143352,
  1.068,
  8.806,
  6.815,
  7.865,
  0.287,
  1.039,
  1.169,
  0.862,
  1.049852,
  0.894,
  0.935356,
  0.958006,
  0.937,
  0.867,
  0.967,
  0.910797,
  1.072,
  0.887,
  0.912789,
  0.890218,
  1.165,
  0.927356,
  1.803,
  0.93,
  1.020356,
  0.893,
  0.965,
  0.933,
  0.976,
  0.970356,
  0.913,
  1.359,
  0.991356,
  1.063,
  1.041852,
  0.948,
  0.937356,
  0.996,
  0.948,
  0.955,
  0.939,
  0.903777,
  1.090356,
  0.92,
  0.971,
  0.950356,
  0.968,
  0.926,
  1.127356,
  0.976,
  0.882,
  0.947,
  0.977,
  0.893,
  0.898356,
  0.932,
  1.156,
  0.931356,
  1.039,
  1.031,
  0.887356,
  0.923,
  1.028,
  0.933,
  1.126,
  1.437059,
  0.354,
  0.069,
  0.413928,
  0.421111,
  0.41,
  0.352,
  0.402,
  0.324948,
  0.56,
  0.488,
  0.513294,
  0.425876,
  0.533,
  0.401,
  0.489,
  0.392111,
  0.416188,
  0.393,
  0.352,
  0.478111,
  0.453,
  0.632644,
  0.684,
  0.433111,
  0.326,
  0.743,
  0.837889,
  0.633111,
  0.079889,
  0.575568,
  0.447,
  0.417,
  0.469111,
  0.388,
  0.533,
  0.484111,
  0.344,
  0.467013,
  0.364,
  0.426111,
  0.355,
  0.397,
  0.374,
  0.374,
  0.383111,
  0.528,
  0.374,
  0.436111,
  0.485,
  0.415,
  0.394,
  0.377111,
  0.505,
  0.55,
  0.411,
  0.453,
  0.551819,
  0.077487,
  0.401,
  0.291,
  0.430103,
  0.315,
  0.319,
  0.288,
  2.342,
  0.319338,
  0.257,
  0.389,
  0.349897,
  0.286281,
  0.426655,
  0.354,
  1.075103,
  0.394,
  0.303,
  0.261,
  0.611103,
  0.31,
  0.426,
  0.677,
  0.298103,
  0.359,
  0.723613,
  0.482,
  0.414,
  0.315103,
  0.286,
  0.289,
  0.267,
  0.499103,
  0.325,
  0.292,
  0.291103,
  0.402,
  0.352,
  0.434,
  0.312,
  0.391,
  0.306,
  0.773,
  0.294,
  0.395103,
  0.346,
  0.431,
  0.385103,
  0.326,
  0.359411,
  0.312103,
  0.34703,
  0.341,
  0.739,
  0.349,
  0.285,
  0.437695,
  0.479077,
  0.410095,
  0.409695,
  0.356883,
  0.375733,
  0.38893,
  0.396042,
  0.639,
  0.638105,
  0.355639,
  0.451873,
  0.385663,
  0.356064,
  0.619,
  0.410673,
  0.348883,
  0.419,
  0.511,
  1.200202,
  0.384681,
  0.424164,
  0.418784,
  0.326883,
  0.675117,
  0.21922,
  0.299278,
  0.310805,
  0.535883,
  0.445,
  0.339438,
  0.4,
  0.600883,
  0.348021,
  0.40709,
  0.526883,
  0.416,
  0.488,
  0.319,
  0.526766,
  0.516936,
  0.64586,
  0.309179,
  0.48,
  0.363921,
  0.323117,
  0.439229,
  0.462883,
  0.631,
  0.393,
  0.355,
  0.447654,
  0.480925,
  0.059,
  0.439929,
  0.327,
  0.498229,
  0.402962,
  0.332,
  1.146,
  0.913,
  1.012219,
  1.271634,
  0.933146,
  1.072716,
  0.888,
  1.084,
  1.075,
  1.1,
  1.025175,
  1.115,
  1.142,
  1.021,
  1.05,
  1.048,
  1.038965,
  0.813,
  1.077753,
  0.998965,
  1.347617,
  1.007,
  0.859,
  1.011284,
  0.925258,
  1.108,
  1.075,
  1.158965,
  1.041,
  0.90759,
  1.47658,
  1.268638,
  2.379,
  1.116,
  1.08404,
  0.839169,
  0.841,
  0.945965,
  1.154796,
  1.05017,
  0.989973,
  0.883,
  1.003,
  0.743173,
  1.042965,
  1.073,
  0.856575,
  1.062,
  1.132568,
  0.995965,
  1.789366,
  1.098,
  1.052965,
  0.917534,
  0.995068,
  1.048965,
  0.981101,
  0.821068,
  1.071,
  1.096683,
  1.014,
  0.84,
  0.879865,
  0.838054,
  0.893614,
  0.89,
  0.895,
  0.947682,
  0.835,
  1.103,
  0.84,
  0.807114,
  0.938,
  0.791,
  0.843865,
  0.795,
  0.812865,
  0.906,
  0.891,
  0.858,
  0.900461,
  0.854,
  1.159865,
  0.966,
  0.822,
  0.897,
  0.902865,
  0.847,
  1.186486,
  0.817865,
  0.851,
  0.869,
  0.913,
  1.037,
  1.162865,
  0.85,
  0.835968,
  1.353865,
  0.847,
  0.886,
  0.892,
  0.967865,
  0.865,
  0.89,
  0.883,
  1.119848,
  0.906865,
  0.887,
  0.872,
  0.898865,
  0.930114,
  0.834,
  0.877865,
  2.175,
  0.855,
  0.875,
  0.89,
  0.971,
  1.067,
  0.932,
  0.256,
  0.956,
  0.971,
  1.057,
  0.934,
  0.958,
  1.041,
  0.931976,
  1.026753,
  0.946,
  0.956,
  1.099861,
  0.955,
  1.67323,
  0.971,
  0.943,
  0.97223,
  0.950662,
  0.921,
  0.96,
  0.9214,
  1.05723,
  0.251,
  0.938232,
  1.07023,
  1.115,
  1.103,
  0.98,
  1.10023,
  0.94225,
  0.93075,
  10.162,
  1.052,
  1.087363,
  1.46323,
  0.954,
  0.92723,
  0.969,
  1.037,
  0.943,
  0.983,
  1.053,
  0.916,
  0.944,
  0.961737,
  1.175,
  1.18123,
  1.06,
  0.95723,
  0.952753,
  0.256777,
  0.979,
  0.948,
  0.981803,
  0.945,
  0.993,
  0.941,
  0.959,
  1.332885,
  1.209948,
  1.208,
  1.239472,
  1.198,
  1.299,
  1.293,
  1.217,
  1.206,
  1.273,
  1.128,
  1.201,
  1.666289,
  1.198,
  1.220472,
  1.277479,
  1.234928,
  1.30595,
  1.227188,
  1.238597,
  1.210727,
  1.349399,
  1.227575,
  1.245472,
  1.185,
  1.263,
  1.203472,
  1.679,
  0.336162,
  1.244,
  1.381472,
  1.206137,
  1.213,
  1.25,
  1.23574,
  1.176,
  1.191873,
  1.182,
  1.257472,
  1.221,
  1.209,
  1.226472,
  1.182744,
  1.216818,
  1.208,
  1.133,
  1.208401,
  2.0627,
  1.260472,
  1.214,
  1.232472,
  1.213597,
  1.20074,
  1.354472,
  1.211422,
  1.37,
  1.55,
  1.209,
  1.172064,
  0.425,
  0.347,
  1.221612,
  0.314,
  0.363,
  0.297,
  0.373,
  0.332,
  0.554,
  0.318,
  0.404,
  0.35,
  0.32485,
  0.655,
  0.334309,
  0.995,
  0.313,
  0.302,
  0.292612,
  0.415,
  0.827,
  0.354433,
  0.536612,
  0.357,
  0.332,
  0.375612,
  0.343,
  0.365,
  0.368,
  0.342,
  0.358612,
  0.782079,
  0.35024,
  0.313,
  0.309,
  0.465352,
  0.304,
  0.328612,
  0.32018,
  0.415352,
  0.316,
  0.403,
  0.298,
  0.398612,
  0.379825,
  0.333612,
  0.426,
  0.525,
  0.334591,
  0.492612,
  0.337,
  0.477296,
  0.337,
  0.389,
  0.312,
  0.361,
  0.627901,
  0.409103,
  1.154309,
  0.566838,
  0.339162,
  0.911,
  0.428073,
  0.464879,
  0.472292,
  0.334,
  0.681953,
  0.543979,
  0.454876,
  0.407,
  0.711103,
  0.282282,
  0.288908,
  0.293092,
  0.640815,
  0.305121,
  0.438303,
  0.274612,
  0.3602,
  0.686701,
  0.561,
  0.511103,
  0.625,
  0.280506,
  0.299179,
  0.302,
  0.305,
  0.428206,
  0.3117,
  0.26,
  1.239227,
  0.452512,
  0.443364,
  0.37,
  0.426103,
  0.317111,
  0.347897,
  0.273,
  0.303,
  0.656103,
  0.311,
  0.300412,
  0.376423,
  0.271206,
  0.393103,
  0.578897,
  0.302883,
  0.580014,
  0.611111,
  0.264206,
  0.352096,
  0.312698,
  1.190768,
  0.272103,
  0.303,
  0.324,
  0.309,
  0.05,
  1.048103,
  0.310752,
  0.332,
  0.285,
  0.291,
  0.507,
  0.351,
  0.426,
  0.292,
  0.319,
  0.294911,
  0.349,
  0.536103,
  0.307,
  0.412,
  0.309,
  0.354103,
  0.665,
  0.307,
  1.373103,
  0.852,
  0.326,
  0.434,
  0.493103,
  0.387,
  0.319,
  0.314,
  0.326,
  0.348103,
  0.262,
  0.466,
  0.29078,
  0.818,
  0.603,
  0.488,
  0.321,
  0.288,
  0.329,
  0.418,
  0.286,
  0.947,
  0.316103,
  0.614,
  0.295794,
  0.325103,
  0.46,
  0.379,
  0.314103,
  0.473,
  0.271,
  0.278689,
  0.291,
  0.349727,
  0.318,
  0.65,
  0.243,
  0.04121,
  0.318,
  0.385103,
  0.354897,
  0.283,
  0.26,
  0.422,
  0.337,
  0.279,
  0.34,
  0.334796,
  0.338,
  0.827,
  0.314924,
  0.289103,
  0.443,
  0.325,
  0.331,
  0.336785,
  0.327079,
  0.453692,
  0.296,
  0.422103,
  0.347,
  0.343,
  0.6212,
  0.410103,
  0.244,
  0.508,
  0.344,
  0.374103,
  0.310102,
  0.514394,
  0.277,
  0.329103,
  0.323447,
  0.370678,
  0.361,
  0.370103,
  0.375991,
  0.437678,
  0.354,
  0.264,
  0.535103,
  0.252897,
  0.349659,
  0.602103,
  0.275678,
  0.816,
  0.375897,
  0.305103,
  0.267768,
  0.306287,
  0.298,
  0.302,
  0.399,
  0.04355,
  0.414,
  0.503629,
  0.307,
  0.543103,
  0.334306,
  0.34,
  0.306,
  0.318,
  0.296,
  0.642956,
  0.596,
  0.373043,
  0.276897,
  0.268,
  0.304712,
  0.287206,
  0.462,
  0.307529,
  0.483719,
  0.384418,
  0.208611,
  0.829,
  0.283,
  0.386632,
  0.406574,
  0.714625,
  0.424759,
  0.484625,
  0.466897,
  0.49,
  0.485,
  0.434351,
  0.311947,
  0.71816,
  0.420889,
  0.45392,
  1.40222,
  0.308474,
  0.299765,
  0.404206,
  0.446712,
  0.480396,
  0.493723,
  0.467277,
  0.617268,
  1.041235,
  0.419765,
  0.319103,
  0.419,
  0.325,
  0.423075,
  0.409103,
  0.358306,
  0.507897,
  0.434914,
  0.496086,
  0.334957,
  0.329,
  0.457,
  0.3203,
  0.411612,
  0.409,
  0.431,
  0.511154,
  0.390004,
  0.298243,
  0.414098,
  0.312098,
  0.287,
  0.365732,
  0.522388,
  0.43746,
  0.477612,
  0.304,
  0.32288,
  0.39012,
  0.350612,
  0.322013,
  0.552,
  0.377,
  0.318612,
  0.387902,
  0.244539,
  0.550845,
  0.355,
  0.398612,
  0.43274,
  0.405283,
  0.323717,
  0.390612,
  0.316,
  0.313,
  0.996,
  0.754845,
  0.816,
  0.639,
  0.952612,
  0.311,
  0.316427,
  0.37,
  0.31326,
  14.224612,
  0.435,
  1.214,
  0.432612,
  0.358206,
  0.338,
  0.496,
  0.622612,
  0.476,
  0.404,
  0.322,
  0.342,
  0.362,
  0.299,
  0.763227,
  0.926195,
  0.685114,
  0.738817,
  0.966646,
  0.787561,
  0.51621,
  0.527,
  0.690528,
  0.648845,
  0.770195,
  0.825857,
  0.780143,
  2.06,
  0.776402,
  0.663213,
  0.644013,
  0.6986,
  0.827195,
  0.753924,
  0.5023,
  0.523783,
  0.955195,
  0.84461,
  0.516514,
  0.603923,
  0.522207,
  1.23289,
  0.687,
  0.697,
  0.496795,
  0.667,
  0.210609,
  0.681092,
  0.787195,
  0.897306,
  0.9,
  0.636483,
  0.794,
  0.663836,
  0.679,
  0.688774,
  0.628349,
  0.803347,
  0.6348,
  0.569095,
  0.715318,
  1.855399,
  0.621168,
  0.63639,
  0.517263,
  0.670176,
  0.793,
  0.652579,
  0.609523,
  0.634558,
  0.972,
  0.780418,
  0.352751,
  0.537698,
  0.771,
  0.775,
  0.839,
  0.520114,
  0.352,
  0.379,
  0.304,
  0.283109,
  0.386,
  0.372,
  0.368,
  0.890698,
  0.384,
  0.791,
  0.78,
  0.359698,
  0.342034,
  0.374,
  0.510306,
  0.352698,
  0.39,
  0.14911,
  0.716538,
  0.454,
  1.269,
  0.783,
  0.373,
  0.804,
  0.399698,
  0.286,
  0.303546,
  0.282698,
  0.75,
  0.471,
  0.404698,
  0.447,
  0.809905,
  0.435,
  0.348,
  0.466698,
  0.764,
  0.378,
  0.379,
  0.058,
  0.895,
  0.402,
  0.405,
  0.566698,
  0.296,
  0.812,
  0.764,
  0.803,
  0.409,
  0.345,
  0.800983,
  0.9,
  0.875,
  0.865124,
  0.887836,
  0.857,
  0.886,
  0.996876,
  0.892,
  0.867,
  0.838,
  0.89,
  0.882876,
  0.987,
  0.981124,
  0.713,
  0.86,
  0.918,
  0.895,
  0.741124,
  0.848,
  0.944,
  1.062129,
  0.877124,
  0.837,
  0.804876,
  0.896124,
  0.903876,
  0.955,
  0.877,
  0.895,
  0.942124,
  0.167133,
  0.897,
  0.93,
  0.868124,
  0.877524,
  0.915,
  1.258,
  0.949124,
  0.848,
  0.9,
  0.88,
  0.887,
  0.976124,
  0.857,
  0.774,
  0.801124,
  0.994,
  0.894,
  0.964,
  0.772124,
  0.832,
  0.854,
  0.895,
  0.892,
  0.999,
  2.199,
  0.378965,
  0.413883,
  0.417,
  0.422,
  0.417,
  0.346,
  0.325,
  0.362,
  0.388,
  0.53,
  0.301,
  0.813669,
  0.359,
  0.370883,
  0.346,
  0.392,
  0.522,
  0.481883,
  0.709,
  0.515,
  0.335,
  0.24888,
  0.376,
  0.39138,
  0.46,
  0.496504,
  0.573883,
  0.431924,
  0.356,
  0.449,
  0.400883,
  0.439707,
  0.517,
  0.360275,
  0.52,
  0.267935,
  0.462,
  0.895883,
  0.485,
  0.380144,
  0.456,
  0.49,
  0.455883,
  0.520864,
  0.435,
  0.388883,
  0.507774,
  1.00195,
  0.453,
  0.457883,
  0.315,
  0.366965,
  0.411,
  0.417,
  0.615275,
  0.869206,
  0.303,
  1.212,
  0.88,
  0.803021,
  0.441309,
  0.316889,
  0.339,
  0.313,
  1.152284,
  0.316,
  0.309897,
  0.655597,
  0.352507,
  0.394,
  0.435,
  0.322897,
  0.338103,
  0.288897,
  0.33,
  0.299,
  0.393103,
  0.292,
  0.39,
  0.399889,
  0.303103,
  0.326897,
  0.291103,
  0.336897,
  0.445103,
  0.387897,
  0.313,
  0.282,
  0.307103,
  0.342,
  0.202,
  0.395881,
  0.406103,
  0.314,
  0.439,
  0.608,
  0.436103,
  0.696,
  0.345889,
  0.293,
  0.342,
  0.281103,
  0.365,
  0.295698,
  0.402103,
  0.45,
  0.519,
  0.308,
  0.470604,
  0.448388,
  0.340889,
  0.288,
  0.31239,
  0.359,
  0.046897,
  0.456461,
  0.325,
  0.377,
  0.77224,
  0.687,
  0.642,
  0.357,
  0.378,
  0.368,
  0.619,
  0.411,
  0.341,
  0.334,
  0.339,
  0.343889,
  0.583,
  0.169154,
  0.442,
  1.141,
  0.708,
  0.305,
  0.411103,
  0.324,
  0.306,
  0.387,
  0.340103,
  0.61,
  0.664091,
  0.596,
  0.443103,
  0.369897,
  0.454,
  0.595,
  0.767103,
  0.31,
  0.448,
  0.769103,
  0.335,
  0.292,
  0.373897,
  0.454103,
  0.531,
  0.41161,
  0.377,
  0.38,
  0.386103,
  0.362,
  0.501,
  0.424103,
  0.353,
  0.314,
  0.363794,
  0.362103,
  0.419,
  0.061,
  0.318,
  0.382,
  0.308,
  0.515,
  0.301876,
  0.899,
  0.957695,
  0.962,
  0.91,
  0.881,
  1.076,
  0.953,
  1.308,
  0.967,
  1.098,
  0.998,
  1.072,
  0.939,
  1.079,
  0.942,
  0.940578,
  0.951,
  0.935411,
  1.059578,
  0.998,
  1.288,
  0.977876,
  1.389305,
  1.045578,
  0.925246,
  1.396,
  0.948578,
  1.155,
  1.043463,
  0.932,
  0.932578,
  0.259,
  1.303,
  1.308,
  1.327,
  0.95,
  1.877578,
  0.944411,
  1.234,
  1.002443,
  1.132,
  1.238,
  0.952266,
  1.282578,
  0.967,
  1.298,
  1.005,
  1.416695,
  0.995578,
  0.968,
  0.994,
  0.953578,
  1.064,
  0.262,
  1.038578,
  1.005,
  1.265,
  1.084,
  1.273,
  0.941,
  1.64784,
  0.404,
  0.414522,
  1.103708,
  0.696,
  0.218787,
  0.676,
  0.345,
  0.381,
  0.470212,
  0.419967,
  1.839,
  0.398,
  0.591,
  0.42,
  0.399522,
  0.523,
  0.639,
  0.697,
  0.497522,
  0.381053,
  0.451478,
  0.35428,
  0.370522,
  0.41,
  0.48483,
  0.07,
  0.45,
  2.763179,
  0.503,
  0.499,
  0.674,
  0.717522,
  0.370375,
  0.428732,
  0.408522,
  0.408,
  0.3859,
  0.726851,
  0.325864,
  0.494,
  0.497,
  0.6489,
  0.6631,
  0.402522,
  0.377,
  0.51572,
  0.338522,
  0.419,
  0.382478,
  0.511173,
  0.511447,
  0.511,
  1.145007,
  0.77,
  0.479,
  0.35528,
  0.399,
  0.333,
  0.591,
  0.301103,
  0.445707,
  0.307,
  0.385,
  0.38,
  0.38,
  0.330897,
  0.358,
  0.604876,
  0.31,
  0.465,
  0.658,
  0.243897,
  0.426,
  0.375,
  0.361,
  0.351,
  0.369103,
  0.332,
  0.422,
  0.304897,
  0.326103,
  0.322,
  0.329698,
  0.422692,
  0.414103,
  0.308,
  0.344,
  0.362,
  0.303103,
  0.392,
  0.538,
  0.763103,
  0.443,
  0.31,
  0.321794,
  0.318103,
  0.29678,
  0.39,
  0.436,
  0.357,
  0.470103,
  0.367,
  0.295,
  0.046,
  0.333103,
  0.629,
  0.312777,
  0.48,
  0.401103,
  0.404735,
  0.364,
  0.302,
  0.772,
  0.318,
  0.408794,
  0.987219,
  0.980538,
  1.646131,
  0.932773,
  0.852827,
  1.031186,
  1.02,
  1.0,
  0.956081,
  0.996195,
  0.920772,
  1.007795,
  1.009313,
  2.35547,
  1.026565,
  0.943101,
  1.053124,
  0.989358,
  0.185954,
  1.806038,
  1.009062,
  1.169957,
  1.030043,
  1.010798,
  1.797121,
  0.996375,
  1.052196,
  1.00877,
  0.876098,
  0.929594,
  1.762398,
  0.913141,
  1.13611,
  0.944081,
  1.028919,
  0.902455,
  1.582249,
  1.001924,
  1.569484,
  0.982569,
  1.052124,
  0.97312,
  1.600124,
  0.988857,
  0.961124,
  1.14083,
  1.070954,
  1.019276,
  1.318977,
  0.945148,
  1.926349,
  1.095929,
  1.654213,
  0.972124,
  1.255699,
  1.053977,
  0.986221,
  1.025879,
  0.955081,
  1.021,
  1.427,
  1.177,
  1.376647,
  1.09,
  1.057826,
  1.175245,
  1.107,
  1.084,
  1.314,
  1.107,
  1.363,
  1.173,
  1.400152,
  1.814,
  1.185203,
  1.085694,
  1.077119,
  0.221486,
  1.083,
  1.178033,
  1.285679,
  1.430119,
  1.927905,
  1.07,
  8.099,
  1.069119,
  1.118,
  1.748119,
  1.029,
  1.068,
  1.221595,
  1.109405,
  1.162119,
  1.378,
  1.372,
  1.103,
  1.113,
  1.099239,
  30.236564,
  1.036119,
  1.083,
  1.052,
  1.083,
  1.134,
  1.360405,
  1.09512,
  1.093,
  1.8,
  1.103119,
  1.023,
  1.543119,
  1.172,
  1.149,
  1.083897,
  1.059826,
  1.105,
  1.074,
  1.19,
  1.367,
  1.114,
  1.094,
  1.148119,
  1.202,
  1.491,
  1.201,
  1.074,
  1.067,
  1.236,
  1.172103,
  1.121103,
  1.084,
  1.263554,
  1.13,
  1.082,
  1.341,
  1.155889,
  1.247352,
  1.522,
  1.175,
  1.116,
  1.625352,
  1.077,
  1.143,
  1.046903,
  1.03,
  0.997352,
  1.071,
  1.373934,
  1.143352,
  1.051,
  2.419,
  1.124,
  1.348476,
  1.121,
  1.093,
  1.089,
  0.289,
  1.13,
  1.143352,
  1.191,
  1.144992,
  1.116352,
  1.033,
  1.220352,
  43.868,
  1.118,
  1.727,
  1.195,
  1.055,
  1.28,
  1.242352,
  1.152,
  1.42,
  1.190352,
  1.124,
  2.081,
  1.935814,
  1.048103,
  1.041,
  1.045124,
  1.231,
  1.418,
  0.433,
  0.790634,
  0.374103,
  0.318,
  0.328,
  0.272,
  0.2,
  1.529,
  0.354634,
  0.392934,
  0.261,
  0.305985,
  0.32367,
  0.267,
  0.674,
  0.313103,
  0.465334,
  0.574,
  0.346,
  0.314103,
  0.574,
  0.56,
  0.303103,
  0.402417,
  0.274,
  0.378617,
  0.425,
  0.474103,
  0.30096,
  0.388,
  0.324,
  0.257103,
  0.409,
  0.327103,
  0.384,
  0.332,
  0.300224,
  0.509,
  0.39,
  0.420372,
  0.402,
  0.393,
  0.318,
  0.269103,
  0.342,
  0.412103,
  0.298,
  0.510846,
  0.346256,
  0.295103,
  0.546846,
  0.203,
  0.322897,
  0.322,
  0.397,
  0.396,
  0.333
]