{
  "1048576": [
    7.215,
    7.856,
    7.261,
    4.847078,
    3.609105,
    3.814,
    5.863,
    6.157,
    5.769,
    6.707,
    7.106,
    7.22,
    7.484,
    8.853,
    8.428,
    5.259,
    3.452,
    3.155,
    2.194,
    5.258,
    3.262,
    3.142,
    4.504,
    4.008,
    6.413,
    6.393064,
    9.34,
    7.633,
    5.529,
    7.401,
    4.916,
    5.703,
    6.53,
    3.834,
    3.764591,
    6.179,
    3.115,
    4.598,
    3.766,
    2.937756,
    2.535,
    2.282,
    2.415,
    3.281,
    2.82,
    4.476,
    2.109,
    2.064,
    2.403,
    9.779,
    5.786,
    6.451,
    5.365,
    5.757,
    5.817,
    4.165,
    3.589,
    4.449,
    7.535,
    3.733,
    4.192,
    10.06796,
    2.707,
    3.949903,
    3.215,
    3.155,
    5.724,
    7.88,
    6.536263,
    5.131,
    4.900781,
    5.17249,
    4.904,
    2.989,
    4.072,
    3.743,
    2.53,
    5.948,
    6.137,
    6.477,
    2.359,
    2.867,
    3.587,
    2.737,
    2.68,
    3.26,
    2.598,
    2.207,
    2.904,
    7.545,
    3.587,
    5.974,
    3.258,
    2.93,
    4.447,
    5.643,
    5.1,
    4.751,
    6.345,
    2.931,
    3.755897,
    2.281897,
    5.043156,
    3.6,
    4.209,
    1.697,
    2.882,
    2.945,
    2.277,
    7.025,
    4.538,
    6.691,
    5.715,
    6.481,
    6.381,
    6.137,
    5.444,
    6.375,
    2.952,
    3.443,
    2.678,
    2.666,
    1.989,
    3.954883,
    6.813,
    10.818223,
    4.905,
    4.281,
    5.806,
    8.409,
    5.286,
    7.545,
    6.263,
    2.649,
    4.019,
    2.267,
    2.48,
    2.871,
    4.37,
    3.74,
    5.261187,
    6.245,
    7.4203,
    6.564127,
    6.223085,
    5.046207,
    3.977,
    6.251,
    12.002,
    5.941,
    4.303206,
    4.227,
    3.373,
    2.88,
    2.821,
    3.152,
    7.082,
    2.886,
    4.721,
    18.928,
    2.903,
    3.268
  ],
  "51200": [
    1.93,
    1.602,
    1.637,
    2.168,
    1.953,
    1.665,
    1.513,
    1.819,
    1.343,
    1.786,
    1.935,
    1.756,
    1.68074,
    0.611,
    0.858,
    1.687,
    1.007,
    1.091,
    1.462478,
    0.951,
    1.189128,
    1.137496,
    1.18,
    1.657,
    1.278,
    1.614,
    1.212,
    1.909,
    1.467,
    1.878,
    1.922,
    1.149,
    2.052,
    1.937114,
    1.703,
    3.436,
    2.372,
    1.858,
    2.004,
    1.485,
    1.237,
    1.434,
    1.424,
    2.249,
    2.376,
    1.965,
    1.485,
    1.726,
    1.531,
    1.483,
    1.15,
    1.796,
    2.73,
    1.517,
    1.977,
    2.783,
    1.79,
    1.89,
    1.529,
    1.838,
    1.516,
    1.651,
    1.663,
    1.748,
    2.097,
    1.455,
    1.274,
    2.053,
    2.245,
    1.92,
    1.74,
    1.617,
    1.1,
    0.97,
    0.894,
    1.246,
    0.753,
    0.775,
    0.903,
    1.525,
    2.242,
    1.284,
    1.119,
    1.261,
    1.098,
    1.273,
    0.976,
    1.471,
    1.21,
    1.242,
    1.59,
    0.889,
    1.635,
    1.506,
    1.892111,
    1.624,
    1.112,
    1.174,
    0.697,
    0.895,
    0.72,
    0.665,
    1.252,
    1.691,
    2.734923,
    1.346,
    0.989,
    2.102,
    2.02,
    1.238,
    1.1,
    1.180582,
    1.294,
    1.165756,
    1.629,
    1.267,
    0.673,
    1.323,
    0.732,
    1.434,
    1.784,
    1.055025,
    1.211,
    1.423,
    1.385,
    1.601616,
    1.449,
    1.741,
    1.984,
    2.646293,
    1.741,
    2.45,
    2.394,
    2.0631,
    1.949,
    1.651,
    1.776,
    2.343,
    1.297,
    1.989,
    2.375,
    2.328,
    1.939,
    2.215,
    2.137,
    1.933,
    1.848,
    1.155882,
    0.848166,
    0.767,
    1.958,
    1.572,
    1.582,
    2.550662,
    1.888107,
    1.496,
    1.196,
    0.933,
    1.146,
    1.368,
    1.71,
    1.043,
    1.44,
    1.346,
    0.775,
    0.717,
    1.63,
    1.297,
    2.575,
    0.972,
    0.956,
    0.816,
    1.52,
    0.716,
    0.736,
    1.461,
    0.639,
    2.189,
    1.1,
    1.523,
    0.466,
    0.918,
    0.645,
    0.528,
    0.441,
    1.046,
    1.999,
    0.735,
    1.283,
    1.361,
    1.827526,
    1.322,
    0.663,
    0.594,
    1.02,
    0.998,
    1.2,
    0.79,
    1.520619,
    2.244,
    1.089,
    1.093,
    0.992,
    1.906,
    1.481,
    1.606,
    1.462,
    1.379,
    2.697,
    1.918,
    1.789,
    1.673,
    2.316,
    2.451,
    2.249,
    1.853,
    1.815,
    1.786,
    1.944583,
    1.987,
    2.444,
    2.075897,
    2.483897,
    2.687,
    1.466,
    2.851,
    1.714,
    2.322,
    2.388,
    2.0,
    1.972,
    2.389,
    1.945,
    1.203,
    1.93,
    1.513,
    1.217,
    1.797,
    2.395,
    1.308,
    1.239,
    2.16301,
    1.623,
    1.853,
    1.911,
    1.208,
    0.631,
    0.90039,
    0.753,
    0.664,
    0.575,
    1.087465,
    1.738,
    0.825,
    1.494,
    0.61,
    1.048,
    1.905,
    1.604,
    1.52,
    1.373,
    2.164,
    2.223,
    1.993,
    2.229,
    2.004,
    2.215,
    1.633,
    1.785,
    1.616,
    1.373,
    0.876,
    1.299,
    1.305,
    1.493,
    1.696,
    0.885,
    1.665,
    0.921,
    1.379,
    2.331,
    1.859,
    1.545,
    2.023,
    1.445,
    1.915,
    1.391,
    1.671,
    1.521,
    1.989,
    3.148,
    2.609626,
    2.69,
    2.375,
    2.953,
    2.190022,
    2.11,
    1.773,
    2.032,
    0.764,
    1.172,
    1.439,
    0.805,
    0.608,
    1.624,
    1.297124,
    1.266,
    0.723,
    0.766,
    1.797,
    1.312103,
    1.099,
    1.085,
    0.859,
    0.773,
    0.704,
    1.493,
    0.998,
    0.8,
    0.732,
    1.531,
    1.598,
    1.841223,
    1.105,
    1.434,
    2.004,
    2.637,
    1.903,
    1.556,
    1.673,
    1.968,
    2.21,
    1.511,
    1.89,
    2.051,
    1.991,
    1.989,
    2.902,
    1.736844,
    1.617,
    1.905,
    1.523,
    1.416,
    1.396,
    2.096119,
    1.706,
    1.874298,
    1.756,
    1.531848,
    2.295,
    2.481929,
    2.008,
    1.971,
    1.994,
    2.75,
    2.186,
    1.431,
    2.239695,
    1.533,
    3.263,
    1.797,
    1.576752,
    1.436,
    2.543876,
    2.584,
    2.306742,
    2.116967,
    1.955,
    1.580921,
    1.913,
    1.139,
    1.408442,
    1.174,
    1.597,
    2.221,
    2.777,
    1.857,
    1.972,
    1.674,
    1.135,
    1.772,
    1.001,
    0.592,
    1.523,
    1.168,
    1.049,
    0.931,
    1.516,
    1.137,
    0.58,
    0.875,
    0.796,
    0.924,
    1.242,
    1.121314,
    2.15884,
    1.717,
    1.317808,
    1.84812,
    1.083457,
    1.91,
    1.04,
    1.081,
    0.802,
    1.055,
    0.691,
    0.534,
    1.206,
    0.837694,
    0.786,
    0.889,
    0.777,
    1.389,
    1.883206,
    1.246,
    1.475,
    1.026,
    1.906,
    1.457,
    1.738,
    2.16,
    1.401,
    1.996,
    1.712,
    1.841,
    1.462,
    1.476,
    2.011,
    2.565,
    3.488,
    1.97,
    1.16,
    0.811,
    1.339,
    0.705,
    1.089,
    1.243,
    0.95,
    0.714,
    1.346,
    1.176,
    1.363,
    0.836,
    0.812,
    1.283,
    1.224,
    0.815,
    0.547,
    1.745,
    0.728,
    1.302,
    1.86,
    1.707,
    1.028,
    1.02,
    0.67,
    0.641,
    0.973,
    1.077403,
    0.704,
    1.458,
    0.808,
    1.535,
    1.824,
    1.167515,
    1.084,
    0.947,
    2.398,
    1.531,
    1.223,
    1.827,
    1.492,
    1.292,
    1.363,
    1.86,
    2.233,
    1.661,
    1.825,
    1.58,
    1.15,
    1.563,
    1.255,
    1.662,
    0.69,
    1.133,
    1.383,
    2.482,
    0.843,
    0.719,
    0.889,
    3.339,
    1.26,
    0.972,
    1.16,
    0.84,
    1.492,
    0.884494,
    0.691,
    1.036,
    1.479,
    2.042,
    1.661,
    1.613,
    1.025,
    1.386,
    1.536,
    1.278,
    1.22714,
    2.422,
    1.537474,
    1.707,
    1.937,
    2.304,
    1.967,
    1.795,
    1.662,
    0.67,
    1.464,
    0.828,
    0.553,
    1.133,
    1.244,
    0.618,
    0.631,
    1.869,
    0.949,
    1.046,
    1.945876,
    0.729897,
    0.473,
    0.968,
    0.842103,
    1.273876,
    1.353876,
    2.221,
    1.101103,
    1.003208,
    1.102,
    0.719,
    0.666,
    1.495,
    1.374,
    2.158413,
    1.489,
    0.859,
    1.835404,
    1.251,
    1.205,
    0.847,
    1.141,
    0.578,
    1.02,
    1.514,
    1.784,
    0.533,
    1.364,
    0.856,
    1.374,
    0.756,
    1.325138,
    1.872,
    1.055056,
    1.098,
    1.26,
    1.06717,
    0.612,
    1.325,
    0.887,
    1.946,
    1.265,
    1.179,
    1.181,
    0.856903,
    1.77678,
    1.954,
    1.891,
    1.278,
    1.854,
    1.240222,
    0.853,
    1.152,
    0.823,
    0.901,
    0.651,
    2.051,
    2.118866,
    0.984484,
    0.980651,
    1.58,
    1.916,
    1.241,
    1.803,
    0.949481,
    0.923,
    0.708,
    1.142,
    1.397,
    0.519,
    0.596,
    1.236,
    1.914,
    0.799,
    1.361,
    1.373,
    1.595,
    1.748612,
    1.079,
    1.667,
    1.71,
    1.475,
    1.337,
    1.245,
    1.884,
    2.619,
    2.265,
    1.447,
    2.588,
    1.82,
    2.279,
    1.723,
    1.852,
    2.067,
    1.484,
    1.368,
    1.277,
    1.799,
    1.678,
    1.389,
    2.089,
    1.6,
    3.245,
    2.097,
    1.911,
    1.11395,
    1.608913,
    1.145942,
    0.87,
    0.610464,
    1.225567,
    1.541,
    1.46,
    1.661126,
    0.824,
    1.558832,
    1.855662,
    1.363812,
    1.207,
    3.061,
    1.338,
    2.613,
    1.449,
    1.297,
    1.954,
    1.84,
    2.265,
    1.59,
    1.365,
    2.116,
    2.798,
    1.828,
    2.128,
    1.67,
    1.816,
    1.692,
    1.935,
    1.473,
    2.312,
    2.446,
    1.575,
    1.342,
    1.437,
    1.959,
    2.208,
    1.685,
    1.811,
    1.015,
    0.896,
    1.649,
    0.733,
    0.896,
    1.666,
    2.085,
    1.56,
    0.707,
    2.039,
    1.447,
    1.167,
    0.67,
    1.073,
    0.597,
    1.713,
    1.553,
    0.871,
    0.759,
    1.55,
    0.752,
    1.366,
    1.93432,
    1.066305,
    0.869883,
    0.957,
    1.028337,
    0.675,
    0.59909,
    1.087013,
    0.811,
    0.856,
    0.765,
    1.855899,
    1.434,
    1.121977,
    1.929095,
    1.345,
    1.779,
    1.583,
    2.217175,
    1.894,
    1.89,
    3.179,
    1.519133,
    2.272796,
    1.995,
    2.573,
    2.088,
    2.0,
    1.706,
    1.456,
    1.155,
    1.77,
    1.249,
    1.151,
    1.935,
    1.201,
    2.011,
    2.266,
    1.586,
    2.395,
    1.738,
    2.235,
    1.759,
    1.672,
    1.647,
    2.214,
    1.519,
    2.075,
    1.372,
    2.113,
    3.279221,
    1.83,
    1.706,
    2.059,
    1.531793,
    2.036244,
    1.446,
    1.585,
    1.566047,
    2.112,
    2.053,
    1.596,
    1.72,
    2.287,
    2.022,
    2.199,
    1.105309,
    0.679,
    1.76,
    1.576,
    1.245,
    1.277,
    0.884,
    0.793,
    0.685,
    1.338567,
    1.263,
    1.133,
    1.061,
    1.106478,
    1.462,
    1.586597,
    0.53,
    0.556103,
    1.088388,
    1.381103,
    0.604,
    0.739,
    0.842897,
    1.375897,
    0.832103,
    1.101,
    0.931103,
    0.932,
    0.734,
    1.041,
    0.562,
    1.648,
    1.265,
    1.646,
    1.319103,
    2.136,
    1.272,
    1.911,
    1.762,
    1.004,
    0.726,
    1.022,
    0.741,
    1.672,
    0.586,
    1.202,
    1.225,
    1.649,
    0.736,
    0.735,
    1.798,
    1.055692,
    1.093,
    1.259371,
    0.713,
    0.951,
    0.78,
    0.603,
    0.741615,
    1.162241,
    1.805,
    0.74149,
    1.476,
    1.368,
    2.983,
    0.987694,
    1.142091,
    1.067,
    1.14,
    0.634,
    1.185,
    0.691,
    1.084,
    1.478,
    1.379,
    1.366468,
    0.844,
    0.731155,
    1.27,
    2.163,
    1.146,
    1.071,
    1.002869,
    1.329,
    1.418094,
    2.149805,
    1.331762,
    0.972,
    0.998694,
    1.905053,
    1.592545,
    0.682,
    1.107,
    0.776,
    1.662,
    1.666,
    1.10404,
    1.033,
    1.506,
    1.403,
    1.13,
    0.936,
    1.695,
    1.858,
    1.326,
    2.032,
    1.336,
    1.754,
    1.545,
    1.51,
    1.522,
    1.939,
    2.229,
    1.861,
    1.964,
    1.131,
    1.066,
    0.82,
    1.611,
    0.587,
    1.072696,
    2.214076,
    0.97,
    1.582,
    1.743,
    1.311,
    1.137725,
    1.707,
    1.192,
    0.748,
    1.408,
    0.649,
    0.978,
    1.616,
    0.897,
    2.211,
    2.031,
    1.097,
    1.159,
    1.095103,
    0.859,
    1.717,
    0.985,
    0.697,
    1.247,
    1.096,
    1.496,
    1.337,
    1.612,
    0.785,
    1.468,
    1.825,
    1.284,
    1.66,
    1.403,
    1.983,
    1.418,
    2.377,
    1.203,
    2.635754,
    2.487,
    1.296,
    1.864,
    1.949,
    2.231,
    1.769,
    1.764,
    1.703,
    1.145,
    0.755,
    1.028,
    1.453,
    1.908522,
    1.175,
    1.511921,
    1.381751,
    2.003,
    1.491864,
    1.797074,
    1.012,
    0.844,
    1.185,
    0.896,
    0.72,
    1.525,
    1.176,
    1.108,
    1.045,
    0.701,
    1.709,
    1.052,
    1.099,
    1.95,
    1.401,
    2.012,
    1.561,
    2.33919,
    1.574,
    1.947,
    2.366,
    1.693,
    1.51,
    2.713,
    1.846,
    1.844,
    2.325,
    2.135,
    1.719,
    2.188,
    1.58,
    1.965897,
    2.59,
    2.176,
    2.635,
    1.664,
    2.408,
    2.659354,
    1.716,
    1.725245,
    1.68,
    1.951,
    2.276,
    1.817698,
    1.483,
    1.478,
    1.524,
    1.798,
    2.91,
    1.645,
    1.880006,
    4.888,
    2.01,
    3.488,
    2.108889,
    3.434,
    1.111,
    0.968,
    0.572,
    0.538,
    1.712,
    2.117972,
    1.84,
    1.449,
    0.713,
    1.443,
    1.818,
    1.063154,
    1.537,
    1.081
  ],
  "5242880": [
    12.295,
    19.909,
    18.011,
    10.07,
    6.064,
    11.608,
    9.029,
    10.18,
    17.435,
    12.4,
    8.333,
    8.786,
    7.844,
    20.622,
    17.432,
    15.494,
    15.042,
    7.733,
    12.083,
    9.022,
    7.636,
    12.885,
    10.339,
    9.02,
    16.137,
    8.664,
    8.127,
    12.439,
    6.541,
    9.785597,
    19.276,
    13.707,
    11.484559,
    10.988288,
    9.182,
    20.159,
    12.07,
    11.953,
    9.692388,
    14.996,
    6.602,
    23.742805,
    9.743,
    17.357,
    10.323,
    12.314,
    8.291,
    10.188,
    9.359,
    23.883,
    9.779,
    9.479,
    18.557876,
    15.899,
    91.815
  ],
  "ALL": [
    1.93,
    1.602,
    1.637,
    2.168,
    1.953,
    1.665,
    1.513,
    1.819,
    1.343,
    1.786,
    1.935,
    1.756,
    7.215,
    7.856,
    7.261,
    1.68074,
    0.611,
    0.858,
    1.687,
    1.007,
    1.091,
    1.462478,
    0.951,
    1.189128,
    1.137496,
    1.18,
    4.847078,
    3.609105,
    3.814,
    1.657,
    1.278,
    1.614,
    1.212,
    1.909,
    1.467,
    1.878,
    1.922,
    1.149,
    2.052,
    1.937114,
    1.703,
    3.436,
    5.863,
    6.157,
    12.295,
    2.372,
    1.858,
    2.004,
    1.485,
    1.237,
    1.434,
    1.424,
    2.249,
    2.376,
    1.965,
    1.485,
    5.769,
    6.707,
    7.106,
    7.22,
    1.726,
    1.531,
    1.483,
    1.15,
    1.796,
    2.73,
    1.517,
    1.977,
    2.783,
    1.79,
    1.89,
    1.529,
    7.484,
    8.853,
    19.909,
    1.838,
    1.516,
    1.651,
    1.663,
    1.748,
    2.097,
    1.455,
    1.274,
    2.053,
    2.245,
    1.92,
    1.74,
    1.617,
    8.428,
    5.259,
    18.011,
    1.1,
    0.97,
    0.894,
    1.246,
    0.753,
    0.775,
    0.903,
    1.525,
    2.242,
    1.284,
    1.119,
    3.452,
    3.155,
    2.194,
    10.07,
    6.064,
    1.261,
    1.098,
    1.273,
    0.976,
    1.471,
    1.21,
    1.242,
    1.59,
    0.889,
    1.635,
    1.506,
    1.892111,
    1.624,
    1.112,
    5.258,
    1.174,
    0.697,
    0.895,
    0.72,
    0.665,
    1.252,
    1.691,
    2.734923,
    1.346,
    0.989,
    2.102,
    2.02,
    1.238,
    1.1,
    3.262,
    3.142,
    1.180582,
    1.294,
    1.165756,
    1.629,
    1.267,
    0.673,
    1.323,
    0.732,
    1.434,
    1.784,
    1.055025,
    1.211,
    1.423,
    4.504,
    4.008,
    11.608,
    1.385,
    1.601616,
    1.449,
    1.741,
    1.984,
    2.646293,
    1.741,
    2.45,
    2.394,
    2.0631,
    6.413,
    6.393064,
    9.34,
    7.633,
    5.529,
    1.949,
    1.651,
    1.776,
    2.343,
    1.297,
    1.989,
    2.375,
    2.328,
    1.939,
    2.215,
    2.137,
    1.933,
    7.401,
    4.916,
    5.703,
    6.53,
    1.848,
    1.155882,
    0.848166,
    0.767,
    1.958,
    1.572,
    1.582,
    2.550662,
    1.888107,
    1.496,
    3.834,
    3.764591,
    6.179,
    3.115,
    9.029,
    10.18,
    1.196,
    0.933,
    1.146,
    1.368,
    1.71,
    1.043,
    1.44,
    1.346,
    0.775,
    0.717,
    1.63,
    1.297,
    2.575,
    0.972,
    4.598,
    17.435,
    0.956,
    0.816,
    1.52,
    0.716,
    0.736,
    1.461,
    0.639,
    2.189,
    1.1,
    1.523,
    3.766,
    2.937756,
    2.535,
    12.4,
    8.333,
    8.786,
    0.466,
    0.918,
    0.645,
    0.528,
    0.441,
    1.046,
    1.999,
    0.735,
    1.283,
    1.361,
    1.827526,
    1.322,
    2.282,
    2.415,
    3.281,
    2.82,
    0.663,
    0.594,
    1.02,
    0.998,
    1.2,
    0.79,
    1.520619,
    2.244,
    1.089,
    1.093,
    0.992,
    4.476,
    2.109,
    2.064,
    2.403,
    7.844,
    1.906,
    1.481,
    1.606,
    1.462,
    1.379,
    2.697,
    1.918,
    1.789,
    1.673,
    2.316,
    2.451,
    2.249,
    1.853,
    1.815,
    1.786,
    9.779,
    1.944583,
    1.987,
    2.444,
    2.075897,
    2.483897,
    2.687,
    1.466,
    2.851,
    1.714,
    2.322,
    2.388,
    2.0,
    1.972,
    2.389,
    5.786,
    6.451,
    1.945,
    1.203,
    1.93,
    1.513,
    1.217,
    1.797,
    2.395,
    1.308,
    1.239,
    2.16301,
    1.623,
    1.853,
    1.911,
    5.365,
    5.757,
    5.817,
    1.208,
    0.631,
    0.90039,
    0.753,
    0.664,
    0.575,
    1.087465,
    1.738,
    0.825,
    1.494,
    0.61,
    1.048,
    1.905,
    4.165,
    3.589,
    4.449,
    1.604,
    1.52,
    1.373,
    2.164,
    2.223,
    1.993,
    2.229,
    2.004,
    2.215,
    1.633,
    1.785,
    1.616,
    7.535,
    20.622,
    1.373,
    0.876,
    1.299,
    1.305,
    1.493,
    1.696,
    0.885,
    1.665,
    0.921,
    1.379,
    2.331,
    1.859,
    1.545,
    3.733,
    4.192,
    17.432,
    2.023,
    1.445,
    1.915,
    1.391,
    1.671,
    1.521,
    1.989,
    3.148,
    2.609626,
    2.69,
    2.375,
    2.953,
    2.190022,
    2.11,
    1.773,
    10.06796,
    2.032,
    0.764,
    1.172,
    1.439,
    0.805,
    0.608,
    1.624,
    1.297124,
    1.266,
    0.723,
    0.766,
    1.797,
    1.312103,
    1.099,
    2.707,
    3.949903,
    1.085,
    0.859,
    0.773,
    0.704,
    1.493,
    0.998,
    0.8,
    0.732,
    1.531,
    1.598,
    1.841223,
    1.105,
    1.434,
    3.215,
    3.155,
    2.004,
    2.637,
    1.903,
    1.556,
    1.673,
    1.968,
    2.21,
    1.511,
    1.89,
    2.051,
    1.991,
    1.989,
    2.902,
    5.724,
    7.88,
    1.736844,
    1.617,
    1.905,
    1.523,
    1.416,
    1.396,
    2.096119,
    1.706,
    1.874298,
    1.756,
    1.531848,
    2.295,
    2.481929,
    2.008,
    1.971,
    15.494,
    1.994,
    2.75,
    2.186,
    1.431,
    2.239695,
    1.533,
    3.263,
    1.797,
    1.576752,
    1.436,
    2.543876,
    2.584,
    2.306742,
    2.116967,
    1.955,
    6.536263,
    1.580921,
    1.913,
    1.139,
    1.408442,
    1.174,
    1.597,
    2.221,
    2.777,
    1.857,
    1.972,
    1.674,
    5.131,
    4.900781,
    5.17249,
    1.135,
    1.772,
    1.001,
    0.592,
    1.523,
    1.168,
    1.049,
    0.931,
    1.516,
    4.904,
    2.989,
    4.072,
    3.743,
    15.042,
    7.733,
    12.083,
    1.137,
    0.58,
    0.875,
    0.796,
    0.924,
    1.242,
    1.121314,
    2.15884,
    1.717,
    1.317808,
    1.84812,
    1.083457,
    1.91,
    1.04,
    2.53,
    9.022,
    1.081,
    0.802,
    1.055,
    0.691,
    0.534,
    1.206,
    0.837694,
    0.786,
    0.889,
    0.777,
    1.389,
    1.883206,
    1.246,
    1.475,
    1.026,
    1.906,
    1.457,
    1.738,
    2.16,
    1.401,
    1.996,
    1.712,
    1.841,
    1.462,
    1.476,
    2.011,
    2.565,
    3.488,
    1.97,
    5.948,
    6.137,
    1.16,
    0.811,
    1.339,
    0.705,
    1.089,
    1.243,
    0.95,
    0.714,
    1.346,
    1.176,
    1.363,
    0.836,
    6.477,
    2.359,
    2.867,
    3.587,
    0.812,
    1.283,
    1.224,
    0.815,
    0.547,
    1.745,
    0.728,
    1.302,
    1.86,
    1.707,
    1.028,
    2.737,
    2.68,
    3.26,
    7.636,
    1.02,
    0.67,
    0.641,
    0.973,
    1.077403,
    0.704,
    1.458,
    0.808,
    1.535,
    1.824,
    1.167515,
    1.084,
    0.947,
    2.598,
    2.207,
    2.904,
    2.398,
    1.531,
    1.223,
    1.827,
    1.492,
    1.292,
    1.363,
    1.86,
    2.233,
    1.661,
    1.825,
    1.58,
    7.545,
    12.885,
    1.15,
    1.563,
    1.255,
    1.662,
    0.69,
    1.133,
    1.383,
    2.482,
    0.843,
    0.719,
    0.889,
    3.339,
    1.26,
    0.972,
    3.587,
    10.339,
    1.16,
    0.84,
    1.492,
    0.884494,
    0.691,
    1.036,
    1.479,
    2.042,
    1.661,
    1.613,
    1.025,
    5.974,
    3.258,
    2.93,
    4.447,
    9.02,
    1.386,
    1.536,
    1.278,
    1.22714,
    2.422,
    1.537474,
    1.707,
    1.937,
    2.304,
    1.967,
    1.795,
    1.662,
    5.643,
    5.1,
    4.751,
    16.137,
    0.67,
    1.464,
    0.828,
    0.553,
    1.133,
    1.244,
    0.618,
    0.631,
    1.869,
    0.949,
    1.046,
    6.345,
    2.931,
    8.664,
    8.127,
    12.439,
    1.945876,
    0.729897,
    0.473,
    0.968,
    0.842103,
    1.273876,
    1.353876,
    2.221,
    1.101103,
    1.003208,
    3.755897,
    2.281897,
    5.043156,
    3.6,
    6.541,
    9.785597,
    1.102,
    0.719,
    0.666,
    1.495,
    1.374,
    2.158413,
    1.489,
    0.859,
    1.835404,
    1.251,
    1.205,
    0.847,
    4.209,
    1.697,
    2.882,
    19.276,
    1.141,
    0.578,
    1.02,
    1.514,
    1.784,
    0.533,
    1.364,
    0.856,
    1.374,
    0.756,
    1.325138,
    1.872,
    1.055056,
    1.098,
    1.26,
    2.945,
    1.06717,
    0.612,
    1.325,
    0.887,
    1.946,
    1.265,
    1.179,
    1.181,
    0.856903,
    1.77678,
    1.954,
    1.891,
    1.278,
    1.854,
    2.277,
    7.025,
    1.240222,
    0.853,
    1.152,
    0.823,
    0.901,
    0.651,
    2.051,
    2.118866,
    0.984484,
    0.980651,
    1.58,
    1.916,
    1.241,
    1.803,
    0.949481,
    4.538,
    0.923,
    0.708,
    1.142,
    1.397,
    0.519,
    0.596,
    1.236,
    1.914,
    0.799,
    1.361,
    1.373,
    1.595,
    1.748612,
    1.079,
    6.691,
    1.667,
    1.71,
    1.475,
    1.337,
    1.245,
    1.884,
    2.619,
    2.265,
    1.447,
    2.588,
    1.82,
    2.279,
    1.723,
    1.852,
    5.715,
    6.481,
    2.067,
    1.484,
    1.368,
    1.277,
    1.799,
    1.678,
    1.389,
    2.089,
    1.6,
    3.245,
    2.097,
    1.911,
    6.381,
    13.707,
    1.11395,
    1.608913,
    1.145942,
    0.87,
    0.610464,
    1.225567,
    1.541,
    1.46,
    1.661126,
    0.824,
    1.558832,
    1.855662,
    1.363812,
    1.207,
    11.484559,
    10.988288,
    3.061,
    1.338,
    2.613,
    1.449,
    1.297,
    1.954,
    1.84,
    2.265,
    1.59,
    1.365,
    2.116,
    2.798,
    1.828,
    2.128,
    1.67,
    6.137,
    1.816,
    1.692,
    1.935,
    1.473,
    2.312,
    2.446,
    1.575,
    1.342,
    1.437,
    1.959,
    2.208,
    1.685,
    1.811,
    5.444,
    6.375,
    1.015,
    0.896,
    1.649,
    0.733,
    0.896,
    1.666,
    2.085,
    1.56,
    0.707,
    2.039,
    1.447,
    2.952,
    3.443,
    9.182,
    20.159,
    1.167,
    0.67,
    1.073,
    0.597,
    1.713,
    1.553,
    0.871,
    0.759,
    1.55,
    0.752,
    1.366,
    1.93432,
    1.066305,
    2.678,
    0.869883,
    0.957,
    1.028337,
    0.675,
    0.59909,
    1.087013,
    0.811,
    0.856,
    0.765,
    1.855899,
    1.434,
    1.121977,
    2.666,
    1.989,
    3.954883,
    12.07,
    1.929095,
    1.345,
    1.779,
    1.583,
    2.217175,
    1.894,
    1.89,
    3.179,
    1.519133,
    2.272796,
    1.995,
    2.573,
    2.088,
    2.0,
    1.706,
    1.456,
    1.155,
    1.77,
    1.249,
    1.151,
    1.935,
    1.201,
    2.011,
    2.266,
    1.586,
    2.395,
    6.813,
    10.818223,
    4.905,
    4.281,
    5.806,
    1.738,
    2.235,
    1.759,
    1.672,
    1.647,
    2.214,
    1.519,
    2.075,
    1.372,
    2.113,
    3.279221,
    1.83,
    1.706,
    8.409,
    11.953,
    2.059,
    1.531793,
    2.036244,
    1.446,
    1.585,
    1.566047,
    2.112,
    2.053,
    1.596,
    1.72,
    2.287,
    2.022,
    2.199,
    5.286,
    7.545,
    6.263,
    1.105309,
    0.679,
    1.76,
    1.576,
    1.245,
    1.277,
    0.884,
    0.793,
    0.685,
    1.338567,
    1.263,
    1.133,
    1.061,
    2.649,
    4.019,
    1.106478,
    1.462,
    1.586597,
    0.53,
    0.556103,
    1.088388,
    1.381103,
    0.604,
    0.739,
    0.842897,
    1.375897,
    0.832103,
    1.101,
    0.931103,
    2.267,
    9.692388,
    0.932,
    0.734,
    1.041,
    0.562,
    1.648,
    1.265,
    1.646,
    1.319103,
    2.136,
    1.272,
    1.911,
    1.762,
    2.48,
    2.871,
    4.37,
    14.996,
    1.004,
    0.726,
    1.022,
    0.741,
    1.672,
    0.586,
    1.202,
    1.225,
    1.649,
    0.736,
    0.735,
    1.798,
    1.055692,
    1.093,
    3.74,
    1.259371,
    0.713,
    0.951,
    0.78,
    0.603,
    0.741615,
    1.162241,
    1.805,
    0.74149,
    1.476,
    1.368,
    2.983,
    0.987694,
    1.142091,
    1.067,
    6.602,
    1.14,
    0.634,
    1.185,
    0.691,
    1.084,
    1.478,
    1.379,
    1.366468,
    0.844,
    0.731155,
    1.27,
    2.163,
    1.146,
    1.071,
    1.002869,
    5.261187,
    1.329,
    1.418094,
    2.149805,
    1.331762,
    0.972,
    0.998694,
    1.905053,
    1.592545,
    6.245,
    7.4203,
    6.564127,
    6.223085,
    5.046207,
    23.742805,
    0.682,
    1.107,
    0.776,
    1.662,
    1.666,
    1.10404,
    1.033,
    1.506,
    1.403,
    1.13,
    0.936,
    3.977,
    6.251,
    9.743,
    17.357,
    1.695,
    1.858,
    1.326,
    2.032,
    1.336,
    1.754,
    1.545,
    1.51,
    1.522,
    1.939,
    2.229,
    1.861,
    1.964,
    12.002,
    1.131,
    1.066,
    0.82,
    1.611,
    0.587,
    1.072696,
    2.214076,
    0.97,
    1.582,
    1.743,
    1.311,
    1.137725,
    1.707,
    5.941,
    10.323,
    12.314,
    1.192,
    0.748,
    1.408,
    0.649,
    0.978,
    1.616,
    0.897,
    2.211,
    2.031,
    1.097,
    1.159,
    4.303206,
    4.227,
    8.291,
    10.188,
    1.095103,
    0.859,
    1.717,
    0.985,
    0.697,
    1.247,
    1.096,
    1.496,
    1.337,
    1.612,
    0.785,
    1.468,
    1.825,
    1.284,
    3.373,
    9.359,
    1.66,
    1.403,
    1.983,
    1.418,
    2.377,
    1.203,
    2.635754,
    2.487,
    1.296,
    1.864,
    1.949,
    2.231,
    1.769,
    1.764,
    1.703,
    23.883,
    1.145,
    0.755,
    1.028,
    1.453,
    1.908522,
    1.175,
    1.511921,
    1.381751,
    2.003,
    1.491864,
    1.797074,
    1.012,
    0.844,
    2.88,
    2.821,
    3.152,
    1.185,
    0.896,
    0.72,
    1.525,
    1.176,
    1.108,
    1.045,
    0.701,
    1.709,
    1.052,
    1.099,
    7.082,
    2.886,
    4.721,
    9.779,
    9.479,
    1.95,
    1.401,
    2.012,
    1.561,
    2.33919,
    1.574,
    1.947,
    2.366,
    1.693,
    1.51,
    2.713,
    1.846,
    1.844,
    2.325,
    18.557876,
    2.135,
    1.719,
    2.188,
    1.58,
    1.965897,
    2.59,
    2.176,
    2.635,
    1.664,
    2.408,
    2.659354,
    1.716,
    1.725245,
    1.68,
    15.899,
    91.815,
    1.951,
    2.276,
    1.817698,
    1.483,
    1.478,
    1.524,
    1.798,
    2.91,
    1.645,
    1.880006,
    4.888,
    2.01,
    3.488,
    2.108889,
    3.434,
    18.928,
    1.111,
    0.968,
    0.572,
    0.538,
    1.712,
    2.117972,
    1.84,
    1.449,
    0.713,
    1.443,
    1.818,
    1.063154,
    1.537,
    1.081,
    2.903,
    3.268
  ]
}